時系列データ/data_kai_だめ/chair.csv

Channel              :,CH1
Frequency            :,  ?
Period               :,  ?
PK-PK                :,50.78mV
Probe attenuation    :,10X
Voltage per ADC value:,0.122070mV
Time interval        :,400.00000us

index,CH1_Voltage(mV)
1,83.984375
2,83.984375
3,87.890625
4,85.937500
5,87.890625
6,85.937500
7,85.937500
8,89.843750
9,87.890625
10,85.937500
11,85.937500
12,85.937500
13,87.890625
14,85.937500
15,85.937500
16,85.937500
17,85.937500
18,89.843750
19,85.937500
20,87.890625
21,87.890625
22,87.890625
23,87.890625
24,85.937500
25,89.843750
26,85.937500
27,89.843750
28,89.843750
29,91.796875
30,89.843750
31,87.890625
32,85.937500
33,87.890625
34,87.890625
35,87.890625
36,87.890625
37,89.843750
38,87.890625
39,85.937500
40,87.890625
41,85.937500
42,87.890625
43,85.937500
44,85.937500
45,85.937500
46,83.984375
47,89.843750
48,85.937500
49,85.937500
50,83.984375
51,83.984375
52,85.937500
53,83.984375
54,85.937500
55,87.890625
56,83.984375
57,85.937500
58,85.937500
59,85.937500
60,85.937500
61,85.937500
62,85.937500
63,83.984375
64,83.984375
65,83.984375
66,87.890625
67,85.937500
68,85.937500
69,85.937500
70,85.937500
71,87.890625
72,85.937500
73,91.796875
74,87.890625
75,87.890625
76,87.890625
77,83.984375
78,87.890625
79,85.937500
80,87.890625
81,85.937500
82,85.937500
83,85.937500
84,85.937500
85,87.890625
86,85.937500
87,85.937500
88,85.937500
89,83.984375
90,83.984375
91,83.984375
92,83.984375
93,83.984375
94,83.984375
95,85.937500
96,83.984375
97,83.984375
98,85.937500
99,85.937500
100,83.984375
101,87.890625
102,85.937500
103,85.937500
104,85.937500
105,87.890625
106,83.984375
107,87.890625
108,87.890625
109,87.890625
110,83.984375
111,83.984375
112,83.984375
113,83.984375
114,89.843750
115,85.937500
116,87.890625
117,85.937500
118,89.843750
119,87.890625
120,85.937500
121,87.890625
122,85.937500
123,89.843750
124,85.937500
125,87.890625
126,89.843750
127,83.984375
128,87.890625
129,83.984375
130,83.984375
131,85.937500
132,85.937500
133,83.984375
134,83.984375
135,83.984375
136,83.984375
137,85.937500
138,83.984375
139,85.937500
140,83.984375
141,83.984375
142,83.984375
143,83.984375
144,83.984375
145,82.031250
146,82.031250
147,83.984375
148,83.984375
149,83.984375
150,80.078125
151,91.796875
152,80.078125
153,83.984375
154,80.078125
155,80.078125
156,83.984375
157,80.078125
158,83.984375
159,80.078125
160,83.984375
161,82.031250
162,80.078125
163,76.171875
164,83.984375
165,80.078125
166,83.984375
167,83.984375
168,83.984375
169,83.984375
170,83.984375
171,83.984375
172,85.937500
173,85.937500
174,83.984375
175,83.984375
176,83.984375
177,87.890625
178,83.984375
179,82.031250
180,83.984375
181,83.984375
182,83.984375
183,85.937500
184,80.078125
185,83.984375
186,83.984375
187,83.984375
188,83.984375
189,83.984375
190,82.031250
191,83.984375
192,82.031250
193,83.984375
194,85.937500
195,83.984375
196,83.984375
197,82.031250
198,83.984375
199,82.031250
200,80.078125
201,83.984375
202,80.078125
203,83.984375
204,80.078125
205,83.984375
206,83.984375
207,83.984375
208,83.984375
209,83.984375
210,80.078125
211,80.078125
212,80.078125
213,83.984375
214,83.984375
215,83.984375
216,83.984375
217,83.984375
218,80.078125
219,80.078125
220,80.078125
221,80.078125
222,80.078125
223,80.078125
224,80.078125
225,78.125000
226,74.218750
227,76.171875
228,80.078125
229,80.078125
230,80.078125
231,78.125000
232,80.078125
233,78.125000
234,78.125000
235,80.078125
236,80.078125
237,76.171875
238,80.078125
239,80.078125
240,80.078125
241,82.031250
242,78.125000
243,80.078125
244,80.078125
245,80.078125
246,80.078125
247,80.078125
248,78.125000
249,80.078125
250,80.078125
251,80.078125
252,80.078125
253,82.031250
254,80.078125
255,83.984375
256,80.078125
257,83.984375
258,80.078125
259,78.125000
260,83.984375
261,80.078125
262,82.031250
263,83.984375
264,83.984375
265,83.984375
266,83.984375
267,83.984375
268,83.984375
269,83.984375
270,83.984375
271,85.937500
272,85.937500
273,83.984375
274,85.937500
275,80.078125
276,85.937500
277,85.937500
278,83.984375
279,85.937500
280,83.984375
281,83.984375
282,83.984375
283,83.984375
284,85.937500
285,83.984375
286,83.984375
287,83.984375
288,83.984375
289,83.984375
290,83.984375
291,83.984375
292,80.078125
293,80.078125
294,80.078125
295,80.078125
296,83.984375
297,80.078125
298,80.078125
299,80.078125
300,78.125000
301,76.171875
302,76.171875
303,78.125000
304,76.171875
305,78.125000
306,80.078125
307,78.125000
308,83.984375
309,80.078125
310,80.078125
311,80.078125
312,80.078125
313,80.078125
314,80.078125
315,82.031250
316,83.984375
317,83.984375
318,83.984375
319,83.984375
320,83.984375
321,83.984375
322,83.984375
323,83.984375
324,85.937500
325,83.984375
326,85.937500
327,87.890625
328,85.937500
329,87.890625
330,87.890625
331,83.984375
332,87.890625
333,89.843750
334,85.937500
335,87.890625
336,89.843750
337,87.890625
338,85.937500
339,87.890625
340,89.843750
341,85.937500
342,83.984375
343,83.984375
344,85.937500
345,83.984375
346,85.937500
347,83.984375
348,83.984375
349,85.937500
350,85.937500
351,85.937500
352,83.984375
353,85.937500
354,83.984375
355,83.984375
356,85.937500
357,83.984375
358,83.984375
359,85.937500
360,83.984375
361,83.984375
362,83.984375
363,83.984375
364,83.984375
365,83.984375
366,83.984375
367,83.984375
368,85.937500
369,83.984375
370,83.984375
371,83.984375
372,83.984375
373,83.984375
374,83.984375
375,85.937500
376,83.984375
377,85.937500
378,83.984375
379,85.937500
380,83.984375
381,83.984375
382,83.984375
383,83.984375
384,83.984375
385,83.984375
386,83.984375
387,83.984375
388,80.078125
389,83.984375
390,82.031250
391,83.984375
392,83.984375
393,83.984375
394,83.984375
395,80.078125
396,83.984375
397,83.984375
398,83.984375
399,83.984375
400,78.125000
401,83.984375
402,83.984375
403,83.984375
404,83.984375
405,83.984375
406,89.843750
407,83.984375
408,85.937500
409,85.937500
410,85.937500
411,87.890625
412,85.937500
413,85.937500
414,83.984375
415,87.890625
416,85.937500
417,85.937500
418,87.890625
419,85.937500
420,87.890625
421,87.890625
422,87.890625
423,89.843750
424,85.937500
425,87.890625
426,85.937500
427,89.843750
428,89.843750
429,87.890625
430,87.890625
431,85.937500
432,89.843750
433,89.843750
434,87.890625
435,87.890625
436,85.937500
437,89.843750
438,89.843750
439,83.984375
440,89.843750
441,85.937500
442,87.890625
443,87.890625
444,83.984375
445,89.843750
446,85.937500
447,87.890625
448,85.937500
449,87.890625
450,87.890625
451,85.937500
452,89.843750
453,87.890625
454,89.843750
455,89.843750
456,87.890625
457,89.843750
458,87.890625
459,91.796875
460,89.843750
461,89.843750
462,91.796875
463,91.796875
464,91.796875
465,91.796875
466,91.796875
467,89.843750
468,91.796875
469,91.796875
470,91.796875
471,91.796875
472,91.796875
473,91.796875
474,89.843750
475,91.796875
476,91.796875
477,89.843750
478,91.796875
479,91.796875
480,91.796875
481,91.796875
482,89.843750
483,91.796875
484,89.843750
485,85.937500
486,91.796875
487,91.796875
488,91.796875
489,89.843750
490,89.843750
491,87.890625
492,91.796875
493,87.890625
494,85.937500
495,89.843750
496,85.937500
497,85.937500
498,85.937500
499,83.984375
500,85.937500
501,83.984375
502,85.937500
503,85.937500
504,85.937500
505,87.890625
506,83.984375
507,85.937500
508,85.937500
509,83.984375
510,85.937500
511,83.984375
512,87.890625
513,83.984375
514,83.984375
515,83.984375
516,85.937500
517,83.984375
518,83.984375
519,89.843750
520,85.937500
521,85.937500
522,85.937500
523,85.937500
524,85.937500
525,83.984375
526,85.937500
527,83.984375
528,83.984375
529,83.984375
530,83.984375
531,83.984375
532,83.984375
533,83.984375
534,80.078125
535,83.984375
536,83.984375
537,83.984375
538,83.984375
539,83.984375
540,83.984375
541,80.078125
542,80.078125
543,85.937500
544,83.984375
545,83.984375
546,83.984375
547,85.937500
548,85.937500
549,83.984375
550,85.937500
551,85.937500
552,85.937500
553,85.937500
554,85.937500
555,85.937500
556,85.937500
557,76.171875
558,80.078125
559,87.890625
560,85.937500
561,85.937500
562,87.890625
563,87.890625
564,87.890625
565,89.843750
566,87.890625
567,89.843750
568,85.937500
569,91.796875
570,87.890625
571,89.843750
572,89.843750
573,87.890625
574,91.796875
575,85.937500
576,89.843750
577,89.843750
578,89.843750
579,93.750000
580,85.937500
581,89.843750
582,85.937500
583,89.843750
584,87.890625
585,89.843750
586,89.843750
587,87.890625
588,89.843750
589,87.890625
590,85.937500
591,99.609375
592,85.937500
593,87.890625
594,87.890625
595,82.031250
596,89.843750
597,85.937500
598,85.937500
599,87.890625
600,85.937500
601,87.890625
602,87.890625
603,87.890625
604,85.937500
605,87.890625
606,85.937500
607,85.937500
608,85.937500
609,87.890625
610,87.890625
611,87.890625
612,87.890625
613,85.937500
614,89.843750
615,87.890625
616,83.984375
617,85.937500
618,87.890625
619,91.796875
620,85.937500
621,87.890625
622,91.796875
623,87.890625
624,89.843750
625,85.937500
626,89.843750
627,87.890625
628,85.937500
629,85.937500
630,87.890625
631,85.937500
632,85.937500
633,83.984375
634,89.843750
635,87.890625
636,87.890625
637,87.890625
638,80.078125
639,87.890625
640,87.890625
641,89.843750
642,85.937500
643,89.843750
644,85.937500
645,87.890625
646,85.937500
647,87.890625
648,87.890625
649,85.937500
650,87.890625
651,85.937500
652,85.937500
653,89.843750
654,85.937500
655,91.796875
656,87.890625
657,87.890625
658,85.937500
659,89.843750
660,89.843750
661,87.890625
662,89.843750
663,85.937500
664,89.843750
665,87.890625
666,83.984375
667,89.843750
668,87.890625
669,89.843750
670,85.937500
671,89.843750
672,87.890625
673,87.890625
674,89.843750
675,85.937500
676,87.890625
677,85.937500
678,87.890625
679,87.890625
680,85.937500
681,89.843750
682,91.796875
683,87.890625
684,85.937500
685,85.937500
686,85.937500
687,85.937500
688,95.703125
689,85.937500
690,85.937500
691,83.984375
692,87.890625
693,85.937500
694,87.890625
695,83.984375
696,87.890625
697,83.984375
698,85.937500
699,85.937500
700,83.984375
701,87.890625
702,83.984375
703,83.984375
704,83.984375
705,83.984375
706,89.843750
707,83.984375
708,87.890625
709,85.937500
710,83.984375
711,85.937500
712,83.984375
713,87.890625
714,85.937500
715,89.843750
716,87.890625
717,89.843750
718,87.890625
719,85.937500
720,80.078125
721,85.937500
722,89.843750
723,85.937500
724,89.843750
725,87.890625
726,85.937500
727,87.890625
728,87.890625
729,89.843750
730,87.890625
731,87.890625
732,85.937500
733,83.984375
734,85.937500
735,83.984375
736,87.890625
737,85.937500
738,85.937500
739,85.937500
740,85.937500
741,85.937500
742,85.937500
743,85.937500
744,85.937500
745,85.937500
746,85.937500
747,83.984375
748,76.171875
749,85.937500
750,83.984375
751,85.937500
752,83.984375
753,83.984375
754,80.078125
755,80.078125
756,82.031250
757,80.078125
758,83.984375
759,80.078125
760,83.984375
761,82.031250
762,80.078125
763,80.078125
764,78.125000
765,80.078125
766,78.125000
767,80.078125
768,78.125000
769,78.125000
770,80.078125
771,78.125000
772,80.078125
773,76.171875
774,80.078125
775,78.125000
776,78.125000
777,78.125000
778,78.125000
779,78.125000
780,80.078125
781,76.171875
782,82.031250
783,76.171875
784,80.078125
785,78.125000
786,76.171875
787,78.125000
788,76.171875
789,80.078125
790,80.078125
791,78.125000
792,78.125000
793,78.125000
794,78.125000
795,80.078125
796,83.984375
797,78.125000
798,80.078125
799,80.078125
800,80.078125
801,80.078125
802,80.078125
803,80.078125
804,78.125000
805,80.078125
806,80.078125
807,78.125000
808,80.078125
809,78.125000
810,78.125000
811,80.078125
812,68.359375
813,80.078125
814,78.125000
815,80.078125
816,78.125000
817,80.078125
818,80.078125
819,80.078125
820,80.078125
821,80.078125
822,78.125000
823,74.218750
824,76.171875
825,76.171875
826,78.125000
827,76.171875
828,76.171875
829,76.171875
830,78.125000
831,78.125000
832,80.078125
833,76.171875
834,80.078125
835,80.078125
836,80.078125
837,82.031250
838,80.078125
839,80.078125
840,80.078125
841,82.031250
842,83.984375
843,83.984375
844,82.031250
845,83.984375
846,83.984375
847,83.984375
848,87.890625
849,83.984375
850,64.453125
851,83.984375
852,83.984375
853,95.703125
854,83.984375
855,85.937500
856,83.984375
857,83.984375
858,85.937500
859,83.984375
860,85.937500
861,78.125000
862,83.984375
863,85.937500
864,83.984375
865,85.937500
866,83.984375
867,83.984375
868,80.078125
869,85.937500
870,83.984375
871,83.984375
872,83.984375
873,82.031250
874,83.984375
875,83.984375
876,83.984375
877,83.984375
878,80.078125
879,83.984375
880,80.078125
881,83.984375
882,83.984375
883,80.078125
884,83.984375
885,82.031250
886,83.984375
887,82.031250
888,83.984375
889,80.078125
890,80.078125
891,80.078125
892,80.078125
893,80.078125
894,80.078125
895,78.125000
896,80.078125
897,78.125000
898,80.078125
899,83.984375
900,80.078125
901,83.984375
902,78.125000
903,80.078125
904,76.171875
905,80.078125
906,78.125000
907,78.125000
908,80.078125
909,78.125000
910,76.171875
911,80.078125
912,78.125000
913,80.078125
914,80.078125
915,80.078125
916,80.078125
917,80.078125
918,78.125000
919,80.078125
920,80.078125
921,82.031250
922,82.031250
923,78.125000
924,82.031250
925,80.078125
926,62.500000
927,80.078125
928,82.031250
929,82.031250
930,80.078125
931,82.031250
932,83.984375
933,80.078125
934,83.984375
935,82.031250
936,83.984375
937,83.984375
938,83.984375
939,83.984375
940,83.984375
941,83.984375
942,83.984375
943,83.984375
944,82.031250
945,83.984375
946,83.984375
947,83.984375
948,83.984375
949,83.984375
950,85.937500
951,83.984375
952,85.937500
953,83.984375
954,87.890625
955,85.937500
956,89.843750
957,85.937500
958,87.890625
959,87.890625
960,87.890625
961,89.843750
962,85.937500
963,89.843750
964,89.843750
965,89.843750
966,87.890625
967,91.796875
968,89.843750
969,91.796875
970,85.937500
971,87.890625
972,91.796875
973,89.843750
974,89.843750
975,76.171875
976,89.843750
977,89.843750
978,87.890625
979,91.796875
980,89.843750
981,89.843750
982,89.843750
983,87.890625
984,89.843750
985,89.843750
986,89.843750
987,89.843750
988,87.890625
989,87.890625
990,87.890625
991,89.843750
992,87.890625
993,89.843750
994,91.796875
995,87.890625
996,89.843750
997,89.843750
998,89.843750
999,91.796875
1000,89.843750
1001,91.796875
1002,91.796875
1003,87.890625
1004,91.796875
1005,89.843750
1006,91.796875
1007,91.796875
1008,91.796875
1009,91.796875
1010,91.796875
1011,93.750000
1012,91.796875
1013,83.984375
1014,93.750000
1015,93.750000
1016,91.796875
1017,93.750000
1018,93.750000
1019,93.750000
1020,93.750000
1021,91.796875
1022,95.703125
1023,93.750000
1024,80.078125
1025,93.750000
1026,93.750000
1027,93.750000
1028,93.750000
1029,93.750000
1030,95.703125
1031,93.750000
1032,93.750000
1033,91.796875
1034,93.750000
1035,91.796875
1036,93.750000
1037,91.796875
1038,93.750000
1039,91.796875
1040,93.750000
1041,91.796875
1042,93.750000
1043,93.750000
1044,93.750000
1045,93.750000
1046,91.796875
1047,91.796875
1048,95.703125
1049,91.796875
1050,91.796875
1051,91.796875
1052,91.796875
1053,91.796875
1054,91.796875
1055,91.796875
1056,91.796875
1057,91.796875
1058,89.843750
1059,91.796875
1060,89.843750
1061,91.796875
1062,78.125000
1063,89.843750
1064,93.750000
1065,89.843750
1066,89.843750
1067,89.843750
1068,87.890625
1069,87.890625
1070,89.843750
1071,89.843750
1072,87.890625
1073,87.890625
1074,87.890625
1075,87.890625
1076,89.843750
1077,87.890625
1078,91.796875
1079,85.937500
1080,85.937500
1081,85.937500
1082,83.984375
1083,87.890625
1084,83.984375
1085,83.984375
1086,83.984375
1087,83.984375
1088,83.984375
1089,83.984375
1090,83.984375
1091,82.031250
1092,83.984375
1093,83.984375
1094,80.078125
1095,83.984375
1096,80.078125
1097,83.984375
1098,80.078125
1099,80.078125
1100,83.984375
1101,82.031250
1102,83.984375
1103,80.078125
1104,80.078125
1105,83.984375
1106,80.078125
1107,82.031250
1108,80.078125
1109,82.031250
1110,80.078125
1111,80.078125
1112,80.078125
1113,80.078125
1114,80.078125
1115,83.984375
1116,83.984375
1117,80.078125
1118,83.984375
1119,83.984375
1120,80.078125
1121,83.984375
1122,83.984375
1123,83.984375
1124,83.984375
1125,83.984375
1126,85.937500
1127,89.843750
1128,83.984375
1129,83.984375
1130,83.984375
1131,83.984375
1132,83.984375
1133,83.984375
1134,83.984375
1135,83.984375
1136,80.078125
1137,83.984375
1138,85.937500
1139,80.078125
1140,83.984375
1141,83.984375
1142,83.984375
1143,83.984375
1144,83.984375
1145,85.937500
1146,83.984375
1147,83.984375
1148,83.984375
1149,83.984375
1150,83.984375
1151,83.984375
1152,83.984375
1153,85.937500
1154,85.937500
1155,85.937500
1156,85.937500
1157,87.890625
1158,85.937500
1159,87.890625
1160,87.890625
1161,85.937500
1162,83.984375
1163,85.937500
1164,87.890625
1165,89.843750
1166,89.843750
1167,85.937500
1168,87.890625
1169,87.890625
1170,85.937500
1171,89.843750
1172,85.937500
1173,87.890625
1174,87.890625
1175,83.984375
1176,87.890625
1177,85.937500
1178,85.937500
1179,83.984375
1180,85.937500
1181,83.984375
1182,83.984375
1183,85.937500
1184,83.984375
1185,83.984375
1186,83.984375
1187,80.078125
1188,83.984375
1189,83.984375
1190,83.984375
1191,83.984375
1192,83.984375
1193,80.078125
1194,83.984375
1195,82.031250
1196,83.984375
1197,83.984375
1198,83.984375
1199,85.937500
1200,83.984375
1201,85.937500
1202,83.984375
1203,80.078125
1204,78.125000
1205,83.984375
1206,85.937500
1207,85.937500
1208,85.937500
1209,83.984375
1210,85.937500
1211,85.937500
1212,83.984375
1213,87.890625
1214,83.984375
1215,85.937500
1216,83.984375
1217,89.843750
1218,83.984375
1219,87.890625
1220,83.984375
1221,87.890625
1222,87.890625
1223,85.937500
1224,89.843750
1225,85.937500
1226,87.890625
1227,89.843750
1228,85.937500
1229,87.890625
1230,85.937500
1231,85.937500
1232,87.890625
1233,87.890625
1234,87.890625
1235,85.937500
1236,89.843750
1237,85.937500
1238,87.890625
1239,85.937500
1240,85.937500
1241,93.750000
1242,87.890625
1243,85.937500
1244,85.937500
1245,83.984375
1246,87.890625
1247,87.890625
1248,85.937500
1249,85.937500
1250,85.937500
1251,85.937500
1252,85.937500
1253,83.984375
1254,85.937500
1255,85.937500
1256,87.890625
1257,83.984375
1258,87.890625
1259,83.984375
1260,85.937500
1261,87.890625
1262,83.984375
1263,83.984375
1264,85.937500
1265,87.890625
1266,83.984375
1267,85.937500
1268,85.937500
1269,87.890625
1270,85.937500
1271,85.937500
1272,89.843750
1273,85.937500
1274,89.843750
1275,85.937500
1276,83.984375
1277,85.937500
1278,85.937500
1279,85.937500
1280,85.937500
1281,83.984375
1282,87.890625
1283,85.937500
1284,87.890625
1285,85.937500
1286,85.937500
1287,85.937500
1288,85.937500
1289,89.843750
1290,83.984375
1291,87.890625
1292,85.937500
1293,83.984375
1294,83.984375
1295,87.890625
1296,85.937500
1297,85.937500
1298,85.937500
1299,85.937500
1300,83.984375
1301,83.984375
1302,83.984375
1303,83.984375
1304,83.984375
1305,83.984375
1306,87.890625
1307,83.984375
1308,87.890625
1309,85.937500
1310,83.984375
1311,85.937500
1312,83.984375
1313,85.937500
1314,85.937500
1315,85.937500
1316,83.984375
1317,83.984375
1318,83.984375
1319,83.984375
1320,83.984375
1321,83.984375
1322,83.984375
1323,83.984375
1324,82.031250
1325,83.984375
1326,83.984375
1327,82.031250
1328,83.984375
1329,83.984375
1330,83.984375
1331,82.031250
1332,83.984375
1333,83.984375
1334,80.078125
1335,83.984375
1336,80.078125
1337,83.984375
1338,83.984375
1339,80.078125
1340,82.031250
1341,80.078125
1342,83.984375
1343,80.078125
1344,83.984375
1345,83.984375
1346,82.031250
1347,83.984375
1348,80.078125
1349,83.984375
1350,80.078125
1351,80.078125
1352,83.984375
1353,80.078125
1354,83.984375
1355,80.078125
1356,83.984375
1357,80.078125
1358,80.078125
1359,83.984375
1360,80.078125
1361,83.984375
1362,80.078125
1363,83.984375
1364,83.984375
1365,80.078125
1366,83.984375
1367,80.078125
1368,83.984375
1369,80.078125
1370,82.031250
1371,80.078125
1372,80.078125
1373,83.984375
1374,80.078125
1375,82.031250
1376,82.031250
1377,80.078125
1378,80.078125
1379,80.078125
1380,83.984375
1381,80.078125
1382,80.078125
1383,82.031250
1384,78.125000
1385,80.078125
1386,80.078125
1387,80.078125
1388,80.078125
1389,80.078125
1390,80.078125
1391,78.125000
