時系列データ/data_kai_だめ/dantest.csv

Channel              :,CH1
Frequency            :,  ?
Period               :,  ?
PK-PK                :,82.03mV
Probe attenuation    :,10X
Voltage per ADC value:,0.122070mV
Time interval        :,400.00000us

index,CH1_Voltage(mV)
1,89.843750
2,89.843750
3,95.703125
4,91.796875
5,93.750000
6,93.750000
7,95.703125
8,91.796875
9,95.703125
10,95.703125
11,95.703125
12,99.609375
13,95.703125
14,95.703125
15,95.703125
16,95.703125
17,97.656250
18,99.609375
19,101.562500
20,99.609375
21,99.609375
22,99.609375
23,99.609375
24,99.609375
25,95.703125
26,99.609375
27,97.656250
28,99.609375
29,99.609375
30,95.703125
31,99.609375
32,95.703125
33,97.656250
34,99.609375
35,99.609375
36,95.703125
37,95.703125
38,95.703125
39,95.703125
40,93.750000
41,97.656250
42,91.796875
43,95.703125
44,91.796875
45,93.750000
46,83.984375
47,91.796875
48,91.796875
49,89.843750
50,91.796875
51,89.843750
52,89.843750
53,91.796875
54,85.937500
55,87.890625
56,85.937500
57,85.937500
58,87.890625
59,85.937500
60,87.890625
61,83.984375
62,87.890625
63,83.984375
64,87.890625
65,83.984375
66,85.937500
67,83.984375
68,83.984375
69,85.937500
70,85.937500
71,82.031250
72,85.937500
73,83.984375
74,87.890625
75,87.890625
76,89.843750
77,85.937500
78,87.890625
79,85.937500
80,83.984375
81,89.843750
82,85.937500
83,85.937500
84,85.937500
85,85.937500
86,87.890625
87,87.890625
88,89.843750
89,87.890625
90,89.843750
91,97.656250
92,91.796875
93,91.796875
94,93.750000
95,93.750000
96,95.703125
97,93.750000
98,95.703125
99,93.750000
100,99.609375
101,99.609375
102,99.609375
103,101.562500
104,101.562500
105,103.515625
106,101.562500
107,105.468750
108,107.421875
109,101.562500
110,107.421875
111,105.468750
112,111.328125
113,109.375000
114,111.328125
115,111.328125
116,115.234375
117,115.234375
118,117.187500
119,115.234375
120,115.234375
121,117.187500
122,115.234375
123,121.093750
124,119.140625
125,119.140625
126,121.093750
127,121.093750
128,121.093750
129,121.093750
130,121.093750
131,123.046875
132,121.093750
133,123.046875
134,123.046875
135,121.093750
136,123.046875
137,123.046875
138,123.046875
139,121.093750
140,123.046875
141,123.046875
142,121.093750
143,123.046875
144,123.046875
145,119.140625
146,123.046875
147,123.046875
148,119.140625
149,121.093750
150,121.093750
151,121.093750
152,121.093750
153,119.140625
154,121.093750
155,121.093750
156,123.046875
157,123.046875
158,121.093750
159,121.093750
160,123.046875
161,119.140625
162,121.093750
163,121.093750
164,119.140625
165,123.046875
166,123.046875
167,123.046875
168,123.046875
169,123.046875
170,123.046875
171,123.046875
172,117.187500
173,123.046875
174,121.093750
175,123.046875
176,123.046875
177,123.046875
178,121.093750
179,121.093750
180,121.093750
181,121.093750
182,119.140625
183,121.093750
184,121.093750
185,121.093750
186,121.093750
187,121.093750
188,121.093750
189,121.093750
190,121.093750
191,119.140625
192,121.093750
193,119.140625
194,119.140625
195,121.093750
196,117.187500
197,119.140625
198,119.140625
199,117.187500
200,121.093750
201,119.140625
202,121.093750
203,115.234375
204,117.187500
205,119.140625
206,117.187500
207,117.187500
208,115.234375
209,119.140625
210,115.234375
211,117.187500
212,115.234375
213,117.187500
214,117.187500
215,117.187500
216,119.140625
217,115.234375
218,115.234375
219,117.187500
220,117.187500
221,117.187500
222,115.234375
223,117.187500
224,115.234375
225,115.234375
226,115.234375
227,115.234375
228,117.187500
229,115.234375
230,115.234375
231,115.234375
232,115.234375
233,117.187500
234,115.234375
235,115.234375
236,115.234375
237,115.234375
238,115.234375
239,115.234375
240,115.234375
241,115.234375
242,115.234375
243,113.281250
244,115.234375
245,115.234375
246,115.234375
247,115.234375
248,113.281250
249,115.234375
250,111.328125
251,111.328125
252,115.234375
253,111.328125
254,115.234375
255,115.234375
256,115.234375
257,115.234375
258,115.234375
259,115.234375
260,115.234375
261,111.328125
262,113.281250
263,115.234375
264,111.328125
265,115.234375
266,115.234375
267,113.281250
268,115.234375
269,111.328125
270,115.234375
271,111.328125
272,115.234375
273,115.234375
274,113.281250
275,115.234375
276,107.421875
277,117.187500
278,115.234375
279,113.281250
280,115.234375
281,115.234375
282,113.281250
283,115.234375
284,115.234375
285,111.328125
286,115.234375
287,115.234375
288,115.234375
289,115.234375
290,115.234375
291,115.234375
292,115.234375
293,115.234375
294,115.234375
295,115.234375
296,115.234375
297,117.187500
298,99.609375
299,117.187500
300,115.234375
301,117.187500
302,117.187500
303,117.187500
304,117.187500
305,115.234375
306,119.140625
307,117.187500
308,119.140625
309,119.140625
310,117.187500
311,121.093750
312,117.187500
313,121.093750
314,119.140625
315,121.093750
316,119.140625
317,121.093750
318,121.093750
319,119.140625
320,121.093750
321,121.093750
322,121.093750
323,123.046875
324,121.093750
325,121.093750
326,123.046875
327,121.093750
328,121.093750
329,123.046875
330,119.140625
331,115.234375
332,121.093750
333,119.140625
334,121.093750
335,117.187500
336,117.187500
337,119.140625
338,117.187500
339,117.187500
340,117.187500
341,117.187500
342,109.375000
343,119.140625
344,117.187500
345,117.187500
346,117.187500
347,117.187500
348,117.187500
349,119.140625
350,117.187500
351,119.140625
352,117.187500
353,115.234375
354,117.187500
355,115.234375
356,115.234375
357,115.234375
358,115.234375
359,115.234375
360,111.328125
361,111.328125
362,111.328125
363,111.328125
364,105.468750
365,107.421875
366,107.421875
367,105.468750
368,105.468750
369,105.468750
370,105.468750
371,101.562500
372,101.562500
373,99.609375
374,99.609375
375,95.703125
376,95.703125
377,93.750000
378,95.703125
379,95.703125
380,91.796875
381,91.796875
382,91.796875
383,91.796875
384,91.796875
385,89.843750
386,89.843750
387,91.796875
388,89.843750
389,89.843750
390,87.890625
391,87.890625
392,93.750000
393,89.843750
394,91.796875
395,89.843750
396,89.843750
397,89.843750
398,87.890625
399,91.796875
400,91.796875
401,91.796875
402,89.843750
403,87.890625
404,91.796875
405,89.843750
406,91.796875
407,89.843750
408,91.796875
409,89.843750
410,91.796875
411,91.796875
412,91.796875
413,91.796875
414,91.796875
415,95.703125
416,95.703125
417,93.750000
418,93.750000
419,95.703125
420,95.703125
421,95.703125
422,95.703125
423,99.609375
424,99.609375
425,99.609375
426,95.703125
427,107.421875
428,107.421875
429,99.609375
430,99.609375
431,101.562500
432,99.609375
433,101.562500
434,99.609375
435,99.609375
436,101.562500
437,99.609375
438,101.562500
439,101.562500
440,99.609375
441,101.562500
442,99.609375
443,99.609375
444,99.609375
445,99.609375
446,99.609375
447,95.703125
448,97.656250
449,99.609375
450,99.609375
451,95.703125
452,95.703125
453,95.703125
454,91.796875
455,93.750000
456,91.796875
457,93.750000
458,91.796875
459,91.796875
460,91.796875
461,91.796875
462,91.796875
463,83.984375
464,89.843750
465,89.843750
466,89.843750
467,91.796875
468,87.890625
469,89.843750
470,87.890625
471,89.843750
472,87.890625
473,85.937500
474,87.890625
475,83.984375
476,87.890625
477,85.937500
478,85.937500
479,85.937500
480,85.937500
481,87.890625
482,83.984375
483,87.890625
484,83.984375
485,85.937500
486,83.984375
487,80.078125
488,85.937500
489,83.984375
490,101.562500
491,83.984375
492,83.984375
493,83.984375
494,83.984375
495,83.984375
496,83.984375
497,83.984375
498,83.984375
499,83.984375
500,83.984375
501,78.125000
502,83.984375
503,83.984375
504,83.984375
505,85.937500
506,80.078125
507,83.984375
508,82.031250
509,82.031250
510,83.984375
511,83.984375
512,85.937500
513,85.937500
514,83.984375
515,83.984375
516,83.984375
517,85.937500
518,83.984375
519,85.937500
520,85.937500
521,89.843750
522,87.890625
523,85.937500
524,89.843750
525,87.890625
526,89.843750
527,87.890625
528,89.843750
529,89.843750
530,87.890625
531,89.843750
532,87.890625
533,89.843750
534,91.796875
535,89.843750
536,87.890625
537,85.937500
538,91.796875
539,91.796875
540,93.750000
541,91.796875
542,93.750000
543,93.750000
544,93.750000
545,97.656250
546,95.703125
547,93.750000
548,95.703125
549,93.750000
550,99.609375
551,93.750000
552,97.656250
553,95.703125
554,95.703125
555,95.703125
556,95.703125
557,99.609375
558,95.703125
559,99.609375
560,99.609375
561,99.609375
562,101.562500
563,99.609375
564,101.562500
565,99.609375
566,101.562500
567,101.562500
568,103.515625
569,101.562500
570,101.562500
571,103.515625
572,103.515625
573,105.468750
574,101.562500
575,103.515625
576,105.468750
577,103.515625
578,103.515625
579,101.562500
580,103.515625
581,105.468750
582,101.562500
583,105.468750
584,99.609375
585,105.468750
586,105.468750
587,105.468750
588,103.515625
589,101.562500
590,105.468750
591,101.562500
592,101.562500
593,103.515625
594,103.515625
595,103.515625
596,103.515625
597,105.468750
598,101.562500
599,103.515625
600,101.562500
601,105.468750
602,103.515625
603,99.609375
604,105.468750
605,101.562500
606,101.562500
607,103.515625
608,101.562500
609,103.515625
610,103.515625
611,107.421875
612,103.515625
613,101.562500
614,105.468750
615,101.562500
616,103.515625
617,103.515625
618,103.515625
619,103.515625
620,101.562500
621,105.468750
622,105.468750
623,107.421875
624,103.515625
625,103.515625
626,103.515625
627,101.562500
628,103.515625
629,101.562500
630,103.515625
631,101.562500
632,101.562500
633,105.468750
634,99.609375
635,101.562500
636,99.609375
637,99.609375
638,99.609375
639,99.609375
640,101.562500
641,95.703125
642,95.703125
643,99.609375
644,93.750000
645,95.703125
646,95.703125
647,93.750000
648,95.703125
649,95.703125
650,95.703125
651,95.703125
652,93.750000
653,95.703125
654,93.750000
655,93.750000
656,95.703125
657,93.750000
658,93.750000
659,95.703125
660,80.078125
661,93.750000
662,95.703125
663,91.796875
664,97.656250
665,91.796875
666,93.750000
667,93.750000
668,95.703125
669,95.703125
670,93.750000
671,91.796875
672,91.796875
673,93.750000
674,91.796875
675,93.750000
676,93.750000
677,93.750000
678,93.750000
679,74.218750
680,91.796875
681,89.843750
682,91.796875
683,89.843750
684,91.796875
685,91.796875
686,83.984375
687,89.843750
688,87.890625
689,89.843750
690,85.937500
691,83.984375
692,85.937500
693,87.890625
694,83.984375
695,83.984375
696,83.984375
697,80.078125
698,80.078125
699,80.078125
700,80.078125
701,83.984375
702,78.125000
703,80.078125
704,83.984375
705,78.125000
706,83.984375
707,78.125000
708,80.078125
709,80.078125
710,80.078125
711,80.078125
712,78.125000
713,80.078125
714,78.125000
715,80.078125
716,78.125000
717,80.078125
718,78.125000
719,78.125000
720,80.078125
721,80.078125
722,80.078125
723,80.078125
724,80.078125
725,80.078125
726,80.078125
727,83.984375
728,80.078125
729,83.984375
730,83.984375
731,80.078125
732,87.890625
733,83.984375
734,87.890625
735,85.937500
736,83.984375
737,87.890625
738,85.937500
739,87.890625
740,87.890625
741,87.890625
742,89.843750
743,87.890625
744,91.796875
745,91.796875
746,93.750000
747,93.750000
748,93.750000
749,97.656250
750,95.703125
751,99.609375
752,99.609375
753,99.609375
754,105.468750
755,101.562500
756,101.562500
757,101.562500
758,105.468750
759,103.515625
760,105.468750
761,107.421875
762,105.468750
763,107.421875
764,107.421875
765,107.421875
766,107.421875
767,107.421875
768,107.421875
769,107.421875
770,107.421875
771,107.421875
772,107.421875
773,107.421875
774,105.468750
775,105.468750
776,103.515625
777,107.421875
778,99.609375
779,101.562500
780,99.609375
781,99.609375
782,97.656250
783,97.656250
784,95.703125
785,93.750000
786,91.796875
787,91.796875
788,87.890625
789,89.843750
790,85.937500
791,85.937500
792,83.984375
793,83.984375
794,83.984375
795,80.078125
796,80.078125
797,80.078125
798,76.171875
799,80.078125
800,74.218750
801,76.171875
802,72.265625
803,74.218750
804,72.265625
805,72.265625
806,74.218750
807,70.312500
808,74.218750
809,68.359375
810,70.312500
811,70.312500
812,68.359375
813,70.312500
814,68.359375
815,72.265625
816,68.359375
817,70.312500
818,70.312500
819,70.312500
820,70.312500
821,68.359375
822,68.359375
823,72.265625
824,70.312500
825,66.406250
826,70.312500
827,72.265625
828,68.359375
829,72.265625
830,70.312500
831,70.312500
832,72.265625
833,80.078125
834,74.218750
835,70.312500
836,72.265625
837,72.265625
838,74.218750
839,74.218750
840,72.265625
841,76.171875
842,76.171875
843,74.218750
844,78.125000
845,76.171875
846,78.125000
847,78.125000
848,78.125000
849,80.078125
850,78.125000
851,85.937500
852,83.984375
853,87.890625
854,87.890625
855,87.890625
856,91.796875
857,89.843750
858,93.750000
859,93.750000
860,99.609375
861,99.609375
862,101.562500
863,105.468750
864,103.515625
865,107.421875
866,107.421875
867,111.328125
868,111.328125
869,111.328125
870,115.234375
871,115.234375
872,117.187500
873,117.187500
874,119.140625
875,121.093750
876,119.140625
877,121.093750
878,121.093750
879,123.046875
880,121.093750
881,121.093750
882,123.046875
883,123.046875
884,123.046875
885,123.046875
886,121.093750
887,125.000000
888,123.046875
889,123.046875
890,123.046875
891,123.046875
892,125.000000
893,123.046875
894,123.046875
895,123.046875
896,121.093750
897,123.046875
898,123.046875
899,123.046875
900,123.046875
901,123.046875
902,123.046875
903,121.093750
904,123.046875
905,121.093750
906,123.046875
907,123.046875
908,123.046875
909,123.046875
910,121.093750
911,126.953125
912,123.046875
913,123.046875
914,123.046875
915,121.093750
916,123.046875
917,123.046875
918,123.046875
919,121.093750
920,121.093750
921,123.046875
922,123.046875
923,123.046875
924,123.046875
925,121.093750
926,123.046875
927,123.046875
928,121.093750
929,123.046875
930,121.093750
931,121.093750
932,121.093750
933,121.093750
934,119.140625
935,123.046875
936,121.093750
937,121.093750
938,117.187500
939,121.093750
940,117.187500
941,121.093750
942,119.140625
943,117.187500
944,119.140625
945,115.234375
946,115.234375
947,121.093750
948,115.234375
949,117.187500
950,115.234375
951,111.328125
952,117.187500
953,115.234375
954,115.234375
955,115.234375
956,115.234375
957,115.234375
958,115.234375
959,111.328125
960,115.234375
961,115.234375
962,101.562500
963,111.328125
964,111.328125
965,111.328125
966,109.375000
967,109.375000
968,111.328125
969,107.421875
970,109.375000
971,105.468750
972,107.421875
973,115.234375
974,105.468750
975,103.515625
976,99.609375
977,101.562500
978,99.609375
979,95.703125
980,95.703125
981,95.703125
982,93.750000
983,91.796875
984,95.703125
985,91.796875
986,89.843750
987,89.843750
988,83.984375
989,85.937500
990,83.984375
991,80.078125
992,80.078125
993,80.078125
994,78.125000
995,76.171875
996,76.171875
997,76.171875
998,76.171875
999,72.265625
1000,74.218750
1001,74.218750
1002,72.265625
1003,70.312500
1004,72.265625
1005,68.359375
1006,68.359375
1007,68.359375
1008,68.359375
1009,64.453125
1010,68.359375
1011,68.359375
1012,68.359375
1013,68.359375
1014,68.359375
1015,68.359375
1016,68.359375
1017,60.546875
1018,68.359375
1019,64.453125
1020,68.359375
1021,64.453125
1022,64.453125
1023,68.359375
1024,68.359375
1025,68.359375
1026,64.453125
1027,68.359375
1028,64.453125
1029,68.359375
1030,68.359375
1031,68.359375
1032,68.359375
1033,68.359375
1034,70.312500
1035,68.359375
1036,70.312500
1037,70.312500
1038,70.312500
1039,74.218750
1040,76.171875
1041,72.265625
1042,74.218750
1043,72.265625
1044,76.171875
1045,74.218750
1046,76.171875
1047,76.171875
1048,76.171875
1049,78.125000
1050,80.078125
1051,78.125000
1052,80.078125
1053,78.125000
1054,80.078125
1055,78.125000
1056,80.078125
1057,83.984375
1058,83.984375
1059,83.984375
1060,83.984375
1061,83.984375
1062,83.984375
1063,85.937500
1064,83.984375
1065,83.984375
1066,85.937500
1067,87.890625
1068,85.937500
1069,87.890625
1070,85.937500
1071,87.890625
1072,85.937500
1073,87.890625
1074,83.984375
1075,87.890625
1076,87.890625
1077,87.890625
1078,89.843750
1079,87.890625
1080,89.843750
1081,85.937500
1082,85.937500
1083,85.937500
1084,85.937500
1085,85.937500
1086,85.937500
1087,85.937500
1088,72.265625
1089,83.984375
1090,85.937500
1091,85.937500
1092,83.984375
1093,85.937500
1094,85.937500
1095,83.984375
1096,83.984375
1097,83.984375
1098,83.984375
1099,83.984375
1100,83.984375
1101,83.984375
1102,83.984375
1103,83.984375
1104,83.984375
1105,80.078125
1106,83.984375
1107,83.984375
1108,83.984375
1109,83.984375
1110,83.984375
1111,83.984375
1112,83.984375
1113,83.984375
1114,83.984375
1115,80.078125
1116,83.984375
1117,83.984375
1118,83.984375
1119,83.984375
1120,83.984375
1121,83.984375
1122,80.078125
1123,83.984375
1124,80.078125
1125,83.984375
1126,83.984375
1127,89.843750
1128,83.984375
1129,80.078125
1130,83.984375
1131,82.031250
1132,80.078125
1133,82.031250
1134,82.031250
1135,83.984375
1136,80.078125
1137,80.078125
1138,83.984375
1139,80.078125
1140,80.078125
1141,80.078125
1142,78.125000
1143,80.078125
1144,78.125000
1145,78.125000
1146,80.078125
1147,78.125000
1148,78.125000
1149,76.171875
1150,80.078125
1151,80.078125
1152,78.125000
1153,80.078125
1154,74.218750
1155,80.078125
1156,78.125000
1157,80.078125
1158,76.171875
1159,76.171875
1160,80.078125
1161,78.125000
1162,80.078125
1163,78.125000
1164,85.937500
1165,76.171875
1166,76.171875
1167,78.125000
1168,76.171875
1169,80.078125
1170,80.078125
1171,80.078125
1172,76.171875
1173,80.078125
1174,80.078125
1175,76.171875
1176,78.125000
1177,80.078125
1178,78.125000
1179,78.125000
1180,80.078125
1181,80.078125
1182,80.078125
1183,80.078125
1184,80.078125
1185,78.125000
1186,80.078125
1187,80.078125
1188,83.984375
1189,80.078125
1190,80.078125
1191,80.078125
1192,80.078125
1193,83.984375
1194,83.984375
1195,82.031250
1196,82.031250
1197,83.984375
1198,83.984375
1199,80.078125
1200,83.984375
1201,80.078125
1202,82.031250
1203,83.984375
1204,85.937500
1205,85.937500
1206,85.937500
1207,87.890625
1208,87.890625
1209,89.843750
1210,85.937500
1211,89.843750
1212,89.843750
1213,87.890625
1214,91.796875
1215,87.890625
1216,89.843750
1217,89.843750
1218,89.843750
1219,91.796875
1220,89.843750
1221,91.796875
1222,91.796875
1223,89.843750
1224,91.796875
1225,89.843750
1226,91.796875
1227,89.843750
1228,91.796875
1229,91.796875
1230,91.796875
1231,89.843750
1232,89.843750
1233,91.796875
1234,91.796875
1235,91.796875
1236,91.796875
1237,93.750000
1238,91.796875
1239,89.843750
1240,91.796875
1241,89.843750
1242,91.796875
1243,91.796875
1244,89.843750
1245,91.796875
1246,89.843750
1247,91.796875
1248,91.796875
1249,89.843750
1250,91.796875
1251,89.843750
1252,91.796875
1253,91.796875
1254,89.843750
1255,89.843750
1256,91.796875
1257,91.796875
1258,91.796875
1259,91.796875
1260,89.843750
1261,89.843750
1262,91.796875
1263,89.843750
1264,91.796875
1265,99.609375
1266,91.796875
1267,93.750000
1268,91.796875
1269,91.796875
1270,91.796875
1271,93.750000
1272,91.796875
1273,93.750000
1274,91.796875
1275,91.796875
1276,93.750000
1277,91.796875
1278,93.750000
1279,91.796875
1280,89.843750
1281,95.703125
1282,91.796875
1283,93.750000
1284,91.796875
1285,91.796875
1286,91.796875
1287,91.796875
1288,93.750000
1289,89.843750
1290,91.796875
1291,91.796875
1292,91.796875
1293,91.796875
1294,91.796875
1295,91.796875
1296,91.796875
1297,91.796875
1298,91.796875
1299,91.796875
1300,91.796875
1301,89.843750
1302,91.796875
1303,91.796875
1304,91.796875
1305,91.796875
1306,91.796875
1307,91.796875
1308,91.796875
1309,91.796875
1310,91.796875
1311,91.796875
1312,95.703125
1313,91.796875
1314,91.796875
1315,93.750000
1316,91.796875
1317,93.750000
1318,91.796875
1319,91.796875
1320,91.796875
1321,91.796875
1322,91.796875
1323,91.796875
1324,89.843750
1325,91.796875
1326,91.796875
1327,87.890625
1328,89.843750
1329,87.890625
1330,89.843750
1331,87.890625
1332,87.890625
1333,89.843750
1334,87.890625
1335,89.843750
1336,89.843750
1337,85.937500
1338,87.890625
1339,83.984375
1340,87.890625
1341,87.890625
1342,83.984375
1343,78.125000
1344,83.984375
1345,85.937500
1346,83.984375
1347,85.937500
1348,83.984375
1349,83.984375
1350,83.984375
1351,83.984375
1352,91.796875
1353,83.984375
1354,83.984375
1355,85.937500
1356,83.984375
1357,83.984375
1358,83.984375
1359,83.984375
