時系列データ/data_kai_だめ/finger.csv

Channel              :,CH1
Frequency            :,  ?
Period               :,  ?
PK-PK                :,56.64mV
Probe attenuation    :,10X
Voltage per ADC value:,0.122070mV
Time interval        :,400.00000us

index,CH1_Voltage(mV)
1,95.703125
2,95.703125
3,93.750000
4,95.703125
5,93.750000
6,93.750000
7,93.750000
8,93.750000
9,93.750000
10,95.703125
11,95.703125
12,95.703125
13,91.796875
14,95.703125
15,93.750000
16,93.750000
17,93.750000
18,95.703125
19,93.750000
20,93.750000
21,93.750000
22,93.750000
23,91.796875
24,97.656250
25,91.796875
26,95.703125
27,93.750000
28,95.703125
29,93.750000
30,91.796875
31,93.750000
32,91.796875
33,93.750000
34,93.750000
35,95.703125
36,91.796875
37,91.796875
38,91.796875
39,91.796875
40,89.843750
41,91.796875
42,91.796875
43,93.750000
44,91.796875
45,93.750000
46,91.796875
47,91.796875
48,93.750000
49,91.796875
50,95.703125
51,89.843750
52,97.656250
53,93.750000
54,93.750000
55,93.750000
56,93.750000
57,95.703125
58,93.750000
59,93.750000
60,95.703125
61,95.703125
62,91.796875
63,93.750000
64,91.796875
65,91.796875
66,91.796875
67,91.796875
68,93.750000
69,93.750000
70,91.796875
71,91.796875
72,95.703125
73,91.796875
74,93.750000
75,91.796875
76,91.796875
77,91.796875
78,89.843750
79,91.796875
80,91.796875
81,91.796875
82,91.796875
83,101.562500
84,91.796875
85,91.796875
86,91.796875
87,95.703125
88,91.796875
89,93.750000
90,91.796875
91,93.750000
92,91.796875
93,93.750000
94,93.750000
95,91.796875
96,91.796875
97,91.796875
98,93.750000
99,91.796875
100,93.750000
101,93.750000
102,93.750000
103,93.750000
104,93.750000
105,93.750000
106,95.703125
107,93.750000
108,93.750000
109,91.796875
110,95.703125
111,93.750000
112,91.796875
113,91.796875
114,93.750000
115,103.515625
116,91.796875
117,91.796875
118,95.703125
119,91.796875
120,91.796875
121,91.796875
122,89.843750
123,91.796875
124,89.843750
125,91.796875
126,89.843750
127,87.890625
128,89.843750
129,87.890625
130,87.890625
131,89.843750
132,85.937500
133,87.890625
134,85.937500
135,85.937500
136,87.890625
137,83.984375
138,87.890625
139,83.984375
140,85.937500
141,87.890625
142,83.984375
143,87.890625
144,83.984375
145,85.937500
146,85.937500
147,85.937500
148,85.937500
149,83.984375
150,85.937500
151,85.937500
152,85.937500
153,89.843750
154,83.984375
155,85.937500
156,87.890625
157,85.937500
158,83.984375
159,89.843750
160,85.937500
161,85.937500
162,83.984375
163,83.984375
164,83.984375
165,85.937500
166,83.984375
167,87.890625
168,82.031250
169,85.937500
170,83.984375
171,89.843750
172,83.984375
173,85.937500
174,87.890625
175,85.937500
176,85.937500
177,83.984375
178,87.890625
179,87.890625
180,85.937500
181,85.937500
182,83.984375
183,87.890625
184,91.796875
185,87.890625
186,85.937500
187,85.937500
188,85.937500
189,85.937500
190,87.890625
191,87.890625
192,87.890625
193,87.890625
194,85.937500
195,85.937500
196,87.890625
197,89.843750
198,89.843750
199,87.890625
200,103.515625
201,89.843750
202,80.078125
203,89.843750
204,89.843750
205,91.796875
206,91.796875
207,89.843750
208,91.796875
209,91.796875
210,87.890625
211,89.843750
212,91.796875
213,91.796875
214,91.796875
215,93.750000
216,93.750000
217,91.796875
218,93.750000
219,95.703125
220,91.796875
221,93.750000
222,91.796875
223,93.750000
224,103.515625
225,91.796875
226,95.703125
227,91.796875
228,95.703125
229,95.703125
230,95.703125
231,93.750000
232,93.750000
233,95.703125
234,95.703125
235,95.703125
236,95.703125
237,95.703125
238,95.703125
239,95.703125
240,99.609375
241,95.703125
242,95.703125
243,99.609375
244,95.703125
245,99.609375
246,95.703125
247,99.609375
248,99.609375
249,95.703125
250,99.609375
251,95.703125
252,99.609375
253,99.609375
254,95.703125
255,99.609375
256,95.703125
257,99.609375
258,99.609375
259,99.609375
260,99.609375
261,99.609375
262,99.609375
263,99.609375
264,101.562500
265,99.609375
266,95.703125
267,99.609375
268,95.703125
269,89.843750
270,99.609375
271,99.609375
272,99.609375
273,95.703125
274,87.890625
275,95.703125
276,95.703125
277,99.609375
278,95.703125
279,99.609375
280,101.562500
281,99.609375
282,95.703125
283,95.703125
284,97.656250
285,109.375000
286,99.609375
287,95.703125
288,99.609375
289,99.609375
290,95.703125
291,99.609375
292,99.609375
293,99.609375
294,95.703125
295,99.609375
296,95.703125
297,95.703125
298,99.609375
299,97.656250
300,99.609375
301,95.703125
302,99.609375
303,101.562500
304,97.656250
305,101.562500
306,99.609375
307,99.609375
308,99.609375
309,99.609375
310,99.609375
311,99.609375
312,101.562500
313,99.609375
314,99.609375
315,99.609375
316,99.609375
317,99.609375
318,99.609375
319,101.562500
320,99.609375
321,99.609375
322,101.562500
323,99.609375
324,99.609375
325,101.562500
326,99.609375
327,99.609375
328,103.515625
329,101.562500
330,99.609375
331,99.609375
332,101.562500
333,99.609375
334,99.609375
335,99.609375
336,101.562500
337,101.562500
338,101.562500
339,101.562500
340,99.609375
341,101.562500
342,101.562500
343,99.609375
344,103.515625
345,101.562500
346,101.562500
347,103.515625
348,101.562500
349,103.515625
350,105.468750
351,103.515625
352,103.515625
353,105.468750
354,105.468750
355,105.468750
356,107.421875
357,107.421875
358,107.421875
359,107.421875
360,109.375000
361,109.375000
362,109.375000
363,107.421875
364,109.375000
365,109.375000
366,107.421875
367,109.375000
368,109.375000
369,109.375000
370,109.375000
371,109.375000
372,111.328125
373,111.328125
374,109.375000
375,111.328125
376,109.375000
377,109.375000
378,111.328125
379,125.000000
380,111.328125
381,111.328125
382,109.375000
383,111.328125
384,111.328125
385,111.328125
386,95.703125
387,111.328125
388,115.234375
389,109.375000
390,111.328125
391,111.328125
392,111.328125
393,111.328125
394,111.328125
395,111.328125
396,111.328125
397,115.234375
398,109.375000
399,111.328125
400,111.328125
401,111.328125
402,111.328125
403,109.375000
404,111.328125
405,111.328125
406,111.328125
407,111.328125
408,111.328125
409,115.234375
410,111.328125
411,111.328125
412,111.328125
413,111.328125
414,111.328125
415,111.328125
416,111.328125
417,111.328125
418,111.328125
419,111.328125
420,111.328125
421,111.328125
422,109.375000
423,111.328125
424,111.328125
425,111.328125
426,111.328125
427,109.375000
428,111.328125
429,109.375000
430,109.375000
431,111.328125
432,107.421875
433,109.375000
434,109.375000
435,107.421875
436,109.375000
437,109.375000
438,109.375000
439,107.421875
440,109.375000
441,107.421875
442,107.421875
443,111.328125
444,109.375000
445,109.375000
446,105.468750
447,107.421875
448,107.421875
449,107.421875
450,109.375000
451,103.515625
452,103.515625
453,105.468750
454,103.515625
455,115.234375
456,103.515625
457,103.515625
458,101.562500
459,103.515625
460,101.562500
461,99.609375
462,101.562500
463,97.656250
464,99.609375
465,99.609375
466,101.562500
467,99.609375
468,99.609375
469,99.609375
470,95.703125
471,95.703125
472,95.703125
473,95.703125
474,95.703125
475,95.703125
476,95.703125
477,95.703125
478,95.703125
479,95.703125
480,93.750000
481,95.703125
482,89.843750
483,99.609375
484,93.750000
485,95.703125
486,93.750000
487,95.703125
488,95.703125
489,95.703125
490,99.609375
491,99.609375
492,95.703125
493,93.750000
494,95.703125
495,95.703125
496,93.750000
497,93.750000
498,95.703125
499,91.796875
500,95.703125
501,93.750000
502,95.703125
503,99.609375
504,95.703125
505,95.703125
506,95.703125
507,95.703125
508,95.703125
509,95.703125
510,99.609375
511,95.703125
512,99.609375
513,99.609375
514,99.609375
515,99.609375
516,99.609375
517,99.609375
518,99.609375
519,99.609375
520,99.609375
521,95.703125
522,99.609375
523,99.609375
524,99.609375
525,99.609375
526,99.609375
527,99.609375
528,95.703125
529,99.609375
530,95.703125
531,99.609375
532,99.609375
533,95.703125
534,95.703125
535,97.656250
536,99.609375
537,97.656250
538,95.703125
539,99.609375
540,99.609375
541,99.609375
542,99.609375
543,97.656250
544,99.609375
545,97.656250
546,97.656250
547,97.656250
548,95.703125
549,95.703125
550,95.703125
551,95.703125
552,95.703125
553,95.703125
554,95.703125
555,95.703125
556,103.515625
557,95.703125
558,95.703125
559,93.750000
560,95.703125
561,93.750000
562,97.656250
563,95.703125
564,91.796875
565,95.703125
566,93.750000
567,93.750000
568,91.796875
569,91.796875
570,93.750000
571,91.796875
572,105.468750
573,91.796875
574,91.796875
575,91.796875
576,91.796875
577,93.750000
578,91.796875
579,91.796875
580,91.796875
581,99.609375
582,91.796875
583,87.890625
584,91.796875
585,91.796875
586,91.796875
587,91.796875
588,91.796875
589,91.796875
590,91.796875
591,91.796875
592,91.796875
593,91.796875
594,91.796875
595,91.796875
596,91.796875
597,91.796875
598,91.796875
599,93.750000
600,95.703125
601,93.750000
602,93.750000
603,93.750000
604,91.796875
605,91.796875
606,93.750000
607,91.796875
608,95.703125
609,91.796875
610,93.750000
611,93.750000
612,93.750000
613,91.796875
614,91.796875
615,93.750000
616,91.796875
617,95.703125
618,93.750000
619,91.796875
620,91.796875
621,91.796875
622,95.703125
623,91.796875
624,91.796875
625,105.468750
626,87.890625
627,91.796875
628,93.750000
629,91.796875
630,91.796875
631,93.750000
632,91.796875
633,93.750000
634,91.796875
635,93.750000
636,91.796875
637,91.796875
638,93.750000
639,91.796875
640,91.796875
641,111.328125
642,91.796875
643,91.796875
644,91.796875
645,93.750000
646,89.843750
647,93.750000
648,91.796875
649,93.750000
650,93.750000
651,91.796875
652,93.750000
653,93.750000
654,95.703125
655,91.796875
656,93.750000
657,93.750000
658,93.750000
659,93.750000
660,93.750000
661,95.703125
662,93.750000
663,95.703125
664,95.703125
665,93.750000
666,95.703125
667,95.703125
668,95.703125
669,93.750000
670,99.609375
671,95.703125
672,95.703125
673,95.703125
674,91.796875
675,95.703125
676,93.750000
677,93.750000
678,95.703125
679,93.750000
680,93.750000
681,93.750000
682,91.796875
683,91.796875
684,93.750000
685,93.750000
686,95.703125
687,93.750000
688,91.796875
689,87.890625
690,95.703125
691,95.703125
692,93.750000
693,93.750000
694,93.750000
695,97.656250
696,93.750000
697,95.703125
698,93.750000
699,95.703125
700,99.609375
701,95.703125
702,99.609375
703,93.750000
704,95.703125
705,95.703125
706,95.703125
707,95.703125
708,95.703125
709,95.703125
710,93.750000
711,95.703125
712,95.703125
713,95.703125
714,97.656250
715,95.703125
716,93.750000
717,95.703125
718,95.703125
719,95.703125
720,95.703125
721,95.703125
722,95.703125
723,95.703125
724,95.703125
725,95.703125
726,95.703125
727,93.750000
728,95.703125
729,95.703125
730,95.703125
731,95.703125
732,93.750000
733,95.703125
734,95.703125
735,91.796875
736,95.703125
737,95.703125
738,95.703125
739,95.703125
740,95.703125
741,95.703125
742,95.703125
743,95.703125
744,95.703125
745,95.703125
746,93.750000
747,95.703125
748,99.609375
749,95.703125
750,99.609375
751,95.703125
752,95.703125
753,95.703125
754,95.703125
755,95.703125
756,99.609375
757,99.609375
758,95.703125
759,99.609375
760,99.609375
761,95.703125
762,99.609375
763,95.703125
764,95.703125
765,95.703125
766,95.703125
767,99.609375
768,99.609375
769,97.656250
770,99.609375
771,89.843750
772,99.609375
773,95.703125
774,91.796875
775,99.609375
776,99.609375
777,99.609375
778,99.609375
779,101.562500
780,101.562500
781,99.609375
782,101.562500
783,99.609375
784,101.562500
785,99.609375
786,101.562500
787,101.562500
788,99.609375
789,101.562500
790,91.796875
791,101.562500
792,97.656250
793,99.609375
794,99.609375
795,101.562500
796,101.562500
797,99.609375
798,99.609375
799,97.656250
800,99.609375
801,99.609375
802,99.609375
803,97.656250
804,99.609375
805,99.609375
806,95.703125
807,99.609375
808,95.703125
809,95.703125
810,95.703125
811,95.703125
812,95.703125
813,95.703125
814,95.703125
815,95.703125
816,93.750000
817,95.703125
818,91.796875
819,93.750000
820,93.750000
821,95.703125
822,93.750000
823,91.796875
824,93.750000
825,93.750000
826,93.750000
827,93.750000
828,95.703125
829,91.796875
830,91.796875
831,91.796875
832,91.796875
833,91.796875
834,91.796875
835,91.796875
836,91.796875
837,91.796875
838,89.843750
839,91.796875
840,91.796875
841,95.703125
842,91.796875
843,91.796875
844,93.750000
845,91.796875
846,95.703125
847,91.796875
848,95.703125
849,91.796875
850,91.796875
851,95.703125
852,93.750000
853,95.703125
854,95.703125
855,95.703125
856,95.703125
857,95.703125
858,99.609375
859,95.703125
860,99.609375
861,95.703125
862,99.609375
863,99.609375
864,97.656250
865,95.703125
866,99.609375
867,99.609375
868,99.609375
869,99.609375
870,99.609375
871,99.609375
872,101.562500
873,99.609375
874,99.609375
875,101.562500
876,99.609375
877,99.609375
878,101.562500
879,99.609375
880,101.562500
881,101.562500
882,99.609375
883,103.515625
884,101.562500
885,101.562500
886,101.562500
887,101.562500
888,101.562500
889,101.562500
890,105.468750
891,91.796875
892,103.515625
893,103.515625
894,103.515625
895,103.515625
896,103.515625
897,107.421875
898,105.468750
899,105.468750
900,105.468750
901,101.562500
902,107.421875
903,103.515625
904,105.468750
905,105.468750
906,107.421875
907,103.515625
908,105.468750
909,105.468750
910,107.421875
911,105.468750
912,105.468750
913,107.421875
914,107.421875
915,107.421875
916,105.468750
917,107.421875
918,105.468750
919,105.468750
920,107.421875
921,107.421875
922,105.468750
923,107.421875
924,105.468750
925,107.421875
926,103.515625
927,105.468750
928,107.421875
929,105.468750
930,107.421875
931,105.468750
932,107.421875
933,105.468750
934,107.421875
935,107.421875
936,107.421875
937,107.421875
938,105.468750
939,107.421875
940,105.468750
941,107.421875
942,107.421875
943,105.468750
944,107.421875
945,105.468750
946,107.421875
947,105.468750
948,107.421875
949,107.421875
950,105.468750
951,107.421875
952,107.421875
953,107.421875
954,105.468750
955,105.468750
956,109.375000
957,105.468750
958,107.421875
959,107.421875
960,107.421875
961,109.375000
962,107.421875
963,109.375000
964,107.421875
965,109.375000
966,107.421875
967,107.421875
968,109.375000
969,111.328125
970,109.375000
971,109.375000
972,107.421875
973,109.375000
974,107.421875
975,109.375000
976,107.421875
977,107.421875
978,109.375000
979,103.515625
980,107.421875
981,107.421875
982,107.421875
983,107.421875
984,105.468750
985,107.421875
986,105.468750
987,105.468750
988,105.468750
989,107.421875
990,107.421875
991,107.421875
992,105.468750
993,105.468750
994,105.468750
995,107.421875
996,105.468750
997,107.421875
998,107.421875
999,109.375000
1000,109.375000
1001,107.421875
1002,107.421875
1003,107.421875
1004,109.375000
1005,107.421875
1006,107.421875
1007,107.421875
1008,109.375000
1009,109.375000
1010,107.421875
1011,111.328125
1012,111.328125
1013,107.421875
1014,109.375000
1015,109.375000
1016,109.375000
1017,107.421875
1018,107.421875
1019,107.421875
1020,109.375000
1021,109.375000
1022,107.421875
1023,111.328125
1024,107.421875
1025,109.375000
1026,107.421875
1027,105.468750
1028,109.375000
1029,107.421875
1030,107.421875
1031,109.375000
1032,107.421875
1033,109.375000
1034,107.421875
1035,107.421875
1036,109.375000
1037,105.468750
1038,109.375000
1039,107.421875
1040,107.421875
1041,105.468750
1042,107.421875
1043,107.421875
1044,107.421875
1045,109.375000
1046,107.421875
1047,107.421875
1048,107.421875
1049,107.421875
1050,109.375000
1051,107.421875
1052,107.421875
1053,107.421875
1054,107.421875
1055,109.375000
1056,107.421875
1057,109.375000
1058,107.421875
1059,111.328125
1060,109.375000
1061,117.187500
1062,109.375000
1063,107.421875
1064,109.375000
1065,107.421875
1066,109.375000
1067,107.421875
1068,107.421875
1069,107.421875
1070,107.421875
1071,107.421875
1072,111.328125
1073,107.421875
1074,107.421875
1075,105.468750
1076,105.468750
1077,107.421875
1078,103.515625
1079,101.562500
1080,101.562500
1081,101.562500
1082,101.562500
1083,99.609375
1084,95.703125
1085,95.703125
1086,99.609375
1087,95.703125
1088,99.609375
1089,99.609375
1090,95.703125
1091,95.703125
1092,93.750000
1093,95.703125
1094,93.750000
1095,93.750000
1096,95.703125
1097,93.750000
1098,95.703125
1099,93.750000
1100,93.750000
1101,95.703125
1102,95.703125
1103,93.750000
1104,93.750000
1105,93.750000
1106,91.796875
1107,91.796875
1108,93.750000
1109,91.796875
1110,93.750000
1111,91.796875
1112,91.796875
1113,91.796875
1114,91.796875
1115,91.796875
1116,91.796875
1117,91.796875
1118,89.843750
1119,91.796875
1120,89.843750
1121,89.843750
1122,91.796875
1123,89.843750
1124,87.890625
1125,89.843750
1126,87.890625
1127,89.843750
1128,85.937500
1129,87.890625
1130,91.796875
1131,83.984375
1132,89.843750
1133,83.984375
1134,87.890625
1135,87.890625
1136,83.984375
1137,89.843750
1138,85.937500
1139,87.890625
1140,87.890625
1141,87.890625
1142,85.937500
1143,83.984375
1144,89.843750
1145,85.937500
1146,89.843750
1147,91.796875
1148,89.843750
1149,91.796875
1150,91.796875
1151,91.796875
1152,91.796875
1153,93.750000
1154,95.703125
1155,93.750000
1156,93.750000
1157,93.750000
1158,95.703125
1159,93.750000
1160,95.703125
1161,93.750000
1162,101.562500
1163,95.703125
1164,95.703125
1165,95.703125
1166,93.750000
1167,95.703125
1168,93.750000
1169,93.750000
1170,95.703125
1171,95.703125
1172,95.703125
1173,95.703125
1174,99.609375
1175,95.703125
1176,83.984375
1177,93.750000
1178,91.796875
1179,95.703125
1180,93.750000
1181,93.750000
1182,95.703125
1183,93.750000
1184,95.703125
1185,103.515625
1186,95.703125
1187,93.750000
1188,91.796875
1189,93.750000
1190,91.796875
1191,93.750000
1192,91.796875
1193,93.750000
1194,95.703125
1195,91.796875
1196,93.750000
1197,91.796875
1198,95.703125
1199,93.750000
1200,91.796875
1201,93.750000
1202,93.750000
1203,93.750000
1204,91.796875
1205,93.750000
1206,91.796875
1207,95.703125
1208,91.796875
1209,93.750000
1210,95.703125
1211,91.796875
1212,95.703125
1213,93.750000
1214,93.750000
1215,91.796875
1216,91.796875
1217,95.703125
1218,93.750000
1219,93.750000
1220,93.750000
1221,91.796875
1222,101.562500
1223,93.750000
1224,93.750000
1225,93.750000
1226,93.750000
1227,91.796875
1228,91.796875
1229,91.796875
1230,93.750000
1231,95.703125
1232,91.796875
1233,93.750000
1234,93.750000
1235,91.796875
1236,95.703125
1237,91.796875
1238,93.750000
1239,91.796875
1240,93.750000
1241,93.750000
1242,95.703125
1243,95.703125
1244,93.750000
1245,91.796875
1246,91.796875
1247,76.171875
1248,91.796875
1249,93.750000
1250,93.750000
1251,93.750000
1252,93.750000
1253,99.609375
1254,95.703125
1255,93.750000
1256,89.843750
1257,93.750000
1258,95.703125
1259,95.703125
1260,93.750000
1261,95.703125
1262,93.750000
1263,107.421875
1264,95.703125
1265,95.703125
1266,95.703125
1267,93.750000
1268,93.750000
1269,91.796875
1270,93.750000
1271,93.750000
1272,93.750000
1273,95.703125
1274,91.796875
1275,93.750000
1276,93.750000
1277,93.750000
1278,93.750000
1279,95.703125
1280,91.796875
1281,95.703125
1282,93.750000
1283,91.796875
1284,93.750000
1285,91.796875
1286,93.750000
1287,95.703125
1288,91.796875
1289,93.750000
1290,93.750000
1291,95.703125
1292,93.750000
1293,91.796875
1294,93.750000
1295,93.750000
1296,95.703125
1297,93.750000
1298,93.750000
1299,93.750000
1300,93.750000
1301,93.750000
1302,93.750000
1303,93.750000
1304,95.703125
1305,93.750000
1306,93.750000
1307,93.750000
1308,93.750000
1309,93.750000
1310,93.750000
1311,91.796875
1312,93.750000
1313,93.750000
1314,95.703125
1315,95.703125
1316,93.750000
1317,93.750000
1318,91.796875
1319,101.562500
1320,93.750000
1321,93.750000
1322,93.750000
1323,93.750000
1324,91.796875
1325,93.750000
1326,91.796875
1327,93.750000
1328,91.796875
1329,91.796875
1330,91.796875
1331,91.796875
1332,87.890625
1333,89.843750
1334,91.796875
1335,91.796875
1336,91.796875
1337,91.796875
1338,91.796875
1339,91.796875
1340,91.796875
1341,91.796875
1342,83.984375
1343,89.843750
1344,91.796875
1345,91.796875
1346,93.750000
1347,91.796875
1348,72.265625
1349,89.843750
1350,91.796875
1351,91.796875
1352,91.796875
1353,93.750000
1354,95.703125
1355,91.796875
1356,93.750000
1357,91.796875
1358,91.796875
1359,91.796875
1360,91.796875
1361,91.796875
1362,91.796875
1363,91.796875
1364,91.796875
1365,93.750000
1366,91.796875
1367,91.796875
