時系列データ/data_kai_だめ/gamtape.csv

Channel              :,CH1
Frequency            :,  ?
Period               :,  ?
PK-PK                :,58.59mV
Probe attenuation    :,10X
Voltage per ADC value:,0.122070mV
Time interval        :,400.00000us

index,CH1_Voltage(mV)
1,83.984375
2,83.984375
3,85.937500
4,83.984375
5,83.984375
6,85.937500
7,80.078125
8,85.937500
9,83.984375
10,85.937500
11,83.984375
12,80.078125
13,83.984375
14,83.984375
15,83.984375
16,83.984375
17,83.984375
18,85.937500
19,83.984375
20,83.984375
21,83.984375
22,83.984375
23,83.984375
24,83.984375
25,83.984375
26,83.984375
27,83.984375
28,89.843750
29,83.984375
30,83.984375
31,80.078125
32,83.984375
33,83.984375
34,83.984375
35,83.984375
36,83.984375
37,83.984375
38,82.031250
39,83.984375
40,83.984375
41,83.984375
42,83.984375
43,83.984375
44,83.984375
45,83.984375
46,85.937500
47,83.984375
48,83.984375
49,83.984375
50,83.984375
51,83.984375
52,83.984375
53,83.984375
54,83.984375
55,83.984375
56,83.984375
57,83.984375
58,83.984375
59,83.984375
60,83.984375
61,83.984375
62,80.078125
63,83.984375
64,83.984375
65,83.984375
66,83.984375
67,82.031250
68,83.984375
69,82.031250
70,80.078125
71,83.984375
72,83.984375
73,83.984375
74,80.078125
75,82.031250
76,82.031250
77,78.125000
78,82.031250
79,82.031250
80,83.984375
81,82.031250
82,62.500000
83,83.984375
84,80.078125
85,82.031250
86,85.937500
87,83.984375
88,80.078125
89,83.984375
90,83.984375
91,80.078125
92,82.031250
93,83.984375
94,83.984375
95,80.078125
96,83.984375
97,82.031250
98,83.984375
99,85.937500
100,82.031250
101,83.984375
102,83.984375
103,83.984375
104,83.984375
105,83.984375
106,83.984375
107,83.984375
108,83.984375
109,83.984375
110,82.031250
111,83.984375
112,83.984375
113,83.984375
114,83.984375
115,83.984375
116,83.984375
117,83.984375
118,83.984375
119,83.984375
120,85.937500
121,83.984375
122,83.984375
123,83.984375
124,83.984375
125,85.937500
126,83.984375
127,85.937500
128,83.984375
129,83.984375
130,85.937500
131,82.031250
132,83.984375
133,83.984375
134,83.984375
135,83.984375
136,83.984375
137,83.984375
138,83.984375
139,82.031250
140,83.984375
141,83.984375
142,85.937500
143,83.984375
144,83.984375
145,83.984375
146,83.984375
147,83.984375
148,83.984375
149,83.984375
150,83.984375
151,83.984375
152,83.984375
153,83.984375
154,87.890625
155,85.937500
156,87.890625
157,85.937500
158,87.890625
159,85.937500
160,87.890625
161,89.843750
162,87.890625
163,87.890625
164,87.890625
165,87.890625
166,83.984375
167,87.890625
168,89.843750
169,89.843750
170,89.843750
171,89.843750
172,87.890625
173,89.843750
174,99.609375
175,87.890625
176,89.843750
177,89.843750
178,95.703125
179,91.796875
180,89.843750
181,91.796875
182,91.796875
183,91.796875
184,91.796875
185,89.843750
186,89.843750
187,91.796875
188,91.796875
189,91.796875
190,68.359375
191,91.796875
192,91.796875
193,91.796875
194,93.750000
195,91.796875
196,93.750000
197,91.796875
198,91.796875
199,93.750000
200,93.750000
201,95.703125
202,93.750000
203,93.750000
204,91.796875
205,91.796875
206,91.796875
207,93.750000
208,95.703125
209,91.796875
210,93.750000
211,91.796875
212,95.703125
213,93.750000
214,91.796875
215,93.750000
216,93.750000
217,115.234375
218,91.796875
219,91.796875
220,91.796875
221,91.796875
222,91.796875
223,91.796875
224,91.796875
225,93.750000
226,87.890625
227,91.796875
228,95.703125
229,93.750000
230,91.796875
231,89.843750
232,89.843750
233,89.843750
234,91.796875
235,89.843750
236,85.937500
237,89.843750
238,87.890625
239,91.796875
240,85.937500
241,87.890625
242,87.890625
243,83.984375
244,87.890625
245,87.890625
246,89.843750
247,89.843750
248,85.937500
249,87.890625
250,85.937500
251,87.890625
252,87.890625
253,89.843750
254,85.937500
255,103.515625
256,87.890625
257,83.984375
258,89.843750
259,85.937500
260,87.890625
261,83.984375
262,83.984375
263,87.890625
264,83.984375
265,83.984375
266,85.937500
267,85.937500
268,85.937500
269,83.984375
270,83.984375
271,93.750000
272,85.937500
273,83.984375
274,83.984375
275,83.984375
276,83.984375
277,83.984375
278,83.984375
279,83.984375
280,83.984375
281,85.937500
282,83.984375
283,83.984375
284,83.984375
285,83.984375
286,83.984375
287,83.984375
288,83.984375
289,83.984375
290,83.984375
291,82.031250
292,83.984375
293,83.984375
294,83.984375
295,83.984375
296,83.984375
297,85.937500
298,83.984375
299,85.937500
300,83.984375
301,83.984375
302,83.984375
303,83.984375
304,83.984375
305,83.984375
306,85.937500
307,85.937500
308,83.984375
309,83.984375
310,83.984375
311,85.937500
312,83.984375
313,85.937500
314,83.984375
315,83.984375
316,85.937500
317,85.937500
318,83.984375
319,83.984375
320,83.984375
321,83.984375
322,83.984375
323,83.984375
324,85.937500
325,83.984375
326,85.937500
327,83.984375
328,83.984375
329,83.984375
330,83.984375
331,83.984375
332,82.031250
333,83.984375
334,83.984375
335,83.984375
336,91.796875
337,85.937500
338,85.937500
339,85.937500
340,85.937500
341,83.984375
342,87.890625
343,83.984375
344,85.937500
345,83.984375
346,85.937500
347,87.890625
348,85.937500
349,85.937500
350,83.984375
351,87.890625
352,85.937500
353,85.937500
354,85.937500
355,85.937500
356,87.890625
357,83.984375
358,85.937500
359,83.984375
360,87.890625
361,87.890625
362,83.984375
363,83.984375
364,85.937500
365,83.984375
366,87.890625
367,85.937500
368,85.937500
369,83.984375
370,83.984375
371,85.937500
372,83.984375
373,85.937500
374,83.984375
375,83.984375
376,85.937500
377,83.984375
378,85.937500
379,83.984375
380,87.890625
381,83.984375
382,83.984375
383,83.984375
384,85.937500
385,83.984375
386,83.984375
387,85.937500
388,83.984375
389,85.937500
390,82.031250
391,83.984375
392,83.984375
393,83.984375
394,83.984375
395,83.984375
396,85.937500
397,85.937500
398,83.984375
399,87.890625
400,85.937500
401,85.937500
402,85.937500
403,85.937500
404,87.890625
405,85.937500
406,87.890625
407,85.937500
408,85.937500
409,85.937500
410,85.937500
411,85.937500
412,82.031250
413,83.984375
414,83.984375
415,85.937500
416,85.937500
417,85.937500
418,85.937500
419,80.078125
420,85.937500
421,83.984375
422,83.984375
423,85.937500
424,83.984375
425,87.890625
426,85.937500
427,83.984375
428,87.890625
429,83.984375
430,85.937500
431,83.984375
432,85.937500
433,83.984375
434,83.984375
435,83.984375
436,83.984375
437,87.890625
438,83.984375
439,85.937500
440,85.937500
441,83.984375
442,87.890625
443,85.937500
444,74.218750
445,83.984375
446,89.843750
447,83.984375
448,83.984375
449,87.890625
450,85.937500
451,87.890625
452,87.890625
453,85.937500
454,87.890625
455,85.937500
456,89.843750
457,87.890625
458,85.937500
459,85.937500
460,91.796875
461,85.937500
462,85.937500
463,87.890625
464,85.937500
465,85.937500
466,87.890625
467,85.937500
468,85.937500
469,85.937500
470,87.890625
471,95.703125
472,85.937500
473,87.890625
474,85.937500
475,85.937500
476,89.843750
477,85.937500
478,85.937500
479,83.984375
480,87.890625
481,85.937500
482,83.984375
483,85.937500
484,85.937500
485,83.984375
486,87.890625
487,85.937500
488,87.890625
489,85.937500
490,87.890625
491,83.984375
492,87.890625
493,87.890625
494,85.937500
495,87.890625
496,85.937500
497,87.890625
498,107.421875
499,85.937500
500,89.843750
501,87.890625
502,89.843750
503,83.984375
504,89.843750
505,87.890625
506,87.890625
507,87.890625
508,91.796875
509,87.890625
510,87.890625
511,85.937500
512,87.890625
513,87.890625
514,89.843750
515,85.937500
516,89.843750
517,87.890625
518,87.890625
519,87.890625
520,87.890625
521,89.843750
522,89.843750
523,89.843750
524,89.843750
525,87.890625
526,87.890625
527,85.937500
528,87.890625
529,85.937500
530,85.937500
531,87.890625
532,83.984375
533,85.937500
534,85.937500
535,89.843750
536,85.937500
537,87.890625
538,87.890625
539,85.937500
540,87.890625
541,87.890625
542,85.937500
543,85.937500
544,87.890625
545,85.937500
546,89.843750
547,85.937500
548,87.890625
549,89.843750
550,87.890625
551,87.890625
552,103.515625
553,89.843750
554,89.843750
555,85.937500
556,87.890625
557,87.890625
558,89.843750
559,89.843750
560,87.890625
561,89.843750
562,87.890625
563,87.890625
564,87.890625
565,85.937500
566,87.890625
567,85.937500
568,85.937500
569,87.890625
570,83.984375
571,87.890625
572,89.843750
573,85.937500
574,83.984375
575,83.984375
576,87.890625
577,83.984375
578,83.984375
579,74.218750
580,85.937500
581,85.937500
582,82.031250
583,83.984375
584,85.937500
585,85.937500
586,85.937500
587,83.984375
588,87.890625
589,85.937500
590,85.937500
591,83.984375
592,85.937500
593,87.890625
594,85.937500
595,87.890625
596,85.937500
597,87.890625
598,85.937500
599,89.843750
600,85.937500
601,89.843750
602,87.890625
603,87.890625
604,91.796875
605,87.890625
606,93.750000
607,87.890625
608,89.843750
609,85.937500
610,87.890625
611,87.890625
612,85.937500
613,89.843750
614,87.890625
615,87.890625
616,89.843750
617,85.937500
618,89.843750
619,87.890625
620,87.890625
621,87.890625
622,87.890625
623,87.890625
624,85.937500
625,89.843750
626,85.937500
627,87.890625
628,89.843750
629,87.890625
630,87.890625
631,85.937500
632,85.937500
633,95.703125
634,83.984375
635,85.937500
636,85.937500
637,87.890625
638,87.890625
639,89.843750
640,85.937500
641,87.890625
642,85.937500
643,85.937500
644,87.890625
645,85.937500
646,85.937500
647,85.937500
648,85.937500
649,85.937500
650,83.984375
651,83.984375
652,83.984375
653,83.984375
654,83.984375
655,83.984375
656,83.984375
657,83.984375
658,83.984375
659,80.078125
660,83.984375
661,83.984375
662,83.984375
663,83.984375
664,83.984375
665,83.984375
666,83.984375
667,83.984375
668,80.078125
669,80.078125
670,80.078125
671,80.078125
672,80.078125
673,80.078125
674,78.125000
675,80.078125
676,78.125000
677,78.125000
678,80.078125
679,80.078125
680,80.078125
681,78.125000
682,80.078125
683,78.125000
684,78.125000
685,76.171875
686,78.125000
687,83.984375
688,78.125000
689,80.078125
690,80.078125
691,80.078125
692,80.078125
693,78.125000
694,83.984375
695,80.078125
696,85.937500
697,80.078125
698,82.031250
699,83.984375
700,80.078125
701,83.984375
702,83.984375
703,83.984375
704,83.984375
705,83.984375
706,83.984375
707,83.984375
708,87.890625
709,83.984375
710,85.937500
711,83.984375
712,83.984375
713,83.984375
714,85.937500
715,85.937500
716,80.078125
717,85.937500
718,83.984375
719,83.984375
720,85.937500
721,83.984375
722,83.984375
723,83.984375
724,83.984375
725,83.984375
726,80.078125
727,83.984375
728,83.984375
729,82.031250
730,83.984375
731,82.031250
732,83.984375
733,80.078125
734,85.937500
735,83.984375
736,83.984375
737,82.031250
738,83.984375
739,83.984375
740,82.031250
741,83.984375
742,82.031250
743,83.984375
744,83.984375
745,80.078125
746,87.890625
747,82.031250
748,85.937500
749,83.984375
750,83.984375
751,85.937500
752,80.078125
753,85.937500
754,83.984375
755,83.984375
756,83.984375
757,83.984375
758,83.984375
759,85.937500
760,85.937500
761,85.937500
762,85.937500
763,89.843750
764,83.984375
765,87.890625
766,85.937500
767,85.937500
768,76.171875
769,83.984375
770,87.890625
771,85.937500
772,87.890625
773,87.890625
774,89.843750
775,87.890625
776,85.937500
777,85.937500
778,83.984375
779,87.890625
780,85.937500
781,89.843750
782,87.890625
783,87.890625
784,85.937500
785,85.937500
786,85.937500
787,87.890625
788,87.890625
789,89.843750
790,87.890625
791,87.890625
792,87.890625
793,89.843750
794,87.890625
795,83.984375
796,87.890625
797,89.843750
798,87.890625
799,87.890625
800,87.890625
801,87.890625
802,87.890625
803,89.843750
804,87.890625
805,89.843750
806,87.890625
807,91.796875
808,85.937500
809,87.890625
810,89.843750
811,89.843750
812,91.796875
813,89.843750
814,87.890625
815,89.843750
816,85.937500
817,85.937500
818,85.937500
819,87.890625
820,87.890625
821,89.843750
822,91.796875
823,85.937500
824,87.890625
825,87.890625
826,87.890625
827,87.890625
828,83.984375
829,87.890625
830,87.890625
831,85.937500
832,87.890625
833,85.937500
834,89.843750
835,85.937500
836,87.890625
837,85.937500
838,85.937500
839,85.937500
840,89.843750
841,87.890625
842,87.890625
843,87.890625
844,85.937500
845,87.890625
846,87.890625
847,89.843750
848,87.890625
849,87.890625
850,89.843750
851,87.890625
852,89.843750
853,87.890625
854,91.796875
855,89.843750
856,89.843750
857,89.843750
858,89.843750
859,91.796875
860,89.843750
861,89.843750
862,89.843750
863,89.843750
864,89.843750
865,89.843750
866,89.843750
867,85.937500
868,91.796875
869,89.843750
870,87.890625
871,89.843750
872,87.890625
873,85.937500
874,87.890625
875,87.890625
876,83.984375
877,85.937500
878,89.843750
879,87.890625
880,87.890625
881,89.843750
882,87.890625
883,87.890625
884,87.890625
885,87.890625
886,87.890625
887,85.937500
888,89.843750
889,87.890625
890,87.890625
891,87.890625
892,87.890625
893,89.843750
894,89.843750
895,89.843750
896,89.843750
897,89.843750
898,89.843750
899,89.843750
900,87.890625
901,87.890625
902,89.843750
903,111.328125
904,89.843750
905,89.843750
906,89.843750
907,91.796875
908,87.890625
909,89.843750
910,89.843750
911,89.843750
912,89.843750
913,87.890625
914,89.843750
915,87.890625
916,87.890625
917,89.843750
918,91.796875
919,91.796875
920,87.890625
921,85.937500
922,89.843750
923,85.937500
924,87.890625
925,87.890625
926,85.937500
927,99.609375
928,85.937500
929,85.937500
930,85.937500
931,85.937500
932,85.937500
933,85.937500
934,85.937500
935,83.984375
936,85.937500
937,83.984375
938,85.937500
939,85.937500
940,85.937500
941,85.937500
942,83.984375
943,87.890625
944,85.937500
945,87.890625
946,87.890625
947,85.937500
948,87.890625
949,89.843750
950,89.843750
951,85.937500
952,91.796875
953,87.890625
954,91.796875
955,91.796875
956,89.843750
957,113.281250
958,89.843750
959,91.796875
960,89.843750
961,91.796875
962,91.796875
963,89.843750
964,91.796875
965,91.796875
966,91.796875
967,93.750000
968,91.796875
969,91.796875
970,91.796875
971,91.796875
972,91.796875
973,91.796875
974,91.796875
975,91.796875
976,93.750000
977,91.796875
978,91.796875
979,89.843750
980,91.796875
981,91.796875
982,91.796875
983,91.796875
984,89.843750
985,95.703125
986,93.750000
987,91.796875
988,93.750000
989,91.796875
990,93.750000
991,91.796875
992,91.796875
993,91.796875
994,91.796875
995,93.750000
996,91.796875
997,91.796875
998,91.796875
999,91.796875
1000,93.750000
1001,89.843750
1002,93.750000
1003,93.750000
1004,91.796875
1005,95.703125
1006,91.796875
1007,91.796875
1008,91.796875
1009,93.750000
1010,93.750000
1011,80.078125
1012,93.750000
1013,91.796875
1014,93.750000
1015,91.796875
1016,91.796875
1017,91.796875
1018,91.796875
1019,95.703125
1020,89.843750
1021,91.796875
1022,91.796875
1023,91.796875
1024,93.750000
1025,91.796875
1026,91.796875
1027,91.796875
1028,93.750000
1029,89.843750
1030,89.843750
1031,91.796875
1032,89.843750
1033,89.843750
1034,91.796875
1035,91.796875
1036,91.796875
1037,89.843750
1038,107.421875
1039,89.843750
1040,93.750000
1041,91.796875
1042,93.750000
1043,91.796875
1044,91.796875
1045,93.750000
1046,89.843750
1047,91.796875
1048,91.796875
1049,91.796875
1050,91.796875
1051,91.796875
1052,93.750000
1053,91.796875
1054,91.796875
1055,91.796875
1056,93.750000
1057,101.562500
1058,91.796875
1059,93.750000
1060,91.796875
1061,93.750000
1062,93.750000
1063,93.750000
1064,93.750000
1065,99.609375
1066,91.796875
1067,91.796875
1068,89.843750
1069,91.796875
1070,89.843750
1071,91.796875
1072,91.796875
1073,91.796875
1074,91.796875
1075,91.796875
1076,91.796875
1077,91.796875
1078,91.796875
1079,91.796875
1080,89.843750
1081,91.796875
1082,89.843750
1083,91.796875
1084,91.796875
1085,91.796875
1086,91.796875
1087,85.937500
1088,91.796875
1089,91.796875
1090,89.843750
1091,91.796875
1092,76.171875
1093,89.843750
1094,85.937500
1095,91.796875
1096,87.890625
1097,91.796875
1098,89.843750
1099,93.750000
1100,91.796875
1101,91.796875
1102,91.796875
1103,93.750000
1104,93.750000
1105,91.796875
1106,91.796875
1107,89.843750
1108,91.796875
1109,91.796875
1110,91.796875
1111,91.796875
1112,91.796875
1113,91.796875
1114,91.796875
1115,93.750000
1116,91.796875
1117,91.796875
1118,91.796875
1119,89.843750
1120,91.796875
1121,89.843750
1122,89.843750
1123,91.796875
1124,89.843750
1125,87.890625
1126,91.796875
1127,89.843750
1128,91.796875
1129,87.890625
1130,85.937500
1131,89.843750
1132,89.843750
1133,89.843750
1134,87.890625
1135,89.843750
1136,89.843750
1137,91.796875
1138,89.843750
1139,89.843750
1140,91.796875
1141,91.796875
1142,91.796875
1143,87.890625
1144,85.937500
1145,89.843750
1146,93.750000
1147,89.843750
1148,89.843750
1149,91.796875
1150,89.843750
1151,91.796875
1152,91.796875
1153,89.843750
1154,91.796875
1155,91.796875
1156,91.796875
1157,91.796875
1158,91.796875
1159,91.796875
1160,89.843750
1161,91.796875
1162,87.890625
1163,91.796875
1164,89.843750
1165,91.796875
1166,91.796875
1167,87.890625
1168,91.796875
1169,87.890625
1170,89.843750
1171,89.843750
1172,89.843750
1173,87.890625
1174,87.890625
1175,89.843750
1176,87.890625
1177,87.890625
1178,87.890625
1179,87.890625
1180,89.843750
1181,85.937500
1182,89.843750
1183,89.843750
1184,87.890625
1185,85.937500
1186,89.843750
1187,87.890625
1188,89.843750
1189,89.843750
1190,89.843750
1191,89.843750
1192,89.843750
1193,87.890625
1194,89.843750
1195,87.890625
1196,89.843750
1197,89.843750
1198,89.843750
1199,89.843750
1200,87.890625
1201,89.843750
1202,89.843750
1203,87.890625
1204,87.890625
1205,87.890625
1206,89.843750
1207,87.890625
1208,91.796875
1209,87.890625
1210,89.843750
1211,83.984375
1212,87.890625
1213,91.796875
1214,87.890625
1215,87.890625
1216,87.890625
1217,87.890625
1218,89.843750
1219,87.890625
1220,89.843750
1221,89.843750
1222,89.843750
1223,87.890625
1224,85.937500
1225,89.843750
1226,87.890625
1227,87.890625
1228,85.937500
1229,85.937500
1230,89.843750
1231,83.984375
1232,89.843750
1233,89.843750
1234,87.890625
1235,85.937500
1236,85.937500
1237,87.890625
1238,87.890625
1239,89.843750
1240,85.937500
1241,87.890625
1242,89.843750
1243,85.937500
1244,95.703125
1245,85.937500
1246,89.843750
1247,87.890625
1248,85.937500
1249,91.796875
1250,85.937500
1251,89.843750
1252,87.890625
1253,89.843750
1254,89.843750
1255,89.843750
1256,89.843750
1257,87.890625
1258,89.843750
1259,85.937500
1260,87.890625
1261,87.890625
1262,85.937500
1263,89.843750
1264,85.937500
1265,93.750000
1266,85.937500
1267,85.937500
1268,87.890625
1269,85.937500
1270,87.890625
1271,85.937500
1272,89.843750
1273,85.937500
1274,83.984375
1275,87.890625
1276,85.937500
1277,83.984375
1278,87.890625
1279,85.937500
1280,87.890625
1281,83.984375
1282,87.890625
1283,85.937500
1284,87.890625
1285,87.890625
1286,87.890625
1287,89.843750
1288,83.984375
1289,85.937500
1290,83.984375
1291,87.890625
1292,105.468750
1293,89.843750
1294,85.937500
1295,85.937500
1296,85.937500
1297,85.937500
1298,83.984375
1299,87.890625
1300,87.890625
1301,85.937500
1302,87.890625
1303,83.984375
1304,85.937500
1305,85.937500
1306,85.937500
1307,83.984375
1308,87.890625
1309,87.890625
1310,87.890625
1311,83.984375
1312,85.937500
1313,85.937500
1314,85.937500
1315,83.984375
1316,83.984375
1317,83.984375
1318,83.984375
1319,85.937500
1320,83.984375
1321,85.937500
1322,83.984375
1323,85.937500
1324,80.078125
1325,83.984375
1326,83.984375
1327,80.078125
1328,89.843750
1329,83.984375
1330,83.984375
1331,80.078125
1332,83.984375
1333,83.984375
1334,83.984375
1335,83.984375
1336,82.031250
1337,83.984375
1338,83.984375
1339,83.984375
1340,83.984375
1341,83.984375
1342,83.984375
1343,83.984375
1344,83.984375
1345,83.984375
1346,85.937500
1347,83.984375
1348,85.937500
1349,83.984375
1350,83.984375
1351,83.984375
1352,83.984375
1353,83.984375
1354,83.984375
1355,83.984375
1356,83.984375
1357,87.890625
1358,83.984375
1359,83.984375
1360,85.937500
1361,83.984375
1362,83.984375
1363,83.984375
1364,83.984375
1365,85.937500
1366,83.984375
1367,83.984375
1368,82.031250
1369,83.984375
1370,83.984375
1371,80.078125
1372,83.984375
1373,80.078125
1374,83.984375
1375,82.031250
1376,83.984375
1377,83.984375
1378,83.984375
1379,85.937500
1380,83.984375
1381,83.984375
1382,85.937500
1383,85.937500
1384,87.890625
1385,83.984375
1386,85.937500
1387,87.890625
1388,87.890625
1389,87.890625
1390,87.890625
1391,87.890625
