時系列データ/data_kai_だめ/gamtest.csv

Channel              :,CH1
Frequency            :,  ?
Period               :,  ?
PK-PK                :,60.55mV
Probe attenuation    :,10X
Voltage per ADC value:,0.122070mV
Time interval        :,400.00000us

index,CH1_Voltage(mV)
1,41.015625
2,41.015625
3,42.968750
4,41.015625
5,42.968750
6,39.062500
7,42.968750
8,41.015625
9,44.921875
10,42.968750
11,42.968750
12,39.062500
13,42.968750
14,41.015625
15,44.921875
16,42.968750
17,41.015625
18,42.968750
19,41.015625
20,42.968750
21,41.015625
22,41.015625
23,44.921875
24,41.015625
25,37.109375
26,42.968750
27,37.109375
28,42.968750
29,41.015625
30,39.062500
31,39.062500
32,41.015625
33,39.062500
34,37.109375
35,39.062500
36,39.062500
37,39.062500
38,37.109375
39,39.062500
40,37.109375
41,39.062500
42,37.109375
43,37.109375
44,39.062500
45,37.109375
46,37.109375
47,39.062500
48,39.062500
49,39.062500
50,39.062500
51,39.062500
52,41.015625
53,39.062500
54,42.968750
55,37.109375
56,42.968750
57,37.109375
58,31.250000
59,41.015625
60,41.015625
61,41.015625
62,35.156250
63,41.015625
64,37.109375
65,42.968750
66,41.015625
67,41.015625
68,37.109375
69,41.015625
70,37.109375
71,39.062500
72,42.968750
73,39.062500
74,39.062500
75,39.062500
76,33.203125
77,37.109375
78,41.015625
79,39.062500
80,41.015625
81,37.109375
82,39.062500
83,44.921875
84,39.062500
85,39.062500
86,39.062500
87,37.109375
88,41.015625
89,39.062500
90,37.109375
91,41.015625
92,33.203125
93,42.968750
94,39.062500
95,39.062500
96,37.109375
97,39.062500
98,37.109375
99,41.015625
100,39.062500
101,42.968750
102,41.015625
103,42.968750
104,42.968750
105,39.062500
106,42.968750
107,39.062500
108,42.968750
109,41.015625
110,42.968750
111,39.062500
112,42.968750
113,41.015625
114,42.968750
115,41.015625
116,41.015625
117,42.968750
118,41.015625
119,39.062500
120,41.015625
121,41.015625
122,39.062500
123,41.015625
124,39.062500
125,41.015625
126,39.062500
127,42.968750
128,41.015625
129,39.062500
130,39.062500
131,39.062500
132,37.109375
133,41.015625
134,37.109375
135,39.062500
136,39.062500
137,39.062500
138,39.062500
139,37.109375
140,39.062500
141,37.109375
142,39.062500
143,37.109375
144,37.109375
145,37.109375
146,39.062500
147,35.156250
148,39.062500
149,39.062500
150,37.109375
151,37.109375
152,42.968750
153,33.203125
154,41.015625
155,37.109375
156,39.062500
157,33.203125
158,37.109375
159,31.250000
160,37.109375
161,37.109375
162,35.156250
163,37.109375
164,37.109375
165,37.109375
166,33.203125
167,39.062500
168,33.203125
169,37.109375
170,33.203125
171,39.062500
172,37.109375
173,37.109375
174,37.109375
175,33.203125
176,39.062500
177,35.156250
178,37.109375
179,37.109375
180,37.109375
181,37.109375
182,37.109375
183,37.109375
184,33.203125
185,37.109375
186,35.156250
187,37.109375
188,37.109375
189,35.156250
190,37.109375
191,37.109375
192,33.203125
193,37.109375
194,37.109375
195,37.109375
196,39.062500
197,37.109375
198,35.156250
199,35.156250
200,35.156250
201,39.062500
202,37.109375
203,37.109375
204,39.062500
205,37.109375
206,41.015625
207,35.156250
208,39.062500
209,33.203125
210,37.109375
211,39.062500
212,39.062500
213,39.062500
214,37.109375
215,39.062500
216,39.062500
217,39.062500
218,37.109375
219,39.062500
220,37.109375
221,39.062500
222,37.109375
223,41.015625
224,39.062500
225,39.062500
226,37.109375
227,37.109375
228,39.062500
229,39.062500
230,39.062500
231,37.109375
232,39.062500
233,37.109375
234,41.015625
235,37.109375
236,39.062500
237,37.109375
238,39.062500
239,39.062500
240,39.062500
241,37.109375
242,39.062500
243,37.109375
244,37.109375
245,39.062500
246,37.109375
247,41.015625
248,37.109375
249,21.484375
250,37.109375
251,37.109375
252,37.109375
253,37.109375
254,37.109375
255,37.109375
256,35.156250
257,37.109375
258,39.062500
259,37.109375
260,39.062500
261,37.109375
262,37.109375
263,37.109375
264,37.109375
265,37.109375
266,39.062500
267,37.109375
268,37.109375
269,39.062500
270,37.109375
271,39.062500
272,41.015625
273,39.062500
274,37.109375
275,37.109375
276,37.109375
277,39.062500
278,37.109375
279,39.062500
280,39.062500
281,37.109375
282,39.062500
283,37.109375
284,39.062500
285,37.109375
286,39.062500
287,37.109375
288,39.062500
289,37.109375
290,31.250000
291,37.109375
292,37.109375
293,37.109375
294,37.109375
295,37.109375
296,39.062500
297,37.109375
298,37.109375
299,39.062500
300,35.156250
301,39.062500
302,37.109375
303,33.203125
304,37.109375
305,37.109375
306,37.109375
307,37.109375
308,37.109375
309,37.109375
310,41.015625
311,37.109375
312,39.062500
313,37.109375
314,39.062500
315,37.109375
316,37.109375
317,39.062500
318,39.062500
319,37.109375
320,37.109375
321,37.109375
322,37.109375
323,39.062500
324,37.109375
325,42.968750
326,33.203125
327,39.062500
328,37.109375
329,37.109375
330,37.109375
331,39.062500
332,33.203125
333,39.062500
334,37.109375
335,39.062500
336,52.734375
337,37.109375
338,37.109375
339,35.156250
340,37.109375
341,21.484375
342,37.109375
343,35.156250
344,37.109375
345,33.203125
346,44.921875
347,33.203125
348,37.109375
349,37.109375
350,33.203125
351,37.109375
352,37.109375
353,39.062500
354,37.109375
355,39.062500
356,41.015625
357,37.109375
358,37.109375
359,37.109375
360,37.109375
361,37.109375
362,37.109375
363,37.109375
364,37.109375
365,39.062500
366,37.109375
367,37.109375
368,39.062500
369,35.156250
370,39.062500
371,37.109375
372,39.062500
373,37.109375
374,37.109375
375,37.109375
376,17.578125
377,37.109375
378,37.109375
379,37.109375
380,37.109375
381,37.109375
382,37.109375
383,39.062500
384,37.109375
385,37.109375
386,39.062500
387,35.156250
388,37.109375
389,35.156250
390,33.203125
391,37.109375
392,33.203125
393,39.062500
394,33.203125
395,37.109375
396,37.109375
397,33.203125
398,33.203125
399,33.203125
400,29.296875
401,37.109375
402,31.250000
403,37.109375
404,33.203125
405,33.203125
406,33.203125
407,37.109375
408,33.203125
409,37.109375
410,37.109375
411,33.203125
412,37.109375
413,29.296875
414,37.109375
415,33.203125
416,37.109375
417,33.203125
418,33.203125
419,33.203125
420,37.109375
421,33.203125
422,33.203125
423,31.250000
424,33.203125
425,37.109375
426,31.250000
427,37.109375
428,33.203125
429,33.203125
430,33.203125
431,33.203125
432,33.203125
433,37.109375
434,33.203125
435,31.250000
436,37.109375
437,33.203125
438,37.109375
439,31.250000
440,33.203125
441,33.203125
442,33.203125
443,35.156250
444,35.156250
445,33.203125
446,33.203125
447,33.203125
448,33.203125
449,39.062500
450,33.203125
451,37.109375
452,33.203125
453,31.250000
454,33.203125
455,33.203125
456,33.203125
457,37.109375
458,33.203125
459,33.203125
460,33.203125
461,33.203125
462,35.156250
463,33.203125
464,37.109375
465,33.203125
466,33.203125
467,31.250000
468,33.203125
469,33.203125
470,33.203125
471,33.203125
472,33.203125
473,33.203125
474,33.203125
475,35.156250
476,33.203125
477,37.109375
478,33.203125
479,33.203125
480,33.203125
481,33.203125
482,33.203125
483,37.109375
484,31.250000
485,35.156250
486,33.203125
487,37.109375
488,35.156250
489,33.203125
490,35.156250
491,37.109375
492,33.203125
493,44.921875
494,37.109375
495,33.203125
496,35.156250
497,31.250000
498,37.109375
499,33.203125
500,33.203125
501,37.109375
502,33.203125
503,37.109375
504,33.203125
505,39.062500
506,33.203125
507,33.203125
508,37.109375
509,37.109375
510,33.203125
511,37.109375
512,33.203125
513,29.296875
514,35.156250
515,35.156250
516,33.203125
517,33.203125
518,37.109375
519,33.203125
520,33.203125
521,33.203125
522,37.109375
523,13.671875
524,35.156250
525,33.203125
526,37.109375
527,33.203125
528,33.203125
529,33.203125
530,37.109375
531,33.203125
532,33.203125
533,33.203125
534,33.203125
535,35.156250
536,33.203125
537,37.109375
538,29.296875
539,33.203125
540,33.203125
541,33.203125
542,31.250000
543,37.109375
544,33.203125
545,33.203125
546,29.296875
547,33.203125
548,31.250000
549,33.203125
550,33.203125
551,33.203125
552,23.437500
553,35.156250
554,33.203125
555,33.203125
556,35.156250
557,37.109375
558,37.109375
559,31.250000
560,37.109375
561,33.203125
562,33.203125
563,35.156250
564,33.203125
565,37.109375
566,33.203125
567,37.109375
568,33.203125
569,33.203125
570,33.203125
571,37.109375
572,31.250000
573,33.203125
574,33.203125
575,35.156250
576,33.203125
577,37.109375
578,33.203125
579,37.109375
580,37.109375
581,37.109375
582,33.203125
583,33.203125
584,33.203125
585,33.203125
586,33.203125
587,33.203125
588,33.203125
589,33.203125
590,35.156250
591,33.203125
592,37.109375
593,33.203125
594,33.203125
595,33.203125
596,33.203125
597,33.203125
598,39.062500
599,31.250000
600,33.203125
601,33.203125
602,31.250000
603,33.203125
604,31.250000
605,33.203125
606,33.203125
607,33.203125
608,31.250000
609,35.156250
610,33.203125
611,33.203125
612,31.250000
613,33.203125
614,33.203125
615,31.250000
616,33.203125
617,33.203125
618,31.250000
619,31.250000
620,31.250000
621,29.296875
622,33.203125
623,27.343750
624,33.203125
625,31.250000
626,33.203125
627,33.203125
628,31.250000
629,29.296875
630,33.203125
631,29.296875
632,31.250000
633,31.250000
634,31.250000
635,31.250000
636,29.296875
637,31.250000
638,31.250000
639,29.296875
640,31.250000
641,31.250000
642,29.296875
643,33.203125
644,31.250000
645,31.250000
646,29.296875
647,33.203125
648,31.250000
649,29.296875
650,31.250000
651,33.203125
652,29.296875
653,33.203125
654,29.296875
655,37.109375
656,31.250000
657,35.156250
658,29.296875
659,33.203125
660,33.203125
661,31.250000
662,33.203125
663,33.203125
664,33.203125
665,31.250000
666,33.203125
667,33.203125
668,33.203125
669,31.250000
670,37.109375
671,29.296875
672,33.203125
673,31.250000
674,33.203125
675,31.250000
676,29.296875
677,31.250000
678,31.250000
679,33.203125
680,31.250000
681,33.203125
682,31.250000
683,35.156250
684,29.296875
685,33.203125
686,33.203125
687,27.343750
688,33.203125
689,48.828125
690,33.203125
691,33.203125
692,33.203125
693,33.203125
694,33.203125
695,33.203125
696,33.203125
697,23.437500
698,33.203125
699,31.250000
700,31.250000
701,31.250000
702,33.203125
703,29.296875
704,33.203125
705,31.250000
706,33.203125
707,31.250000
708,31.250000
709,35.156250
710,31.250000
711,33.203125
712,31.250000
713,33.203125
714,31.250000
715,33.203125
716,31.250000
717,33.203125
718,31.250000
719,33.203125
720,31.250000
721,33.203125
722,33.203125
723,33.203125
724,29.296875
725,33.203125
726,33.203125
727,31.250000
728,33.203125
729,31.250000
730,33.203125
731,33.203125
732,33.203125
733,33.203125
734,33.203125
735,31.250000
736,37.109375
737,33.203125
738,39.062500
739,31.250000
740,33.203125
741,33.203125
742,33.203125
743,31.250000
744,33.203125
745,33.203125
746,31.250000
747,33.203125
748,33.203125
749,33.203125
750,29.296875
751,33.203125
752,33.203125
753,31.250000
754,29.296875
755,33.203125
756,29.296875
757,33.203125
758,29.296875
759,33.203125
760,31.250000
761,31.250000
762,33.203125
763,31.250000
764,31.250000
765,29.296875
766,33.203125
767,33.203125
768,33.203125
769,29.296875
770,33.203125
771,29.296875
772,33.203125
773,31.250000
774,29.296875
775,29.296875
776,31.250000
777,29.296875
778,33.203125
779,31.250000
780,29.296875
781,33.203125
782,29.296875
783,33.203125
784,37.109375
785,33.203125
786,33.203125
787,33.203125
788,33.203125
789,33.203125
790,33.203125
791,33.203125
792,31.250000
793,33.203125
794,46.875000
795,33.203125
796,31.250000
797,33.203125
798,31.250000
799,33.203125
800,31.250000
801,33.203125
802,37.109375
803,33.203125
804,33.203125
805,33.203125
806,33.203125
807,29.296875
808,33.203125
809,33.203125
810,35.156250
811,31.250000
812,33.203125
813,33.203125
814,33.203125
815,21.484375
816,33.203125
817,29.296875
818,31.250000
819,33.203125
820,31.250000
821,27.343750
822,31.250000
823,31.250000
824,29.296875
825,29.296875
826,29.296875
827,31.250000
828,27.343750
829,31.250000
830,29.296875
831,31.250000
832,27.343750
833,29.296875
834,27.343750
835,31.250000
836,29.296875
837,33.203125
838,27.343750
839,29.296875
840,29.296875
841,27.343750
842,29.296875
843,29.296875
844,29.296875
845,29.296875
846,29.296875
847,33.203125
848,29.296875
849,25.390625
850,29.296875
851,27.343750
852,29.296875
853,27.343750
854,29.296875
855,27.343750
856,29.296875
857,23.437500
858,31.250000
859,27.343750
860,27.343750
861,29.296875
862,27.343750
863,29.296875
864,27.343750
865,35.156250
866,27.343750
867,29.296875
868,25.390625
869,29.296875
870,23.437500
871,29.296875
872,29.296875
873,29.296875
874,27.343750
875,29.296875
876,27.343750
877,27.343750
878,27.343750
879,27.343750
880,29.296875
881,27.343750
882,29.296875
883,27.343750
884,27.343750
885,27.343750
886,29.296875
887,25.390625
888,29.296875
889,25.390625
890,31.250000
891,31.250000
892,29.296875
893,25.390625
894,27.343750
895,27.343750
896,29.296875
897,27.343750
898,29.296875
899,27.343750
900,29.296875
901,27.343750
902,29.296875
903,29.296875
904,31.250000
905,27.343750
906,31.250000
907,29.296875
908,29.296875
909,31.250000
910,31.250000
911,29.296875
912,29.296875
913,31.250000
914,27.343750
915,33.203125
916,29.296875
917,33.203125
918,31.250000
919,33.203125
920,31.250000
921,31.250000
922,33.203125
923,33.203125
924,33.203125
925,37.109375
926,35.156250
927,33.203125
928,33.203125
929,33.203125
930,35.156250
931,33.203125
932,37.109375
933,35.156250
934,33.203125
935,41.015625
936,37.109375
937,37.109375
938,37.109375
939,37.109375
940,37.109375
941,37.109375
942,35.156250
943,39.062500
944,37.109375
945,37.109375
946,37.109375
947,37.109375
948,39.062500
949,37.109375
950,39.062500
951,39.062500
952,41.015625
953,39.062500
954,39.062500
955,37.109375
956,41.015625
957,37.109375
958,39.062500
959,39.062500
960,41.015625
961,41.015625
962,42.968750
963,42.968750
964,41.015625
965,39.062500
966,41.015625
967,44.921875
968,41.015625
969,44.921875
970,44.921875
971,48.828125
972,41.015625
973,44.921875
974,44.921875
975,48.828125
976,44.921875
977,48.828125
978,46.875000
979,46.875000
980,48.828125
981,48.828125
982,48.828125
983,48.828125
984,48.828125
985,48.828125
986,48.828125
987,48.828125
988,54.687500
989,48.828125
990,52.734375
991,48.828125
992,52.734375
993,48.828125
994,52.734375
995,46.875000
996,52.734375
997,48.828125
998,52.734375
999,52.734375
1000,48.828125
1001,52.734375
1002,52.734375
1003,52.734375
1004,52.734375
1005,52.734375
1006,48.828125
1007,52.734375
1008,48.828125
1009,52.734375
1010,50.781250
1011,52.734375
1012,50.781250
1013,52.734375
1014,54.687500
1015,52.734375
1016,52.734375
1017,52.734375
1018,48.828125
1019,50.781250
1020,52.734375
1021,50.781250
1022,54.687500
1023,52.734375
1024,52.734375
1025,52.734375
1026,52.734375
1027,52.734375
1028,52.734375
1029,52.734375
1030,52.734375
1031,52.734375
1032,52.734375
1033,52.734375
1034,52.734375
1035,54.687500
1036,48.828125
1037,52.734375
1038,52.734375
1039,52.734375
1040,52.734375
1041,52.734375
1042,50.781250
1043,52.734375
1044,52.734375
1045,52.734375
1046,52.734375
1047,50.781250
1048,52.734375
1049,52.734375
1050,52.734375
1051,52.734375
1052,52.734375
1053,52.734375
1054,52.734375
1055,52.734375
1056,54.687500
1057,52.734375
1058,52.734375
1059,54.687500
1060,52.734375
1061,52.734375
1062,52.734375
1063,52.734375
1064,52.734375
1065,54.687500
1066,52.734375
1067,52.734375
1068,52.734375
1069,52.734375
1070,54.687500
1071,52.734375
1072,52.734375
1073,50.781250
1074,52.734375
1075,52.734375
1076,54.687500
1077,52.734375
1078,54.687500
1079,52.734375
1080,56.640625
1081,52.734375
1082,52.734375
1083,52.734375
1084,54.687500
1085,52.734375
1086,52.734375
1087,52.734375
1088,54.687500
1089,52.734375
1090,54.687500
1091,52.734375
1092,52.734375
1093,52.734375
1094,52.734375
1095,50.781250
1096,50.781250
1097,50.781250
1098,52.734375
1099,54.687500
1100,52.734375
1101,56.640625
1102,52.734375
1103,52.734375
1104,52.734375
1105,42.968750
1106,52.734375
1107,52.734375
1108,54.687500
1109,52.734375
1110,54.687500
1111,52.734375
1112,52.734375
1113,52.734375
1114,54.687500
1115,52.734375
1116,54.687500
1117,52.734375
1118,52.734375
1119,52.734375
1120,54.687500
1121,52.734375
1122,52.734375
1123,52.734375
1124,52.734375
1125,54.687500
1126,52.734375
1127,52.734375
1128,52.734375
1129,54.687500
1130,52.734375
1131,52.734375
1132,52.734375
1133,54.687500
1134,50.781250
1135,54.687500
1136,52.734375
1137,56.640625
1138,52.734375
1139,52.734375
1140,54.687500
1141,46.875000
1142,52.734375
1143,54.687500
1144,52.734375
1145,52.734375
1146,52.734375
1147,52.734375
1148,54.687500
1149,48.828125
1150,52.734375
1151,52.734375
1152,52.734375
1153,52.734375
1154,54.687500
1155,50.781250
1156,54.687500
1157,52.734375
1158,54.687500
1159,52.734375
1160,56.640625
1161,48.828125
1162,52.734375
1163,50.781250
1164,54.687500
1165,41.015625
1166,48.828125
1167,54.687500
1168,52.734375
1169,54.687500
1170,52.734375
1171,54.687500
1172,48.828125
1173,54.687500
1174,50.781250
1175,52.734375
1176,52.734375
1177,52.734375
1178,54.687500
1179,52.734375
1180,52.734375
1181,52.734375
1182,52.734375
1183,52.734375
1184,52.734375
1185,52.734375
1186,46.875000
1187,50.781250
1188,52.734375
1189,48.828125
1190,52.734375
1191,52.734375
1192,52.734375
1193,52.734375
1194,54.687500
1195,52.734375
1196,48.828125
1197,52.734375
1198,52.734375
1199,56.640625
1200,52.734375
1201,54.687500
1202,52.734375
1203,52.734375
1204,52.734375
1205,52.734375
1206,52.734375
1207,52.734375
1208,50.781250
1209,52.734375
1210,52.734375
1211,52.734375
1212,48.828125
1213,52.734375
1214,54.687500
1215,48.828125
1216,52.734375
1217,48.828125
1218,52.734375
1219,46.875000
1220,52.734375
1221,48.828125
1222,52.734375
1223,48.828125
1224,48.828125
1225,44.921875
1226,48.828125
1227,44.921875
1228,46.875000
1229,44.921875
1230,44.921875
1231,44.921875
1232,37.109375
1233,46.875000
1234,42.968750
1235,44.921875
1236,41.015625
1237,42.968750
1238,42.968750
1239,44.921875
1240,41.015625
1241,44.921875
1242,44.921875
1243,44.921875
1244,42.968750
1245,44.921875
1246,41.015625
1247,44.921875
1248,48.828125
1249,44.921875
1250,42.968750
1251,39.062500
1252,44.921875
1253,41.015625
1254,41.015625
1255,41.015625
1256,60.546875
1257,42.968750
1258,39.062500
1259,41.015625
1260,41.015625
1261,41.015625
1262,42.968750
1263,42.968750
1264,39.062500
1265,44.921875
1266,39.062500
1267,42.968750
1268,41.015625
1269,37.109375
1270,41.015625
1271,42.968750
1272,37.109375
1273,42.968750
1274,41.015625
1275,41.015625
1276,42.968750
1277,41.015625
1278,42.968750
1279,39.062500
1280,41.015625
1281,37.109375
1282,39.062500
1283,37.109375
1284,39.062500
1285,39.062500
1286,39.062500
1287,37.109375
1288,39.062500
1289,37.109375
1290,39.062500
1291,39.062500
1292,37.109375
1293,37.109375
1294,39.062500
1295,37.109375
1296,37.109375
1297,39.062500
1298,37.109375
1299,39.062500
1300,31.250000
1301,37.109375
1302,37.109375
1303,37.109375
1304,33.203125
1305,37.109375
1306,35.156250
1307,37.109375
1308,37.109375
1309,37.109375
1310,37.109375
1311,33.203125
1312,37.109375
1313,37.109375
1314,37.109375
1315,37.109375
1316,37.109375
1317,33.203125
1318,33.203125
1319,33.203125
1320,37.109375
1321,33.203125
1322,37.109375
1323,33.203125
1324,37.109375
1325,37.109375
1326,33.203125
1327,37.109375
1328,33.203125
1329,33.203125
1330,35.156250
1331,35.156250
1332,35.156250
1333,33.203125
1334,33.203125
1335,33.203125
1336,37.109375
1337,37.109375
1338,33.203125
1339,48.828125
1340,31.250000
1341,33.203125
1342,33.203125
1343,33.203125
1344,31.250000
1345,37.109375
1346,31.250000
1347,35.156250
1348,39.062500
1349,27.343750
1350,33.203125
1351,31.250000
1352,33.203125
1353,33.203125
1354,33.203125
1355,29.296875
1356,33.203125
1357,31.250000
1358,33.203125
1359,37.109375
1360,37.109375
1361,33.203125
1362,33.203125
1363,33.203125
1364,33.203125
1365,33.203125
1366,31.250000
1367,37.109375
1368,37.109375
1369,29.296875
1370,33.203125
1371,37.109375
1372,33.203125
1373,37.109375
1374,37.109375
1375,33.203125
1376,39.062500
1377,37.109375
1378,33.203125
1379,37.109375
1380,37.109375
1381,33.203125
1382,37.109375
1383,33.203125
1384,39.062500
1385,37.109375
1386,33.203125
1387,37.109375
1388,37.109375
1389,33.203125
1390,37.109375
1391,33.203125
