時系列データ/data_kai_だめ/petbottle.csv

Channel              :,CH1
Frequency            :,  ?
Period               :,  ?
PK-PK                :,76.17mV
Probe attenuation    :,10X
Voltage per ADC value:,0.122070mV
Time interval        :,400.00000us

index,CH1_Voltage(mV)
1,99.609375
2,99.609375
3,101.562500
4,101.562500
5,103.515625
6,103.515625
7,103.515625
8,103.515625
9,103.515625
10,105.468750
11,101.562500
12,105.468750
13,107.421875
14,105.468750
15,103.515625
16,101.562500
17,105.468750
18,101.562500
19,103.515625
20,103.515625
21,103.515625
22,103.515625
23,99.609375
24,105.468750
25,101.562500
26,103.515625
27,101.562500
28,101.562500
29,103.515625
30,101.562500
31,101.562500
32,101.562500
33,101.562500
34,103.515625
35,101.562500
36,101.562500
37,101.562500
38,101.562500
39,101.562500
40,103.515625
41,103.515625
42,103.515625
43,105.468750
44,103.515625
45,101.562500
46,105.468750
47,101.562500
48,103.515625
49,103.515625
50,105.468750
51,105.468750
52,107.421875
53,105.468750
54,105.468750
55,105.468750
56,103.515625
57,105.468750
58,103.515625
59,103.515625
60,103.515625
61,103.515625
62,103.515625
63,101.562500
64,105.468750
65,105.468750
66,103.515625
67,119.140625
68,105.468750
69,103.515625
70,105.468750
71,103.515625
72,103.515625
73,101.562500
74,103.515625
75,101.562500
76,105.468750
77,103.515625
78,119.140625
79,99.609375
80,99.609375
81,103.515625
82,103.515625
83,103.515625
84,103.515625
85,103.515625
86,101.562500
87,99.609375
88,103.515625
89,111.328125
90,103.515625
91,101.562500
92,101.562500
93,105.468750
94,101.562500
95,103.515625
96,103.515625
97,101.562500
98,105.468750
99,103.515625
100,103.515625
101,105.468750
102,103.515625
103,103.515625
104,101.562500
105,105.468750
106,105.468750
107,103.515625
108,103.515625
109,101.562500
110,103.515625
111,105.468750
112,103.515625
113,107.421875
114,103.515625
115,101.562500
116,103.515625
117,105.468750
118,103.515625
119,105.468750
120,103.515625
121,101.562500
122,101.562500
123,101.562500
124,103.515625
125,101.562500
126,101.562500
127,101.562500
128,101.562500
129,103.515625
130,101.562500
131,101.562500
132,103.515625
133,101.562500
134,101.562500
135,101.562500
136,103.515625
137,103.515625
138,105.468750
139,103.515625
140,103.515625
141,105.468750
142,103.515625
143,103.515625
144,101.562500
145,103.515625
146,105.468750
147,103.515625
148,105.468750
149,105.468750
150,103.515625
151,103.515625
152,105.468750
153,105.468750
154,103.515625
155,105.468750
156,101.562500
157,103.515625
158,105.468750
159,105.468750
160,107.421875
161,103.515625
162,105.468750
163,105.468750
164,103.515625
165,105.468750
166,103.515625
167,105.468750
168,103.515625
169,105.468750
170,107.421875
171,101.562500
172,105.468750
173,101.562500
174,103.515625
175,103.515625
176,101.562500
177,103.515625
178,103.515625
179,101.562500
180,101.562500
181,99.609375
182,99.609375
183,101.562500
184,101.562500
185,103.515625
186,103.515625
187,103.515625
188,103.515625
189,105.468750
190,101.562500
191,99.609375
192,103.515625
193,103.515625
194,105.468750
195,101.562500
196,105.468750
197,105.468750
198,103.515625
199,105.468750
200,105.468750
201,105.468750
202,101.562500
203,105.468750
204,101.562500
205,105.468750
206,105.468750
207,101.562500
208,103.515625
209,105.468750
210,107.421875
211,101.562500
212,103.515625
213,103.515625
214,101.562500
215,103.515625
216,101.562500
217,101.562500
218,103.515625
219,101.562500
220,103.515625
221,101.562500
222,103.515625
223,101.562500
224,103.515625
225,101.562500
226,99.609375
227,99.609375
228,101.562500
229,101.562500
230,101.562500
231,101.562500
232,101.562500
233,101.562500
234,101.562500
235,101.562500
236,103.515625
237,101.562500
238,99.609375
239,103.515625
240,99.609375
241,103.515625
242,101.562500
243,101.562500
244,101.562500
245,103.515625
246,101.562500
247,103.515625
248,105.468750
249,101.562500
250,105.468750
251,101.562500
252,103.515625
253,101.562500
254,105.468750
255,105.468750
256,101.562500
257,105.468750
258,103.515625
259,105.468750
260,101.562500
261,103.515625
262,103.515625
263,101.562500
264,103.515625
265,103.515625
266,101.562500
267,103.515625
268,103.515625
269,101.562500
270,101.562500
271,101.562500
272,99.609375
273,101.562500
274,101.562500
275,101.562500
276,99.609375
277,101.562500
278,101.562500
279,101.562500
280,103.515625
281,99.609375
282,101.562500
283,101.562500
284,101.562500
285,101.562500
286,99.609375
287,103.515625
288,99.609375
289,101.562500
290,101.562500
291,101.562500
292,103.515625
293,101.562500
294,101.562500
295,101.562500
296,101.562500
297,95.703125
298,95.703125
299,103.515625
300,101.562500
301,101.562500
302,103.515625
303,103.515625
304,105.468750
305,101.562500
306,105.468750
307,99.609375
308,107.421875
309,101.562500
310,103.515625
311,105.468750
312,99.609375
313,105.468750
314,101.562500
315,99.609375
316,101.562500
317,101.562500
318,101.562500
319,95.703125
320,101.562500
321,99.609375
322,99.609375
323,101.562500
324,95.703125
325,99.609375
326,93.750000
327,95.703125
328,95.703125
329,95.703125
330,95.703125
331,93.750000
332,93.750000
333,93.750000
334,95.703125
335,95.703125
336,95.703125
337,95.703125
338,93.750000
339,95.703125
340,93.750000
341,95.703125
342,91.796875
343,91.796875
344,93.750000
345,93.750000
346,93.750000
347,91.796875
348,91.796875
349,93.750000
350,93.750000
351,91.796875
352,91.796875
353,91.796875
354,91.796875
355,89.843750
356,91.796875
357,87.890625
358,89.843750
359,89.843750
360,89.843750
361,89.843750
362,87.890625
363,91.796875
364,85.937500
365,87.890625
366,85.937500
367,85.937500
368,66.406250
369,83.984375
370,83.984375
371,83.984375
372,83.984375
373,83.984375
374,80.078125
375,83.984375
376,80.078125
377,80.078125
378,80.078125
379,89.843750
380,78.125000
381,78.125000
382,80.078125
383,78.125000
384,78.125000
385,76.171875
386,78.125000
387,78.125000
388,78.125000
389,78.125000
390,74.218750
391,76.171875
392,76.171875
393,80.078125
394,78.125000
395,78.125000
396,78.125000
397,76.171875
398,80.078125
399,76.171875
400,76.171875
401,76.171875
402,78.125000
403,78.125000
404,78.125000
405,76.171875
406,76.171875
407,76.171875
408,76.171875
409,76.171875
410,76.171875
411,76.171875
412,72.265625
413,76.171875
414,70.312500
415,76.171875
416,76.171875
417,76.171875
418,76.171875
419,74.218750
420,76.171875
421,76.171875
422,76.171875
423,76.171875
424,72.265625
425,76.171875
426,76.171875
427,74.218750
428,74.218750
429,74.218750
430,76.171875
431,74.218750
432,76.171875
433,76.171875
434,74.218750
435,76.171875
436,74.218750
437,76.171875
438,74.218750
439,76.171875
440,76.171875
441,74.218750
442,76.171875
443,76.171875
444,74.218750
445,74.218750
446,76.171875
447,76.171875
448,76.171875
449,76.171875
450,78.125000
451,76.171875
452,76.171875
453,76.171875
454,74.218750
455,76.171875
456,76.171875
457,76.171875
458,76.171875
459,76.171875
460,76.171875
461,83.984375
462,76.171875
463,76.171875
464,72.265625
465,76.171875
466,74.218750
467,76.171875
468,76.171875
469,74.218750
470,76.171875
471,74.218750
472,74.218750
473,74.218750
474,74.218750
475,76.171875
476,72.265625
477,74.218750
478,72.265625
479,74.218750
480,74.218750
481,74.218750
482,76.171875
483,72.265625
484,76.171875
485,74.218750
486,74.218750
487,74.218750
488,74.218750
489,78.125000
490,72.265625
491,76.171875
492,74.218750
493,76.171875
494,72.265625
495,74.218750
496,76.171875
497,72.265625
498,76.171875
499,76.171875
500,76.171875
501,76.171875
502,76.171875
503,78.125000
504,76.171875
505,78.125000
506,76.171875
507,76.171875
508,78.125000
509,78.125000
510,78.125000
511,78.125000
512,78.125000
513,78.125000
514,76.171875
515,80.078125
516,82.031250
517,80.078125
518,80.078125
519,76.171875
520,80.078125
521,82.031250
522,80.078125
523,83.984375
524,80.078125
525,83.984375
526,82.031250
527,85.937500
528,82.031250
529,85.937500
530,85.937500
531,83.984375
532,85.937500
533,89.843750
534,87.890625
535,89.843750
536,89.843750
537,91.796875
538,91.796875
539,91.796875
540,89.843750
541,91.796875
542,91.796875
543,93.750000
544,95.703125
545,95.703125
546,93.750000
547,95.703125
548,95.703125
549,95.703125
550,99.609375
551,99.609375
552,95.703125
553,99.609375
554,78.125000
555,99.609375
556,95.703125
557,95.703125
558,99.609375
559,99.609375
560,97.656250
561,97.656250
562,99.609375
563,99.609375
564,97.656250
565,89.843750
566,95.703125
567,99.609375
568,95.703125
569,97.656250
570,99.609375
571,93.750000
572,101.562500
573,99.609375
574,99.609375
575,99.609375
576,95.703125
577,101.562500
578,99.609375
579,99.609375
580,101.562500
581,99.609375
582,99.609375
583,99.609375
584,99.609375
585,99.609375
586,99.609375
587,85.937500
588,99.609375
589,99.609375
590,93.750000
591,99.609375
592,101.562500
593,99.609375
594,99.609375
595,99.609375
596,99.609375
597,99.609375
598,99.609375
599,97.656250
600,99.609375
601,101.562500
602,101.562500
603,103.515625
604,99.609375
605,101.562500
606,103.515625
607,101.562500
608,101.562500
609,101.562500
610,101.562500
611,103.515625
612,101.562500
613,103.515625
614,101.562500
615,105.468750
616,101.562500
617,101.562500
618,101.562500
619,101.562500
620,101.562500
621,101.562500
622,101.562500
623,99.609375
624,99.609375
625,103.515625
626,99.609375
627,101.562500
628,99.609375
629,103.515625
630,101.562500
631,103.515625
632,99.609375
633,99.609375
634,101.562500
635,99.609375
636,107.421875
637,99.609375
638,101.562500
639,103.515625
640,101.562500
641,101.562500
642,101.562500
643,101.562500
644,97.656250
645,103.515625
646,101.562500
647,99.609375
648,103.515625
649,103.515625
650,101.562500
651,103.515625
652,101.562500
653,103.515625
654,101.562500
655,105.468750
656,105.468750
657,103.515625
658,103.515625
659,103.515625
660,103.515625
661,101.562500
662,105.468750
663,103.515625
664,103.515625
665,105.468750
666,103.515625
667,101.562500
668,101.562500
669,101.562500
670,101.562500
671,101.562500
672,103.515625
673,101.562500
674,101.562500
675,103.515625
676,101.562500
677,101.562500
678,99.609375
679,101.562500
680,103.515625
681,103.515625
682,101.562500
683,103.515625
684,101.562500
685,105.468750
686,101.562500
687,103.515625
688,105.468750
689,103.515625
690,101.562500
691,105.468750
692,101.562500
693,103.515625
694,101.562500
695,103.515625
696,91.796875
697,105.468750
698,103.515625
699,105.468750
700,103.515625
701,103.515625
702,99.609375
703,103.515625
704,101.562500
705,103.515625
706,103.515625
707,113.281250
708,101.562500
709,101.562500
710,103.515625
711,103.515625
712,103.515625
713,105.468750
714,101.562500
715,103.515625
716,99.609375
717,105.468750
718,109.375000
719,101.562500
720,103.515625
721,101.562500
722,101.562500
723,101.562500
724,101.562500
725,101.562500
726,99.609375
727,101.562500
728,99.609375
729,101.562500
730,99.609375
731,101.562500
732,101.562500
733,101.562500
734,103.515625
735,99.609375
736,103.515625
737,99.609375
738,101.562500
739,101.562500
740,101.562500
741,103.515625
742,101.562500
743,105.468750
744,101.562500
745,103.515625
746,105.468750
747,101.562500
748,101.562500
749,101.562500
750,101.562500
751,103.515625
752,103.515625
753,103.515625
754,101.562500
755,101.562500
756,101.562500
757,103.515625
758,103.515625
759,101.562500
760,103.515625
761,101.562500
762,101.562500
763,105.468750
764,101.562500
765,103.515625
766,101.562500
767,103.515625
768,99.609375
769,101.562500
770,101.562500
771,101.562500
772,103.515625
773,101.562500
774,103.515625
775,99.609375
776,99.609375
777,103.515625
778,99.609375
779,103.515625
780,99.609375
781,99.609375
782,99.609375
783,99.609375
784,103.515625
785,99.609375
786,99.609375
787,99.609375
788,99.609375
789,101.562500
790,99.609375
791,99.609375
792,97.656250
793,101.562500
794,103.515625
795,99.609375
796,101.562500
797,99.609375
798,101.562500
799,99.609375
800,91.796875
801,101.562500
802,99.609375
803,101.562500
804,101.562500
805,101.562500
806,99.609375
807,101.562500
808,101.562500
809,99.609375
810,101.562500
811,105.468750
812,101.562500
813,101.562500
814,99.609375
815,99.609375
816,99.609375
817,99.609375
818,101.562500
819,99.609375
820,101.562500
821,95.703125
822,109.375000
823,97.656250
824,99.609375
825,99.609375
826,99.609375
827,99.609375
828,95.703125
829,99.609375
830,99.609375
831,97.656250
832,99.609375
833,95.703125
834,99.609375
835,97.656250
836,99.609375
837,95.703125
838,99.609375
839,99.609375
840,97.656250
841,99.609375
842,99.609375
843,99.609375
844,95.703125
845,95.703125
846,99.609375
847,99.609375
848,99.609375
849,99.609375
850,99.609375
851,99.609375
852,99.609375
853,99.609375
854,95.703125
855,99.609375
856,101.562500
857,101.562500
858,99.609375
859,99.609375
860,99.609375
861,99.609375
862,99.609375
863,97.656250
864,99.609375
865,99.609375
866,95.703125
867,97.656250
868,97.656250
869,93.750000
870,99.609375
871,95.703125
872,99.609375
873,95.703125
874,95.703125
875,95.703125
876,95.703125
877,99.609375
878,93.750000
879,95.703125
880,95.703125
881,95.703125
882,93.750000
883,93.750000
884,95.703125
885,91.796875
886,93.750000
887,91.796875
888,95.703125
889,91.796875
890,91.796875
891,91.796875
892,89.843750
893,91.796875
894,91.796875
895,93.750000
896,89.843750
897,89.843750
898,89.843750
899,89.843750
900,89.843750
901,87.890625
902,89.843750
903,87.890625
904,87.890625
905,87.890625
906,85.937500
907,87.890625
908,85.937500
909,85.937500
910,85.937500
911,83.984375
912,83.984375
913,83.984375
914,83.984375
915,80.078125
916,82.031250
917,82.031250
918,80.078125
919,83.984375
920,80.078125
921,80.078125
922,80.078125
923,78.125000
924,78.125000
925,80.078125
926,80.078125
927,80.078125
928,76.171875
929,80.078125
930,80.078125
931,78.125000
932,78.125000
933,76.171875
934,80.078125
935,74.218750
936,80.078125
937,76.171875
938,76.171875
939,80.078125
940,76.171875
941,78.125000
942,76.171875
943,76.171875
944,76.171875
945,80.078125
946,78.125000
947,74.218750
948,76.171875
949,74.218750
950,76.171875
951,76.171875
952,78.125000
953,76.171875
954,78.125000
955,76.171875
956,76.171875
957,76.171875
958,76.171875
959,78.125000
960,76.171875
961,76.171875
962,78.125000
963,76.171875
964,78.125000
965,74.218750
966,74.218750
967,76.171875
968,74.218750
969,76.171875
970,70.312500
971,76.171875
972,76.171875
973,74.218750
974,76.171875
975,72.265625
976,74.218750
977,72.265625
978,74.218750
979,74.218750
980,72.265625
981,74.218750
982,74.218750
983,76.171875
984,76.171875
985,72.265625
986,76.171875
987,74.218750
988,76.171875
989,76.171875
990,76.171875
991,74.218750
992,76.171875
993,76.171875
994,76.171875
995,76.171875
996,76.171875
997,76.171875
998,76.171875
999,76.171875
1000,76.171875
1001,76.171875
1002,78.125000
1003,76.171875
1004,76.171875
1005,74.218750
1006,76.171875
1007,76.171875
1008,74.218750
1009,76.171875
1010,76.171875
1011,76.171875
1012,76.171875
1013,76.171875
1014,76.171875
1015,74.218750
1016,76.171875
1017,76.171875
1018,76.171875
1019,58.593750
1020,76.171875
1021,76.171875
1022,83.984375
1023,76.171875
1024,76.171875
1025,76.171875
1026,76.171875
1027,74.218750
1028,76.171875
1029,76.171875
1030,82.031250
1031,78.125000
1032,74.218750
1033,76.171875
1034,74.218750
1035,76.171875
1036,76.171875
1037,78.125000
1038,78.125000
1039,76.171875
1040,80.078125
1041,83.984375
1042,80.078125
1043,78.125000
1044,78.125000
1045,80.078125
1046,82.031250
1047,80.078125
1048,80.078125
1049,83.984375
1050,83.984375
1051,83.984375
1052,83.984375
1053,83.984375
1054,85.937500
1055,87.890625
1056,87.890625
1057,87.890625
1058,89.843750
1059,89.843750
1060,91.796875
1061,89.843750
1062,91.796875
1063,89.843750
1064,91.796875
1065,89.843750
1066,93.750000
1067,95.703125
1068,93.750000
1069,93.750000
1070,93.750000
1071,95.703125
1072,93.750000
1073,95.703125
1074,95.703125
1075,95.703125
1076,97.656250
1077,95.703125
1078,95.703125
1079,97.656250
1080,99.609375
1081,99.609375
1082,95.703125
1083,101.562500
1084,95.703125
1085,101.562500
1086,99.609375
1087,95.703125
1088,101.562500
1089,99.609375
1090,101.562500
1091,101.562500
1092,99.609375
1093,101.562500
1094,99.609375
1095,101.562500
1096,95.703125
1097,101.562500
1098,101.562500
1099,101.562500
1100,103.515625
1101,105.468750
1102,103.515625
1103,101.562500
1104,101.562500
1105,101.562500
1106,101.562500
1107,103.515625
1108,101.562500
1109,101.562500
1110,103.515625
1111,101.562500
1112,109.375000
1113,105.468750
1114,105.468750
1115,101.562500
1116,101.562500
1117,103.515625
1118,103.515625
1119,103.515625
1120,103.515625
1121,103.515625
1122,101.562500
1123,103.515625
1124,101.562500
1125,101.562500
1126,95.703125
1127,101.562500
1128,101.562500
1129,99.609375
1130,101.562500
1131,101.562500
1132,97.656250
1133,99.609375
1134,103.515625
1135,101.562500
1136,103.515625
1137,99.609375
1138,103.515625
1139,101.562500
1140,103.515625
1141,101.562500
1142,101.562500
1143,105.468750
1144,101.562500
1145,103.515625
1146,101.562500
1147,101.562500
1148,103.515625
1149,103.515625
1150,103.515625
1151,103.515625
1152,105.468750
1153,101.562500
1154,103.515625
1155,103.515625
1156,101.562500
1157,103.515625
1158,103.515625
1159,103.515625
1160,105.468750
1161,103.515625
1162,103.515625
1163,103.515625
1164,99.609375
1165,103.515625
1166,101.562500
1167,101.562500
1168,101.562500
1169,101.562500
1170,101.562500
1171,101.562500
1172,109.375000
1173,101.562500
1174,105.468750
1175,103.515625
1176,99.609375
1177,101.562500
1178,101.562500
1179,99.609375
1180,103.515625
1181,99.609375
1182,103.515625
1183,97.656250
1184,101.562500
1185,101.562500
1186,101.562500
1187,103.515625
1188,99.609375
1189,103.515625
1190,99.609375
1191,101.562500
1192,101.562500
1193,99.609375
1194,95.703125
1195,101.562500
1196,105.468750
1197,101.562500
1198,101.562500
1199,105.468750
1200,101.562500
1201,101.562500
1202,103.515625
1203,103.515625
1204,101.562500
1205,105.468750
1206,103.515625
1207,103.515625
1208,103.515625
1209,103.515625
1210,99.609375
1211,103.515625
1212,101.562500
1213,105.468750
1214,103.515625
1215,103.515625
1216,101.562500
1217,105.468750
1218,101.562500
1219,103.515625
1220,103.515625
1221,101.562500
1222,103.515625
1223,101.562500
1224,101.562500
1225,99.609375
1226,103.515625
1227,105.468750
1228,101.562500
1229,101.562500
1230,99.609375
1231,101.562500
1232,105.468750
1233,103.515625
1234,101.562500
1235,101.562500
1236,103.515625
1237,101.562500
1238,101.562500
1239,101.562500
1240,103.515625
1241,101.562500
1242,101.562500
1243,103.515625
1244,101.562500
1245,101.562500
1246,101.562500
1247,101.562500
1248,101.562500
1249,101.562500
1250,103.515625
1251,99.609375
1252,103.515625
1253,101.562500
1254,105.468750
1255,103.515625
1256,103.515625
1257,103.515625
1258,99.609375
1259,103.515625
1260,103.515625
1261,103.515625
1262,103.515625
1263,101.562500
1264,105.468750
1265,99.609375
1266,103.515625
1267,103.515625
1268,101.562500
1269,103.515625
1270,99.609375
1271,101.562500
1272,101.562500
1273,99.609375
1274,101.562500
1275,99.609375
1276,105.468750
1277,101.562500
1278,99.609375
1279,101.562500
1280,99.609375
1281,101.562500
1282,99.609375
1283,103.515625
1284,99.609375
1285,99.609375
1286,101.562500
1287,101.562500
1288,101.562500
1289,101.562500
1290,99.609375
1291,101.562500
1292,101.562500
1293,99.609375
1294,99.609375
1295,101.562500
1296,101.562500
1297,101.562500
1298,103.515625
1299,99.609375
1300,103.515625
1301,99.609375
1302,103.515625
1303,105.468750
1304,101.562500
1305,103.515625
1306,101.562500
1307,103.515625
1308,101.562500
1309,99.609375
1310,103.515625
1311,101.562500
1312,99.609375
1313,99.609375
1314,103.515625
1315,99.609375
1316,101.562500
1317,101.562500
1318,99.609375
1319,101.562500
1320,99.609375
1321,101.562500
1322,101.562500
1323,99.609375
1324,97.656250
1325,95.703125
1326,99.609375
1327,99.609375
1328,99.609375
1329,99.609375
1330,99.609375
1331,99.609375
1332,99.609375
1333,99.609375
1334,101.562500
1335,97.656250
1336,99.609375
1337,99.609375
1338,101.562500
1339,101.562500
1340,101.562500
1341,99.609375
1342,99.609375
1343,99.609375
1344,99.609375
1345,101.562500
1346,101.562500
