時系列データ/data_kai_だめ/table.csv

Channel              :,CH1
Frequency            :,  ?
Period               :,  ?
PK-PK                :,87.89mV
Probe attenuation    :,10X
Voltage per ADC value:,0.122070mV
Time interval        :,400.00000us

index,CH1_Voltage(mV)
1,134.765625
2,134.765625
3,136.718750
4,134.765625
5,134.765625
6,134.765625
7,134.765625
8,136.718750
9,134.765625
10,134.765625
11,136.718750
12,134.765625
13,134.765625
14,134.765625
15,134.765625
16,132.812500
17,132.812500
18,134.765625
19,132.812500
20,134.765625
21,130.859375
22,134.765625
23,132.812500
24,130.859375
25,132.812500
26,130.859375
27,130.859375
28,130.859375
29,130.859375
30,130.859375
31,130.859375
32,130.859375
33,130.859375
34,130.859375
35,130.859375
36,130.859375
37,130.859375
38,130.859375
39,115.234375
40,130.859375
41,128.906250
42,132.812500
43,130.859375
44,130.859375
45,130.859375
46,130.859375
47,130.859375
48,130.859375
49,130.859375
50,130.859375
51,130.859375
52,130.859375
53,130.859375
54,128.906250
55,123.046875
56,130.859375
57,136.718750
58,130.859375
59,126.953125
60,130.859375
61,130.859375
62,130.859375
63,126.953125
64,126.953125
65,119.140625
66,126.953125
67,130.859375
68,126.953125
69,126.953125
70,126.953125
71,126.953125
72,126.953125
73,126.953125
74,126.953125
75,126.953125
76,125.000000
77,126.953125
78,126.953125
79,126.953125
80,126.953125
81,126.953125
82,126.953125
83,123.046875
84,125.000000
85,123.046875
86,123.046875
87,125.000000
88,125.000000
89,125.000000
90,123.046875
91,126.953125
92,126.953125
93,123.046875
94,125.000000
95,123.046875
96,126.953125
97,125.000000
98,125.000000
99,126.953125
100,123.046875
101,125.000000
102,123.046875
103,125.000000
104,125.000000
105,123.046875
106,125.000000
107,123.046875
108,123.046875
109,125.000000
110,123.046875
111,123.046875
112,123.046875
113,123.046875
114,123.046875
115,121.093750
116,121.093750
117,123.046875
118,123.046875
119,121.093750
120,121.093750
121,121.093750
122,121.093750
123,121.093750
124,121.093750
125,138.671875
126,119.140625
127,121.093750
128,121.093750
129,119.140625
130,121.093750
131,117.187500
132,121.093750
133,119.140625
134,121.093750
135,121.093750
136,117.187500
137,121.093750
138,121.093750
139,121.093750
140,121.093750
141,123.046875
142,119.140625
143,121.093750
144,121.093750
145,121.093750
146,123.046875
147,121.093750
148,121.093750
149,121.093750
150,121.093750
151,123.046875
152,123.046875
153,123.046875
154,123.046875
155,121.093750
156,123.046875
157,123.046875
158,123.046875
159,123.046875
160,121.093750
161,123.046875
162,123.046875
163,119.140625
164,123.046875
165,123.046875
166,123.046875
167,123.046875
168,130.859375
169,121.093750
170,123.046875
171,121.093750
172,123.046875
173,121.093750
174,121.093750
175,123.046875
176,121.093750
177,107.421875
178,121.093750
179,117.187500
180,121.093750
181,119.140625
182,123.046875
183,121.093750
184,130.859375
185,123.046875
186,121.093750
187,123.046875
188,123.046875
189,123.046875
190,121.093750
191,123.046875
192,123.046875
193,123.046875
194,123.046875
195,123.046875
196,123.046875
197,121.093750
198,123.046875
199,123.046875
200,123.046875
201,123.046875
202,123.046875
203,123.046875
204,125.000000
205,123.046875
206,125.000000
207,123.046875
208,123.046875
209,123.046875
210,123.046875
211,125.000000
212,121.093750
213,125.000000
214,123.046875
215,123.046875
216,123.046875
217,123.046875
218,123.046875
219,123.046875
220,123.046875
221,123.046875
222,121.093750
223,125.000000
224,123.046875
225,123.046875
226,121.093750
227,121.093750
228,121.093750
229,121.093750
230,123.046875
231,121.093750
232,123.046875
233,121.093750
234,123.046875
235,121.093750
236,123.046875
237,123.046875
238,123.046875
239,123.046875
240,121.093750
241,107.421875
242,121.093750
243,113.281250
244,123.046875
245,123.046875
246,123.046875
247,123.046875
248,123.046875
249,123.046875
250,123.046875
251,123.046875
252,123.046875
253,123.046875
254,119.140625
255,125.000000
256,123.046875
257,126.953125
258,123.046875
259,123.046875
260,125.000000
261,123.046875
262,123.046875
263,123.046875
264,121.093750
265,123.046875
266,123.046875
267,123.046875
268,123.046875
269,123.046875
270,119.140625
271,123.046875
272,123.046875
273,123.046875
274,125.000000
275,123.046875
276,121.093750
277,125.000000
278,123.046875
279,123.046875
280,123.046875
281,123.046875
282,125.000000
283,125.000000
284,123.046875
285,125.000000
286,132.812500
287,125.000000
288,125.000000
289,125.000000
290,123.046875
291,125.000000
292,123.046875
293,125.000000
294,123.046875
295,125.000000
296,125.000000
297,123.046875
298,123.046875
299,123.046875
300,125.000000
301,123.046875
302,130.859375
303,126.953125
304,123.046875
305,125.000000
306,123.046875
307,121.093750
308,123.046875
309,123.046875
310,123.046875
311,123.046875
312,123.046875
313,123.046875
314,121.093750
315,123.046875
316,121.093750
317,123.046875
318,121.093750
319,121.093750
320,121.093750
321,123.046875
322,123.046875
323,121.093750
324,123.046875
325,123.046875
326,123.046875
327,123.046875
328,123.046875
329,123.046875
330,123.046875
331,121.093750
332,123.046875
333,123.046875
334,123.046875
335,125.000000
336,123.046875
337,125.000000
338,125.000000
339,126.953125
340,125.000000
341,126.953125
342,125.000000
343,125.000000
344,125.000000
345,126.953125
346,126.953125
347,125.000000
348,126.953125
349,126.953125
350,126.953125
351,125.000000
352,126.953125
353,128.906250
354,126.953125
355,130.859375
356,126.953125
357,130.859375
358,126.953125
359,126.953125
360,130.859375
361,119.140625
362,130.859375
363,128.906250
364,130.859375
365,130.859375
366,130.859375
367,138.671875
368,128.906250
369,130.859375
370,130.859375
371,130.859375
372,130.859375
373,130.859375
374,130.859375
375,130.859375
376,130.859375
377,130.859375
378,130.859375
379,132.812500
380,130.859375
381,130.859375
382,130.859375
383,132.812500
384,130.859375
385,132.812500
386,130.859375
387,130.859375
388,130.859375
389,130.859375
390,130.859375
391,130.859375
392,132.812500
393,130.859375
394,132.812500
395,130.859375
396,130.859375
397,134.765625
398,130.859375
399,130.859375
400,132.812500
401,130.859375
402,132.812500
403,130.859375
404,138.671875
405,132.812500
406,132.812500
407,132.812500
408,130.859375
409,132.812500
410,130.859375
411,130.859375
412,130.859375
413,130.859375
414,130.859375
415,126.953125
416,130.859375
417,125.000000
418,126.953125
419,128.906250
420,126.953125
421,130.859375
422,126.953125
423,126.953125
424,126.953125
425,126.953125
426,130.859375
427,126.953125
428,126.953125
429,125.000000
430,125.000000
431,123.046875
432,125.000000
433,130.859375
434,126.953125
435,130.859375
436,126.953125
437,126.953125
438,130.859375
439,126.953125
440,130.859375
441,130.859375
442,130.859375
443,130.859375
444,130.859375
445,130.859375
446,132.812500
447,132.812500
448,130.859375
449,132.812500
450,132.812500
451,132.812500
452,132.812500
453,130.859375
454,134.765625
455,132.812500
456,134.765625
457,132.812500
458,134.765625
459,134.765625
460,134.765625
461,134.765625
462,134.765625
463,138.671875
464,130.859375
465,136.718750
466,134.765625
467,134.765625
468,132.812500
469,138.671875
470,132.812500
471,134.765625
472,136.718750
473,132.812500
474,136.718750
475,134.765625
476,138.671875
477,136.718750
478,134.765625
479,136.718750
480,138.671875
481,136.718750
482,138.671875
483,130.859375
484,138.671875
485,138.671875
486,136.718750
487,138.671875
488,138.671875
489,138.671875
490,138.671875
491,138.671875
492,138.671875
493,138.671875
494,140.625000
495,138.671875
496,142.578125
497,142.578125
498,140.625000
499,142.578125
500,140.625000
501,142.578125
502,142.578125
503,142.578125
504,142.578125
505,142.578125
506,142.578125
507,140.625000
508,142.578125
509,142.578125
510,142.578125
511,144.531250
512,142.578125
513,146.484375
514,140.625000
515,142.578125
516,142.578125
517,142.578125
518,146.484375
519,138.671875
520,142.578125
521,142.578125
522,142.578125
523,142.578125
524,142.578125
525,142.578125
526,140.625000
527,146.484375
528,140.625000
529,144.531250
530,142.578125
531,140.625000
532,146.484375
533,148.437500
534,142.578125
535,142.578125
536,142.578125
537,142.578125
538,142.578125
539,142.578125
540,140.625000
541,146.484375
542,142.578125
543,142.578125
544,140.625000
545,142.578125
546,142.578125
547,142.578125
548,144.531250
549,130.859375
550,146.484375
551,146.484375
552,144.531250
553,146.484375
554,144.531250
555,146.484375
556,146.484375
557,146.484375
558,142.578125
559,142.578125
560,146.484375
561,142.578125
562,142.578125
563,140.625000
564,142.578125
565,142.578125
566,142.578125
567,142.578125
568,140.625000
569,140.625000
570,140.625000
571,138.671875
572,142.578125
573,138.671875
574,140.625000
575,138.671875
576,138.671875
577,138.671875
578,134.765625
579,136.718750
580,134.765625
581,134.765625
582,136.718750
583,136.718750
584,132.812500
585,132.812500
586,134.765625
587,130.859375
588,134.765625
589,134.765625
590,134.765625
591,136.718750
592,130.859375
593,134.765625
594,132.812500
595,134.765625
596,138.671875
597,132.812500
598,136.718750
599,132.812500
600,134.765625
601,134.765625
602,134.765625
603,134.765625
604,132.812500
605,134.765625
606,130.859375
607,132.812500
608,136.718750
609,136.718750
610,134.765625
611,136.718750
612,134.765625
613,132.812500
614,138.671875
615,132.812500
616,134.765625
617,136.718750
618,134.765625
619,138.671875
620,134.765625
621,138.671875
622,136.718750
623,134.765625
624,136.718750
625,134.765625
626,138.671875
627,134.765625
628,136.718750
629,136.718750
630,132.812500
631,136.718750
632,136.718750
633,138.671875
634,134.765625
635,136.718750
636,136.718750
637,132.812500
638,136.718750
639,132.812500
640,136.718750
641,130.859375
642,134.765625
643,123.046875
644,134.765625
645,134.765625
646,132.812500
647,132.812500
648,132.812500
649,134.765625
650,132.812500
651,142.578125
652,132.812500
653,132.812500
654,132.812500
655,132.812500
656,134.765625
657,134.765625
658,136.718750
659,134.765625
660,132.812500
661,134.765625
662,132.812500
663,136.718750
664,136.718750
665,134.765625
666,136.718750
667,136.718750
668,136.718750
669,136.718750
670,134.765625
671,134.765625
672,132.812500
673,134.765625
674,136.718750
675,132.812500
676,134.765625
677,132.812500
678,134.765625
679,134.765625
680,132.812500
681,132.812500
682,130.859375
683,130.859375
684,130.859375
685,130.859375
686,132.812500
687,132.812500
688,130.859375
689,130.859375
690,132.812500
691,130.859375
692,130.859375
693,130.859375
694,130.859375
695,130.859375
696,130.859375
697,130.859375
698,130.859375
699,130.859375
700,130.859375
701,130.859375
702,130.859375
703,132.812500
704,126.953125
705,130.859375
706,130.859375
707,130.859375
708,130.859375
709,130.859375
710,130.859375
711,128.906250
712,130.859375
713,130.859375
714,126.953125
715,130.859375
716,130.859375
717,126.953125
718,130.859375
719,126.953125
720,128.906250
721,130.859375
722,128.906250
723,130.859375
724,126.953125
725,126.953125
726,140.625000
727,128.906250
728,126.953125
729,126.953125
730,126.953125
731,126.953125
732,130.859375
733,125.000000
734,126.953125
735,125.000000
736,126.953125
737,126.953125
738,126.953125
739,126.953125
740,126.953125
741,126.953125
742,126.953125
743,126.953125
744,125.000000
745,130.859375
746,126.953125
747,126.953125
748,126.953125
749,126.953125
750,126.953125
751,126.953125
752,126.953125
753,132.812500
754,126.953125
755,126.953125
756,126.953125
757,126.953125
758,126.953125
759,125.000000
760,125.000000
761,126.953125
762,126.953125
763,126.953125
764,125.000000
765,126.953125
766,126.953125
767,126.953125
768,126.953125
769,123.046875
770,126.953125
771,125.000000
772,126.953125
773,125.000000
774,126.953125
775,125.000000
776,125.000000
777,126.953125
778,123.046875
779,126.953125
780,123.046875
781,125.000000
782,125.000000
783,123.046875
784,123.046875
785,125.000000
786,125.000000
787,123.046875
788,125.000000
789,126.953125
790,123.046875
791,125.000000
792,123.046875
793,126.953125
794,123.046875
795,125.000000
796,126.953125
797,123.046875
798,126.953125
799,125.000000
800,125.000000
801,125.000000
802,123.046875
803,126.953125
804,123.046875
805,126.953125
806,123.046875
807,125.000000
808,125.000000
809,125.000000
810,126.953125
811,125.000000
812,125.000000
813,117.187500
814,126.953125
815,123.046875
816,125.000000
817,125.000000
818,123.046875
819,125.000000
820,123.046875
821,123.046875
822,123.046875
823,125.000000
824,125.000000
825,123.046875
826,125.000000
827,123.046875
828,138.671875
829,125.000000
830,121.093750
831,123.046875
832,123.046875
833,123.046875
834,125.000000
835,123.046875
836,123.046875
837,123.046875
838,123.046875
839,126.953125
840,123.046875
841,123.046875
842,121.093750
843,123.046875
844,123.046875
845,119.140625
846,125.000000
847,123.046875
848,125.000000
849,123.046875
850,125.000000
851,123.046875
852,123.046875
853,123.046875
854,121.093750
855,123.046875
856,121.093750
857,123.046875
858,123.046875
859,121.093750
860,123.046875
861,123.046875
862,119.140625
863,123.046875
864,123.046875
865,123.046875
866,121.093750
867,123.046875
868,121.093750
869,123.046875
870,123.046875
871,136.718750
872,123.046875
873,123.046875
874,123.046875
875,121.093750
876,123.046875
877,123.046875
878,119.140625
879,123.046875
880,123.046875
881,123.046875
882,119.140625
883,121.093750
884,121.093750
885,119.140625
886,121.093750
887,119.140625
888,123.046875
889,123.046875
890,125.000000
891,121.093750
892,119.140625
893,123.046875
894,121.093750
895,119.140625
896,123.046875
897,121.093750
898,121.093750
899,121.093750
900,123.046875
901,121.093750
902,121.093750
903,121.093750
904,121.093750
905,119.140625
906,117.187500
907,121.093750
908,117.187500
909,119.140625
910,121.093750
911,119.140625
912,121.093750
913,117.187500
914,111.328125
915,115.234375
916,117.187500
917,115.234375
918,117.187500
919,115.234375
920,115.234375
921,115.234375
922,117.187500
923,117.187500
924,115.234375
925,121.093750
926,117.187500
927,115.234375
928,115.234375
929,117.187500
930,117.187500
931,117.187500
932,115.234375
933,121.093750
934,117.187500
935,115.234375
936,117.187500
937,115.234375
938,115.234375
939,117.187500
940,117.187500
941,121.093750
942,117.187500
943,119.140625
944,121.093750
945,117.187500
946,119.140625
947,119.140625
948,117.187500
949,119.140625
950,121.093750
951,121.093750
952,121.093750
953,119.140625
954,121.093750
955,119.140625
956,123.046875
957,121.093750
958,121.093750
959,123.046875
960,121.093750
961,123.046875
962,121.093750
963,123.046875
964,123.046875
965,123.046875
966,123.046875
967,121.093750
968,119.140625
969,121.093750
970,123.046875
971,121.093750
972,117.187500
973,126.953125
974,119.140625
975,121.093750
976,119.140625
977,121.093750
978,119.140625
979,121.093750
980,121.093750
981,121.093750
982,123.046875
983,119.140625
984,119.140625
985,121.093750
986,121.093750
987,119.140625
988,119.140625
989,121.093750
990,119.140625
991,119.140625
992,119.140625
993,121.093750
994,123.046875
995,115.234375
996,125.000000
997,123.046875
998,126.953125
999,123.046875
1000,126.953125
1001,125.000000
1002,126.953125
1003,126.953125
1004,126.953125
1005,126.953125
1006,130.859375
1007,126.953125
1008,128.906250
1009,130.859375
1010,130.859375
1011,125.000000
1012,130.859375
1013,130.859375
1014,130.859375
1015,130.859375
1016,126.953125
1017,130.859375
1018,130.859375
1019,126.953125
1020,130.859375
1021,130.859375
1022,130.859375
1023,130.859375
1024,130.859375
1025,134.765625
1026,130.859375
1027,130.859375
1028,130.859375
1029,128.906250
1030,130.859375
1031,130.859375
1032,130.859375
1033,128.906250
1034,132.812500
1035,128.906250
1036,130.859375
1037,130.859375
1038,130.859375
1039,130.859375
1040,130.859375
1041,130.859375
1042,128.906250
1043,126.953125
1044,130.859375
1045,130.859375
1046,132.812500
1047,130.859375
1048,132.812500
1049,126.953125
1050,134.765625
1051,130.859375
1052,132.812500
1053,132.812500
1054,136.718750
1055,132.812500
1056,130.859375
1057,132.812500
1058,130.859375
1059,130.859375
1060,136.718750
1061,132.812500
1062,130.859375
1063,132.812500
1064,130.859375
1065,132.812500
1066,132.812500
1067,136.718750
1068,132.812500
1069,134.765625
1070,134.765625
1071,134.765625
1072,132.812500
1073,132.812500
1074,132.812500
1075,134.765625
1076,134.765625
1077,134.765625
1078,132.812500
1079,134.765625
1080,134.765625
1081,134.765625
1082,136.718750
1083,134.765625
1084,136.718750
1085,136.718750
1086,136.718750
1087,136.718750
1088,138.671875
1089,138.671875
1090,138.671875
1091,138.671875
1092,125.000000
1093,140.625000
1094,138.671875
1095,138.671875
1096,140.625000
1097,142.578125
1098,138.671875
1099,138.671875
1100,142.578125
1101,142.578125
1102,142.578125
1103,142.578125
1104,142.578125
1105,142.578125
1106,142.578125
1107,142.578125
1108,142.578125
1109,142.578125
1110,146.484375
1111,146.484375
1112,146.484375
1113,142.578125
1114,142.578125
1115,142.578125
1116,150.390625
1117,142.578125
1118,142.578125
1119,142.578125
1120,142.578125
1121,142.578125
1122,142.578125
1123,144.531250
1124,146.484375
1125,142.578125
1126,146.484375
1127,146.484375
1128,146.484375
1129,144.531250
1130,142.578125
1131,146.484375
1132,146.484375
1133,146.484375
1134,146.484375
1135,146.484375
1136,142.578125
1137,146.484375
1138,146.484375
1139,146.484375
1140,142.578125
1141,146.484375
1142,146.484375
1143,146.484375
1144,146.484375
1145,144.531250
1146,146.484375
1147,148.437500
1148,146.484375
1149,148.437500
1150,148.437500
1151,146.484375
1152,148.437500
1153,146.484375
1154,148.437500
1155,146.484375
1156,150.390625
1157,150.390625
1158,146.484375
1159,142.578125
1160,146.484375
1161,150.390625
1162,146.484375
1163,148.437500
1164,148.437500
1165,148.437500
1166,150.390625
1167,148.437500
1168,150.390625
1169,150.390625
1170,148.437500
1171,150.390625
1172,148.437500
1173,146.484375
1174,146.484375
1175,146.484375
1176,148.437500
1177,148.437500
1178,148.437500
1179,146.484375
1180,146.484375
1181,146.484375
1182,146.484375
1183,146.484375
1184,146.484375
1185,146.484375
1186,146.484375
1187,146.484375
1188,148.437500
1189,146.484375
1190,146.484375
1191,146.484375
1192,146.484375
1193,146.484375
1194,146.484375
1195,146.484375
1196,146.484375
1197,148.437500
1198,146.484375
1199,150.390625
1200,146.484375
1201,148.437500
1202,148.437500
1203,146.484375
1204,146.484375
1205,142.578125
1206,146.484375
1207,148.437500
1208,146.484375
1209,146.484375
1210,146.484375
1211,148.437500
1212,146.484375
1213,146.484375
1214,146.484375
1215,142.578125
1216,146.484375
1217,142.578125
1218,142.578125
1219,126.953125
1220,146.484375
1221,146.484375
1222,142.578125
1223,144.531250
1224,142.578125
1225,142.578125
1226,144.531250
1227,142.578125
1228,142.578125
1229,140.625000
1230,142.578125
1231,146.484375
1232,142.578125
1233,142.578125
1234,142.578125
1235,140.625000
1236,142.578125
1237,142.578125
1238,142.578125
1239,142.578125
1240,138.671875
1241,142.578125
1242,142.578125
1243,138.671875
1244,140.625000
1245,138.671875
1246,140.625000
1247,136.718750
1248,140.625000
1249,140.625000
1250,138.671875
1251,138.671875
1252,138.671875
1253,140.625000
1254,140.625000
1255,138.671875
1256,138.671875
1257,138.671875
1258,138.671875
1259,138.671875
1260,138.671875
1261,138.671875
1262,136.718750
1263,138.671875
1264,138.671875
1265,138.671875
1266,138.671875
1267,138.671875
1268,138.671875
1269,136.718750
1270,138.671875
1271,138.671875
1272,138.671875
1273,136.718750
1274,136.718750
1275,138.671875
1276,134.765625
1277,138.671875
1278,136.718750
1279,132.812500
1280,138.671875
1281,134.765625
1282,138.671875
1283,134.765625
1284,138.671875
1285,136.718750
1286,134.765625
1287,134.765625
1288,134.765625
1289,138.671875
1290,138.671875
1291,136.718750
1292,136.718750
1293,134.765625
1294,136.718750
1295,132.812500
1296,136.718750
1297,136.718750
1298,136.718750
1299,138.671875
1300,138.671875
1301,134.765625
1302,136.718750
1303,136.718750
1304,134.765625
