時系列データ/data_kai_だめ/tabletest.csv

Channel              :,CH1
Frequency            :,  ?
Period               :,  ?
PK-PK                :,56.64mV
Probe attenuation    :,10X
Voltage per ADC value:,0.122070mV
Time interval        :,400.00000us

index,CH1_Voltage(mV)
1,15.625000
2,15.625000
3,13.671875
4,13.671875
5,17.578125
6,13.671875
7,17.578125
8,13.671875
9,13.671875
10,17.578125
11,9.765625
12,9.765625
13,11.718750
14,13.671875
15,13.671875
16,15.625000
17,13.671875
18,13.671875
19,13.671875
20,17.578125
21,17.578125
22,17.578125
23,13.671875
24,17.578125
25,13.671875
26,19.531250
27,25.390625
28,19.531250
29,13.671875
30,17.578125
31,17.578125
32,21.484375
33,21.484375
34,21.484375
35,21.484375
36,21.484375
37,21.484375
38,17.578125
39,21.484375
40,21.484375
41,19.531250
42,21.484375
43,21.484375
44,17.578125
45,21.484375
46,19.531250
47,19.531250
48,17.578125
49,21.484375
50,17.578125
51,21.484375
52,15.625000
53,23.437500
54,19.531250
55,17.578125
56,21.484375
57,21.484375
58,17.578125
59,21.484375
60,17.578125
61,29.296875
62,21.484375
63,21.484375
64,19.531250
65,23.437500
66,21.484375
67,23.437500
68,21.484375
69,23.437500
70,21.484375
71,21.484375
72,21.484375
73,21.484375
74,23.437500
75,21.484375
76,27.343750
77,21.484375
78,25.390625
79,21.484375
80,23.437500
81,23.437500
82,23.437500
83,21.484375
84,25.390625
85,27.343750
86,21.484375
87,23.437500
88,21.484375
89,25.390625
90,21.484375
91,23.437500
92,23.437500
93,23.437500
94,23.437500
95,23.437500
96,25.390625
97,21.484375
98,23.437500
99,23.437500
100,25.390625
101,23.437500
102,23.437500
103,21.484375
104,27.343750
105,21.484375
106,27.343750
107,23.437500
108,27.343750
109,21.484375
110,25.390625
111,25.390625
112,25.390625
113,23.437500
114,23.437500
115,23.437500
116,23.437500
117,25.390625
118,23.437500
119,25.390625
120,23.437500
121,27.343750
122,21.484375
123,25.390625
124,23.437500
125,25.390625
126,21.484375
127,27.343750
128,27.343750
129,44.921875
130,25.390625
131,27.343750
132,23.437500
133,25.390625
134,25.390625
135,27.343750
136,23.437500
137,27.343750
138,23.437500
139,27.343750
140,27.343750
141,25.390625
142,29.296875
143,27.343750
144,27.343750
145,27.343750
146,33.203125
147,29.296875
148,29.296875
149,25.390625
150,29.296875
151,27.343750
152,29.296875
153,27.343750
154,27.343750
155,27.343750
156,29.296875
157,27.343750
158,29.296875
159,29.296875
160,27.343750
161,27.343750
162,29.296875
163,25.390625
164,31.250000
165,25.390625
166,29.296875
167,27.343750
168,29.296875
169,21.484375
170,25.390625
171,27.343750
172,37.109375
173,27.343750
174,27.343750
175,29.296875
176,25.390625
177,27.343750
178,23.437500
179,27.343750
180,23.437500
181,27.343750
182,27.343750
183,29.296875
184,21.484375
185,29.296875
186,25.390625
187,27.343750
188,25.390625
189,27.343750
190,25.390625
191,27.343750
192,25.390625
193,27.343750
194,23.437500
195,25.390625
196,27.343750
197,25.390625
198,27.343750
199,27.343750
200,23.437500
201,25.390625
202,23.437500
203,23.437500
204,23.437500
205,27.343750
206,25.390625
207,27.343750
208,23.437500
209,23.437500
210,25.390625
211,25.390625
212,25.390625
213,23.437500
214,23.437500
215,25.390625
216,25.390625
217,23.437500
218,25.390625
219,23.437500
220,33.203125
221,23.437500
222,25.390625
223,23.437500
224,25.390625
225,21.484375
226,25.390625
227,23.437500
228,27.343750
229,23.437500
230,25.390625
231,27.343750
232,23.437500
233,27.343750
234,23.437500
235,25.390625
236,23.437500
237,25.390625
238,27.343750
239,25.390625
240,23.437500
241,27.343750
242,21.484375
243,23.437500
244,23.437500
245,23.437500
246,5.859375
247,27.343750
248,21.484375
249,23.437500
250,21.484375
251,21.484375
252,21.484375
253,25.390625
254,21.484375
255,27.343750
256,21.484375
257,21.484375
258,17.578125
259,23.437500
260,21.484375
261,25.390625
262,21.484375
263,21.484375
264,21.484375
265,23.437500
266,21.484375
267,21.484375
268,21.484375
269,21.484375
270,21.484375
271,23.437500
272,27.343750
273,21.484375
274,25.390625
275,17.578125
276,21.484375
277,21.484375
278,25.390625
279,21.484375
280,23.437500
281,23.437500
282,27.343750
283,21.484375
284,27.343750
285,21.484375
286,23.437500
287,21.484375
288,21.484375
289,23.437500
290,23.437500
291,23.437500
292,27.343750
293,23.437500
294,23.437500
295,23.437500
296,23.437500
297,21.484375
298,25.390625
299,21.484375
300,21.484375
301,23.437500
302,21.484375
303,23.437500
304,21.484375
305,23.437500
306,23.437500
307,23.437500
308,21.484375
309,23.437500
310,23.437500
311,23.437500
312,25.390625
313,25.390625
314,25.390625
315,25.390625
316,21.484375
317,27.343750
318,27.343750
319,23.437500
320,31.250000
321,25.390625
322,23.437500
323,27.343750
324,23.437500
325,27.343750
326,21.484375
327,25.390625
328,25.390625
329,27.343750
330,23.437500
331,25.390625
332,21.484375
333,23.437500
334,25.390625
335,27.343750
336,23.437500
337,27.343750
338,21.484375
339,31.250000
340,21.484375
341,27.343750
342,21.484375
343,29.296875
344,21.484375
345,25.390625
346,25.390625
347,25.390625
348,21.484375
349,29.296875
350,21.484375
351,31.250000
352,21.484375
353,23.437500
354,21.484375
355,25.390625
356,17.578125
357,25.390625
358,23.437500
359,21.484375
360,25.390625
361,21.484375
362,23.437500
363,21.484375
364,23.437500
365,41.015625
366,23.437500
367,21.484375
368,21.484375
369,23.437500
370,23.437500
371,23.437500
372,21.484375
373,23.437500
374,21.484375
375,23.437500
376,21.484375
377,23.437500
378,21.484375
379,25.390625
380,11.718750
381,25.390625
382,21.484375
383,23.437500
384,21.484375
385,23.437500
386,21.484375
387,25.390625
388,23.437500
389,25.390625
390,21.484375
391,23.437500
392,21.484375
393,23.437500
394,23.437500
395,23.437500
396,21.484375
397,23.437500
398,21.484375
399,21.484375
400,21.484375
401,25.390625
402,23.437500
403,21.484375
404,21.484375
405,21.484375
406,23.437500
407,21.484375
408,21.484375
409,21.484375
410,33.203125
411,19.531250
412,23.437500
413,21.484375
414,23.437500
415,17.578125
416,25.390625
417,21.484375
418,21.484375
419,21.484375
420,25.390625
421,21.484375
422,21.484375
423,23.437500
424,23.437500
425,21.484375
426,21.484375
427,21.484375
428,23.437500
429,21.484375
430,21.484375
431,25.390625
432,23.437500
433,23.437500
434,21.484375
435,25.390625
436,21.484375
437,23.437500
438,21.484375
439,21.484375
440,21.484375
441,25.390625
442,21.484375
443,25.390625
444,21.484375
445,21.484375
446,21.484375
447,23.437500
448,21.484375
449,21.484375
450,19.531250
451,21.484375
452,29.296875
453,21.484375
454,21.484375
455,17.578125
456,19.531250
457,19.531250
458,17.578125
459,15.625000
460,17.578125
461,15.625000
462,17.578125
463,17.578125
464,21.484375
465,17.578125
466,17.578125
467,17.578125
468,7.812500
469,15.625000
470,21.484375
471,17.578125
472,19.531250
473,17.578125
474,13.671875
475,17.578125
476,21.484375
477,15.625000
478,21.484375
479,21.484375
480,21.484375
481,17.578125
482,21.484375
483,17.578125
484,19.531250
485,21.484375
486,17.578125
487,17.578125
488,17.578125
489,21.484375
490,17.578125
491,13.671875
492,21.484375
493,21.484375
494,13.671875
495,15.625000
496,17.578125
497,17.578125
498,17.578125
499,21.484375
500,21.484375
501,21.484375
502,17.578125
503,21.484375
504,15.625000
505,21.484375
506,17.578125
507,21.484375
508,17.578125
509,19.531250
510,17.578125
511,21.484375
512,17.578125
513,21.484375
514,15.625000
515,21.484375
516,21.484375
517,21.484375
518,21.484375
519,19.531250
520,23.437500
521,17.578125
522,19.531250
523,21.484375
524,21.484375
525,17.578125
526,33.203125
527,13.671875
528,21.484375
529,17.578125
530,21.484375
531,21.484375
532,21.484375
533,17.578125
534,19.531250
535,21.484375
536,15.625000
537,21.484375
538,19.531250
539,21.484375
540,19.531250
541,19.531250
542,21.484375
543,17.578125
544,15.625000
545,21.484375
546,19.531250
547,21.484375
548,17.578125
549,17.578125
550,19.531250
551,21.484375
552,17.578125
553,21.484375
554,17.578125
555,21.484375
556,19.531250
557,21.484375
558,17.578125
559,21.484375
560,13.671875
561,21.484375
562,15.625000
563,21.484375
564,17.578125
565,19.531250
566,17.578125
567,17.578125
568,17.578125
569,21.484375
570,17.578125
571,15.625000
572,17.578125
573,17.578125
574,21.484375
575,17.578125
576,17.578125
577,17.578125
578,21.484375
579,15.625000
580,21.484375
581,15.625000
582,21.484375
583,17.578125
584,21.484375
585,15.625000
586,17.578125
587,19.531250
588,21.484375
589,15.625000
590,21.484375
591,17.578125
592,21.484375
593,15.625000
594,21.484375
595,21.484375
596,21.484375
597,17.578125
598,19.531250
599,15.625000
600,5.859375
601,15.625000
602,21.484375
603,17.578125
604,21.484375
605,15.625000
606,21.484375
607,15.625000
608,37.109375
609,17.578125
610,21.484375
611,19.531250
612,21.484375
613,21.484375
614,15.625000
615,21.484375
616,17.578125
617,19.531250
618,17.578125
619,21.484375
620,15.625000
621,21.484375
622,17.578125
623,23.437500
624,27.343750
625,21.484375
626,21.484375
627,21.484375
628,19.531250
629,17.578125
630,21.484375
631,23.437500
632,21.484375
633,21.484375
634,23.437500
635,21.484375
636,21.484375
637,21.484375
638,21.484375
639,17.578125
640,21.484375
641,17.578125
642,21.484375
643,21.484375
644,21.484375
645,21.484375
646,21.484375
647,15.625000
648,21.484375
649,15.625000
650,21.484375
651,17.578125
652,21.484375
653,21.484375
654,23.437500
655,17.578125
656,21.484375
657,17.578125
658,21.484375
659,21.484375
660,23.437500
661,21.484375
662,23.437500
663,21.484375
664,23.437500
665,23.437500
666,21.484375
667,21.484375
668,25.390625
669,25.390625
670,21.484375
671,25.390625
672,25.390625
673,27.343750
674,29.296875
675,25.390625
676,23.437500
677,25.390625
678,21.484375
679,29.296875
680,27.343750
681,25.390625
682,27.343750
683,29.296875
684,25.390625
685,29.296875
686,23.437500
687,27.343750
688,27.343750
689,23.437500
690,29.296875
691,23.437500
692,27.343750
693,25.390625
694,29.296875
695,25.390625
696,29.296875
697,25.390625
698,29.296875
699,27.343750
700,29.296875
701,27.343750
702,29.296875
703,27.343750
704,27.343750
705,23.437500
706,29.296875
707,21.484375
708,25.390625
709,23.437500
710,25.390625
711,27.343750
712,25.390625
713,23.437500
714,25.390625
715,23.437500
716,25.390625
717,27.343750
718,25.390625
719,29.296875
720,25.390625
721,27.343750
722,25.390625
723,25.390625
724,25.390625
725,29.296875
726,27.343750
727,29.296875
728,25.390625
729,27.343750
730,27.343750
731,27.343750
732,33.203125
733,27.343750
734,29.296875
735,25.390625
736,29.296875
737,27.343750
738,29.296875
739,25.390625
740,29.296875
741,25.390625
742,29.296875
743,25.390625
744,27.343750
745,23.437500
746,29.296875
747,25.390625
748,27.343750
749,25.390625
750,29.296875
751,25.390625
752,25.390625
753,27.343750
754,27.343750
755,27.343750
756,25.390625
757,25.390625
758,25.390625
759,27.343750
760,25.390625
761,29.296875
762,23.437500
763,27.343750
764,25.390625
765,27.343750
766,23.437500
767,27.343750
768,23.437500
769,27.343750
770,23.437500
771,27.343750
772,23.437500
773,27.343750
774,27.343750
775,23.437500
776,25.390625
777,27.343750
778,33.203125
779,25.390625
780,27.343750
781,25.390625
782,25.390625
783,23.437500
784,27.343750
785,27.343750
786,27.343750
787,15.625000
788,29.296875
789,25.390625
790,25.390625
791,23.437500
792,25.390625
793,27.343750
794,25.390625
795,21.484375
796,23.437500
797,25.390625
798,25.390625
799,21.484375
800,23.437500
801,29.296875
802,25.390625
803,25.390625
804,25.390625
805,27.343750
806,33.203125
807,27.343750
808,23.437500
809,29.296875
810,27.343750
811,29.296875
812,25.390625
813,25.390625
814,29.296875
815,23.437500
816,23.437500
817,25.390625
818,27.343750
819,23.437500
820,25.390625
821,23.437500
822,27.343750
823,23.437500
824,27.343750
825,25.390625
826,27.343750
827,27.343750
828,25.390625
829,25.390625
830,25.390625
831,27.343750
832,27.343750
833,27.343750
834,25.390625
835,29.296875
836,27.343750
837,25.390625
838,29.296875
839,25.390625
840,27.343750
841,27.343750
842,25.390625
843,25.390625
844,23.437500
845,25.390625
846,23.437500
847,27.343750
848,23.437500
849,29.296875
850,23.437500
851,25.390625
852,23.437500
853,27.343750
854,21.484375
855,29.296875
856,25.390625
857,27.343750
858,23.437500
859,27.343750
860,23.437500
861,27.343750
862,27.343750
863,23.437500
864,25.390625
865,25.390625
866,27.343750
867,25.390625
868,27.343750
869,27.343750
870,25.390625
871,27.343750
872,27.343750
873,29.296875
874,27.343750
875,27.343750
876,25.390625
877,21.484375
878,23.437500
879,29.296875
880,29.296875
881,29.296875
882,27.343750
883,29.296875
884,27.343750
885,27.343750
886,25.390625
887,29.296875
888,25.390625
889,27.343750
890,29.296875
891,25.390625
892,27.343750
893,27.343750
894,25.390625
895,27.343750
896,29.296875
897,23.437500
898,27.343750
899,23.437500
900,27.343750
901,25.390625
902,27.343750
903,27.343750
904,27.343750
905,25.390625
906,23.437500
907,23.437500
908,27.343750
909,41.015625
910,27.343750
911,25.390625
912,29.296875
913,27.343750
914,25.390625
915,25.390625
916,27.343750
917,25.390625
918,23.437500
919,21.484375
920,25.390625
921,29.296875
922,23.437500
923,27.343750
924,27.343750
925,29.296875
926,23.437500
927,27.343750
928,23.437500
929,27.343750
930,25.390625
931,25.390625
932,29.296875
933,25.390625
934,25.390625
935,25.390625
936,25.390625
937,25.390625
938,21.484375
939,25.390625
940,27.343750
941,23.437500
942,27.343750
943,25.390625
944,27.343750
945,25.390625
946,29.296875
947,23.437500
948,27.343750
949,25.390625
950,29.296875
951,23.437500
952,29.296875
953,27.343750
954,21.484375
955,25.390625
956,31.250000
957,27.343750
958,29.296875
959,27.343750
960,21.484375
961,29.296875
962,23.437500
963,29.296875
964,23.437500
965,27.343750
966,25.390625
967,27.343750
968,25.390625
969,29.296875
970,25.390625
971,27.343750
972,27.343750
973,25.390625
974,27.343750
975,27.343750
976,29.296875
977,23.437500
978,27.343750
979,27.343750
980,29.296875
981,27.343750
982,29.296875
983,37.109375
984,29.296875
985,29.296875
986,29.296875
987,29.296875
988,29.296875
989,29.296875
990,27.343750
991,29.296875
992,29.296875
993,29.296875
994,29.296875
995,31.250000
996,23.437500
997,29.296875
998,27.343750
999,29.296875
1000,29.296875
1001,29.296875
1002,25.390625
1003,29.296875
1004,25.390625
1005,29.296875
1006,27.343750
1007,29.296875
1008,27.343750
1009,19.531250
1010,27.343750
1011,29.296875
1012,17.578125
1013,29.296875
1014,27.343750
1015,27.343750
1016,23.437500
1017,27.343750
1018,27.343750
1019,29.296875
1020,29.296875
1021,25.390625
1022,29.296875
1023,25.390625
1024,29.296875
1025,27.343750
1026,27.343750
1027,27.343750
1028,29.296875
1029,25.390625
1030,27.343750
1031,25.390625
1032,29.296875
1033,27.343750
1034,27.343750
1035,27.343750
1036,27.343750
1037,25.390625
1038,25.390625
1039,29.296875
1040,27.343750
1041,42.968750
1042,25.390625
1043,27.343750
1044,25.390625
1045,29.296875
1046,27.343750
1047,27.343750
1048,25.390625
1049,29.296875
1050,23.437500
1051,46.875000
1052,23.437500
1053,29.296875
1054,23.437500
1055,29.296875
1056,25.390625
1057,27.343750
1058,25.390625
1059,29.296875
1060,-1.953125
1061,27.343750
1062,25.390625
1063,25.390625
1064,25.390625
1065,23.437500
1066,25.390625
1067,25.390625
1068,23.437500
1069,23.437500
1070,25.390625
1071,21.484375
1072,27.343750
1073,21.484375
1074,25.390625
1075,21.484375
1076,25.390625
1077,23.437500
1078,27.343750
1079,21.484375
1080,27.343750
1081,25.390625
1082,23.437500
1083,23.437500
1084,23.437500
1085,23.437500
1086,3.906250
1087,17.578125
1088,27.343750
1089,21.484375
1090,27.343750
1091,23.437500
1092,29.296875
1093,25.390625
1094,23.437500
1095,23.437500
1096,27.343750
1097,21.484375
1098,27.343750
1099,27.343750
1100,23.437500
1101,25.390625
1102,21.484375
1103,25.390625
1104,25.390625
1105,25.390625
1106,21.484375
1107,25.390625
1108,21.484375
1109,27.343750
1110,23.437500
1111,23.437500
1112,23.437500
1113,23.437500
1114,23.437500
1115,23.437500
1116,25.390625
1117,25.390625
1118,25.390625
1119,23.437500
1120,27.343750
1121,23.437500
1122,25.390625
1123,27.343750
1124,27.343750
1125,27.343750
1126,27.343750
1127,27.343750
1128,23.437500
1129,29.296875
1130,27.343750
1131,29.296875
1132,27.343750
1133,27.343750
1134,25.390625
1135,27.343750
1136,27.343750
1137,27.343750
1138,27.343750
1139,27.343750
1140,25.390625
1141,23.437500
1142,23.437500
1143,27.343750
1144,29.296875
1145,27.343750
1146,25.390625
1147,27.343750
1148,25.390625
1149,29.296875
1150,21.484375
1151,25.390625
1152,23.437500
1153,23.437500
1154,25.390625
1155,19.531250
1156,23.437500
1157,21.484375
1158,23.437500
1159,21.484375
1160,23.437500
1161,21.484375
1162,21.484375
1163,21.484375
1164,21.484375
1165,21.484375
1166,23.437500
1167,21.484375
1168,23.437500
1169,21.484375
1170,23.437500
1171,21.484375
1172,23.437500
1173,21.484375
1174,23.437500
1175,21.484375
1176,25.390625
1177,21.484375
1178,21.484375
1179,23.437500
1180,17.578125
1181,21.484375
1182,23.437500
1183,23.437500
1184,21.484375
1185,21.484375
1186,23.437500
1187,23.437500
1188,21.484375
1189,17.578125
1190,17.578125
1191,21.484375
1192,21.484375
1193,21.484375
1194,21.484375
1195,21.484375
1196,21.484375
1197,21.484375
1198,21.484375
1199,25.390625
1200,21.484375
1201,21.484375
1202,21.484375
1203,21.484375
1204,21.484375
1205,21.484375
1206,21.484375
1207,19.531250
1208,21.484375
1209,17.578125
1210,21.484375
1211,19.531250
1212,21.484375
1213,21.484375
1214,21.484375
1215,21.484375
1216,21.484375
1217,21.484375
1218,21.484375
1219,17.578125
1220,21.484375
1221,21.484375
1222,19.531250
1223,21.484375
1224,19.531250
1225,21.484375
1226,21.484375
1227,21.484375
1228,21.484375
1229,21.484375
1230,17.578125
1231,17.578125
1232,17.578125
1233,21.484375
1234,19.531250
1235,21.484375
1236,21.484375
1237,21.484375
1238,17.578125
1239,23.437500
1240,19.531250
1241,21.484375
1242,21.484375
1243,21.484375
1244,21.484375
1245,17.578125
1246,21.484375
1247,21.484375
1248,21.484375
1249,21.484375
1250,15.625000
1251,19.531250
1252,25.390625
1253,21.484375
1254,21.484375
1255,19.531250
1256,21.484375
1257,17.578125
1258,21.484375
1259,15.625000
1260,21.484375
1261,17.578125
1262,21.484375
1263,19.531250
1264,21.484375
1265,17.578125
1266,21.484375
1267,17.578125
1268,21.484375
1269,17.578125
1270,21.484375
1271,17.578125
1272,21.484375
1273,19.531250
1274,21.484375
1275,21.484375
1276,17.578125
1277,21.484375
1278,17.578125
1279,21.484375
1280,17.578125
1281,-7.812500
1282,17.578125
1283,21.484375
1284,19.531250
1285,21.484375
1286,21.484375
1287,21.484375
1288,21.484375
1289,19.531250
1290,21.484375
1291,21.484375
1292,21.484375
1293,17.578125
1294,21.484375
1295,39.062500
1296,21.484375
1297,17.578125
1298,21.484375
1299,17.578125
1300,21.484375
1301,15.625000
1302,21.484375
1303,21.484375
1304,21.484375
1305,21.484375
1306,21.484375
1307,17.578125
1308,27.343750
1309,17.578125
1310,21.484375
1311,21.484375
1312,19.531250
1313,21.484375
1314,21.484375
1315,21.484375
1316,21.484375
1317,21.484375
1318,21.484375
1319,21.484375
1320,17.578125
1321,25.390625
1322,21.484375
1323,21.484375
1324,5.859375
1325,23.437500
1326,21.484375
1327,21.484375
1328,21.484375
1329,21.484375
1330,21.484375
1331,21.484375
1332,23.437500
1333,21.484375
1334,21.484375
1335,19.531250
1336,15.625000
1337,31.250000
1338,17.578125
1339,21.484375
1340,21.484375
1341,21.484375
1342,25.390625
1343,21.484375
1344,25.390625
1345,21.484375
1346,21.484375
1347,17.578125
1348,23.437500
1349,21.484375
1350,21.484375
1351,17.578125
1352,25.390625
1353,21.484375
1354,23.437500
1355,21.484375
1356,23.437500
1357,17.578125
1358,23.437500
1359,21.484375
1360,21.484375
1361,21.484375
1362,21.484375
1363,25.390625
1364,21.484375
1365,21.484375
1366,21.484375
1367,21.484375
1368,21.484375
1369,25.390625
1370,21.484375
1371,21.484375
1372,21.484375
1373,21.484375
1374,21.484375
1375,21.484375
1376,25.390625
1377,21.484375
1378,23.437500
1379,25.390625
1380,21.484375
1381,21.484375
1382,39.062500
1383,23.437500
1384,21.484375
1385,21.484375
1386,21.484375
1387,21.484375
1388,21.484375
1389,23.437500
1390,21.484375
1391,23.437500
1392,21.484375
