時系列データ/data/ガムテープ2.csv

Channel              :,CH1
Frequency            :,  ?
Period               :,  ?
PK-PK                :,89.84mV
Probe attenuation    :,10X
Voltage per ADC value:,0.122070mV
Time interval        :,400.00000us

index,CH1_Voltage(mV)
1,64.453125
2,64.453125
3,64.453125
4,68.359375
5,68.359375
6,68.359375
7,70.312500
8,74.218750
9,72.265625
10,70.312500
11,70.312500
12,66.406250
13,68.359375
14,68.359375
15,68.359375
16,70.312500
17,66.406250
18,68.359375
19,68.359375
20,70.312500
21,68.359375
22,68.359375
23,68.359375
24,68.359375
25,70.312500
26,66.406250
27,68.359375
28,64.453125
29,68.359375
30,70.312500
31,64.453125
32,60.546875
33,68.359375
34,64.453125
35,64.453125
36,64.453125
37,62.500000
38,68.359375
39,64.453125
40,76.171875
41,62.500000
42,64.453125
43,64.453125
44,66.406250
45,62.500000
46,64.453125
47,60.546875
48,68.359375
49,64.453125
50,58.593750
51,66.406250
52,64.453125
53,62.500000
54,70.312500
55,68.359375
56,64.453125
57,72.265625
58,62.500000
59,64.453125
60,64.453125
61,64.453125
62,68.359375
63,72.265625
64,68.359375
65,70.312500
66,68.359375
67,64.453125
68,68.359375
69,68.359375
70,62.500000
71,64.453125
72,68.359375
73,68.359375
74,72.265625
75,64.453125
76,64.453125
77,68.359375
78,70.312500
79,60.546875
80,60.546875
81,70.312500
82,74.218750
83,80.078125
84,74.218750
85,80.078125
86,83.984375
87,80.078125
88,80.078125
89,83.984375
90,93.750000
91,97.656250
92,93.750000
93,97.656250
94,101.562500
95,101.562500
96,107.421875
97,107.421875
98,109.375000
99,107.421875
100,107.421875
101,109.375000
102,111.328125
103,111.328125
104,111.328125
105,109.375000
106,109.375000
107,101.562500
108,101.562500
109,107.421875
110,107.421875
111,105.468750
112,105.468750
113,107.421875
114,105.468750
115,107.421875
116,107.421875
117,109.375000
118,107.421875
119,111.328125
120,109.375000
121,107.421875
122,109.375000
123,109.375000
124,115.234375
125,111.328125
126,105.468750
127,109.375000
128,111.328125
129,111.328125
130,111.328125
131,107.421875
132,111.328125
133,115.234375
134,101.562500
135,99.609375
136,95.703125
137,95.703125
138,95.703125
139,95.703125
140,95.703125
141,101.562500
142,101.562500
143,99.609375
144,99.609375
145,105.468750
146,101.562500
147,103.515625
148,105.468750
149,111.328125
150,111.328125
151,109.375000
152,115.234375
153,115.234375
154,115.234375
155,115.234375
156,111.328125
157,111.328125
158,111.328125
159,109.375000
160,111.328125
161,111.328125
162,111.328125
163,115.234375
164,119.140625
165,111.328125
166,115.234375
167,107.421875
168,109.375000
169,103.515625
170,97.656250
171,99.609375
172,99.609375
173,99.609375
174,97.656250
175,109.375000
176,103.515625
177,101.562500
178,99.609375
179,99.609375
180,105.468750
181,101.562500
182,93.750000
183,99.609375
184,99.609375
185,101.562500
186,99.609375
187,99.609375
188,101.562500
189,109.375000
190,103.515625
191,101.562500
192,99.609375
193,109.375000
194,105.468750
195,107.421875
196,109.375000
197,107.421875
198,109.375000
199,115.234375
200,107.421875
201,109.375000
202,111.328125
203,107.421875
204,111.328125
205,111.328125
206,109.375000
207,111.328125
208,109.375000
209,111.328125
210,115.234375
211,111.328125
212,109.375000
213,115.234375
214,105.468750
215,107.421875
216,109.375000
217,115.234375
218,119.140625
219,115.234375
220,119.140625
221,123.046875
222,121.093750
223,123.046875
224,123.046875
225,121.093750
226,123.046875
227,125.000000
228,125.000000
229,123.046875
230,125.000000
231,130.859375
232,130.859375
233,130.859375
234,123.046875
235,128.906250
236,130.859375
237,125.000000
238,130.859375
239,126.953125
240,126.953125
241,132.812500
242,130.859375
243,130.859375
244,128.906250
245,134.765625
246,130.859375
247,130.859375
248,130.859375
249,130.859375
250,132.812500
251,130.859375
252,130.859375
253,132.812500
254,132.812500
255,132.812500
256,138.671875
257,132.812500
258,130.859375
259,136.718750
260,130.859375
261,132.812500
262,136.718750
263,132.812500
264,138.671875
265,138.671875
266,134.765625
267,134.765625
268,134.765625
269,132.812500
270,134.765625
271,134.765625
272,134.765625
273,138.671875
274,138.671875
275,132.812500
276,134.765625
277,134.765625
278,138.671875
279,130.859375
280,138.671875
281,132.812500
282,132.812500
283,136.718750
284,134.765625
285,132.812500
286,134.765625
287,130.859375
288,140.625000
289,136.718750
290,130.859375
291,130.859375
292,136.718750
293,132.812500
294,134.765625
295,130.859375
296,130.859375
297,132.812500
298,130.859375
299,130.859375
300,130.859375
301,130.859375
302,132.812500
303,132.812500
304,126.953125
305,136.718750
306,130.859375
307,130.859375
308,132.812500
309,130.859375
310,132.812500
311,138.671875
312,134.765625
313,136.718750
314,134.765625
315,132.812500
316,134.765625
317,138.671875
318,130.859375
319,136.718750
320,132.812500
321,132.812500
322,136.718750
323,132.812500
324,130.859375
325,138.671875
326,134.765625
327,138.671875
328,130.859375
329,132.812500
330,138.671875
331,136.718750
332,130.859375
333,132.812500
334,132.812500
335,136.718750
336,134.765625
337,126.953125
338,136.718750
339,134.765625
340,136.718750
341,134.765625
342,130.859375
343,132.812500
344,130.859375
345,132.812500
346,132.812500
347,130.859375
348,136.718750
349,130.859375
350,132.812500
351,132.812500
352,132.812500
353,132.812500
354,134.765625
355,128.906250
356,132.812500
357,138.671875
358,132.812500
359,136.718750
360,136.718750
361,134.765625
362,132.812500
363,134.765625
364,132.812500
365,132.812500
366,136.718750
367,130.859375
368,138.671875
369,138.671875
370,134.765625
371,132.812500
372,132.812500
373,132.812500
374,126.953125
375,132.812500
376,130.859375
377,138.671875
378,132.812500
379,123.046875
380,126.953125
381,126.953125
382,117.187500
383,105.468750
384,91.796875
385,78.125000
386,80.078125
387,80.078125
388,76.171875
389,76.171875
390,70.312500
391,78.125000
392,76.171875
393,74.218750
394,76.171875
395,74.218750
396,76.171875
397,72.265625
398,76.171875
399,74.218750
400,76.171875
401,74.218750
402,78.125000
403,74.218750
404,72.265625
405,76.171875
406,78.125000
407,76.171875
408,70.312500
409,76.171875
410,72.265625
411,74.218750
412,76.171875
413,72.265625
414,76.171875
415,76.171875
416,72.265625
417,74.218750
418,72.265625
419,72.265625
420,76.171875
421,80.078125
422,76.171875
423,74.218750
424,74.218750
425,74.218750
426,74.218750
427,76.171875
428,72.265625
429,74.218750
430,70.312500
431,68.359375
432,70.312500
433,80.078125
434,68.359375
435,64.453125
436,68.359375
437,68.359375
438,74.218750
439,74.218750
440,68.359375
441,70.312500
442,68.359375
443,72.265625
444,68.359375
445,68.359375
446,68.359375
447,70.312500
448,68.359375
449,68.359375
450,72.265625
451,68.359375
452,66.406250
453,64.453125
454,62.500000
455,68.359375
456,64.453125
457,64.453125
458,68.359375
459,64.453125
460,64.453125
461,68.359375
462,60.546875
463,64.453125
464,62.500000
465,58.593750
466,64.453125
467,64.453125
468,64.453125
469,64.453125
470,62.500000
471,64.453125
472,60.546875
473,60.546875
474,62.500000
475,62.500000
476,64.453125
477,62.500000
478,62.500000
479,58.593750
480,64.453125
481,58.593750
482,52.734375
483,60.546875
484,56.640625
485,58.593750
486,60.546875
487,64.453125
488,58.593750
489,60.546875
490,62.500000
491,64.453125
492,58.593750
493,54.687500
494,52.734375
495,56.640625
496,58.593750
497,54.687500
498,58.593750
499,58.593750
500,58.593750
501,60.546875
502,52.734375
503,58.593750
504,60.546875
505,58.593750
506,58.593750
507,62.500000
508,56.640625
509,56.640625
510,60.546875
511,60.546875
512,60.546875
513,62.500000
514,58.593750
515,60.546875
516,62.500000
517,54.687500
518,60.546875
519,60.546875
520,60.546875
521,60.546875
522,60.546875
523,62.500000
524,62.500000
525,58.593750
526,58.593750
527,60.546875
528,64.453125
529,56.640625
530,58.593750
531,60.546875
532,52.734375
533,64.453125
534,54.687500
535,60.546875
536,62.500000
537,60.546875
538,64.453125
539,48.828125
540,56.640625
541,56.640625
542,60.546875
543,60.546875
544,56.640625
545,60.546875
546,68.359375
547,60.546875
548,62.500000
549,60.546875
550,62.500000
551,60.546875
552,60.546875
553,60.546875
554,58.593750
555,60.546875
556,64.453125
557,60.546875
558,60.546875
559,68.359375
560,64.453125
561,68.359375
562,64.453125
563,64.453125
564,64.453125
565,64.453125
566,58.593750
567,64.453125
568,64.453125
569,60.546875
570,64.453125
571,62.500000
572,62.500000
573,60.546875
574,64.453125
575,64.453125
576,62.500000
577,60.546875
578,62.500000
579,62.500000
580,62.500000
581,60.546875
582,60.546875
583,68.359375
584,72.265625
585,58.593750
586,62.500000
587,60.546875
588,62.500000
589,64.453125
590,62.500000
591,64.453125
592,58.593750
593,62.500000
594,60.546875
595,60.546875
596,64.453125
597,60.546875
598,62.500000
599,60.546875
600,60.546875
601,60.546875
602,64.453125
603,58.593750
604,60.546875
605,64.453125
606,62.500000
607,60.546875
608,68.359375
609,60.546875
610,58.593750
611,62.500000
612,64.453125
613,60.546875
614,66.406250
615,62.500000
616,62.500000
617,62.500000
618,58.593750
619,64.453125
620,60.546875
621,60.546875
622,62.500000
623,62.500000
624,54.687500
625,64.453125
626,64.453125
627,64.453125
628,62.500000
629,54.687500
630,62.500000
631,60.546875
632,64.453125
633,60.546875
634,60.546875
635,60.546875
636,68.359375
637,62.500000
638,60.546875
639,56.640625
640,60.546875
641,64.453125
642,60.546875
643,52.734375
644,60.546875
645,60.546875
646,58.593750
647,60.546875
648,58.593750
649,60.546875
650,56.640625
651,62.500000
652,62.500000
653,58.593750
654,60.546875
655,58.593750
656,54.687500
657,60.546875
658,58.593750
659,62.500000
660,64.453125
661,60.546875
662,60.546875
663,62.500000
664,60.546875
665,60.546875
666,62.500000
667,58.593750
668,64.453125
669,62.500000
670,62.500000
671,64.453125
672,62.500000
673,60.546875
674,64.453125
675,62.500000
676,58.593750
677,60.546875
678,64.453125
679,64.453125
680,58.593750
681,60.546875
682,64.453125
683,64.453125
684,62.500000
685,60.546875
686,60.546875
687,58.593750
688,68.359375
689,60.546875
690,58.593750
691,62.500000
692,60.546875
693,60.546875
694,58.593750
695,58.593750
696,60.546875
697,58.593750
698,58.593750
699,64.453125
700,58.593750
701,54.687500
702,62.500000
703,60.546875
704,54.687500
705,56.640625
706,62.500000
707,62.500000
708,60.546875
709,60.546875
710,58.593750
711,56.640625
712,60.546875
713,58.593750
714,62.500000
715,62.500000
716,56.640625
717,60.546875
718,58.593750
719,58.593750
720,58.593750
721,60.546875
722,60.546875
723,58.593750
724,58.593750
725,58.593750
726,56.640625
727,58.593750
728,56.640625
729,56.640625
730,64.453125
731,58.593750
732,54.687500
733,52.734375
734,54.687500
735,58.593750
736,56.640625
737,52.734375
738,56.640625
739,56.640625
740,52.734375
741,54.687500
742,50.781250
743,54.687500
744,58.593750
745,52.734375
746,52.734375
747,56.640625
748,54.687500
749,52.734375
750,60.546875
751,52.734375
752,60.546875
753,58.593750
754,56.640625
755,60.546875
756,58.593750
757,52.734375
758,54.687500
759,56.640625
760,56.640625
761,62.500000
762,58.593750
763,60.546875
764,58.593750
765,56.640625
766,60.546875
767,56.640625
768,58.593750
769,54.687500
770,58.593750
771,58.593750
772,56.640625
773,60.546875
774,54.687500
775,62.500000
776,58.593750
777,64.453125
778,64.453125
779,58.593750
780,62.500000
781,66.406250
782,62.500000
783,64.453125
784,62.500000
785,68.359375
786,68.359375
787,64.453125
788,64.453125
789,66.406250
790,64.453125
791,70.312500
792,74.218750
793,66.406250
794,62.500000
795,64.453125
796,66.406250
797,64.453125
798,68.359375
799,68.359375
800,68.359375
801,72.265625
802,70.312500
803,68.359375
804,68.359375
805,68.359375
806,64.453125
807,70.312500
808,70.312500
809,72.265625
810,72.265625
811,68.359375
812,70.312500
813,70.312500
814,70.312500
815,72.265625
816,76.171875
817,72.265625
818,70.312500
819,72.265625
820,74.218750
821,72.265625
822,74.218750
823,76.171875
824,78.125000
825,78.125000
826,72.265625
827,68.359375
828,76.171875
829,72.265625
830,76.171875
831,72.265625
832,74.218750
833,83.984375
834,78.125000
835,78.125000
836,80.078125
837,80.078125
838,83.984375
839,80.078125
840,78.125000
841,82.031250
842,83.984375
843,83.984375
844,76.171875
845,83.984375
846,83.984375
847,80.078125
848,83.984375
849,76.171875
850,83.984375
851,85.937500
852,85.937500
853,89.843750
854,83.984375
855,83.984375
856,85.937500
857,87.890625
858,85.937500
859,85.937500
860,83.984375
861,87.890625
862,91.796875
863,87.890625
864,85.937500
865,89.843750
866,85.937500
867,91.796875
868,83.984375
869,91.796875
870,91.796875
871,89.843750
872,91.796875
873,91.796875
874,93.750000
875,93.750000
876,95.703125
877,95.703125
878,93.750000
879,93.750000
880,101.562500
881,101.562500
882,95.703125
883,95.703125
884,99.609375
885,99.609375
886,101.562500
887,93.750000
888,105.468750
889,105.468750
890,107.421875
891,101.562500
892,99.609375
893,101.562500
894,105.468750
895,103.515625
896,105.468750
897,105.468750
898,101.562500
899,99.609375
900,107.421875
901,107.421875
902,107.421875
903,107.421875
904,103.515625
905,111.328125
906,103.515625
907,107.421875
908,111.328125
909,109.375000
910,105.468750
911,107.421875
912,105.468750
913,105.468750
914,109.375000
915,107.421875
916,109.375000
917,109.375000
918,111.328125
919,111.328125
920,109.375000
921,107.421875
922,109.375000
923,111.328125
924,103.515625
925,115.234375
926,107.421875
927,107.421875
928,111.328125
929,109.375000
930,107.421875
931,111.328125
932,111.328125
933,115.234375
934,111.328125
935,107.421875
936,111.328125
937,111.328125
938,111.328125
939,111.328125
940,109.375000
941,115.234375
942,111.328125
943,111.328125
944,111.328125
945,109.375000
946,111.328125
947,111.328125
948,115.234375
949,107.421875
950,111.328125
951,111.328125
952,115.234375
953,109.375000
954,111.328125
955,117.187500
956,115.234375
957,117.187500
958,113.281250
959,107.421875
960,115.234375
961,111.328125
962,111.328125
963,115.234375
964,115.234375
965,115.234375
966,115.234375
967,111.328125
968,115.234375
969,115.234375
970,115.234375
971,117.187500
972,113.281250
973,115.234375
974,115.234375
975,119.140625
976,115.234375
977,115.234375
978,115.234375
979,117.187500
980,119.140625
981,115.234375
982,117.187500
983,121.093750
984,117.187500
985,115.234375
986,111.328125
987,115.234375
988,125.000000
989,121.093750
990,115.234375
991,115.234375
992,115.234375
993,121.093750
994,113.281250
995,115.234375
996,119.140625
997,119.140625
998,115.234375
999,111.328125
1000,111.328125
1001,119.140625
1002,115.234375
1003,119.140625
1004,115.234375
1005,115.234375
1006,117.187500
1007,119.140625
1008,117.187500
1009,126.953125
1010,123.046875
1011,121.093750
1012,125.000000
1013,117.187500
1014,121.093750
1015,123.046875
1016,117.187500
1017,121.093750
1018,125.000000
1019,117.187500
1020,121.093750
1021,121.093750
1022,119.140625
1023,121.093750
1024,121.093750
1025,115.234375
1026,121.093750
1027,126.953125
1028,117.187500
1029,117.187500
1030,121.093750
1031,126.953125
1032,115.234375
1033,121.093750
1034,119.140625
1035,119.140625
1036,121.093750
1037,117.187500
1038,121.093750
1039,123.046875
1040,121.093750
1041,123.046875
1042,119.140625
1043,115.234375
1044,121.093750
1045,119.140625
1046,121.093750
1047,123.046875
1048,121.093750
1049,126.953125
1050,123.046875
1051,115.234375
1052,123.046875
1053,125.000000
1054,121.093750
1055,126.953125
1056,121.093750
1057,123.046875
1058,125.000000
1059,117.187500
1060,117.187500
1061,121.093750
1062,121.093750
1063,123.046875
1064,123.046875
1065,123.046875
1066,125.000000
1067,126.953125
1068,123.046875
1069,126.953125
1070,125.000000
1071,125.000000
1072,125.000000
1073,125.000000
1074,123.046875
1075,125.000000
1076,125.000000
1077,125.000000
1078,126.953125
1079,125.000000
1080,125.000000
1081,121.093750
1082,126.953125
1083,125.000000
1084,123.046875
1085,121.093750
1086,126.953125
1087,128.906250
1088,125.000000
1089,123.046875
1090,119.140625
1091,123.046875
1092,125.000000
1093,125.000000
1094,125.000000
1095,125.000000
1096,125.000000
1097,126.953125
1098,121.093750
1099,126.953125
1100,123.046875
1101,126.953125
1102,125.000000
1103,130.859375
1104,130.859375
1105,125.000000
1106,123.046875
1107,123.046875
1108,125.000000
1109,123.046875
1110,130.859375
1111,119.140625
1112,126.953125
1113,126.953125
1114,128.906250
1115,126.953125
1116,130.859375
1117,123.046875
1118,128.906250
1119,126.953125
1120,125.000000
1121,126.953125
1122,126.953125
1123,126.953125
1124,130.859375
1125,128.906250
1126,126.953125
1127,126.953125
1128,130.859375
1129,126.953125
1130,126.953125
1131,123.046875
1132,123.046875
1133,126.953125
1134,125.000000
1135,130.859375
1136,123.046875
1137,123.046875
1138,130.859375
1139,126.953125
1140,123.046875
1141,125.000000
1142,136.718750
1143,125.000000
1144,125.000000
1145,123.046875
1146,123.046875
1147,125.000000
1148,126.953125
1149,121.093750
1150,126.953125
1151,125.000000
1152,123.046875
1153,126.953125
1154,125.000000
1155,123.046875
1156,126.953125
1157,130.859375
1158,125.000000
1159,128.906250
1160,123.046875
1161,123.046875
1162,126.953125
1163,125.000000
1164,126.953125
1165,128.906250
1166,125.000000
1167,126.953125
1168,125.000000
1169,126.953125
1170,130.859375
1171,128.906250
1172,130.859375
1173,130.859375
1174,128.906250
1175,125.000000
1176,125.000000
1177,125.000000
1178,125.000000
1179,125.000000
1180,126.953125
1181,130.859375
1182,126.953125
1183,126.953125
1184,123.046875
1185,126.953125
1186,130.859375
1187,126.953125
1188,123.046875
1189,126.953125
1190,125.000000
1191,130.859375
1192,123.046875
1193,125.000000
1194,130.859375
1195,126.953125
1196,128.906250
1197,126.953125
1198,123.046875
1199,123.046875
1200,125.000000
1201,130.859375
1202,126.953125
1203,130.859375
1204,126.953125
1205,130.859375
1206,126.953125
1207,123.046875
1208,126.953125
1209,121.093750
1210,125.000000
1211,128.906250
1212,126.953125
1213,125.000000
1214,126.953125
1215,125.000000
1216,125.000000
1217,125.000000
1218,125.000000
1219,126.953125
1220,128.906250
1221,125.000000
1222,125.000000
1223,130.859375
1224,123.046875
1225,132.812500
1226,123.046875
1227,128.906250
1228,128.906250
1229,126.953125
1230,123.046875
1231,125.000000
1232,126.953125
1233,130.859375
1234,126.953125
1235,123.046875
1236,123.046875
1237,130.859375
1238,128.906250
1239,125.000000
1240,123.046875
1241,126.953125
1242,126.953125
1243,125.000000
1244,125.000000
1245,123.046875
1246,126.953125
1247,125.000000
1248,126.953125
1249,123.046875
1250,125.000000
1251,126.953125
1252,123.046875
1253,125.000000
1254,125.000000
1255,125.000000
1256,123.046875
1257,128.906250
1258,126.953125
1259,126.953125
1260,130.859375
1261,126.953125
1262,126.953125
1263,126.953125
1264,125.000000
1265,126.953125
1266,130.859375
1267,126.953125
1268,126.953125
1269,130.859375
1270,126.953125
1271,128.906250
1272,130.859375
1273,126.953125
1274,128.906250
1275,128.906250
1276,126.953125
1277,123.046875
1278,125.000000
1279,125.000000
1280,130.859375
1281,130.859375
1282,125.000000
1283,126.953125
1284,132.812500
1285,132.812500
1286,126.953125
1287,123.046875
1288,125.000000
1289,130.859375
1290,126.953125
1291,123.046875
1292,125.000000
1293,128.906250
1294,126.953125
1295,126.953125
1296,126.953125
1297,126.953125
1298,128.906250
1299,125.000000
1300,125.000000
1301,128.906250
1302,125.000000
1303,130.859375
1304,126.953125
1305,125.000000
1306,126.953125
1307,126.953125
1308,125.000000
1309,126.953125
1310,126.953125
1311,126.953125
1312,126.953125
1313,126.953125
1314,126.953125
1315,125.000000
1316,123.046875
1317,125.000000
1318,126.953125
1319,123.046875
1320,125.000000
1321,126.953125
1322,126.953125
1323,126.953125
1324,123.046875
1325,126.953125
1326,125.000000
1327,130.859375
1328,126.953125
1329,125.000000
1330,123.046875
1331,126.953125
1332,123.046875
1333,123.046875
1334,121.093750
1335,123.046875
1336,132.812500
1337,125.000000
1338,123.046875
1339,121.093750
1340,126.953125
1341,126.953125
1342,125.000000
1343,121.093750
