時系列データ/data/ガムテープ.csv

Channel              :,CH1
Frequency            :,  ?
Period               :,  ?
PK-PK                :,179.7mV
Probe attenuation    :,10X
Voltage per ADC value:,0.122070mV
Time interval        :,400.00000us

index,CH1_Voltage(mV)
1,121.093750
2,121.093750
3,121.093750
4,123.046875
5,123.046875
6,123.046875
7,115.234375
8,126.953125
9,123.046875
10,121.093750
11,123.046875
12,121.093750
13,121.093750
14,121.093750
15,125.000000
16,123.046875
17,123.046875
18,121.093750
19,123.046875
20,125.000000
21,125.000000
22,123.046875
23,123.046875
24,121.093750
25,123.046875
26,117.187500
27,126.953125
28,123.046875
29,121.093750
30,119.140625
31,117.187500
32,123.046875
33,123.046875
34,119.140625
35,123.046875
36,121.093750
37,123.046875
38,121.093750
39,117.187500
40,123.046875
41,123.046875
42,121.093750
43,117.187500
44,121.093750
45,119.140625
46,125.000000
47,119.140625
48,121.093750
49,123.046875
50,119.140625
51,121.093750
52,121.093750
53,115.234375
54,119.140625
55,123.046875
56,123.046875
57,123.046875
58,121.093750
59,115.234375
60,117.187500
61,123.046875
62,119.140625
63,123.046875
64,121.093750
65,121.093750
66,123.046875
67,123.046875
68,119.140625
69,123.046875
70,115.234375
71,121.093750
72,121.093750
73,117.187500
74,117.187500
75,117.187500
76,123.046875
77,115.234375
78,115.234375
79,117.187500
80,115.234375
81,117.187500
82,117.187500
83,121.093750
84,115.234375
85,121.093750
86,115.234375
87,115.234375
88,123.046875
89,119.140625
90,121.093750
91,121.093750
92,123.046875
93,125.000000
94,123.046875
95,121.093750
96,123.046875
97,123.046875
98,123.046875
99,123.046875
100,123.046875
101,126.953125
102,125.000000
103,126.953125
104,123.046875
105,119.140625
106,126.953125
107,125.000000
108,125.000000
109,130.859375
110,128.906250
111,123.046875
112,123.046875
113,125.000000
114,123.046875
115,130.859375
116,126.953125
117,123.046875
118,128.906250
119,126.953125
120,126.953125
121,125.000000
122,123.046875
123,125.000000
124,123.046875
125,126.953125
126,125.000000
127,126.953125
128,125.000000
129,121.093750
130,123.046875
131,123.046875
132,123.046875
133,121.093750
134,121.093750
135,126.953125
136,125.000000
137,123.046875
138,121.093750
139,126.953125
140,130.859375
141,126.953125
142,115.234375
143,123.046875
144,125.000000
145,123.046875
146,123.046875
147,125.000000
148,123.046875
149,125.000000
150,125.000000
151,123.046875
152,125.000000
153,123.046875
154,123.046875
155,123.046875
156,123.046875
157,126.953125
158,125.000000
159,126.953125
160,123.046875
161,123.046875
162,125.000000
163,125.000000
164,128.906250
165,126.953125
166,123.046875
167,125.000000
168,115.234375
169,121.093750
170,125.000000
171,123.046875
172,125.000000
173,123.046875
174,123.046875
175,119.140625
176,121.093750
177,121.093750
178,117.187500
179,115.234375
180,113.281250
181,107.421875
182,105.468750
183,107.421875
184,99.609375
185,95.703125
186,97.656250
187,95.703125
188,101.562500
189,93.750000
190,91.796875
191,95.703125
192,95.703125
193,91.796875
194,89.843750
195,95.703125
196,95.703125
197,91.796875
198,89.843750
199,91.796875
200,83.984375
201,89.843750
202,87.890625
203,85.937500
204,89.843750
205,87.890625
206,89.843750
207,87.890625
208,91.796875
209,87.890625
210,89.843750
211,89.843750
212,89.843750
213,95.703125
214,87.890625
215,83.984375
216,89.843750
217,78.125000
218,89.843750
219,83.984375
220,87.890625
221,83.984375
222,85.937500
223,83.984375
224,76.171875
225,80.078125
226,80.078125
227,78.125000
228,78.125000
229,80.078125
230,83.984375
231,80.078125
232,82.031250
233,83.984375
234,83.984375
235,83.984375
236,80.078125
237,76.171875
238,80.078125
239,80.078125
240,76.171875
241,72.265625
242,76.171875
243,83.984375
244,80.078125
245,80.078125
246,78.125000
247,80.078125
248,80.078125
249,83.984375
250,83.984375
251,80.078125
252,78.125000
253,80.078125
254,80.078125
255,72.265625
256,83.984375
257,80.078125
258,80.078125
259,80.078125
260,80.078125
261,76.171875
262,76.171875
263,78.125000
264,80.078125
265,80.078125
266,80.078125
267,83.984375
268,85.937500
269,80.078125
270,83.984375
271,83.984375
272,83.984375
273,80.078125
274,82.031250
275,76.171875
276,82.031250
277,85.937500
278,80.078125
279,78.125000
280,83.984375
281,83.984375
282,83.984375
283,78.125000
284,78.125000
285,83.984375
286,80.078125
287,80.078125
288,80.078125
289,76.171875
290,76.171875
291,85.937500
292,78.125000
293,80.078125
294,76.171875
295,83.984375
296,80.078125
297,80.078125
298,80.078125
299,78.125000
300,80.078125
301,80.078125
302,80.078125
303,80.078125
304,82.031250
305,78.125000
306,80.078125
307,74.218750
308,80.078125
309,80.078125
310,78.125000
311,78.125000
312,80.078125
313,80.078125
314,83.984375
315,76.171875
316,76.171875
317,78.125000
318,74.218750
319,76.171875
320,82.031250
321,78.125000
322,80.078125
323,80.078125
324,80.078125
325,80.078125
326,78.125000
327,80.078125
328,82.031250
329,78.125000
330,78.125000
331,72.265625
332,78.125000
333,83.984375
334,80.078125
335,76.171875
336,80.078125
337,80.078125
338,80.078125
339,76.171875
340,76.171875
341,76.171875
342,78.125000
343,83.984375
344,74.218750
345,74.218750
346,78.125000
347,80.078125
348,76.171875
349,78.125000
350,74.218750
351,76.171875
352,78.125000
353,66.406250
354,76.171875
355,80.078125
356,80.078125
357,78.125000
358,80.078125
359,78.125000
360,76.171875
361,76.171875
362,72.265625
363,78.125000
364,76.171875
365,74.218750
366,82.031250
367,80.078125
368,78.125000
369,76.171875
370,76.171875
371,80.078125
372,78.125000
373,68.359375
374,76.171875
375,76.171875
376,80.078125
377,76.171875
378,76.171875
379,76.171875
380,80.078125
381,68.359375
382,78.125000
383,76.171875
384,74.218750
385,80.078125
386,78.125000
387,72.265625
388,74.218750
389,76.171875
390,80.078125
391,78.125000
392,76.171875
393,78.125000
394,78.125000
395,82.031250
396,76.171875
397,76.171875
398,80.078125
399,76.171875
400,80.078125
401,76.171875
402,80.078125
403,80.078125
404,80.078125
405,80.078125
406,80.078125
407,76.171875
408,74.218750
409,70.312500
410,76.171875
411,80.078125
412,80.078125
413,83.984375
414,78.125000
415,82.031250
416,70.312500
417,80.078125
418,80.078125
419,80.078125
420,82.031250
421,80.078125
422,80.078125
423,80.078125
424,80.078125
425,83.984375
426,78.125000
427,83.984375
428,78.125000
429,80.078125
430,89.843750
431,83.984375
432,85.937500
433,83.984375
434,76.171875
435,82.031250
436,83.984375
437,83.984375
438,83.984375
439,80.078125
440,83.984375
441,83.984375
442,82.031250
443,80.078125
444,89.843750
445,80.078125
446,83.984375
447,83.984375
448,83.984375
449,80.078125
450,83.984375
451,83.984375
452,83.984375
453,78.125000
454,76.171875
455,80.078125
456,83.984375
457,78.125000
458,85.937500
459,87.890625
460,82.031250
461,83.984375
462,80.078125
463,80.078125
464,83.984375
465,85.937500
466,83.984375
467,87.890625
468,85.937500
469,83.984375
470,83.984375
471,87.890625
472,83.984375
473,83.984375
474,80.078125
475,89.843750
476,80.078125
477,82.031250
478,80.078125
479,83.984375
480,83.984375
481,80.078125
482,83.984375
483,83.984375
484,80.078125
485,80.078125
486,87.890625
487,80.078125
488,80.078125
489,80.078125
490,80.078125
491,78.125000
492,80.078125
493,83.984375
494,83.984375
495,76.171875
496,80.078125
497,80.078125
498,80.078125
499,76.171875
500,83.984375
501,80.078125
502,83.984375
503,74.218750
504,83.984375
505,82.031250
506,80.078125
507,83.984375
508,82.031250
509,76.171875
510,76.171875
511,80.078125
512,78.125000
513,85.937500
514,80.078125
515,83.984375
516,83.984375
517,76.171875
518,80.078125
519,78.125000
520,82.031250
521,80.078125
522,83.984375
523,82.031250
524,80.078125
525,83.984375
526,80.078125
527,83.984375
528,80.078125
529,80.078125
530,83.984375
531,80.078125
532,82.031250
533,80.078125
534,78.125000
535,85.937500
536,83.984375
537,80.078125
538,80.078125
539,82.031250
540,80.078125
541,80.078125
542,80.078125
543,76.171875
544,83.984375
545,80.078125
546,78.125000
547,80.078125
548,83.984375
549,83.984375
550,83.984375
551,83.984375
552,80.078125
553,78.125000
554,83.984375
555,74.218750
556,83.984375
557,83.984375
558,78.125000
559,82.031250
560,87.890625
561,82.031250
562,83.984375
563,83.984375
564,80.078125
565,80.078125
566,83.984375
567,82.031250
568,83.984375
569,80.078125
570,83.984375
571,85.937500
572,83.984375
573,83.984375
574,83.984375
575,83.984375
576,83.984375
577,83.984375
578,87.890625
579,83.984375
580,83.984375
581,82.031250
582,89.843750
583,83.984375
584,78.125000
585,80.078125
586,78.125000
587,80.078125
588,78.125000
589,80.078125
590,83.984375
591,83.984375
592,83.984375
593,83.984375
594,76.171875
595,83.984375
596,83.984375
597,83.984375
598,83.984375
599,83.984375
600,83.984375
601,83.984375
602,83.984375
603,91.796875
604,83.984375
605,83.984375
606,85.937500
607,82.031250
608,83.984375
609,85.937500
610,83.984375
611,87.890625
612,87.890625
613,85.937500
614,89.843750
615,89.843750
616,83.984375
617,89.843750
618,89.843750
619,83.984375
620,87.890625
621,85.937500
622,89.843750
623,85.937500
624,85.937500
625,93.750000
626,83.984375
627,85.937500
628,85.937500
629,91.796875
630,89.843750
631,85.937500
632,85.937500
633,89.843750
634,83.984375
635,89.843750
636,85.937500
637,87.890625
638,87.890625
639,91.796875
640,85.937500
641,87.890625
642,83.984375
643,89.843750
644,89.843750
645,85.937500
646,85.937500
647,87.890625
648,89.843750
649,89.843750
650,89.843750
651,89.843750
652,87.890625
653,89.843750
654,89.843750
655,85.937500
656,89.843750
657,93.750000
658,93.750000
659,85.937500
660,95.703125
661,95.703125
662,85.937500
663,89.843750
664,91.796875
665,83.984375
666,91.796875
667,89.843750
668,93.750000
669,91.796875
670,89.843750
671,89.843750
672,91.796875
673,93.750000
674,91.796875
675,87.890625
676,91.796875
677,91.796875
678,89.843750
679,87.890625
680,89.843750
681,91.796875
682,89.843750
683,87.890625
684,85.937500
685,93.750000
686,89.843750
687,89.843750
688,87.890625
689,89.843750
690,91.796875
691,89.843750
692,89.843750
693,85.937500
694,91.796875
695,91.796875
696,91.796875
697,87.890625
698,89.843750
699,89.843750
700,89.843750
701,87.890625
702,89.843750
703,83.984375
704,93.750000
705,89.843750
706,93.750000
707,93.750000
708,89.843750
709,89.843750
710,87.890625
711,87.890625
712,91.796875
713,95.703125
714,93.750000
715,95.703125
716,93.750000
717,91.796875
718,93.750000
719,87.890625
720,93.750000
721,91.796875
722,91.796875
723,91.796875
724,91.796875
725,91.796875
726,93.750000
727,95.703125
728,93.750000
729,93.750000
730,91.796875
731,89.843750
732,91.796875
733,95.703125
734,91.796875
735,91.796875
736,91.796875
737,91.796875
738,91.796875
739,89.843750
740,89.843750
741,95.703125
742,93.750000
743,95.703125
744,87.890625
745,91.796875
746,95.703125
747,93.750000
748,93.750000
749,93.750000
750,95.703125
751,93.750000
752,95.703125
753,103.515625
754,93.750000
755,99.609375
756,95.703125
757,91.796875
758,95.703125
759,99.609375
760,99.609375
761,107.421875
762,105.468750
763,103.515625
764,103.515625
765,101.562500
766,101.562500
767,97.656250
768,95.703125
769,93.750000
770,101.562500
771,99.609375
772,103.515625
773,101.562500
774,101.562500
775,103.515625
776,99.609375
777,105.468750
778,101.562500
779,95.703125
780,109.375000
781,99.609375
782,99.609375
783,95.703125
784,105.468750
785,107.421875
786,95.703125
787,101.562500
788,105.468750
789,105.468750
790,95.703125
791,101.562500
792,101.562500
793,105.468750
794,103.515625
795,105.468750
796,101.562500
797,95.703125
798,101.562500
799,101.562500
800,101.562500
801,103.515625
802,101.562500
803,105.468750
804,109.375000
805,105.468750
806,105.468750
807,109.375000
808,105.468750
809,105.468750
810,103.515625
811,109.375000
812,99.609375
813,107.421875
814,109.375000
815,105.468750
816,111.328125
817,107.421875
818,103.515625
819,111.328125
820,105.468750
821,107.421875
822,107.421875
823,105.468750
824,109.375000
825,107.421875
826,107.421875
827,107.421875
828,111.328125
829,107.421875
830,109.375000
831,109.375000
832,109.375000
833,105.468750
834,101.562500
835,111.328125
836,107.421875
837,107.421875
838,107.421875
839,95.703125
840,107.421875
841,107.421875
842,111.328125
843,105.468750
844,107.421875
845,107.421875
846,99.609375
847,107.421875
848,107.421875
849,109.375000
850,105.468750
851,111.328125
852,107.421875
853,111.328125
854,111.328125
855,111.328125
856,111.328125
857,115.234375
858,107.421875
859,107.421875
860,115.234375
861,115.234375
862,111.328125
863,117.187500
864,111.328125
865,115.234375
866,115.234375
867,111.328125
868,115.234375
869,115.234375
870,115.234375
871,115.234375
872,117.187500
873,115.234375
874,115.234375
875,111.328125
876,115.234375
877,115.234375
878,115.234375
879,115.234375
880,115.234375
881,111.328125
882,115.234375
883,119.140625
884,115.234375
885,111.328125
886,115.234375
887,117.187500
888,115.234375
889,115.234375
890,109.375000
891,115.234375
892,115.234375
893,115.234375
894,117.187500
895,115.234375
896,111.328125
897,115.234375
898,117.187500
899,111.328125
900,115.234375
901,115.234375
902,117.187500
903,115.234375
904,111.328125
905,115.234375
906,123.046875
907,115.234375
908,119.140625
909,125.000000
910,119.140625
911,121.093750
912,115.234375
913,121.093750
914,123.046875
915,123.046875
916,123.046875
917,125.000000
918,126.953125
919,115.234375
920,126.953125
921,125.000000
922,123.046875
923,125.000000
924,125.000000
925,123.046875
926,125.000000
927,126.953125
928,125.000000
929,125.000000
930,125.000000
931,126.953125
932,126.953125
933,123.046875
934,126.953125
935,130.859375
936,126.953125
937,125.000000
938,126.953125
939,132.812500
940,123.046875
941,130.859375
942,125.000000
943,130.859375
944,126.953125
945,123.046875
946,126.953125
947,121.093750
948,128.906250
949,126.953125
950,126.953125
951,123.046875
952,125.000000
953,121.093750
954,126.953125
955,126.953125
956,115.234375
957,123.046875
958,115.234375
959,111.328125
960,109.375000
961,119.140625
962,115.234375
963,121.093750
964,121.093750
965,123.046875
966,121.093750
967,119.140625
968,117.187500
969,121.093750
970,126.953125
971,121.093750
972,123.046875
973,123.046875
974,123.046875
975,121.093750
976,123.046875
977,123.046875
978,123.046875
979,123.046875
980,119.140625
981,119.140625
982,123.046875
983,123.046875
984,121.093750
985,123.046875
986,126.953125
987,126.953125
988,123.046875
989,121.093750
990,125.000000
991,126.953125
992,125.000000
993,119.140625
994,123.046875
995,125.000000
996,125.000000
997,126.953125
998,126.953125
999,126.953125
1000,125.000000
1001,130.859375
1002,125.000000
1003,126.953125
1004,128.906250
1005,125.000000
1006,126.953125
1007,130.859375
1008,126.953125
1009,130.859375
1010,130.859375
1011,126.953125
1012,125.000000
1013,126.953125
1014,125.000000
1015,126.953125
1016,130.859375
1017,130.859375
1018,134.765625
1019,130.859375
1020,126.953125
1021,132.812500
1022,130.859375
1023,126.953125
1024,126.953125
1025,132.812500
1026,130.859375
1027,126.953125
1028,126.953125
1029,130.859375
1030,130.859375
1031,130.859375
1032,126.953125
1033,126.953125
1034,126.953125
1035,126.953125
1036,126.953125
1037,125.000000
1038,130.859375
1039,126.953125
1040,125.000000
1041,123.046875
1042,126.953125
1043,125.000000
1044,121.093750
1045,123.046875
1046,123.046875
1047,121.093750
1048,117.187500
1049,115.234375
1050,121.093750
1051,117.187500
1052,115.234375
1053,119.140625
1054,117.187500
1055,117.187500
1056,119.140625
1057,119.140625
1058,117.187500
1059,111.328125
1060,115.234375
1061,121.093750
1062,119.140625
1063,130.859375
1064,121.093750
1065,125.000000
1066,115.234375
1067,121.093750
1068,121.093750
1069,121.093750
1070,121.093750
1071,123.046875
1072,121.093750
1073,123.046875
1074,117.187500
1075,111.328125
1076,111.328125
1077,109.375000
1078,105.468750
1079,107.421875
1080,105.468750
1081,107.421875
1082,107.421875
1083,107.421875
1084,109.375000
1085,111.328125
1086,111.328125
1087,107.421875
1088,105.468750
1089,111.328125
1090,115.234375
1091,109.375000
1092,107.421875
1093,105.468750
1094,111.328125
1095,107.421875
1096,107.421875
1097,111.328125
1098,109.375000
1099,107.421875
1100,107.421875
1101,107.421875
1102,117.187500
1103,105.468750
1104,109.375000
1105,107.421875
1106,109.375000
1107,111.328125
1108,119.140625
1109,113.281250
1110,115.234375
1111,117.187500
1112,109.375000
1113,113.281250
1114,109.375000
1115,107.421875
1116,115.234375
1117,115.234375
1118,113.281250
1119,115.234375
1120,113.281250
1121,111.328125
1122,111.328125
1123,111.328125
1124,111.328125
1125,117.187500
1126,111.328125
1127,115.234375
1128,115.234375
1129,117.187500
1130,111.328125
1131,111.328125
1132,115.234375
1133,117.187500
1134,111.328125
1135,111.328125
1136,111.328125
1137,115.234375
1138,111.328125
1139,111.328125
1140,111.328125
1141,111.328125
1142,115.234375
1143,109.375000
1144,111.328125
1145,111.328125
1146,115.234375
1147,111.328125
1148,115.234375
1149,113.281250
1150,115.234375
1151,111.328125
1152,113.281250
1153,111.328125
1154,119.140625
1155,115.234375
1156,115.234375
1157,121.093750
1158,111.328125
1159,111.328125
1160,115.234375
1161,111.328125
1162,115.234375
1163,117.187500
1164,115.234375
1165,123.046875
1166,119.140625
1167,115.234375
1168,117.187500
1169,119.140625
1170,115.234375
1171,125.000000
1172,115.234375
1173,117.187500
1174,115.234375
1175,119.140625
1176,119.140625
1177,121.093750
1178,117.187500
1179,117.187500
1180,119.140625
1181,115.234375
1182,115.234375
1183,117.187500
1184,123.046875
1185,123.046875
1186,121.093750
1187,119.140625
1188,123.046875
1189,123.046875
1190,121.093750
1191,117.187500
1192,130.859375
1193,123.046875
1194,123.046875
1195,117.187500
1196,119.140625
1197,123.046875
1198,121.093750
1199,130.859375
1200,117.187500
1201,123.046875
1202,128.906250
1203,126.953125
1204,123.046875
1205,126.953125
1206,125.000000
1207,130.859375
1208,128.906250
1209,132.812500
1210,130.859375
1211,132.812500
1212,130.859375
1213,132.812500
1214,130.859375
1215,130.859375
1216,126.953125
1217,130.859375
1218,134.765625
1219,130.859375
1220,136.718750
1221,132.812500
1222,134.765625
1223,132.812500
1224,132.812500
1225,134.765625
1226,130.859375
1227,134.765625
1228,130.859375
1229,130.859375
1230,130.859375
1231,134.765625
1232,132.812500
1233,132.812500
1234,130.859375
1235,136.718750
1236,134.765625
1237,130.859375
1238,126.953125
1239,130.859375
1240,136.718750
1241,146.484375
1242,130.859375
1243,126.953125
1244,130.859375
1245,130.859375
1246,126.953125
1247,126.953125
1248,126.953125
1249,126.953125
1250,126.953125
1251,128.906250
1252,130.859375
1253,126.953125
1254,130.859375
1255,132.812500
1256,125.000000
1257,130.859375
1258,130.859375
1259,130.859375
1260,125.000000
1261,130.859375
1262,138.671875
1263,130.859375
1264,132.812500
1265,126.953125
1266,130.859375
1267,130.859375
1268,130.859375
1269,126.953125
1270,130.859375
1271,126.953125
1272,126.953125
1273,130.859375
1274,130.859375
1275,130.859375
1276,123.046875
1277,125.000000
1278,125.000000
1279,126.953125
1280,123.046875
1281,126.953125
1282,126.953125
1283,126.953125
1284,125.000000
1285,123.046875
1286,126.953125
1287,126.953125
1288,126.953125
1289,125.000000
1290,134.765625
1291,125.000000
1292,126.953125
1293,123.046875
1294,123.046875
1295,123.046875
1296,123.046875
1297,121.093750
1298,123.046875
1299,126.953125
1300,126.953125
1301,126.953125
1302,123.046875
1303,126.953125
1304,125.000000
1305,123.046875
1306,123.046875
1307,126.953125
1308,126.953125
1309,126.953125
1310,128.906250
1311,125.000000
1312,126.953125
1313,132.812500
1314,125.000000
1315,126.953125
1316,130.859375
1317,123.046875
1318,130.859375
1319,126.953125
1320,126.953125
1321,125.000000
1322,126.953125
1323,126.953125
1324,126.953125
1325,130.859375
1326,130.859375
1327,126.953125
1328,126.953125
1329,126.953125
1330,132.812500
1331,130.859375
1332,123.046875
1333,125.000000
1334,128.906250
1335,126.953125
1336,126.953125
1337,126.953125
1338,123.046875
1339,130.859375
1340,128.906250
1341,126.953125
