時系列データ/data/テーブル2.csv

Channel              :,CH1
Frequency            :,  ?
Period               :,  ?
PK-PK                :,37.11mV
Probe attenuation    :,10X
Voltage per ADC value:,0.122070mV
Time interval        :,400.00000us

index,CH1_Voltage(mV)
1,101.562500
2,101.562500
3,105.468750
4,99.609375
5,97.656250
6,101.562500
7,101.562500
8,99.609375
9,99.609375
10,101.562500
11,103.515625
12,103.515625
13,101.562500
14,95.703125
15,99.609375
16,95.703125
17,93.750000
18,99.609375
19,99.609375
20,101.562500
21,99.609375
22,99.609375
23,99.609375
24,105.468750
25,99.609375
26,101.562500
27,99.609375
28,95.703125
29,95.703125
30,101.562500
31,95.703125
32,103.515625
33,107.421875
34,109.375000
35,107.421875
36,103.515625
37,101.562500
38,103.515625
39,95.703125
40,97.656250
41,105.468750
42,105.468750
43,105.468750
44,101.562500
45,99.609375
46,101.562500
47,103.515625
48,101.562500
49,99.609375
50,105.468750
51,101.562500
52,101.562500
53,99.609375
54,105.468750
55,105.468750
56,101.562500
57,109.375000
58,101.562500
59,105.468750
60,93.750000
61,99.609375
62,99.609375
63,101.562500
64,105.468750
65,99.609375
66,99.609375
67,99.609375
68,101.562500
69,99.609375
70,103.515625
71,105.468750
72,103.515625
73,99.609375
74,95.703125
75,101.562500
76,101.562500
77,97.656250
78,103.515625
79,107.421875
80,101.562500
81,101.562500
82,107.421875
83,97.656250
84,101.562500
85,99.609375
86,95.703125
87,105.468750
88,101.562500
89,103.515625
90,105.468750
91,103.515625
92,101.562500
93,95.703125
94,105.468750
95,101.562500
96,99.609375
97,101.562500
98,101.562500
99,101.562500
100,103.515625
101,103.515625
102,101.562500
103,101.562500
104,95.703125
105,101.562500
106,103.515625
107,99.609375
108,101.562500
109,101.562500
110,101.562500
111,109.375000
112,99.609375
113,99.609375
114,99.609375
115,99.609375
116,103.515625
117,101.562500
118,99.609375
119,101.562500
120,101.562500
121,99.609375
122,107.421875
123,101.562500
124,95.703125
125,103.515625
126,101.562500
127,105.468750
128,105.468750
129,99.609375
130,105.468750
131,99.609375
132,95.703125
133,103.515625
134,101.562500
135,101.562500
136,103.515625
137,107.421875
138,95.703125
139,103.515625
140,105.468750
141,103.515625
142,107.421875
143,105.468750
144,105.468750
145,103.515625
146,105.468750
147,105.468750
148,101.562500
149,105.468750
150,105.468750
151,99.609375
152,99.609375
153,105.468750
154,95.703125
155,101.562500
156,101.562500
157,105.468750
158,111.328125
159,103.515625
160,99.609375
161,101.562500
162,105.468750
163,105.468750
164,99.609375
165,101.562500
166,105.468750
167,105.468750
168,101.562500
169,103.515625
170,101.562500
171,101.562500
172,99.609375
173,105.468750
174,105.468750
175,103.515625
176,105.468750
177,105.468750
178,103.515625
179,105.468750
180,109.375000
181,101.562500
182,105.468750
183,103.515625
184,99.609375
185,103.515625
186,103.515625
187,103.515625
188,103.515625
189,107.421875
190,105.468750
191,111.328125
192,101.562500
193,105.468750
194,105.468750
195,105.468750
196,105.468750
197,105.468750
198,107.421875
199,107.421875
200,107.421875
201,105.468750
202,105.468750
203,101.562500
204,105.468750
205,109.375000
206,105.468750
207,101.562500
208,101.562500
209,103.515625
210,107.421875
211,101.562500
212,101.562500
213,103.515625
214,105.468750
215,101.562500
216,101.562500
217,103.515625
218,105.468750
219,101.562500
220,101.562500
221,103.515625
222,101.562500
223,103.515625
224,101.562500
225,107.421875
226,109.375000
227,103.515625
228,107.421875
229,103.515625
230,101.562500
231,107.421875
232,105.468750
233,105.468750
234,107.421875
235,107.421875
236,107.421875
237,99.609375
238,103.515625
239,105.468750
240,105.468750
241,109.375000
242,111.328125
243,107.421875
244,107.421875
245,107.421875
246,109.375000
247,105.468750
248,107.421875
249,107.421875
250,103.515625
251,107.421875
252,109.375000
253,113.281250
254,103.515625
255,101.562500
256,109.375000
257,107.421875
258,107.421875
259,103.515625
260,107.421875
261,111.328125
262,107.421875
263,101.562500
264,101.562500
265,107.421875
266,103.515625
267,103.515625
268,105.468750
269,111.328125
270,101.562500
271,101.562500
272,103.515625
273,105.468750
274,107.421875
275,105.468750
276,101.562500
277,109.375000
278,107.421875
279,101.562500
280,107.421875
281,107.421875
282,107.421875
283,105.468750
284,107.421875
285,103.515625
286,109.375000
287,105.468750
288,101.562500
289,111.328125
290,111.328125
291,107.421875
292,99.609375
293,107.421875
294,105.468750
295,107.421875
296,107.421875
297,105.468750
298,105.468750
299,107.421875
300,109.375000
301,103.515625
302,101.562500
303,105.468750
304,107.421875
305,103.515625
306,103.515625
307,103.515625
308,107.421875
309,103.515625
310,103.515625
311,101.562500
312,103.515625
313,107.421875
314,105.468750
315,105.468750
316,103.515625
317,105.468750
318,103.515625
319,105.468750
320,103.515625
321,107.421875
322,103.515625
323,109.375000
324,107.421875
325,105.468750
326,107.421875
327,107.421875
328,103.515625
329,105.468750
330,111.328125
331,101.562500
332,109.375000
333,107.421875
334,101.562500
335,111.328125
336,107.421875
337,107.421875
338,109.375000
339,103.515625
340,107.421875
341,107.421875
342,105.468750
343,107.421875
344,107.421875
345,111.328125
346,107.421875
347,103.515625
348,103.515625
349,105.468750
350,105.468750
351,105.468750
352,107.421875
353,105.468750
354,105.468750
355,109.375000
356,109.375000
357,105.468750
358,101.562500
359,107.421875
360,107.421875
361,105.468750
362,99.609375
363,99.609375
364,101.562500
365,111.328125
366,105.468750
367,105.468750
368,105.468750
369,105.468750
370,105.468750
371,105.468750
372,105.468750
373,109.375000
374,99.609375
375,105.468750
376,107.421875
377,99.609375
378,109.375000
379,107.421875
380,103.515625
381,95.703125
382,109.375000
383,107.421875
384,107.421875
385,109.375000
386,101.562500
387,107.421875
388,109.375000
389,105.468750
390,111.328125
391,109.375000
392,105.468750
393,107.421875
394,107.421875
395,107.421875
396,105.468750
397,107.421875
398,105.468750
399,105.468750
400,107.421875
401,105.468750
402,115.234375
403,109.375000
404,107.421875
405,105.468750
406,105.468750
407,109.375000
408,105.468750
409,103.515625
410,105.468750
411,109.375000
412,109.375000
413,107.421875
414,101.562500
415,107.421875
416,105.468750
417,103.515625
418,107.421875
419,103.515625
420,105.468750
421,105.468750
422,103.515625
423,105.468750
424,101.562500
425,107.421875
426,105.468750
427,109.375000
428,105.468750
429,103.515625
430,111.328125
431,107.421875
432,105.468750
433,105.468750
434,107.421875
435,111.328125
436,109.375000
437,109.375000
438,105.468750
439,111.328125
440,107.421875
441,107.421875
442,107.421875
443,105.468750
444,107.421875
445,107.421875
446,109.375000
447,107.421875
448,107.421875
449,113.281250
450,111.328125
451,105.468750
452,107.421875
453,105.468750
454,109.375000
455,109.375000
456,103.515625
457,107.421875
458,107.421875
459,109.375000
460,105.468750
461,101.562500
462,103.515625
463,105.468750
464,109.375000
465,101.562500
466,105.468750
467,105.468750
468,109.375000
469,103.515625
470,107.421875
471,103.515625
472,103.515625
473,107.421875
474,111.328125
475,103.515625
476,107.421875
477,103.515625
478,107.421875
479,107.421875
480,107.421875
481,105.468750
482,109.375000
483,111.328125
484,109.375000
485,111.328125
486,107.421875
487,109.375000
488,111.328125
489,107.421875
490,111.328125
491,109.375000
492,103.515625
493,109.375000
494,107.421875
495,107.421875
496,111.328125
497,109.375000
498,107.421875
499,109.375000
500,107.421875
501,111.328125
502,109.375000
503,107.421875
504,107.421875
505,111.328125
506,107.421875
507,101.562500
508,101.562500
509,105.468750
510,111.328125
511,109.375000
512,107.421875
513,103.515625
514,107.421875
515,111.328125
516,105.468750
517,99.609375
518,105.468750
519,105.468750
520,105.468750
521,101.562500
522,107.421875
523,105.468750
524,105.468750
525,109.375000
526,107.421875
527,101.562500
528,109.375000
529,107.421875
530,105.468750
531,111.328125
532,115.234375
533,105.468750
534,107.421875
535,111.328125
536,105.468750
537,111.328125
538,107.421875
539,111.328125
540,109.375000
541,109.375000
542,109.375000
543,99.609375
544,109.375000
545,107.421875
546,111.328125
547,107.421875
548,109.375000
549,109.375000
550,107.421875
551,107.421875
552,105.468750
553,109.375000
554,105.468750
555,105.468750
556,103.515625
557,107.421875
558,109.375000
559,111.328125
560,107.421875
561,101.562500
562,111.328125
563,111.328125
564,101.562500
565,103.515625
566,107.421875
567,107.421875
568,103.515625
569,107.421875
570,105.468750
571,109.375000
572,107.421875
573,107.421875
574,105.468750
575,111.328125
576,107.421875
577,105.468750
578,105.468750
579,101.562500
580,107.421875
581,107.421875
582,105.468750
583,107.421875
584,109.375000
585,105.468750
586,107.421875
587,105.468750
588,107.421875
589,111.328125
590,109.375000
591,109.375000
592,105.468750
593,111.328125
594,107.421875
595,107.421875
596,109.375000
597,103.515625
598,111.328125
599,105.468750
600,109.375000
601,111.328125
602,107.421875
603,103.515625
604,111.328125
605,109.375000
606,105.468750
607,107.421875
608,103.515625
609,111.328125
610,109.375000
611,101.562500
612,99.609375
613,105.468750
614,107.421875
615,111.328125
616,101.562500
617,101.562500
618,109.375000
619,105.468750
620,105.468750
621,107.421875
622,107.421875
623,103.515625
624,101.562500
625,101.562500
626,107.421875
627,105.468750
628,101.562500
629,107.421875
630,111.328125
631,105.468750
632,109.375000
633,111.328125
634,101.562500
635,109.375000
636,111.328125
637,109.375000
638,111.328125
639,107.421875
640,107.421875
641,111.328125
642,101.562500
643,109.375000
644,109.375000
645,107.421875
646,109.375000
647,111.328125
648,111.328125
649,105.468750
650,105.468750
651,107.421875
652,107.421875
653,107.421875
654,107.421875
655,109.375000
656,109.375000
657,111.328125
658,107.421875
659,105.468750
660,103.515625
661,105.468750
662,107.421875
663,101.562500
664,103.515625
665,107.421875
666,109.375000
667,105.468750
668,105.468750
669,107.421875
670,107.421875
671,105.468750
672,105.468750
673,109.375000
674,101.562500
675,107.421875
676,113.281250
677,107.421875
678,111.328125
679,109.375000
680,107.421875
681,105.468750
682,107.421875
683,107.421875
684,109.375000
685,109.375000
686,107.421875
687,111.328125
688,111.328125
689,109.375000
690,109.375000
691,107.421875
692,111.328125
693,111.328125
694,107.421875
695,107.421875
696,109.375000
697,109.375000
698,115.234375
699,107.421875
700,111.328125
701,103.515625
702,107.421875
703,111.328125
704,107.421875
705,105.468750
706,105.468750
707,109.375000
708,107.421875
709,105.468750
710,107.421875
711,107.421875
712,111.328125
713,111.328125
714,107.421875
715,107.421875
716,115.234375
717,103.515625
718,103.515625
719,107.421875
720,105.468750
721,107.421875
722,107.421875
723,107.421875
724,107.421875
725,105.468750
726,105.468750
727,105.468750
728,107.421875
729,105.468750
730,113.281250
731,109.375000
732,111.328125
733,107.421875
734,103.515625
735,107.421875
736,107.421875
737,111.328125
738,107.421875
739,111.328125
740,113.281250
741,107.421875
742,107.421875
743,109.375000
744,107.421875
745,107.421875
746,107.421875
747,115.234375
748,111.328125
749,107.421875
750,111.328125
751,111.328125
752,111.328125
753,103.515625
754,109.375000
755,107.421875
756,107.421875
757,107.421875
758,105.468750
759,105.468750
760,109.375000
761,107.421875
762,105.468750
763,107.421875
764,105.468750
765,111.328125
766,103.515625
767,105.468750
768,107.421875
769,107.421875
770,107.421875
771,103.515625
772,105.468750
773,105.468750
774,105.468750
775,105.468750
776,107.421875
777,107.421875
778,103.515625
779,107.421875
780,107.421875
781,103.515625
782,103.515625
783,105.468750
784,107.421875
785,111.328125
786,107.421875
787,107.421875
788,105.468750
789,107.421875
790,107.421875
791,109.375000
792,107.421875
793,109.375000
794,105.468750
795,99.609375
796,107.421875
797,109.375000
798,107.421875
799,107.421875
800,107.421875
801,107.421875
802,109.375000
803,109.375000
804,109.375000
805,107.421875
806,107.421875
807,107.421875
808,101.562500
809,103.515625
810,107.421875
811,107.421875
812,109.375000
813,109.375000
814,103.515625
815,105.468750
816,109.375000
817,107.421875
818,107.421875
819,101.562500
820,103.515625
821,107.421875
822,103.515625
823,107.421875
824,105.468750
825,107.421875
826,107.421875
827,103.515625
828,109.375000
829,107.421875
830,103.515625
831,107.421875
832,111.328125
833,107.421875
834,109.375000
835,109.375000
836,103.515625
837,109.375000
838,103.515625
839,109.375000
840,101.562500
841,109.375000
842,115.234375
843,107.421875
844,107.421875
845,105.468750
846,107.421875
847,109.375000
848,105.468750
849,105.468750
850,109.375000
851,107.421875
852,107.421875
853,111.328125
854,115.234375
855,105.468750
856,97.656250
857,105.468750
858,103.515625
859,107.421875
860,107.421875
861,101.562500
862,105.468750
863,105.468750
864,107.421875
865,105.468750
866,99.609375
867,107.421875
868,105.468750
869,103.515625
870,105.468750
871,107.421875
872,107.421875
873,103.515625
874,107.421875
875,107.421875
876,103.515625
877,103.515625
878,111.328125
879,101.562500
880,109.375000
881,107.421875
882,103.515625
883,107.421875
884,107.421875
885,107.421875
886,107.421875
887,109.375000
888,105.468750
889,109.375000
890,105.468750
891,107.421875
892,111.328125
893,111.328125
894,107.421875
895,107.421875
896,99.609375
897,107.421875
898,107.421875
899,107.421875
900,105.468750
901,107.421875
902,107.421875
903,97.656250
904,105.468750
905,107.421875
906,105.468750
907,107.421875
908,101.562500
909,103.515625
910,107.421875
911,103.515625
912,105.468750
913,103.515625
914,105.468750
915,107.421875
916,105.468750
917,105.468750
918,105.468750
919,105.468750
920,101.562500
921,103.515625
922,107.421875
923,105.468750
924,109.375000
925,99.609375
926,105.468750
927,107.421875
928,105.468750
929,101.562500
930,105.468750
931,99.609375
932,105.468750
933,109.375000
934,107.421875
935,107.421875
936,105.468750
937,103.515625
938,107.421875
939,111.328125
940,103.515625
941,107.421875
942,103.515625
943,111.328125
944,105.468750
945,105.468750
946,109.375000
947,101.562500
948,105.468750
949,111.328125
950,115.234375
951,101.562500
952,109.375000
953,107.421875
954,103.515625
955,103.515625
956,105.468750
957,109.375000
958,105.468750
959,105.468750
960,107.421875
961,105.468750
962,103.515625
963,103.515625
964,99.609375
965,101.562500
966,99.609375
967,105.468750
968,101.562500
969,99.609375
970,103.515625
971,101.562500
972,99.609375
973,99.609375
974,105.468750
975,95.703125
976,101.562500
977,103.515625
978,107.421875
979,105.468750
980,101.562500
981,105.468750
982,103.515625
983,99.609375
984,105.468750
985,103.515625
986,93.750000
987,107.421875
988,105.468750
989,103.515625
990,101.562500
991,101.562500
992,105.468750
993,101.562500
994,101.562500
995,105.468750
996,107.421875
997,101.562500
998,101.562500
999,107.421875
1000,105.468750
1001,103.515625
1002,99.609375
1003,103.515625
1004,103.515625
1005,105.468750
1006,101.562500
1007,103.515625
1008,99.609375
1009,101.562500
1010,103.515625
1011,95.703125
1012,101.562500
1013,99.609375
1014,101.562500
1015,111.328125
1016,99.609375
1017,99.609375
1018,105.468750
1019,101.562500
1020,103.515625
1021,101.562500
1022,105.468750
1023,103.515625
1024,107.421875
1025,105.468750
1026,103.515625
1027,105.468750
1028,105.468750
1029,103.515625
1030,101.562500
1031,103.515625
1032,103.515625
1033,107.421875
1034,107.421875
1035,105.468750
1036,111.328125
1037,107.421875
1038,103.515625
1039,103.515625
1040,101.562500
1041,103.515625
1042,109.375000
1043,101.562500
1044,105.468750
1045,103.515625
1046,107.421875
1047,107.421875
1048,105.468750
1049,103.515625
1050,101.562500
1051,101.562500
1052,105.468750
1053,101.562500
1054,101.562500
1055,103.515625
1056,103.515625
1057,107.421875
1058,101.562500
1059,105.468750
1060,107.421875
1061,105.468750
1062,105.468750
1063,101.562500
1064,101.562500
1065,103.515625
1066,101.562500
1067,101.562500
1068,101.562500
1069,103.515625
1070,103.515625
1071,103.515625
1072,101.562500
1073,99.609375
1074,99.609375
1075,99.609375
1076,105.468750
1077,103.515625
1078,101.562500
1079,105.468750
1080,109.375000
1081,103.515625
1082,105.468750
1083,101.562500
1084,99.609375
1085,101.562500
1086,101.562500
1087,99.609375
1088,107.421875
1089,105.468750
1090,111.328125
1091,107.421875
1092,105.468750
1093,105.468750
1094,103.515625
1095,103.515625
1096,105.468750
1097,107.421875
1098,103.515625
1099,107.421875
1100,99.609375
1101,103.515625
1102,103.515625
1103,107.421875
1104,107.421875
1105,105.468750
1106,101.562500
1107,107.421875
1108,105.468750
1109,103.515625
1110,101.562500
1111,99.609375
1112,105.468750
1113,103.515625
1114,101.562500
1115,103.515625
1116,107.421875
1117,107.421875
1118,101.562500
1119,105.468750
1120,101.562500
1121,107.421875
1122,103.515625
1123,101.562500
1124,99.609375
1125,105.468750
1126,111.328125
1127,101.562500
1128,107.421875
1129,107.421875
1130,107.421875
1131,101.562500
1132,107.421875
1133,99.609375
1134,101.562500
1135,107.421875
1136,109.375000
1137,111.328125
1138,105.468750
1139,101.562500
1140,105.468750
1141,101.562500
1142,105.468750
1143,107.421875
1144,107.421875
1145,103.515625
1146,103.515625
1147,107.421875
1148,103.515625
1149,103.515625
1150,105.468750
1151,109.375000
1152,95.703125
1153,99.609375
1154,109.375000
1155,107.421875
1156,103.515625
1157,101.562500
1158,103.515625
1159,105.468750
1160,107.421875
1161,99.609375
1162,105.468750
1163,103.515625
1164,101.562500
1165,105.468750
1166,103.515625
1167,99.609375
1168,101.562500
1169,105.468750
1170,99.609375
1171,109.375000
1172,101.562500
1173,101.562500
1174,103.515625
1175,101.562500
1176,103.515625
1177,95.703125
1178,103.515625
1179,99.609375
1180,105.468750
1181,109.375000
1182,105.468750
1183,107.421875
1184,109.375000
1185,103.515625
1186,105.468750
1187,105.468750
1188,99.609375
1189,107.421875
1190,105.468750
1191,105.468750
1192,107.421875
1193,107.421875
1194,107.421875
1195,105.468750
1196,107.421875
1197,101.562500
1198,107.421875
1199,101.562500
1200,101.562500
1201,103.515625
1202,107.421875
1203,103.515625
1204,101.562500
1205,105.468750
1206,115.234375
1207,107.421875
1208,99.609375
1209,99.609375
1210,103.515625
1211,105.468750
1212,103.515625
1213,101.562500
1214,99.609375
1215,101.562500
1216,101.562500
1217,101.562500
1218,105.468750
1219,105.468750
1220,103.515625
1221,105.468750
1222,99.609375
1223,101.562500
1224,99.609375
1225,99.609375
1226,101.562500
1227,101.562500
1228,105.468750
1229,105.468750
1230,107.421875
1231,95.703125
1232,101.562500
1233,103.515625
1234,101.562500
1235,107.421875
1236,107.421875
1237,107.421875
1238,105.468750
1239,111.328125
1240,101.562500
1241,107.421875
1242,107.421875
1243,107.421875
1244,103.515625
1245,105.468750
1246,103.515625
1247,105.468750
1248,105.468750
1249,107.421875
1250,107.421875
1251,105.468750
1252,103.515625
1253,101.562500
1254,111.328125
1255,105.468750
1256,99.609375
1257,107.421875
1258,105.468750
1259,107.421875
1260,107.421875
1261,103.515625
1262,109.375000
1263,107.421875
1264,105.468750
1265,101.562500
1266,99.609375
1267,99.609375
1268,105.468750
1269,101.562500
1270,103.515625
1271,109.375000
1272,103.515625
1273,105.468750
1274,103.515625
1275,103.515625
1276,107.421875
1277,99.609375
1278,103.515625
1279,99.609375
1280,101.562500
1281,105.468750
1282,109.375000
1283,107.421875
1284,107.421875
1285,103.515625
1286,99.609375
1287,107.421875
1288,99.609375
1289,99.609375
1290,111.328125
1291,107.421875
1292,107.421875
1293,105.468750
1294,107.421875
1295,105.468750
1296,105.468750
1297,109.375000
1298,105.468750
1299,101.562500
1300,107.421875
1301,111.328125
1302,107.421875
1303,103.515625
1304,103.515625
1305,107.421875
1306,105.468750
1307,105.468750
1308,101.562500
1309,105.468750
1310,111.328125
1311,99.609375
1312,101.562500
