時系列データ/data/ペットボトル2.csv

Channel              :,CH1
Frequency            :,  ?
Period               :,  ?
PK-PK                :,150.4mV
Probe attenuation    :,10X
Voltage per ADC value:,0.122070mV
Time interval        :,400.00000us

index,CH1_Voltage(mV)
1,126.953125
2,126.953125
3,126.953125
4,126.953125
5,126.953125
6,125.000000
7,126.953125
8,130.859375
9,132.812500
10,126.953125
11,130.859375
12,123.046875
13,126.953125
14,126.953125
15,130.859375
16,126.953125
17,126.953125
18,126.953125
19,126.953125
20,125.000000
21,130.859375
22,126.953125
23,128.906250
24,125.000000
25,130.859375
26,134.765625
27,126.953125
28,123.046875
29,126.953125
30,128.906250
31,125.000000
32,125.000000
33,126.953125
34,128.906250
35,126.953125
36,123.046875
37,121.093750
38,123.046875
39,128.906250
40,123.046875
41,126.953125
42,126.953125
43,123.046875
44,130.859375
45,123.046875
46,130.859375
47,126.953125
48,123.046875
49,126.953125
50,126.953125
51,126.953125
52,130.859375
53,130.859375
54,130.859375
55,132.812500
56,128.906250
57,130.859375
58,130.859375
59,130.859375
60,130.859375
61,134.765625
62,126.953125
63,126.953125
64,132.812500
65,126.953125
66,128.906250
67,126.953125
68,132.812500
69,130.859375
70,130.859375
71,130.859375
72,130.859375
73,130.859375
74,123.046875
75,125.000000
76,136.718750
77,130.859375
78,130.859375
79,130.859375
80,126.953125
81,130.859375
82,130.859375
83,126.953125
84,126.953125
85,126.953125
86,126.953125
87,121.093750
88,130.859375
89,130.859375
90,132.812500
91,132.812500
92,130.859375
93,130.859375
94,121.093750
95,130.859375
96,130.859375
97,126.953125
98,134.765625
99,130.859375
100,132.812500
101,130.859375
102,126.953125
103,130.859375
104,132.812500
105,134.765625
106,134.765625
107,138.671875
108,130.859375
109,138.671875
110,132.812500
111,132.812500
112,134.765625
113,136.718750
114,132.812500
115,138.671875
116,130.859375
117,134.765625
118,134.765625
119,126.953125
120,138.671875
121,130.859375
122,132.812500
123,134.765625
124,134.765625
125,136.718750
126,130.859375
127,126.953125
128,130.859375
129,136.718750
130,136.718750
131,126.953125
132,130.859375
133,138.671875
134,138.671875
135,130.859375
136,130.859375
137,134.765625
138,130.859375
139,130.859375
140,132.812500
141,130.859375
142,130.859375
143,126.953125
144,132.812500
145,130.859375
146,130.859375
147,134.765625
148,130.859375
149,132.812500
150,130.859375
151,130.859375
152,130.859375
153,132.812500
154,130.859375
155,128.906250
156,130.859375
157,130.859375
158,130.859375
159,134.765625
160,130.859375
161,132.812500
162,136.718750
163,130.859375
164,132.812500
165,128.906250
166,132.812500
167,126.953125
168,132.812500
169,123.046875
170,130.859375
171,132.812500
172,130.859375
173,130.859375
174,123.046875
175,125.000000
176,130.859375
177,125.000000
178,125.000000
179,130.859375
180,130.859375
181,130.859375
182,125.000000
183,136.718750
184,125.000000
185,126.953125
186,126.953125
187,123.046875
188,125.000000
189,125.000000
190,126.953125
191,126.953125
192,121.093750
193,121.093750
194,121.093750
195,119.140625
196,126.953125
197,123.046875
198,125.000000
199,125.000000
200,123.046875
201,126.953125
202,125.000000
203,126.953125
204,117.187500
205,130.859375
206,126.953125
207,126.953125
208,126.953125
209,123.046875
210,126.953125
211,130.859375
212,126.953125
213,128.906250
214,123.046875
215,123.046875
216,123.046875
217,126.953125
218,130.859375
219,126.953125
220,123.046875
221,121.093750
222,117.187500
223,125.000000
224,115.234375
225,115.234375
226,117.187500
227,119.140625
228,115.234375
229,115.234375
230,111.328125
231,107.421875
232,115.234375
233,109.375000
234,101.562500
235,107.421875
236,103.515625
237,105.468750
238,97.656250
239,101.562500
240,97.656250
241,95.703125
242,99.609375
243,95.703125
244,103.515625
245,103.515625
246,107.421875
247,111.328125
248,111.328125
249,111.328125
250,105.468750
251,107.421875
252,107.421875
253,107.421875
254,115.234375
255,109.375000
256,111.328125
257,111.328125
258,105.468750
259,111.328125
260,109.375000
261,107.421875
262,107.421875
263,103.515625
264,109.375000
265,101.562500
266,107.421875
267,105.468750
268,101.562500
269,107.421875
270,107.421875
271,107.421875
272,99.609375
273,111.328125
274,111.328125
275,109.375000
276,111.328125
277,105.468750
278,105.468750
279,121.093750
280,111.328125
281,109.375000
282,103.515625
283,109.375000
284,113.281250
285,109.375000
286,107.421875
287,107.421875
288,111.328125
289,109.375000
290,107.421875
291,115.234375
292,111.328125
293,103.515625
294,115.234375
295,109.375000
296,111.328125
297,111.328125
298,111.328125
299,109.375000
300,115.234375
301,115.234375
302,111.328125
303,115.234375
304,115.234375
305,113.281250
306,115.234375
307,115.234375
308,115.234375
309,115.234375
310,113.281250
311,107.421875
312,115.234375
313,115.234375
314,111.328125
315,115.234375
316,115.234375
317,117.187500
318,111.328125
319,111.328125
320,115.234375
321,115.234375
322,115.234375
323,111.328125
324,111.328125
325,111.328125
326,115.234375
327,111.328125
328,115.234375
329,113.281250
330,115.234375
331,111.328125
332,115.234375
333,111.328125
334,107.421875
335,115.234375
336,111.328125
337,111.328125
338,113.281250
339,111.328125
340,111.328125
341,111.328125
342,111.328125
343,115.234375
344,115.234375
345,111.328125
346,117.187500
347,115.234375
348,111.328125
349,115.234375
350,115.234375
351,111.328125
352,115.234375
353,111.328125
354,115.234375
355,117.187500
356,107.421875
357,115.234375
358,115.234375
359,115.234375
360,111.328125
361,121.093750
362,115.234375
363,111.328125
364,115.234375
365,115.234375
366,111.328125
367,115.234375
368,123.046875
369,119.140625
370,115.234375
371,115.234375
372,111.328125
373,117.187500
374,115.234375
375,111.328125
376,115.234375
377,115.234375
378,115.234375
379,119.140625
380,111.328125
381,111.328125
382,113.281250
383,117.187500
384,115.234375
385,111.328125
386,111.328125
387,111.328125
388,115.234375
389,113.281250
390,115.234375
391,111.328125
392,115.234375
393,107.421875
394,115.234375
395,115.234375
396,115.234375
397,107.421875
398,115.234375
399,115.234375
400,115.234375
401,117.187500
402,115.234375
403,115.234375
404,111.328125
405,115.234375
406,115.234375
407,115.234375
408,115.234375
409,123.046875
410,119.140625
411,117.187500
412,121.093750
413,123.046875
414,123.046875
415,123.046875
416,126.953125
417,123.046875
418,123.046875
419,119.140625
420,125.000000
421,123.046875
422,123.046875
423,125.000000
424,126.953125
425,126.953125
426,126.953125
427,123.046875
428,126.953125
429,123.046875
430,125.000000
431,121.093750
432,115.234375
433,123.046875
434,125.000000
435,130.859375
436,126.953125
437,125.000000
438,125.000000
439,123.046875
440,123.046875
441,121.093750
442,125.000000
443,119.140625
444,126.953125
445,125.000000
446,123.046875
447,125.000000
448,126.953125
449,123.046875
450,126.953125
451,119.140625
452,121.093750
453,126.953125
454,125.000000
455,123.046875
456,125.000000
457,126.953125
458,123.046875
459,125.000000
460,121.093750
461,115.234375
462,115.234375
463,115.234375
464,115.234375
465,115.234375
466,111.328125
467,115.234375
468,115.234375
469,115.234375
470,111.328125
471,115.234375
472,115.234375
473,115.234375
474,111.328125
475,111.328125
476,113.281250
477,115.234375
478,107.421875
479,115.234375
480,111.328125
481,115.234375
482,119.140625
483,111.328125
484,115.234375
485,105.468750
486,115.234375
487,111.328125
488,111.328125
489,123.046875
490,113.281250
491,111.328125
492,111.328125
493,115.234375
494,111.328125
495,107.421875
496,115.234375
497,109.375000
498,107.421875
499,115.234375
500,111.328125
501,111.328125
502,113.281250
503,109.375000
504,111.328125
505,115.234375
506,111.328125
507,111.328125
508,115.234375
509,115.234375
510,117.187500
511,115.234375
512,115.234375
513,115.234375
514,115.234375
515,115.234375
516,115.234375
517,111.328125
518,115.234375
519,111.328125
520,115.234375
521,109.375000
522,107.421875
523,115.234375
524,111.328125
525,111.328125
526,111.328125
527,111.328125
528,119.140625
529,111.328125
530,109.375000
531,111.328125
532,111.328125
533,115.234375
534,111.328125
535,109.375000
536,107.421875
537,111.328125
538,113.281250
539,111.328125
540,115.234375
541,105.468750
542,109.375000
543,107.421875
544,107.421875
545,111.328125
546,115.234375
547,109.375000
548,115.234375
549,109.375000
550,109.375000
551,109.375000
552,109.375000
553,105.468750
554,111.328125
555,107.421875
556,107.421875
557,115.234375
558,107.421875
559,115.234375
560,105.468750
561,105.468750
562,111.328125
563,111.328125
564,111.328125
565,115.234375
566,111.328125
567,115.234375
568,111.328125
569,109.375000
570,111.328125
571,111.328125
572,113.281250
573,105.468750
574,111.328125
575,107.421875
576,115.234375
577,109.375000
578,103.515625
579,109.375000
580,111.328125
581,107.421875
582,109.375000
583,105.468750
584,109.375000
585,107.421875
586,113.281250
587,107.421875
588,107.421875
589,111.328125
590,109.375000
591,109.375000
592,109.375000
593,111.328125
594,111.328125
595,107.421875
596,105.468750
597,111.328125
598,105.468750
599,105.468750
600,107.421875
601,109.375000
602,109.375000
603,111.328125
604,111.328125
605,111.328125
606,111.328125
607,107.421875
608,109.375000
609,117.187500
610,123.046875
611,113.281250
612,111.328125
613,111.328125
614,109.375000
615,111.328125
616,111.328125
617,107.421875
618,115.234375
619,109.375000
620,107.421875
621,113.281250
622,115.234375
623,121.093750
624,115.234375
625,115.234375
626,117.187500
627,115.234375
628,115.234375
629,111.328125
630,113.281250
631,121.093750
632,115.234375
633,115.234375
634,107.421875
635,109.375000
636,115.234375
637,113.281250
638,121.093750
639,115.234375
640,119.140625
641,117.187500
642,115.234375
643,117.187500
644,123.046875
645,115.234375
646,119.140625
647,119.140625
648,121.093750
649,119.140625
650,119.140625
651,115.234375
652,115.234375
653,117.187500
654,111.328125
655,123.046875
656,115.234375
657,123.046875
658,123.046875
659,119.140625
660,117.187500
661,121.093750
662,123.046875
663,123.046875
664,119.140625
665,117.187500
666,115.234375
667,111.328125
668,107.421875
669,115.234375
670,117.187500
671,111.328125
672,109.375000
673,107.421875
674,115.234375
675,107.421875
676,107.421875
677,105.468750
678,109.375000
679,111.328125
680,111.328125
681,107.421875
682,109.375000
683,109.375000
684,111.328125
685,111.328125
686,105.468750
687,109.375000
688,107.421875
689,109.375000
690,107.421875
691,109.375000
692,111.328125
693,111.328125
694,109.375000
695,107.421875
696,111.328125
697,107.421875
698,109.375000
699,105.468750
700,105.468750
701,113.281250
702,111.328125
703,111.328125
704,115.234375
705,111.328125
706,113.281250
707,111.328125
708,109.375000
709,111.328125
710,111.328125
711,115.234375
712,109.375000
713,111.328125
714,111.328125
715,109.375000
716,111.328125
717,115.234375
718,115.234375
719,107.421875
720,119.140625
721,111.328125
722,109.375000
723,111.328125
724,115.234375
725,109.375000
726,115.234375
727,107.421875
728,107.421875
729,111.328125
730,111.328125
731,111.328125
732,107.421875
733,109.375000
734,107.421875
735,107.421875
736,111.328125
737,107.421875
738,105.468750
739,109.375000
740,107.421875
741,107.421875
742,111.328125
743,107.421875
744,105.468750
745,105.468750
746,107.421875
747,109.375000
748,117.187500
749,105.468750
750,111.328125
751,111.328125
752,107.421875
753,109.375000
754,105.468750
755,107.421875
756,111.328125
757,111.328125
758,115.234375
759,111.328125
760,115.234375
761,111.328125
762,107.421875
763,107.421875
764,109.375000
765,111.328125
766,105.468750
767,111.328125
768,113.281250
769,111.328125
770,109.375000
771,107.421875
772,109.375000
773,115.234375
774,107.421875
775,105.468750
776,111.328125
777,111.328125
778,109.375000
779,107.421875
780,107.421875
781,111.328125
782,113.281250
783,109.375000
784,113.281250
785,107.421875
786,111.328125
787,111.328125
788,107.421875
789,109.375000
790,107.421875
791,107.421875
792,111.328125
793,107.421875
794,111.328125
795,107.421875
796,111.328125
797,111.328125
798,105.468750
799,109.375000
800,105.468750
801,105.468750
802,115.234375
803,111.328125
804,111.328125
805,117.187500
806,109.375000
807,111.328125
808,109.375000
809,107.421875
810,107.421875
811,107.421875
812,111.328125
813,107.421875
814,115.234375
815,109.375000
816,113.281250
817,109.375000
818,107.421875
819,105.468750
820,111.328125
821,111.328125
822,103.515625
823,101.562500
824,111.328125
825,111.328125
826,109.375000
827,105.468750
828,109.375000
829,111.328125
830,107.421875
831,107.421875
832,105.468750
833,109.375000
834,109.375000
835,105.468750
836,109.375000
837,107.421875
838,111.328125
839,107.421875
840,107.421875
841,109.375000
842,107.421875
843,111.328125
844,105.468750
845,105.468750
846,109.375000
847,105.468750
848,109.375000
849,109.375000
850,105.468750
851,111.328125
852,107.421875
853,107.421875
854,105.468750
855,109.375000
856,103.515625
857,111.328125
858,107.421875
859,105.468750
860,113.281250
861,107.421875
862,111.328125
863,107.421875
864,107.421875
865,111.328125
866,101.562500
867,107.421875
868,111.328125
869,103.515625
870,115.234375
871,111.328125
872,111.328125
873,115.234375
874,107.421875
875,107.421875
876,111.328125
877,105.468750
878,107.421875
879,107.421875
880,107.421875
881,105.468750
882,107.421875
883,107.421875
884,103.515625
885,111.328125
886,109.375000
887,107.421875
888,105.468750
889,109.375000
890,107.421875
891,105.468750
892,107.421875
893,107.421875
894,111.328125
895,111.328125
896,107.421875
897,111.328125
898,107.421875
899,103.515625
900,107.421875
901,103.515625
902,107.421875
903,107.421875
904,111.328125
905,109.375000
906,111.328125
907,109.375000
908,105.468750
909,111.328125
910,109.375000
911,109.375000
912,105.468750
913,105.468750
914,109.375000
915,107.421875
916,109.375000
917,111.328125
918,107.421875
919,111.328125
920,109.375000
921,103.515625
922,101.562500
923,107.421875
924,109.375000
925,105.468750
926,105.468750
927,105.468750
928,107.421875
929,109.375000
930,103.515625
931,107.421875
932,109.375000
933,107.421875
934,105.468750
935,107.421875
936,107.421875
937,105.468750
938,109.375000
939,107.421875
940,105.468750
941,107.421875
942,105.468750
943,109.375000
944,105.468750
945,103.515625
946,107.421875
947,105.468750
948,107.421875
949,107.421875
950,109.375000
951,107.421875
952,111.328125
953,111.328125
954,107.421875
955,107.421875
956,107.421875
957,103.515625
958,107.421875
959,105.468750
960,111.328125
961,111.328125
962,109.375000
963,109.375000
964,113.281250
965,111.328125
966,107.421875
967,111.328125
968,107.421875
969,103.515625
970,109.375000
971,111.328125
972,105.468750
973,109.375000
974,109.375000
975,111.328125
976,111.328125
977,105.468750
978,105.468750
979,107.421875
980,115.234375
981,105.468750
982,103.515625
983,107.421875
984,109.375000
985,109.375000
986,103.515625
987,105.468750
988,105.468750
989,105.468750
990,107.421875
991,105.468750
992,105.468750
993,105.468750
994,105.468750
995,107.421875
996,111.328125
997,105.468750
998,107.421875
999,109.375000
1000,105.468750
1001,109.375000
1002,105.468750
1003,107.421875
1004,109.375000
1005,107.421875
1006,107.421875
1007,115.234375
1008,107.421875
1009,109.375000
1010,105.468750
1011,109.375000
1012,105.468750
1013,107.421875
1014,107.421875
1015,107.421875
1016,111.328125
1017,105.468750
1018,109.375000
1019,111.328125
1020,107.421875
1021,109.375000
1022,109.375000
1023,111.328125
1024,107.421875
1025,101.562500
1026,111.328125
1027,107.421875
1028,107.421875
1029,105.468750
1030,107.421875
1031,111.328125
1032,107.421875
1033,109.375000
1034,105.468750
1035,107.421875
1036,107.421875
1037,105.468750
1038,109.375000
1039,109.375000
1040,101.562500
1041,115.234375
1042,107.421875
1043,107.421875
1044,105.468750
1045,107.421875
1046,105.468750
1047,103.515625
1048,111.328125
1049,101.562500
1050,107.421875
1051,107.421875
1052,109.375000
1053,115.234375
1054,111.328125
1055,109.375000
1056,111.328125
1057,107.421875
1058,115.234375
1059,105.468750
1060,111.328125
1061,107.421875
1062,111.328125
1063,111.328125
1064,107.421875
1065,113.281250
1066,107.421875
1067,111.328125
1068,111.328125
1069,111.328125
1070,111.328125
1071,107.421875
1072,103.515625
1073,111.328125
1074,105.468750
1075,107.421875
1076,107.421875
1077,105.468750
1078,105.468750
1079,105.468750
1080,103.515625
1081,99.609375
1082,107.421875
1083,105.468750
1084,105.468750
1085,107.421875
1086,101.562500
1087,101.562500
1088,103.515625
1089,103.515625
1090,103.515625
1091,101.562500
1092,103.515625
1093,103.515625
1094,99.609375
1095,103.515625
1096,107.421875
1097,105.468750
1098,101.562500
1099,107.421875
1100,107.421875
1101,99.609375
1102,101.562500
1103,103.515625
1104,99.609375
1105,107.421875
1106,105.468750
1107,109.375000
1108,103.515625
1109,107.421875
1110,103.515625
1111,107.421875
1112,107.421875
1113,101.562500
1114,107.421875
1115,107.421875
1116,107.421875
1117,107.421875
1118,107.421875
1119,99.609375
1120,105.468750
1121,103.515625
1122,107.421875
1123,99.609375
1124,99.609375
1125,103.515625
1126,107.421875
1127,107.421875
1128,99.609375
1129,105.468750
1130,105.468750
1131,107.421875
1132,99.609375
1133,105.468750
1134,105.468750
1135,101.562500
1136,105.468750
1137,99.609375
1138,101.562500
1139,103.515625
1140,103.515625
1141,101.562500
1142,101.562500
1143,103.515625
1144,99.609375
1145,99.609375
1146,105.468750
1147,99.609375
1148,101.562500
1149,99.609375
1150,99.609375
1151,105.468750
1152,107.421875
1153,103.515625
1154,107.421875
1155,101.562500
1156,97.656250
1157,105.468750
1158,101.562500
1159,105.468750
1160,107.421875
1161,105.468750
1162,103.515625
1163,103.515625
1164,103.515625
1165,107.421875
1166,101.562500
1167,101.562500
1168,105.468750
1169,103.515625
1170,101.562500
1171,101.562500
1172,107.421875
1173,107.421875
1174,103.515625
1175,101.562500
1176,103.515625
1177,101.562500
1178,101.562500
1179,95.703125
1180,101.562500
1181,101.562500
1182,105.468750
1183,103.515625
1184,99.609375
1185,97.656250
1186,99.609375
1187,101.562500
1188,101.562500
1189,103.515625
1190,99.609375
1191,99.609375
1192,95.703125
1193,99.609375
1194,99.609375
1195,103.515625
1196,99.609375
1197,105.468750
1198,105.468750
1199,101.562500
1200,105.468750
1201,107.421875
1202,95.703125
1203,103.515625
1204,101.562500
1205,99.609375
1206,103.515625
1207,103.515625
1208,101.562500
1209,105.468750
1210,103.515625
1211,105.468750
1212,105.468750
1213,101.562500
1214,101.562500
1215,105.468750
1216,101.562500
1217,107.421875
1218,101.562500
1219,103.515625
1220,105.468750
1221,103.515625
1222,101.562500
1223,99.609375
1224,107.421875
1225,103.515625
1226,109.375000
1227,99.609375
1228,99.609375
1229,107.421875
1230,105.468750
1231,101.562500
1232,95.703125
1233,105.468750
1234,107.421875
1235,99.609375
1236,99.609375
1237,101.562500
1238,101.562500
1239,99.609375
1240,101.562500
1241,95.703125
1242,103.515625
1243,95.703125
1244,105.468750
1245,99.609375
1246,105.468750
1247,99.609375
1248,103.515625
1249,99.609375
1250,99.609375
1251,99.609375
1252,101.562500
1253,105.468750
1254,95.703125
1255,107.421875
1256,101.562500
1257,103.515625
1258,103.515625
1259,99.609375
1260,101.562500
1261,103.515625
1262,99.609375
1263,103.515625
1264,99.609375
1265,105.468750
1266,101.562500
1267,107.421875
1268,105.468750
1269,99.609375
1270,101.562500
1271,101.562500
1272,101.562500
1273,105.468750
1274,99.609375
1275,105.468750
1276,107.421875
1277,99.609375
1278,97.656250
1279,95.703125
1280,95.703125
1281,101.562500
1282,105.468750
1283,101.562500
1284,107.421875
1285,115.234375
1286,117.187500
1287,111.328125
1288,115.234375
1289,115.234375
1290,115.234375
1291,115.234375
1292,117.187500
1293,115.234375
1294,115.234375
1295,121.093750
1296,123.046875
1297,115.234375
1298,123.046875
1299,123.046875
1300,123.046875
1301,125.000000
1302,123.046875
1303,123.046875
1304,125.000000
1305,125.000000
1306,123.046875
1307,126.953125
1308,126.953125
