時系列データ/data/ペットボトル.csv

Channel              :,CH1
Frequency            :,  ?
Period               :,  ?
PK-PK                :,52.73mV
Probe attenuation    :,10X
Voltage per ADC value:,0.122070mV
Time interval        :,400.00000us

index,CH1_Voltage(mV)
1,140.625000
2,140.625000
3,136.718750
4,138.671875
5,142.578125
6,138.671875
7,140.625000
8,146.484375
9,142.578125
10,144.531250
11,146.484375
12,140.625000
13,140.625000
14,142.578125
15,146.484375
16,142.578125
17,136.718750
18,144.531250
19,146.484375
20,140.625000
21,140.625000
22,142.578125
23,142.578125
24,142.578125
25,142.578125
26,140.625000
27,146.484375
28,140.625000
29,140.625000
30,140.625000
31,138.671875
32,138.671875
33,142.578125
34,138.671875
35,140.625000
36,140.625000
37,140.625000
38,138.671875
39,142.578125
40,138.671875
41,138.671875
42,136.718750
43,142.578125
44,138.671875
45,140.625000
46,142.578125
47,136.718750
48,142.578125
49,142.578125
50,140.625000
51,142.578125
52,142.578125
53,142.578125
54,148.437500
55,146.484375
56,146.484375
57,146.484375
58,142.578125
59,146.484375
60,146.484375
61,142.578125
62,140.625000
63,146.484375
64,142.578125
65,146.484375
66,142.578125
67,148.437500
68,146.484375
69,152.343750
70,148.437500
71,152.343750
72,150.390625
73,148.437500
74,152.343750
75,154.296875
76,146.484375
77,148.437500
78,146.484375
79,148.437500
80,154.296875
81,142.578125
82,146.484375
83,148.437500
84,152.343750
85,152.343750
86,146.484375
87,146.484375
88,148.437500
89,146.484375
90,148.437500
91,152.343750
92,148.437500
93,156.250000
94,152.343750
95,152.343750
96,148.437500
97,150.390625
98,148.437500
99,146.484375
100,158.203125
101,148.437500
102,152.343750
103,150.390625
104,152.343750
105,148.437500
106,152.343750
107,146.484375
108,152.343750
109,154.296875
110,148.437500
111,162.109375
112,154.296875
113,152.343750
114,152.343750
115,154.296875
116,154.296875
117,154.296875
118,152.343750
119,152.343750
120,150.390625
121,154.296875
122,160.156250
123,146.484375
124,150.390625
125,150.390625
126,152.343750
127,158.203125
128,152.343750
129,148.437500
130,142.578125
131,150.390625
132,148.437500
133,150.390625
134,148.437500
135,152.343750
136,150.390625
137,152.343750
138,146.484375
139,150.390625
140,148.437500
141,154.296875
142,146.484375
143,154.296875
144,148.437500
145,150.390625
146,152.343750
147,150.390625
148,150.390625
149,154.296875
150,150.390625
151,148.437500
152,152.343750
153,150.390625
154,154.296875
155,154.296875
156,152.343750
157,152.343750
158,154.296875
159,154.296875
160,150.390625
161,154.296875
162,154.296875
163,154.296875
164,154.296875
165,154.296875
166,154.296875
167,148.437500
168,154.296875
169,156.250000
170,154.296875
171,148.437500
172,156.250000
173,152.343750
174,158.203125
175,150.390625
176,150.390625
177,154.296875
178,152.343750
179,152.343750
180,150.390625
181,150.390625
182,152.343750
183,154.296875
184,150.390625
185,152.343750
186,152.343750
187,154.296875
188,152.343750
189,152.343750
190,154.296875
191,152.343750
192,152.343750
193,154.296875
194,154.296875
195,152.343750
196,152.343750
197,146.484375
198,154.296875
199,162.109375
200,152.343750
201,156.250000
202,154.296875
203,152.343750
204,154.296875
205,154.296875
206,150.390625
207,158.203125
208,152.343750
209,156.250000
210,154.296875
211,158.203125
212,156.250000
213,150.390625
214,154.296875
215,152.343750
216,156.250000
217,154.296875
218,154.296875
219,150.390625
220,164.062500
221,154.296875
222,154.296875
223,146.484375
224,152.343750
225,154.296875
226,152.343750
227,154.296875
228,152.343750
229,152.343750
230,150.390625
231,152.343750
232,150.390625
233,152.343750
234,154.296875
235,154.296875
236,146.484375
237,152.343750
238,152.343750
239,154.296875
240,154.296875
241,152.343750
242,150.390625
243,152.343750
244,152.343750
245,152.343750
246,158.203125
247,154.296875
248,156.250000
249,152.343750
250,158.203125
251,154.296875
252,150.390625
253,152.343750
254,152.343750
255,154.296875
256,154.296875
257,152.343750
258,156.250000
259,156.250000
260,152.343750
261,156.250000
262,156.250000
263,152.343750
264,154.296875
265,154.296875
266,154.296875
267,148.437500
268,158.203125
269,154.296875
270,152.343750
271,154.296875
272,160.156250
273,154.296875
274,154.296875
275,152.343750
276,154.296875
277,158.203125
278,152.343750
279,148.437500
280,152.343750
281,154.296875
282,152.343750
283,158.203125
284,150.390625
285,152.343750
286,154.296875
287,156.250000
288,150.390625
289,152.343750
290,152.343750
291,156.250000
292,152.343750
293,156.250000
294,150.390625
295,154.296875
296,156.250000
297,154.296875
298,152.343750
299,154.296875
300,154.296875
301,152.343750
302,158.203125
303,154.296875
304,154.296875
305,154.296875
306,152.343750
307,152.343750
308,154.296875
309,152.343750
310,154.296875
311,156.250000
312,152.343750
313,154.296875
314,154.296875
315,154.296875
316,158.203125
317,162.109375
318,150.390625
319,154.296875
320,154.296875
321,152.343750
322,152.343750
323,150.390625
324,156.250000
325,154.296875
326,152.343750
327,156.250000
328,156.250000
329,152.343750
330,152.343750
331,152.343750
332,158.203125
333,148.437500
334,152.343750
335,154.296875
336,152.343750
337,152.343750
338,150.390625
339,154.296875
340,152.343750
341,154.296875
342,150.390625
343,152.343750
344,150.390625
345,152.343750
346,152.343750
347,146.484375
348,154.296875
349,156.250000
350,154.296875
351,162.109375
352,152.343750
353,148.437500
354,154.296875
355,148.437500
356,152.343750
357,158.203125
358,150.390625
359,154.296875
360,154.296875
361,148.437500
362,150.390625
363,154.296875
364,152.343750
365,150.390625
366,152.343750
367,154.296875
368,150.390625
369,146.484375
370,150.390625
371,152.343750
372,154.296875
373,146.484375
374,146.484375
375,150.390625
376,146.484375
377,142.578125
378,142.578125
379,146.484375
380,150.390625
381,150.390625
382,142.578125
383,146.484375
384,146.484375
385,148.437500
386,144.531250
387,146.484375
388,146.484375
389,126.953125
390,142.578125
391,146.484375
392,146.484375
393,144.531250
394,150.390625
395,146.484375
396,142.578125
397,148.437500
398,146.484375
399,140.625000
400,146.484375
401,146.484375
402,150.390625
403,148.437500
404,150.390625
405,146.484375
406,150.390625
407,146.484375
408,146.484375
409,148.437500
410,146.484375
411,148.437500
412,150.390625
413,148.437500
414,148.437500
415,148.437500
416,146.484375
417,148.437500
418,148.437500
419,152.343750
420,146.484375
421,146.484375
422,146.484375
423,148.437500
424,142.578125
425,146.484375
426,144.531250
427,152.343750
428,146.484375
429,140.625000
430,146.484375
431,148.437500
432,150.390625
433,146.484375
434,146.484375
435,146.484375
436,146.484375
437,150.390625
438,148.437500
439,146.484375
440,146.484375
441,150.390625
442,146.484375
443,150.390625
444,146.484375
445,146.484375
446,150.390625
447,146.484375
448,146.484375
449,148.437500
450,148.437500
451,146.484375
452,146.484375
453,146.484375
454,142.578125
455,142.578125
456,140.625000
457,142.578125
458,142.578125
459,142.578125
460,142.578125
461,150.390625
462,146.484375
463,142.578125
464,144.531250
465,142.578125
466,146.484375
467,148.437500
468,138.671875
469,140.625000
470,140.625000
471,144.531250
472,138.671875
473,140.625000
474,146.484375
475,140.625000
476,138.671875
477,140.625000
478,140.625000
479,138.671875
480,138.671875
481,138.671875
482,142.578125
483,146.484375
484,142.578125
485,142.578125
486,138.671875
487,142.578125
488,140.625000
489,136.718750
490,138.671875
491,142.578125
492,138.671875
493,138.671875
494,138.671875
495,142.578125
496,142.578125
497,144.531250
498,146.484375
499,146.484375
500,140.625000
501,140.625000
502,142.578125
503,142.578125
504,146.484375
505,142.578125
506,142.578125
507,146.484375
508,142.578125
509,142.578125
510,144.531250
511,142.578125
512,140.625000
513,146.484375
514,146.484375
515,146.484375
516,142.578125
517,142.578125
518,142.578125
519,146.484375
520,140.625000
521,146.484375
522,142.578125
523,140.625000
524,140.625000
525,146.484375
526,142.578125
527,146.484375
528,138.671875
529,140.625000
530,148.437500
531,140.625000
532,142.578125
533,138.671875
534,142.578125
535,146.484375
536,142.578125
537,142.578125
538,140.625000
539,142.578125
540,142.578125
541,146.484375
542,138.671875
543,146.484375
544,142.578125
545,142.578125
546,148.437500
547,142.578125
548,146.484375
549,140.625000
550,146.484375
551,144.531250
552,142.578125
553,142.578125
554,140.625000
555,140.625000
556,142.578125
557,142.578125
558,144.531250
559,148.437500
560,146.484375
561,142.578125
562,142.578125
563,142.578125
564,146.484375
565,142.578125
566,140.625000
567,138.671875
568,146.484375
569,142.578125
570,134.765625
571,136.718750
572,138.671875
573,136.718750
574,136.718750
575,128.906250
576,121.093750
577,130.859375
578,126.953125
579,123.046875
580,123.046875
581,125.000000
582,126.953125
583,126.953125
584,121.093750
585,125.000000
586,123.046875
587,123.046875
588,123.046875
589,121.093750
590,123.046875
591,119.140625
592,121.093750
593,126.953125
594,125.000000
595,123.046875
596,125.000000
597,123.046875
598,123.046875
599,125.000000
600,125.000000
601,121.093750
602,121.093750
603,123.046875
604,126.953125
605,130.859375
606,126.953125
607,126.953125
608,126.953125
609,125.000000
610,123.046875
611,126.953125
612,125.000000
613,126.953125
614,125.000000
615,126.953125
616,125.000000
617,123.046875
618,121.093750
619,128.906250
620,126.953125
621,123.046875
622,123.046875
623,121.093750
624,126.953125
625,128.906250
626,125.000000
627,123.046875
628,123.046875
629,126.953125
630,130.859375
631,123.046875
632,123.046875
633,130.859375
634,125.000000
635,125.000000
636,111.328125
637,123.046875
638,123.046875
639,125.000000
640,123.046875
641,125.000000
642,126.953125
643,123.046875
644,121.093750
645,125.000000
646,123.046875
647,121.093750
648,125.000000
649,126.953125
650,126.953125
651,126.953125
652,130.859375
653,123.046875
654,130.859375
655,121.093750
656,123.046875
657,125.000000
658,123.046875
659,126.953125
660,130.859375
661,123.046875
662,126.953125
663,126.953125
664,125.000000
665,125.000000
666,130.859375
667,125.000000
668,123.046875
669,126.953125
670,123.046875
671,126.953125
672,126.953125
673,125.000000
674,123.046875
675,125.000000
676,125.000000
677,130.859375
678,126.953125
679,123.046875
680,126.953125
681,126.953125
682,126.953125
683,121.093750
684,123.046875
685,126.953125
686,123.046875
687,123.046875
688,125.000000
689,125.000000
690,125.000000
691,125.000000
692,125.000000
693,123.046875
694,125.000000
695,125.000000
696,126.953125
697,126.953125
698,132.812500
699,125.000000
700,130.859375
701,126.953125
702,126.953125
703,130.859375
704,130.859375
705,130.859375
706,134.765625
707,132.812500
708,134.765625
709,136.718750
710,132.812500
711,136.718750
712,134.765625
713,136.718750
714,134.765625
715,140.625000
716,138.671875
717,138.671875
718,140.625000
719,142.578125
720,138.671875
721,138.671875
722,140.625000
723,134.765625
724,142.578125
725,138.671875
726,134.765625
727,144.531250
728,146.484375
729,148.437500
730,144.531250
731,138.671875
732,146.484375
733,154.296875
734,144.531250
735,144.531250
736,146.484375
737,148.437500
738,146.484375
739,146.484375
740,150.390625
741,148.437500
742,148.437500
743,148.437500
744,146.484375
745,148.437500
746,150.390625
747,150.390625
748,146.484375
749,148.437500
750,152.343750
751,148.437500
752,158.203125
753,152.343750
754,154.296875
755,154.296875
756,154.296875
757,154.296875
758,152.343750
759,154.296875
760,154.296875
761,154.296875
762,154.296875
763,152.343750
764,158.203125
765,158.203125
766,156.250000
767,158.203125
768,158.203125
769,156.250000
770,160.156250
771,160.156250
772,154.296875
773,150.390625
774,158.203125
775,158.203125
776,154.296875
777,158.203125
778,152.343750
779,156.250000
780,156.250000
781,154.296875
782,150.390625
783,152.343750
784,158.203125
785,160.156250
786,150.390625
787,154.296875
788,154.296875
789,154.296875
790,154.296875
791,152.343750
792,158.203125
793,150.390625
794,148.437500
795,152.343750
796,154.296875
797,154.296875
798,156.250000
799,158.203125
800,154.296875
801,158.203125
802,154.296875
803,152.343750
804,154.296875
805,154.296875
806,154.296875
807,158.203125
808,154.296875
809,156.250000
810,158.203125
811,150.390625
812,156.250000
813,154.296875
814,154.296875
815,154.296875
816,158.203125
817,156.250000
818,154.296875
819,154.296875
820,146.484375
821,154.296875
822,158.203125
823,154.296875
824,154.296875
825,154.296875
826,152.343750
827,158.203125
828,150.390625
829,150.390625
830,154.296875
831,156.250000
832,162.109375
833,154.296875
834,150.390625
835,164.062500
836,154.296875
837,152.343750
838,150.390625
839,154.296875
840,154.296875
841,152.343750
842,150.390625
843,154.296875
844,158.203125
845,154.296875
846,154.296875
847,154.296875
848,152.343750
849,154.296875
850,154.296875
851,154.296875
852,152.343750
853,160.156250
854,156.250000
855,156.250000
856,156.250000
857,158.203125
858,150.390625
859,152.343750
860,148.437500
861,150.390625
862,152.343750
863,146.484375
864,146.484375
865,146.484375
866,146.484375
867,136.718750
868,142.578125
869,142.578125
870,138.671875
871,138.671875
872,138.671875
873,138.671875
874,142.578125
875,138.671875
876,134.765625
877,140.625000
878,140.625000
879,138.671875
880,138.671875
881,132.812500
882,138.671875
883,144.531250
884,140.625000
885,134.765625
886,132.812500
887,142.578125
888,140.625000
889,138.671875
890,136.718750
891,142.578125
892,138.671875
893,140.625000
894,136.718750
895,132.812500
896,142.578125
897,138.671875
898,138.671875
899,140.625000
900,142.578125
901,140.625000
902,140.625000
903,138.671875
904,138.671875
905,140.625000
906,146.484375
907,142.578125
908,146.484375
909,140.625000
910,150.390625
911,142.578125
912,138.671875
913,138.671875
914,138.671875
915,140.625000
916,142.578125
917,140.625000
918,142.578125
919,140.625000
920,138.671875
921,146.484375
922,138.671875
923,138.671875
924,138.671875
925,146.484375
926,142.578125
927,142.578125
928,136.718750
929,134.765625
930,142.578125
931,138.671875
932,138.671875
933,138.671875
934,140.625000
935,142.578125
936,132.812500
937,132.812500
938,136.718750
939,138.671875
940,146.484375
941,138.671875
942,138.671875
943,140.625000
944,138.671875
945,140.625000
946,142.578125
947,130.859375
948,138.671875
949,138.671875
950,138.671875
951,138.671875
952,142.578125
953,138.671875
954,146.484375
955,138.671875
956,138.671875
957,142.578125
958,136.718750
959,138.671875
960,138.671875
961,142.578125
962,138.671875
963,142.578125
964,142.578125
965,142.578125
966,140.625000
967,142.578125
968,140.625000
969,142.578125
970,148.437500
971,138.671875
972,140.625000
973,138.671875
974,140.625000
975,138.671875
976,138.671875
977,138.671875
978,140.625000
979,136.718750
980,134.765625
981,140.625000
982,140.625000
983,140.625000
984,134.765625
985,138.671875
986,142.578125
987,140.625000
988,134.765625
989,138.671875
990,140.625000
991,138.671875
992,136.718750
993,136.718750
994,138.671875
995,136.718750
996,134.765625
997,136.718750
998,144.531250
999,138.671875
1000,148.437500
1001,146.484375
1002,142.578125
1003,146.484375
1004,146.484375
1005,146.484375
1006,148.437500
1007,146.484375
1008,152.343750
1009,154.296875
1010,152.343750
1011,152.343750
1012,154.296875
1013,152.343750
1014,152.343750
1015,154.296875
1016,156.250000
1017,152.343750
1018,152.343750
1019,158.203125
1020,162.109375
1021,156.250000
1022,154.296875
1023,154.296875
1024,162.109375
1025,156.250000
1026,154.296875
1027,158.203125
1028,154.296875
1029,154.296875
1030,164.062500
1031,154.296875
1032,154.296875
1033,158.203125
1034,158.203125
1035,156.250000
1036,156.250000
1037,158.203125
1038,156.250000
1039,154.296875
1040,158.203125
1041,152.343750
1042,150.390625
1043,154.296875
1044,156.250000
1045,156.250000
1046,158.203125
1047,156.250000
1048,152.343750
1049,154.296875
1050,154.296875
1051,154.296875
1052,154.296875
1053,156.250000
1054,158.203125
1055,162.109375
1056,154.296875
1057,158.203125
1058,158.203125
1059,158.203125
1060,156.250000
1061,156.250000
1062,154.296875
1063,158.203125
1064,158.203125
1065,158.203125
1066,156.250000
1067,158.203125
1068,156.250000
1069,156.250000
1070,154.296875
1071,162.109375
1072,164.062500
1073,152.343750
1074,158.203125
1075,162.109375
1076,158.203125
1077,156.250000
1078,154.296875
1079,152.343750
1080,162.109375
1081,156.250000
1082,160.156250
1083,154.296875
1084,154.296875
1085,154.296875
1086,154.296875
1087,154.296875
1088,156.250000
1089,156.250000
1090,146.484375
1091,154.296875
1092,156.250000
1093,158.203125
1094,152.343750
1095,158.203125
1096,154.296875
1097,154.296875
1098,158.203125
1099,158.203125
1100,154.296875
1101,162.109375
1102,162.109375
1103,156.250000
1104,154.296875
1105,154.296875
1106,152.343750
1107,158.203125
1108,158.203125
1109,156.250000
1110,162.109375
1111,156.250000
1112,162.109375
1113,158.203125
1114,158.203125
1115,158.203125
1116,158.203125
1117,154.296875
1118,154.296875
1119,162.109375
1120,160.156250
1121,158.203125
1122,162.109375
1123,158.203125
1124,162.109375
1125,154.296875
1126,154.296875
1127,154.296875
1128,162.109375
1129,154.296875
1130,162.109375
1131,154.296875
1132,158.203125
1133,156.250000
1134,156.250000
1135,154.296875
1136,152.343750
1137,156.250000
1138,154.296875
1139,154.296875
1140,154.296875
1141,154.296875
1142,154.296875
1143,156.250000
1144,158.203125
1145,158.203125
1146,156.250000
1147,158.203125
1148,158.203125
1149,154.296875
1150,156.250000
1151,154.296875
1152,152.343750
1153,156.250000
1154,158.203125
1155,158.203125
1156,160.156250
1157,162.109375
1158,158.203125
1159,158.203125
1160,158.203125
1161,152.343750
1162,158.203125
1163,156.250000
1164,158.203125
1165,158.203125
1166,162.109375
1167,162.109375
1168,158.203125
1169,160.156250
1170,158.203125
1171,162.109375
1172,154.296875
1173,152.343750
1174,158.203125
1175,156.250000
1176,154.296875
1177,158.203125
1178,154.296875
1179,156.250000
1180,162.109375
1181,156.250000
1182,154.296875
1183,154.296875
1184,154.296875
1185,158.203125
1186,154.296875
1187,150.390625
1188,154.296875
1189,154.296875
1190,156.250000
1191,156.250000
1192,154.296875
1193,158.203125
1194,154.296875
1195,154.296875
1196,156.250000
1197,154.296875
1198,150.390625
1199,154.296875
1200,158.203125
1201,154.296875
1202,154.296875
1203,156.250000
1204,154.296875
1205,158.203125
1206,154.296875
1207,154.296875
1208,154.296875
1209,154.296875
1210,156.250000
1211,158.203125
1212,158.203125
1213,160.156250
1214,156.250000
1215,158.203125
1216,156.250000
1217,162.109375
1218,158.203125
1219,158.203125
1220,152.343750
1221,158.203125
1222,162.109375
1223,154.296875
1224,156.250000
1225,158.203125
1226,158.203125
1227,160.156250
1228,154.296875
1229,152.343750
1230,156.250000
1231,154.296875
1232,156.250000
1233,154.296875
1234,152.343750
1235,156.250000
1236,158.203125
1237,156.250000
1238,154.296875
1239,154.296875
1240,154.296875
1241,152.343750
1242,146.484375
1243,154.296875
1244,154.296875
1245,154.296875
1246,156.250000
1247,158.203125
1248,162.109375
1249,156.250000
1250,152.343750
1251,162.109375
1252,152.343750
1253,152.343750
1254,154.296875
1255,162.109375
1256,154.296875
1257,158.203125
1258,154.296875
1259,154.296875
1260,156.250000
1261,156.250000
1262,154.296875
1263,154.296875
1264,154.296875
1265,154.296875
1266,158.203125
1267,150.390625
1268,154.296875
1269,156.250000
1270,158.203125
1271,152.343750
1272,150.390625
1273,148.437500
1274,150.390625
1275,146.484375
1276,146.484375
1277,154.296875
1278,146.484375
1279,146.484375
1280,146.484375
1281,148.437500
1282,146.484375
1283,148.437500
1284,146.484375
1285,146.484375
1286,146.484375
1287,146.484375
1288,146.484375
1289,146.484375
1290,146.484375
1291,146.484375
1292,146.484375
1293,144.531250
1294,150.390625
1295,146.484375
1296,146.484375
1297,146.484375
1298,144.531250
1299,142.578125
1300,146.484375
1301,146.484375
1302,146.484375
1303,148.437500
1304,146.484375
