時系列データ/data/指.csv

Channel              :,CH1
Frequency            :,  ?
Period               :,  ?
PK-PK                :,54.69mV
Probe attenuation    :,10X
Voltage per ADC value:,0.122070mV
Time interval        :,400.00000us

index,CH1_Voltage(mV)
1,68.359375
2,68.359375
3,68.359375
4,62.500000
5,74.218750
6,68.359375
7,68.359375
8,68.359375
9,70.312500
10,70.312500
11,68.359375
12,68.359375
13,74.218750
14,60.546875
15,64.453125
16,68.359375
17,70.312500
18,68.359375
19,76.171875
20,70.312500
21,70.312500
22,66.406250
23,68.359375
24,64.453125
25,70.312500
26,64.453125
27,68.359375
28,70.312500
29,70.312500
30,70.312500
31,72.265625
32,74.218750
33,70.312500
34,74.218750
35,70.312500
36,76.171875
37,68.359375
38,68.359375
39,76.171875
40,72.265625
41,64.453125
42,68.359375
43,76.171875
44,74.218750
45,70.312500
46,66.406250
47,70.312500
48,70.312500
49,70.312500
50,68.359375
51,68.359375
52,76.171875
53,72.265625
54,68.359375
55,68.359375
56,68.359375
57,68.359375
58,72.265625
59,70.312500
60,68.359375
61,72.265625
62,68.359375
63,68.359375
64,68.359375
65,70.312500
66,72.265625
67,68.359375
68,70.312500
69,68.359375
70,64.453125
71,70.312500
72,70.312500
73,70.312500
74,76.171875
75,76.171875
76,72.265625
77,74.218750
78,68.359375
79,76.171875
80,76.171875
81,68.359375
82,72.265625
83,68.359375
84,72.265625
85,76.171875
86,72.265625
87,70.312500
88,68.359375
89,68.359375
90,68.359375
91,70.312500
92,70.312500
93,62.500000
94,70.312500
95,70.312500
96,64.453125
97,64.453125
98,64.453125
99,68.359375
100,68.359375
101,62.500000
102,58.593750
103,58.593750
104,58.593750
105,56.640625
106,60.546875
107,56.640625
108,58.593750
109,52.734375
110,54.687500
111,52.734375
112,52.734375
113,52.734375
114,52.734375
115,48.828125
116,48.828125
117,52.734375
118,48.828125
119,48.828125
120,52.734375
121,52.734375
122,52.734375
123,56.640625
124,50.781250
125,52.734375
126,52.734375
127,52.734375
128,54.687500
129,52.734375
130,50.781250
131,52.734375
132,54.687500
133,58.593750
134,56.640625
135,58.593750
136,56.640625
137,54.687500
138,52.734375
139,52.734375
140,52.734375
141,46.875000
142,54.687500
143,52.734375
144,39.062500
145,46.875000
146,42.968750
147,48.828125
148,44.921875
149,37.109375
150,39.062500
151,44.921875
152,44.921875
153,46.875000
154,42.968750
155,42.968750
156,50.781250
157,42.968750
158,39.062500
159,42.968750
160,37.109375
161,46.875000
162,44.921875
163,48.828125
164,42.968750
165,42.968750
166,50.781250
167,48.828125
168,42.968750
169,42.968750
170,46.875000
171,44.921875
172,48.828125
173,48.828125
174,48.828125
175,52.734375
176,48.828125
177,46.875000
178,52.734375
179,48.828125
180,46.875000
181,50.781250
182,46.875000
183,48.828125
184,52.734375
185,56.640625
186,52.734375
187,54.687500
188,48.828125
189,58.593750
190,54.687500
191,52.734375
192,52.734375
193,60.546875
194,60.546875
195,60.546875
196,56.640625
197,58.593750
198,58.593750
199,56.640625
200,56.640625
201,50.781250
202,54.687500
203,54.687500
204,54.687500
205,48.828125
206,52.734375
207,52.734375
208,56.640625
209,54.687500
210,48.828125
211,52.734375
212,60.546875
213,60.546875
214,58.593750
215,58.593750
216,58.593750
217,52.734375
218,58.593750
219,52.734375
220,60.546875
221,58.593750
222,58.593750
223,58.593750
224,60.546875
225,58.593750
226,54.687500
227,58.593750
228,52.734375
229,46.875000
230,54.687500
231,56.640625
232,56.640625
233,44.921875
234,52.734375
235,52.734375
236,54.687500
237,46.875000
238,52.734375
239,52.734375
240,56.640625
241,56.640625
242,60.546875
243,52.734375
244,52.734375
245,52.734375
246,50.781250
247,50.781250
248,44.921875
249,48.828125
250,52.734375
251,44.921875
252,44.921875
253,44.921875
254,46.875000
255,48.828125
256,39.062500
257,41.015625
258,44.921875
259,46.875000
260,52.734375
261,48.828125
262,46.875000
263,48.828125
264,52.734375
265,52.734375
266,52.734375
267,54.687500
268,54.687500
269,52.734375
270,52.734375
271,52.734375
272,52.734375
273,52.734375
274,52.734375
275,56.640625
276,60.546875
277,68.359375
278,60.546875
279,60.546875
280,58.593750
281,60.546875
282,58.593750
283,60.546875
284,62.500000
285,56.640625
286,62.500000
287,64.453125
288,60.546875
289,64.453125
290,60.546875
291,60.546875
292,68.359375
293,68.359375
294,64.453125
295,62.500000
296,62.500000
297,70.312500
298,64.453125
299,64.453125
300,68.359375
301,68.359375
302,70.312500
303,70.312500
304,64.453125
305,68.359375
306,64.453125
307,70.312500
308,68.359375
309,68.359375
310,64.453125
311,68.359375
312,68.359375
313,70.312500
314,64.453125
315,64.453125
316,68.359375
317,68.359375
318,60.546875
319,64.453125
320,64.453125
321,62.500000
322,68.359375
323,64.453125
324,62.500000
325,64.453125
326,60.546875
327,58.593750
328,54.687500
329,52.734375
330,52.734375
331,48.828125
332,48.828125
333,48.828125
334,42.968750
335,52.734375
336,52.734375
337,48.828125
338,44.921875
339,52.734375
340,52.734375
341,52.734375
342,54.687500
343,54.687500
344,56.640625
345,58.593750
346,48.828125
347,52.734375
348,52.734375
349,56.640625
350,58.593750
351,46.875000
352,46.875000
353,52.734375
354,54.687500
355,52.734375
356,52.734375
357,52.734375
358,46.875000
359,52.734375
360,44.921875
361,46.875000
362,48.828125
363,54.687500
364,42.968750
365,42.968750
366,46.875000
367,42.968750
368,48.828125
369,52.734375
370,52.734375
371,52.734375
372,48.828125
373,48.828125
374,46.875000
375,48.828125
376,46.875000
377,52.734375
378,48.828125
379,42.968750
380,46.875000
381,48.828125
382,48.828125
383,46.875000
384,46.875000
385,48.828125
386,44.921875
387,41.015625
388,42.968750
389,44.921875
390,44.921875
391,46.875000
392,48.828125
393,42.968750
394,44.921875
395,48.828125
396,42.968750
397,46.875000
398,44.921875
399,46.875000
400,48.828125
401,52.734375
402,46.875000
403,48.828125
404,46.875000
405,48.828125
406,46.875000
407,48.828125
408,44.921875
409,48.828125
410,41.015625
411,46.875000
412,48.828125
413,46.875000
414,48.828125
415,44.921875
416,42.968750
417,44.921875
418,46.875000
419,42.968750
420,46.875000
421,46.875000
422,46.875000
423,50.781250
424,46.875000
425,48.828125
426,48.828125
427,46.875000
428,48.828125
429,48.828125
430,46.875000
431,48.828125
432,52.734375
433,50.781250
434,48.828125
435,48.828125
436,44.921875
437,42.968750
438,48.828125
439,50.781250
440,39.062500
441,42.968750
442,48.828125
443,46.875000
444,48.828125
445,48.828125
446,44.921875
447,48.828125
448,48.828125
449,46.875000
450,42.968750
451,39.062500
452,42.968750
453,48.828125
454,46.875000
455,48.828125
456,46.875000
457,52.734375
458,48.828125
459,46.875000
460,48.828125
461,48.828125
462,48.828125
463,52.734375
464,44.921875
465,44.921875
466,52.734375
467,48.828125
468,48.828125
469,54.687500
470,56.640625
471,52.734375
472,50.781250
473,52.734375
474,48.828125
475,52.734375
476,52.734375
477,52.734375
478,54.687500
479,56.640625
480,54.687500
481,52.734375
482,52.734375
483,52.734375
484,54.687500
485,50.781250
486,54.687500
487,52.734375
488,48.828125
489,52.734375
490,52.734375
491,48.828125
492,48.828125
493,52.734375
494,54.687500
495,56.640625
496,48.828125
497,48.828125
498,52.734375
499,52.734375
500,56.640625
501,60.546875
502,48.828125
503,52.734375
504,54.687500
505,46.875000
506,52.734375
507,52.734375
508,50.781250
509,52.734375
510,54.687500
511,48.828125
512,50.781250
513,58.593750
514,48.828125
515,54.687500
516,56.640625
517,52.734375
518,52.734375
519,52.734375
520,48.828125
521,46.875000
522,52.734375
523,52.734375
524,58.593750
525,60.546875
526,52.734375
527,52.734375
528,46.875000
529,52.734375
530,52.734375
531,54.687500
532,52.734375
533,56.640625
534,54.687500
535,44.921875
536,52.734375
537,54.687500
538,52.734375
539,44.921875
540,48.828125
541,46.875000
542,46.875000
543,46.875000
544,46.875000
545,44.921875
546,42.968750
547,48.828125
548,44.921875
549,41.015625
550,42.968750
551,46.875000
552,44.921875
553,37.109375
554,37.109375
555,41.015625
556,41.015625
557,37.109375
558,41.015625
559,44.921875
560,44.921875
561,44.921875
562,42.968750
563,44.921875
564,44.921875
565,44.921875
566,46.875000
567,48.828125
568,44.921875
569,42.968750
570,48.828125
571,44.921875
572,44.921875
573,48.828125
574,33.203125
575,42.968750
576,42.968750
577,42.968750
578,41.015625
579,44.921875
580,42.968750
581,42.968750
582,42.968750
583,41.015625
584,44.921875
585,46.875000
586,41.015625
587,41.015625
588,44.921875
589,44.921875
590,39.062500
591,41.015625
592,42.968750
593,42.968750
594,42.968750
595,42.968750
596,37.109375
597,44.921875
598,44.921875
599,41.015625
600,42.968750
601,37.109375
602,41.015625
603,42.968750
604,39.062500
605,37.109375
606,39.062500
607,39.062500
608,44.921875
609,44.921875
610,42.968750
611,44.921875
612,42.968750
613,39.062500
614,41.015625
615,41.015625
616,48.828125
617,42.968750
618,41.015625
619,46.875000
620,42.968750
621,37.109375
622,42.968750
623,42.968750
624,50.781250
625,50.781250
626,48.828125
627,48.828125
628,46.875000
629,42.968750
630,46.875000
631,46.875000
632,48.828125
633,52.734375
634,52.734375
635,48.828125
636,52.734375
637,52.734375
638,44.921875
639,48.828125
640,48.828125
641,46.875000
642,48.828125
643,52.734375
644,52.734375
645,52.734375
646,46.875000
647,48.828125
648,48.828125
649,48.828125
650,48.828125
651,44.921875
652,42.968750
653,46.875000
654,46.875000
655,46.875000
656,44.921875
657,48.828125
658,44.921875
659,42.968750
660,44.921875
661,41.015625
662,48.828125
663,44.921875
664,52.734375
665,52.734375
666,50.781250
667,44.921875
668,52.734375
669,44.921875
670,46.875000
671,48.828125
672,48.828125
673,50.781250
674,46.875000
675,42.968750
676,44.921875
677,46.875000
678,44.921875
679,48.828125
680,42.968750
681,44.921875
682,42.968750
683,42.968750
684,44.921875
685,46.875000
686,42.968750
687,48.828125
688,46.875000
689,48.828125
690,44.921875
691,48.828125
692,52.734375
693,48.828125
694,44.921875
695,44.921875
696,44.921875
697,44.921875
698,42.968750
699,39.062500
700,44.921875
701,42.968750
702,44.921875
703,44.921875
704,41.015625
705,42.968750
706,44.921875
707,42.968750
708,41.015625
709,44.921875
710,41.015625
711,44.921875
712,48.828125
713,48.828125
714,48.828125
715,44.921875
716,44.921875
717,50.781250
718,54.687500
719,48.828125
720,52.734375
721,50.781250
722,48.828125
723,48.828125
724,48.828125
725,52.734375
726,50.781250
727,52.734375
728,50.781250
729,52.734375
730,48.828125
731,52.734375
732,48.828125
733,52.734375
734,52.734375
735,48.828125
736,52.734375
737,52.734375
738,48.828125
739,56.640625
740,52.734375
741,48.828125
742,44.921875
743,52.734375
744,56.640625
745,52.734375
746,50.781250
747,54.687500
748,58.593750
749,52.734375
750,52.734375
751,48.828125
752,54.687500
753,54.687500
754,58.593750
755,52.734375
756,52.734375
757,56.640625
758,54.687500
759,48.828125
760,48.828125
761,52.734375
762,48.828125
763,52.734375
764,48.828125
765,46.875000
766,50.781250
767,48.828125
768,52.734375
769,48.828125
770,54.687500
771,48.828125
772,54.687500
773,52.734375
774,46.875000
775,52.734375
776,48.828125
777,62.500000
778,54.687500
779,52.734375
780,52.734375
781,52.734375
782,52.734375
783,48.828125
784,52.734375
785,48.828125
786,50.781250
787,50.781250
788,48.828125
789,48.828125
790,52.734375
791,54.687500
792,54.687500
793,41.015625
794,48.828125
795,48.828125
796,46.875000
797,48.828125
798,44.921875
799,42.968750
800,48.828125
801,44.921875
802,46.875000
803,46.875000
804,44.921875
805,44.921875
806,46.875000
807,44.921875
808,44.921875
809,42.968750
810,48.828125
811,48.828125
812,46.875000
813,48.828125
814,46.875000
815,48.828125
816,52.734375
817,52.734375
818,54.687500
819,52.734375
820,54.687500
821,52.734375
822,54.687500
823,50.781250
824,54.687500
825,52.734375
826,56.640625
827,58.593750
828,58.593750
829,52.734375
830,54.687500
831,54.687500
832,54.687500
833,54.687500
834,60.546875
835,52.734375
836,54.687500
837,54.687500
838,58.593750
839,56.640625
840,48.828125
841,48.828125
842,58.593750
843,52.734375
844,52.734375
845,52.734375
846,48.828125
847,54.687500
848,52.734375
849,48.828125
850,52.734375
851,52.734375
852,52.734375
853,54.687500
854,48.828125
855,52.734375
856,54.687500
857,52.734375
858,54.687500
859,58.593750
860,56.640625
861,54.687500
862,54.687500
863,54.687500
864,56.640625
865,56.640625
866,54.687500
867,58.593750
868,56.640625
869,52.734375
870,62.500000
871,56.640625
872,60.546875
873,58.593750
874,60.546875
875,56.640625
876,52.734375
877,58.593750
878,54.687500
879,56.640625
880,60.546875
881,54.687500
882,56.640625
883,54.687500
884,54.687500
885,54.687500
886,52.734375
887,52.734375
888,50.781250
889,54.687500
890,56.640625
891,52.734375
892,56.640625
893,48.828125
894,52.734375
895,54.687500
896,52.734375
897,52.734375
898,52.734375
899,56.640625
900,58.593750
901,52.734375
902,52.734375
903,52.734375
904,56.640625
905,54.687500
906,54.687500
907,54.687500
908,52.734375
909,56.640625
910,52.734375
911,54.687500
912,52.734375
913,48.828125
914,48.828125
915,52.734375
916,52.734375
917,52.734375
918,52.734375
919,58.593750
920,54.687500
921,52.734375
922,52.734375
923,52.734375
924,52.734375
925,56.640625
926,52.734375
927,64.453125
928,58.593750
929,48.828125
930,58.593750
931,60.546875
932,54.687500
933,56.640625
934,60.546875
935,56.640625
936,60.546875
937,60.546875
938,60.546875
939,60.546875
940,54.687500
941,64.453125
942,64.453125
943,58.593750
944,58.593750
945,60.546875
946,60.546875
947,62.500000
948,58.593750
949,58.593750
950,64.453125
951,54.687500
952,58.593750
953,56.640625
954,54.687500
955,54.687500
956,58.593750
957,58.593750
958,60.546875
959,58.593750
960,56.640625
961,60.546875
962,60.546875
963,60.546875
964,62.500000
965,60.546875
966,60.546875
967,60.546875
968,60.546875
969,58.593750
970,56.640625
971,60.546875
972,58.593750
973,60.546875
974,62.500000
975,60.546875
976,54.687500
977,60.546875
978,52.734375
979,58.593750
980,58.593750
981,54.687500
982,58.593750
983,54.687500
984,60.546875
985,54.687500
986,54.687500
987,52.734375
988,54.687500
989,56.640625
990,52.734375
991,50.781250
992,50.781250
993,56.640625
994,58.593750
995,56.640625
996,46.875000
997,60.546875
998,54.687500
999,56.640625
1000,54.687500
1001,52.734375
1002,56.640625
1003,58.593750
1004,54.687500
1005,58.593750
1006,56.640625
1007,52.734375
1008,52.734375
1009,58.593750
1010,52.734375
1011,56.640625
1012,60.546875
1013,58.593750
1014,60.546875
1015,54.687500
1016,58.593750
1017,56.640625
1018,56.640625
1019,56.640625
1020,62.500000
1021,58.593750
1022,54.687500
1023,58.593750
1024,54.687500
1025,52.734375
1026,60.546875
1027,58.593750
1028,54.687500
1029,56.640625
1030,56.640625
1031,58.593750
1032,54.687500
1033,52.734375
1034,58.593750
1035,52.734375
1036,60.546875
1037,58.593750
1038,58.593750
1039,60.546875
1040,56.640625
1041,58.593750
1042,52.734375
1043,52.734375
1044,54.687500
1045,60.546875
1046,52.734375
1047,52.734375
1048,52.734375
1049,56.640625
1050,58.593750
1051,48.828125
1052,52.734375
1053,52.734375
1054,46.875000
1055,52.734375
1056,52.734375
1057,46.875000
1058,52.734375
1059,54.687500
1060,52.734375
1061,48.828125
1062,52.734375
1063,52.734375
1064,54.687500
1065,44.921875
1066,54.687500
1067,54.687500
1068,54.687500
1069,48.828125
1070,52.734375
1071,54.687500
1072,60.546875
1073,58.593750
1074,58.593750
1075,64.453125
1076,58.593750
1077,58.593750
1078,56.640625
1079,60.546875
1080,60.546875
1081,60.546875
1082,56.640625
1083,60.546875
1084,62.500000
1085,54.687500
1086,60.546875
1087,60.546875
1088,60.546875
1089,60.546875
1090,56.640625
1091,58.593750
1092,64.453125
1093,60.546875
1094,60.546875
1095,60.546875
1096,60.546875
1097,64.453125
1098,54.687500
1099,54.687500
1100,60.546875
1101,60.546875
1102,58.593750
1103,60.546875
1104,58.593750
1105,58.593750
1106,60.546875
1107,58.593750
1108,58.593750
1109,54.687500
1110,58.593750
1111,58.593750
1112,60.546875
1113,60.546875
1114,58.593750
1115,60.546875
1116,60.546875
1117,52.734375
1118,58.593750
1119,58.593750
1120,58.593750
1121,60.546875
1122,58.593750
1123,58.593750
1124,64.453125
1125,58.593750
1126,58.593750
1127,62.500000
1128,60.546875
1129,62.500000
1130,64.453125
1131,62.500000
1132,58.593750
1133,60.546875
1134,58.593750
1135,62.500000
1136,60.546875
1137,60.546875
1138,62.500000
1139,62.500000
1140,56.640625
1141,54.687500
1142,54.687500
1143,58.593750
1144,62.500000
1145,58.593750
1146,44.921875
1147,54.687500
1148,56.640625
1149,56.640625
1150,52.734375
1151,52.734375
1152,56.640625
1153,58.593750
1154,52.734375
1155,56.640625
1156,54.687500
1157,56.640625
1158,54.687500
1159,56.640625
1160,54.687500
1161,54.687500
1162,60.546875
1163,52.734375
1164,58.593750
1165,56.640625
1166,56.640625
1167,56.640625
1168,60.546875
1169,52.734375
1170,56.640625
1171,52.734375
1172,54.687500
1173,56.640625
1174,58.593750
1175,52.734375
1176,54.687500
1177,52.734375
1178,54.687500
1179,56.640625
1180,54.687500
1181,54.687500
1182,56.640625
1183,58.593750
1184,56.640625
1185,52.734375
1186,58.593750
1187,52.734375
1188,52.734375
1189,52.734375
1190,52.734375
1191,52.734375
1192,54.687500
1193,46.875000
1194,54.687500
1195,52.734375
1196,50.781250
1197,50.781250
1198,46.875000
1199,48.828125
1200,54.687500
1201,42.968750
1202,52.734375
1203,42.968750
1204,52.734375
1205,52.734375
1206,52.734375
1207,52.734375
1208,52.734375
1209,48.828125
1210,56.640625
1211,54.687500
1212,52.734375
1213,52.734375
1214,52.734375
1215,48.828125
1216,52.734375
1217,56.640625
1218,52.734375
1219,54.687500
1220,52.734375
1221,56.640625
1222,54.687500
1223,58.593750
1224,52.734375
1225,52.734375
1226,52.734375
1227,54.687500
1228,58.593750
1229,54.687500
1230,58.593750
1231,54.687500
1232,54.687500
1233,52.734375
1234,60.546875
1235,52.734375
1236,52.734375
1237,56.640625
1238,56.640625
1239,60.546875
1240,52.734375
1241,54.687500
1242,60.546875
1243,56.640625
1244,54.687500
1245,52.734375
1246,48.828125
1247,54.687500
1248,56.640625
1249,52.734375
1250,56.640625
1251,56.640625
1252,58.593750
1253,52.734375
1254,48.828125
1255,54.687500
1256,54.687500
1257,56.640625
1258,54.687500
1259,60.546875
1260,58.593750
1261,52.734375
1262,54.687500
1263,56.640625
1264,58.593750
1265,56.640625
1266,60.546875
1267,56.640625
1268,56.640625
1269,58.593750
1270,56.640625
1271,60.546875
1272,54.687500
1273,54.687500
1274,60.546875
1275,58.593750
1276,58.593750
1277,64.453125
1278,60.546875
1279,60.546875
1280,68.359375
1281,62.500000
1282,62.500000
1283,58.593750
1284,58.593750
1285,60.546875
1286,64.453125
1287,56.640625
1288,62.500000
1289,62.500000
1290,62.500000
1291,58.593750
1292,58.593750
1293,58.593750
1294,64.453125
1295,60.546875
1296,56.640625
1297,58.593750
1298,60.546875
1299,60.546875
1300,54.687500
1301,52.734375
1302,56.640625
1303,54.687500
1304,60.546875
1305,56.640625
1306,58.593750
1307,58.593750
1308,54.687500
1309,48.828125
1310,52.734375
1311,62.500000
1312,58.593750
1313,64.453125
1314,60.546875
1315,62.500000
1316,58.593750
1317,60.546875
1318,60.546875
1319,52.734375
1320,60.546875
1321,60.546875
1322,60.546875
1323,62.500000
1324,58.593750
1325,60.546875
1326,58.593750
1327,60.546875
1328,58.593750
1329,64.453125
1330,58.593750
1331,58.593750
1332,60.546875
1333,56.640625
1334,66.406250
1335,60.546875
1336,60.546875
1337,68.359375
1338,56.640625
1339,60.546875
1340,52.734375
1341,60.546875
1342,62.500000
1343,56.640625
1344,58.593750
1345,62.500000
1346,58.593750
1347,60.546875
1348,54.687500
1349,52.734375
1350,60.546875
1351,60.546875
1352,60.546875
1353,52.734375
1354,56.640625
1355,56.640625
1356,58.593750
1357,58.593750
1358,58.593750
1359,60.546875
1360,60.546875
1361,66.406250
1362,58.593750
1363,58.593750
1364,60.546875
1365,52.734375
1366,60.546875
1367,58.593750
1368,60.546875
1369,58.593750
1370,60.546875
1371,58.593750
1372,60.546875
1373,54.687500
1374,56.640625
1375,60.546875
1376,56.640625
1377,60.546875
1378,56.640625
1379,60.546875
1380,58.593750
1381,54.687500
1382,56.640625
1383,56.640625
1384,58.593750
1385,52.734375
1386,56.640625
1387,52.734375
1388,58.593750
1389,58.593750
1390,52.734375
1391,54.687500
