時系列データ/data/指2.csv

Channel              :,CH1
Frequency            :,  ?
Period               :,  ?
PK-PK                :,62.50mV
Probe attenuation    :,10X
Voltage per ADC value:,0.122070mV
Time interval        :,400.00000us

index,CH1_Voltage(mV)
1,111.328125
2,111.328125
3,107.421875
4,111.328125
5,109.375000
6,105.468750
7,107.421875
8,105.468750
9,105.468750
10,105.468750
11,107.421875
12,109.375000
13,109.375000
14,109.375000
15,107.421875
16,107.421875
17,105.468750
18,99.609375
19,95.703125
20,107.421875
21,101.562500
22,103.515625
23,107.421875
24,101.562500
25,101.562500
26,103.515625
27,101.562500
28,101.562500
29,101.562500
30,101.562500
31,107.421875
32,103.515625
33,95.703125
34,105.468750
35,99.609375
36,101.562500
37,103.515625
38,105.468750
39,103.515625
40,95.703125
41,101.562500
42,101.562500
43,103.515625
44,99.609375
45,95.703125
46,101.562500
47,101.562500
48,97.656250
49,95.703125
50,99.609375
51,105.468750
52,101.562500
53,95.703125
54,97.656250
55,99.609375
56,99.609375
57,95.703125
58,95.703125
59,99.609375
60,99.609375
61,99.609375
62,95.703125
63,95.703125
64,95.703125
65,95.703125
66,99.609375
67,99.609375
68,97.656250
69,99.609375
70,95.703125
71,93.750000
72,95.703125
73,95.703125
74,99.609375
75,99.609375
76,93.750000
77,93.750000
78,99.609375
79,97.656250
80,93.750000
81,101.562500
82,95.703125
83,95.703125
84,99.609375
85,95.703125
86,99.609375
87,99.609375
88,99.609375
89,99.609375
90,95.703125
91,99.609375
92,89.843750
93,97.656250
94,99.609375
95,99.609375
96,91.796875
97,99.609375
98,95.703125
99,95.703125
100,93.750000
101,93.750000
102,99.609375
103,101.562500
104,97.656250
105,95.703125
106,95.703125
107,95.703125
108,95.703125
109,91.796875
110,91.796875
111,89.843750
112,99.609375
113,95.703125
114,93.750000
115,95.703125
116,95.703125
117,95.703125
118,91.796875
119,93.750000
120,93.750000
121,95.703125
122,95.703125
123,91.796875
124,99.609375
125,105.468750
126,91.796875
127,99.609375
128,91.796875
129,95.703125
130,99.609375
131,95.703125
132,99.609375
133,103.515625
134,97.656250
135,103.515625
136,105.468750
137,99.609375
138,103.515625
139,103.515625
140,97.656250
141,101.562500
142,103.515625
143,105.468750
144,99.609375
145,101.562500
146,103.515625
147,99.609375
148,99.609375
149,101.562500
150,101.562500
151,99.609375
152,95.703125
153,97.656250
154,101.562500
155,105.468750
156,99.609375
157,95.703125
158,99.609375
159,101.562500
160,99.609375
161,103.515625
162,99.609375
163,101.562500
164,99.609375
165,105.468750
166,99.609375
167,99.609375
168,99.609375
169,97.656250
170,103.515625
171,103.515625
172,101.562500
173,109.375000
174,103.515625
175,95.703125
176,101.562500
177,99.609375
178,103.515625
179,107.421875
180,103.515625
181,103.515625
182,105.468750
183,101.562500
184,109.375000
185,107.421875
186,99.609375
187,105.468750
188,101.562500
189,101.562500
190,105.468750
191,99.609375
192,103.515625
193,105.468750
194,99.609375
195,99.609375
196,99.609375
197,103.515625
198,103.515625
199,101.562500
200,105.468750
201,101.562500
202,105.468750
203,101.562500
204,101.562500
205,105.468750
206,105.468750
207,103.515625
208,99.609375
209,99.609375
210,99.609375
211,103.515625
212,103.515625
213,101.562500
214,103.515625
215,95.703125
216,103.515625
217,99.609375
218,103.515625
219,101.562500
220,101.562500
221,93.750000
222,107.421875
223,105.468750
224,105.468750
225,109.375000
226,103.515625
227,105.468750
228,107.421875
229,101.562500
230,103.515625
231,109.375000
232,105.468750
233,107.421875
234,111.328125
235,105.468750
236,107.421875
237,105.468750
238,107.421875
239,107.421875
240,107.421875
241,103.515625
242,105.468750
243,101.562500
244,107.421875
245,103.515625
246,105.468750
247,103.515625
248,107.421875
249,109.375000
250,101.562500
251,105.468750
252,101.562500
253,105.468750
254,101.562500
255,99.609375
256,95.703125
257,105.468750
258,111.328125
259,101.562500
260,103.515625
261,99.609375
262,103.515625
263,103.515625
264,103.515625
265,95.703125
266,103.515625
267,103.515625
268,103.515625
269,103.515625
270,107.421875
271,109.375000
272,107.421875
273,101.562500
274,105.468750
275,99.609375
276,95.703125
277,105.468750
278,103.515625
279,107.421875
280,109.375000
281,107.421875
282,105.468750
283,105.468750
284,101.562500
285,105.468750
286,107.421875
287,111.328125
288,109.375000
289,107.421875
290,107.421875
291,111.328125
292,109.375000
293,107.421875
294,101.562500
295,109.375000
296,107.421875
297,107.421875
298,99.609375
299,101.562500
300,105.468750
301,105.468750
302,109.375000
303,99.609375
304,109.375000
305,109.375000
306,107.421875
307,103.515625
308,101.562500
309,101.562500
310,105.468750
311,105.468750
312,105.468750
313,103.515625
314,99.609375
315,107.421875
316,105.468750
317,107.421875
318,101.562500
319,105.468750
320,107.421875
321,101.562500
322,101.562500
323,105.468750
324,107.421875
325,107.421875
326,109.375000
327,111.328125
328,107.421875
329,111.328125
330,105.468750
331,103.515625
332,111.328125
333,105.468750
334,105.468750
335,109.375000
336,105.468750
337,107.421875
338,109.375000
339,107.421875
340,111.328125
341,107.421875
342,109.375000
343,109.375000
344,105.468750
345,107.421875
346,115.234375
347,109.375000
348,107.421875
349,107.421875
350,107.421875
351,105.468750
352,111.328125
353,105.468750
354,105.468750
355,99.609375
356,107.421875
357,115.234375
358,103.515625
359,105.468750
360,107.421875
361,111.328125
362,107.421875
363,107.421875
364,107.421875
365,99.609375
366,107.421875
367,105.468750
368,103.515625
369,105.468750
370,105.468750
371,107.421875
372,109.375000
373,107.421875
374,105.468750
375,111.328125
376,103.515625
377,107.421875
378,109.375000
379,109.375000
380,111.328125
381,111.328125
382,107.421875
383,109.375000
384,107.421875
385,111.328125
386,115.234375
387,105.468750
388,109.375000
389,107.421875
390,101.562500
391,113.281250
392,107.421875
393,109.375000
394,109.375000
395,111.328125
396,107.421875
397,107.421875
398,109.375000
399,111.328125
400,111.328125
401,111.328125
402,103.515625
403,107.421875
404,111.328125
405,109.375000
406,105.468750
407,105.468750
408,115.234375
409,107.421875
410,107.421875
411,101.562500
412,111.328125
413,107.421875
414,105.468750
415,107.421875
416,103.515625
417,111.328125
418,111.328125
419,111.328125
420,109.375000
421,109.375000
422,109.375000
423,107.421875
424,111.328125
425,107.421875
426,107.421875
427,113.281250
428,111.328125
429,111.328125
430,113.281250
431,103.515625
432,109.375000
433,105.468750
434,107.421875
435,111.328125
436,109.375000
437,111.328125
438,107.421875
439,115.234375
440,107.421875
441,109.375000
442,115.234375
443,107.421875
444,107.421875
445,107.421875
446,111.328125
447,111.328125
448,109.375000
449,103.515625
450,107.421875
451,111.328125
452,111.328125
453,105.468750
454,107.421875
455,109.375000
456,111.328125
457,109.375000
458,105.468750
459,107.421875
460,109.375000
461,109.375000
462,109.375000
463,107.421875
464,111.328125
465,111.328125
466,107.421875
467,107.421875
468,107.421875
469,109.375000
470,109.375000
471,109.375000
472,107.421875
473,111.328125
474,115.234375
475,107.421875
476,109.375000
477,105.468750
478,109.375000
479,111.328125
480,105.468750
481,111.328125
482,115.234375
483,113.281250
484,111.328125
485,107.421875
486,111.328125
487,111.328125
488,109.375000
489,111.328125
490,111.328125
491,111.328125
492,111.328125
493,101.562500
494,111.328125
495,109.375000
496,107.421875
497,109.375000
498,109.375000
499,109.375000
500,109.375000
501,109.375000
502,109.375000
503,111.328125
504,105.468750
505,107.421875
506,101.562500
507,111.328125
508,109.375000
509,103.515625
510,105.468750
511,107.421875
512,105.468750
513,105.468750
514,105.468750
515,109.375000
516,109.375000
517,111.328125
518,107.421875
519,111.328125
520,111.328125
521,101.562500
522,109.375000
523,105.468750
524,103.515625
525,111.328125
526,111.328125
527,115.234375
528,115.234375
529,109.375000
530,105.468750
531,111.328125
532,111.328125
533,103.515625
534,111.328125
535,107.421875
536,111.328125
537,109.375000
538,109.375000
539,111.328125
540,111.328125
541,107.421875
542,105.468750
543,111.328125
544,95.703125
545,111.328125
546,107.421875
547,111.328125
548,111.328125
549,115.234375
550,115.234375
551,109.375000
552,99.609375
553,107.421875
554,111.328125
555,111.328125
556,107.421875
557,105.468750
558,105.468750
559,111.328125
560,109.375000
561,105.468750
562,111.328125
563,101.562500
564,109.375000
565,111.328125
566,107.421875
567,107.421875
568,109.375000
569,105.468750
570,107.421875
571,109.375000
572,115.234375
573,109.375000
574,115.234375
575,107.421875
576,109.375000
577,107.421875
578,105.468750
579,107.421875
580,109.375000
581,109.375000
582,109.375000
583,119.140625
584,111.328125
585,111.328125
586,109.375000
587,107.421875
588,111.328125
589,111.328125
590,111.328125
591,111.328125
592,111.328125
593,111.328125
594,109.375000
595,107.421875
596,115.234375
597,111.328125
598,107.421875
599,105.468750
600,107.421875
601,111.328125
602,109.375000
603,107.421875
604,105.468750
605,115.234375
606,115.234375
607,113.281250
608,105.468750
609,105.468750
610,111.328125
611,105.468750
612,107.421875
613,107.421875
614,107.421875
615,111.328125
616,105.468750
617,107.421875
618,111.328125
619,107.421875
620,107.421875
621,105.468750
622,103.515625
623,107.421875
624,105.468750
625,107.421875
626,109.375000
627,111.328125
628,111.328125
629,115.234375
630,109.375000
631,109.375000
632,111.328125
633,107.421875
634,115.234375
635,113.281250
636,109.375000
637,111.328125
638,107.421875
639,107.421875
640,111.328125
641,109.375000
642,109.375000
643,107.421875
644,117.187500
645,115.234375
646,103.515625
647,109.375000
648,111.328125
649,111.328125
650,109.375000
651,107.421875
652,115.234375
653,109.375000
654,113.281250
655,111.328125
656,107.421875
657,109.375000
658,107.421875
659,111.328125
660,107.421875
661,105.468750
662,105.468750
663,107.421875
664,111.328125
665,107.421875
666,115.234375
667,105.468750
668,105.468750
669,105.468750
670,105.468750
671,107.421875
672,113.281250
673,109.375000
674,111.328125
675,113.281250
676,111.328125
677,105.468750
678,109.375000
679,109.375000
680,107.421875
681,111.328125
682,109.375000
683,115.234375
684,111.328125
685,107.421875
686,113.281250
687,109.375000
688,111.328125
689,111.328125
690,111.328125
691,113.281250
692,109.375000
693,107.421875
694,109.375000
695,115.234375
696,111.328125
697,111.328125
698,107.421875
699,109.375000
700,111.328125
701,115.234375
702,107.421875
703,103.515625
704,111.328125
705,113.281250
706,111.328125
707,109.375000
708,111.328125
709,111.328125
710,115.234375
711,107.421875
712,111.328125
713,111.328125
714,107.421875
715,111.328125
716,107.421875
717,109.375000
718,111.328125
719,111.328125
720,111.328125
721,111.328125
722,107.421875
723,105.468750
724,111.328125
725,105.468750
726,109.375000
727,111.328125
728,115.234375
729,115.234375
730,115.234375
731,115.234375
732,115.234375
733,115.234375
734,111.328125
735,115.234375
736,115.234375
737,115.234375
738,115.234375
739,115.234375
740,117.187500
741,111.328125
742,115.234375
743,115.234375
744,115.234375
745,111.328125
746,115.234375
747,125.000000
748,115.234375
749,111.328125
750,115.234375
751,115.234375
752,117.187500
753,115.234375
754,121.093750
755,115.234375
756,111.328125
757,117.187500
758,115.234375
759,113.281250
760,115.234375
761,115.234375
762,115.234375
763,115.234375
764,115.234375
765,115.234375
766,113.281250
767,121.093750
768,115.234375
769,111.328125
770,115.234375
771,111.328125
772,117.187500
773,117.187500
774,115.234375
775,115.234375
776,121.093750
777,115.234375
778,115.234375
779,119.140625
780,111.328125
781,119.140625
782,119.140625
783,115.234375
784,115.234375
785,115.234375
786,119.140625
787,121.093750
788,115.234375
789,115.234375
790,115.234375
791,115.234375
792,115.234375
793,117.187500
794,119.140625
795,121.093750
796,115.234375
797,111.328125
798,115.234375
799,119.140625
800,115.234375
801,115.234375
802,111.328125
803,115.234375
804,121.093750
805,115.234375
806,115.234375
807,117.187500
808,115.234375
809,121.093750
810,115.234375
811,115.234375
812,115.234375
813,117.187500
814,117.187500
815,117.187500
816,115.234375
817,115.234375
818,119.140625
819,119.140625
820,117.187500
821,115.234375
822,121.093750
823,117.187500
824,115.234375
825,115.234375
826,117.187500
827,119.140625
828,125.000000
829,119.140625
830,121.093750
831,125.000000
832,115.234375
833,119.140625
834,117.187500
835,119.140625
836,119.140625
837,121.093750
838,119.140625
839,115.234375
840,123.046875
841,119.140625
842,121.093750
843,119.140625
844,115.234375
845,117.187500
846,123.046875
847,121.093750
848,115.234375
849,119.140625
850,119.140625
851,121.093750
852,117.187500
853,119.140625
854,119.140625
855,119.140625
856,115.234375
857,115.234375
858,115.234375
859,117.187500
860,121.093750
861,115.234375
862,119.140625
863,117.187500
864,119.140625
865,115.234375
866,117.187500
867,119.140625
868,111.328125
869,115.234375
870,121.093750
871,117.187500
872,123.046875
873,115.234375
874,123.046875
875,119.140625
876,121.093750
877,123.046875
878,117.187500
879,119.140625
880,121.093750
881,117.187500
882,119.140625
883,123.046875
884,123.046875
885,117.187500
886,123.046875
887,125.000000
888,117.187500
889,123.046875
890,121.093750
891,121.093750
892,117.187500
893,119.140625
894,123.046875
895,119.140625
896,119.140625
897,123.046875
898,121.093750
899,123.046875
900,115.234375
901,121.093750
902,121.093750
903,119.140625
904,119.140625
905,107.421875
906,119.140625
907,119.140625
908,123.046875
909,115.234375
910,115.234375
911,115.234375
912,119.140625
913,117.187500
914,119.140625
915,117.187500
916,121.093750
917,117.187500
918,119.140625
919,119.140625
920,123.046875
921,119.140625
922,115.234375
923,121.093750
924,119.140625
925,115.234375
926,117.187500
927,123.046875
928,115.234375
929,123.046875
930,117.187500
931,123.046875
932,121.093750
933,119.140625
934,119.140625
935,117.187500
936,119.140625
937,117.187500
938,123.046875
939,115.234375
940,121.093750
941,117.187500
942,117.187500
943,119.140625
944,119.140625
945,123.046875
946,119.140625
947,115.234375
948,119.140625
949,115.234375
950,119.140625
951,115.234375
952,115.234375
953,113.281250
954,119.140625
955,115.234375
956,111.328125
957,117.187500
958,115.234375
959,115.234375
960,117.187500
961,115.234375
962,119.140625
963,117.187500
964,117.187500
965,119.140625
966,119.140625
967,117.187500
968,117.187500
969,119.140625
970,117.187500
971,111.328125
972,115.234375
973,113.281250
974,119.140625
975,117.187500
976,115.234375
977,121.093750
978,117.187500
979,117.187500
980,115.234375
981,117.187500
982,115.234375
983,115.234375
984,121.093750
985,119.140625
986,115.234375
987,117.187500
988,115.234375
989,115.234375
990,117.187500
991,113.281250
992,121.093750
993,115.234375
994,115.234375
995,115.234375
996,117.187500
997,119.140625
998,111.328125
999,115.234375
1000,111.328125
1001,119.140625
1002,113.281250
1003,111.328125
1004,115.234375
1005,111.328125
1006,117.187500
1007,115.234375
1008,109.375000
1009,117.187500
1010,111.328125
1011,115.234375
1012,111.328125
1013,115.234375
1014,115.234375
1015,109.375000
1016,115.234375
1017,109.375000
1018,111.328125
1019,115.234375
1020,111.328125
1021,115.234375
1022,115.234375
1023,111.328125
1024,117.187500
1025,113.281250
1026,111.328125
1027,111.328125
1028,109.375000
1029,113.281250
1030,111.328125
1031,111.328125
1032,111.328125
1033,115.234375
1034,109.375000
1035,111.328125
1036,111.328125
1037,111.328125
1038,111.328125
1039,111.328125
1040,115.234375
1041,109.375000
1042,111.328125
1043,111.328125
1044,115.234375
1045,105.468750
1046,107.421875
1047,109.375000
1048,115.234375
1049,111.328125
1050,109.375000
1051,109.375000
1052,107.421875
1053,111.328125
1054,105.468750
1055,103.515625
1056,103.515625
1057,115.234375
1058,109.375000
1059,105.468750
1060,105.468750
1061,107.421875
1062,111.328125
1063,109.375000
1064,107.421875
1065,103.515625
1066,107.421875
1067,107.421875
1068,107.421875
1069,105.468750
1070,111.328125
1071,105.468750
1072,105.468750
1073,109.375000
1074,107.421875
1075,105.468750
1076,109.375000
1077,115.234375
1078,111.328125
1079,111.328125
1080,105.468750
1081,107.421875
1082,109.375000
1083,109.375000
1084,109.375000
1085,109.375000
1086,111.328125
1087,111.328125
1088,107.421875
1089,109.375000
1090,111.328125
1091,111.328125
1092,111.328125
1093,115.234375
1094,109.375000
1095,111.328125
1096,107.421875
1097,107.421875
1098,107.421875
1099,111.328125
1100,105.468750
1101,109.375000
1102,105.468750
1103,105.468750
1104,111.328125
1105,109.375000
1106,107.421875
1107,107.421875
1108,109.375000
1109,111.328125
1110,107.421875
1111,107.421875
1112,107.421875
1113,107.421875
1114,115.234375
1115,109.375000
1116,115.234375
1117,105.468750
1118,107.421875
1119,111.328125
1120,105.468750
1121,103.515625
1122,109.375000
1123,109.375000
1124,107.421875
1125,111.328125
1126,109.375000
1127,107.421875
1128,107.421875
1129,107.421875
1130,105.468750
1131,103.515625
1132,105.468750
1133,107.421875
1134,111.328125
1135,107.421875
1136,111.328125
1137,107.421875
1138,109.375000
1139,109.375000
1140,111.328125
1141,107.421875
1142,107.421875
1143,111.328125
1144,111.328125
1145,105.468750
1146,105.468750
1147,111.328125
1148,107.421875
1149,105.468750
1150,103.515625
1151,113.281250
1152,107.421875
1153,107.421875
1154,101.562500
1155,111.328125
1156,111.328125
1157,107.421875
1158,103.515625
1159,95.703125
1160,107.421875
1161,103.515625
1162,105.468750
1163,107.421875
1164,103.515625
1165,109.375000
1166,115.234375
1167,107.421875
1168,109.375000
1169,105.468750
1170,107.421875
1171,107.421875
1172,109.375000
1173,105.468750
1174,115.234375
1175,105.468750
1176,105.468750
1177,111.328125
1178,107.421875
1179,111.328125
1180,109.375000
1181,105.468750
1182,109.375000
1183,109.375000
1184,105.468750
1185,117.187500
1186,111.328125
1187,109.375000
1188,111.328125
1189,105.468750
1190,111.328125
1191,107.421875
1192,107.421875
1193,109.375000
1194,115.234375
1195,109.375000
1196,101.562500
1197,107.421875
1198,107.421875
1199,109.375000
1200,109.375000
1201,107.421875
1202,107.421875
1203,109.375000
1204,107.421875
1205,103.515625
1206,101.562500
1207,105.468750
1208,111.328125
1209,107.421875
1210,105.468750
1211,109.375000
1212,107.421875
1213,103.515625
1214,103.515625
1215,105.468750
1216,109.375000
1217,107.421875
1218,105.468750
1219,107.421875
1220,109.375000
1221,109.375000
1222,107.421875
1223,111.328125
1224,111.328125
1225,107.421875
1226,111.328125
1227,107.421875
1228,101.562500
1229,111.328125
1230,103.515625
1231,105.468750
1232,107.421875
1233,107.421875
1234,111.328125
1235,101.562500
1236,107.421875
1237,103.515625
1238,107.421875
1239,103.515625
1240,103.515625
1241,109.375000
1242,111.328125
1243,107.421875
1244,109.375000
1245,105.468750
1246,107.421875
1247,109.375000
1248,105.468750
1249,105.468750
1250,107.421875
1251,107.421875
1252,101.562500
1253,99.609375
1254,105.468750
1255,99.609375
1256,107.421875
1257,99.609375
1258,107.421875
1259,99.609375
1260,105.468750
1261,103.515625
1262,101.562500
1263,105.468750
1264,99.609375
1265,101.562500
1266,105.468750
1267,105.468750
1268,105.468750
1269,107.421875
1270,107.421875
1271,101.562500
1272,111.328125
1273,103.515625
1274,99.609375
1275,101.562500
1276,99.609375
1277,105.468750
1278,105.468750
1279,101.562500
1280,105.468750
1281,105.468750
1282,99.609375
1283,99.609375
1284,101.562500
1285,103.515625
1286,99.609375
1287,101.562500
1288,107.421875
1289,107.421875
1290,99.609375
1291,99.609375
1292,107.421875
1293,103.515625
1294,83.984375
1295,103.515625
1296,99.609375
1297,107.421875
1298,101.562500
1299,99.609375
1300,99.609375
1301,101.562500
1302,107.421875
1303,99.609375
1304,99.609375
1305,99.609375
1306,105.468750
1307,109.375000
1308,99.609375
1309,99.609375
1310,99.609375
1311,101.562500
1312,101.562500
1313,101.562500
1314,97.656250
