時系列データ/data/椅子2.csv

Channel              :,CH1
Frequency            :,  ?
Period               :,  ?
PK-PK                :,66.41mV
Probe attenuation    :,10X
Voltage per ADC value:,0.122070mV
Time interval        :,400.00000us

index,CH1_Voltage(mV)
1,113.281250
2,113.281250
3,115.234375
4,107.421875
5,109.375000
6,115.234375
7,107.421875
8,111.328125
9,111.328125
10,111.328125
11,109.375000
12,107.421875
13,107.421875
14,109.375000
15,107.421875
16,111.328125
17,113.281250
18,109.375000
19,107.421875
20,115.234375
21,107.421875
22,105.468750
23,109.375000
24,111.328125
25,117.187500
26,115.234375
27,111.328125
28,109.375000
29,107.421875
30,107.421875
31,111.328125
32,111.328125
33,109.375000
34,111.328125
35,111.328125
36,113.281250
37,111.328125
38,107.421875
39,111.328125
40,113.281250
41,107.421875
42,107.421875
43,111.328125
44,111.328125
45,111.328125
46,109.375000
47,115.234375
48,111.328125
49,111.328125
50,111.328125
51,107.421875
52,105.468750
53,111.328125
54,115.234375
55,107.421875
56,101.562500
57,107.421875
58,109.375000
59,113.281250
60,111.328125
61,111.328125
62,111.328125
63,115.234375
64,111.328125
65,111.328125
66,115.234375
67,111.328125
68,111.328125
69,115.234375
70,115.234375
71,111.328125
72,117.187500
73,117.187500
74,115.234375
75,115.234375
76,111.328125
77,111.328125
78,115.234375
79,115.234375
80,115.234375
81,117.187500
82,111.328125
83,117.187500
84,119.140625
85,113.281250
86,115.234375
87,115.234375
88,115.234375
89,115.234375
90,115.234375
91,115.234375
92,115.234375
93,111.328125
94,111.328125
95,115.234375
96,115.234375
97,111.328125
98,111.328125
99,107.421875
100,111.328125
101,115.234375
102,111.328125
103,109.375000
104,109.375000
105,115.234375
106,115.234375
107,109.375000
108,111.328125
109,111.328125
110,111.328125
111,111.328125
112,111.328125
113,117.187500
114,109.375000
115,115.234375
116,109.375000
117,115.234375
118,115.234375
119,115.234375
120,109.375000
121,109.375000
122,111.328125
123,109.375000
124,111.328125
125,111.328125
126,113.281250
127,119.140625
128,111.328125
129,111.328125
130,111.328125
131,111.328125
132,111.328125
133,111.328125
134,111.328125
135,111.328125
136,111.328125
137,107.421875
138,113.281250
139,115.234375
140,115.234375
141,109.375000
142,115.234375
143,115.234375
144,113.281250
145,107.421875
146,113.281250
147,115.234375
148,117.187500
149,117.187500
150,113.281250
151,107.421875
152,115.234375
153,115.234375
154,115.234375
155,111.328125
156,111.328125
157,111.328125
158,115.234375
159,113.281250
160,109.375000
161,111.328125
162,107.421875
163,105.468750
164,111.328125
165,111.328125
166,109.375000
167,111.328125
168,111.328125
169,109.375000
170,115.234375
171,109.375000
172,111.328125
173,101.562500
174,111.328125
175,109.375000
176,109.375000
177,107.421875
178,111.328125
179,111.328125
180,111.328125
181,115.234375
182,111.328125
183,109.375000
184,111.328125
185,111.328125
186,113.281250
187,109.375000
188,111.328125
189,111.328125
190,115.234375
191,111.328125
192,111.328125
193,111.328125
194,115.234375
195,115.234375
196,111.328125
197,107.421875
198,113.281250
199,111.328125
200,109.375000
201,105.468750
202,105.468750
203,109.375000
204,115.234375
205,111.328125
206,107.421875
207,109.375000
208,107.421875
209,105.468750
210,105.468750
211,109.375000
212,105.468750
213,109.375000
214,99.609375
215,107.421875
216,111.328125
217,109.375000
218,107.421875
219,111.328125
220,111.328125
221,105.468750
222,109.375000
223,105.468750
224,107.421875
225,111.328125
226,109.375000
227,115.234375
228,115.234375
229,111.328125
230,111.328125
231,109.375000
232,105.468750
233,111.328125
234,105.468750
235,107.421875
236,107.421875
237,107.421875
238,107.421875
239,107.421875
240,105.468750
241,103.515625
242,109.375000
243,107.421875
244,103.515625
245,107.421875
246,111.328125
247,105.468750
248,107.421875
249,105.468750
250,107.421875
251,109.375000
252,107.421875
253,105.468750
254,105.468750
255,103.515625
256,111.328125
257,107.421875
258,105.468750
259,105.468750
260,105.468750
261,107.421875
262,101.562500
263,101.562500
264,99.609375
265,105.468750
266,93.750000
267,97.656250
268,103.515625
269,101.562500
270,103.515625
271,105.468750
272,107.421875
273,109.375000
274,109.375000
275,103.515625
276,103.515625
277,103.515625
278,103.515625
279,105.468750
280,105.468750
281,103.515625
282,107.421875
283,105.468750
284,105.468750
285,103.515625
286,105.468750
287,105.468750
288,99.609375
289,105.468750
290,105.468750
291,105.468750
292,103.515625
293,111.328125
294,103.515625
295,103.515625
296,103.515625
297,101.562500
298,103.515625
299,99.609375
300,99.609375
301,103.515625
302,103.515625
303,101.562500
304,99.609375
305,95.703125
306,99.609375
307,99.609375
308,99.609375
309,95.703125
310,99.609375
311,95.703125
312,95.703125
313,91.796875
314,93.750000
315,89.843750
316,91.796875
317,97.656250
318,99.609375
319,97.656250
320,105.468750
321,95.703125
322,91.796875
323,93.750000
324,89.843750
325,93.750000
326,95.703125
327,99.609375
328,99.609375
329,99.609375
330,91.796875
331,95.703125
332,99.609375
333,89.843750
334,93.750000
335,93.750000
336,95.703125
337,93.750000
338,93.750000
339,97.656250
340,99.609375
341,99.609375
342,93.750000
343,91.796875
344,95.703125
345,95.703125
346,93.750000
347,91.796875
348,95.703125
349,99.609375
350,99.609375
351,95.703125
352,99.609375
353,93.750000
354,99.609375
355,93.750000
356,91.796875
357,93.750000
358,95.703125
359,95.703125
360,95.703125
361,95.703125
362,93.750000
363,95.703125
364,93.750000
365,95.703125
366,99.609375
367,95.703125
368,91.796875
369,95.703125
370,99.609375
371,95.703125
372,99.609375
373,95.703125
374,99.609375
375,103.515625
376,95.703125
377,95.703125
378,99.609375
379,95.703125
380,97.656250
381,91.796875
382,93.750000
383,95.703125
384,99.609375
385,99.609375
386,95.703125
387,97.656250
388,95.703125
389,95.703125
390,95.703125
391,99.609375
392,105.468750
393,99.609375
394,95.703125
395,95.703125
396,95.703125
397,99.609375
398,99.609375
399,93.750000
400,95.703125
401,99.609375
402,95.703125
403,99.609375
404,99.609375
405,91.796875
406,99.609375
407,99.609375
408,93.750000
409,91.796875
410,93.750000
411,95.703125
412,95.703125
413,99.609375
414,91.796875
415,99.609375
416,93.750000
417,95.703125
418,99.609375
419,97.656250
420,95.703125
421,91.796875
422,95.703125
423,93.750000
424,95.703125
425,95.703125
426,97.656250
427,99.609375
428,95.703125
429,99.609375
430,95.703125
431,101.562500
432,99.609375
433,101.562500
434,97.656250
435,95.703125
436,99.609375
437,99.609375
438,95.703125
439,99.609375
440,103.515625
441,99.609375
442,95.703125
443,101.562500
444,101.562500
445,97.656250
446,91.796875
447,99.609375
448,99.609375
449,95.703125
450,95.703125
451,99.609375
452,95.703125
453,89.843750
454,97.656250
455,93.750000
456,97.656250
457,99.609375
458,95.703125
459,95.703125
460,99.609375
461,95.703125
462,95.703125
463,99.609375
464,95.703125
465,99.609375
466,95.703125
467,95.703125
468,95.703125
469,95.703125
470,99.609375
471,95.703125
472,95.703125
473,99.609375
474,99.609375
475,101.562500
476,101.562500
477,99.609375
478,99.609375
479,101.562500
480,93.750000
481,99.609375
482,103.515625
483,99.609375
484,101.562500
485,103.515625
486,101.562500
487,99.609375
488,99.609375
489,99.609375
490,103.515625
491,105.468750
492,103.515625
493,95.703125
494,97.656250
495,99.609375
496,105.468750
497,99.609375
498,101.562500
499,99.609375
500,105.468750
501,101.562500
502,95.703125
503,95.703125
504,103.515625
505,101.562500
506,101.562500
507,107.421875
508,97.656250
509,101.562500
510,99.609375
511,95.703125
512,97.656250
513,107.421875
514,99.609375
515,95.703125
516,101.562500
517,99.609375
518,101.562500
519,99.609375
520,105.468750
521,103.515625
522,105.468750
523,101.562500
524,99.609375
525,101.562500
526,101.562500
527,101.562500
528,103.515625
529,103.515625
530,101.562500
531,103.515625
532,101.562500
533,99.609375
534,107.421875
535,103.515625
536,101.562500
537,99.609375
538,103.515625
539,103.515625
540,103.515625
541,101.562500
542,99.609375
543,109.375000
544,101.562500
545,99.609375
546,101.562500
547,101.562500
548,103.515625
549,95.703125
550,95.703125
551,103.515625
552,103.515625
553,103.515625
554,101.562500
555,99.609375
556,105.468750
557,99.609375
558,105.468750
559,99.609375
560,101.562500
561,107.421875
562,101.562500
563,101.562500
564,101.562500
565,101.562500
566,107.421875
567,101.562500
568,103.515625
569,101.562500
570,97.656250
571,99.609375
572,99.609375
573,95.703125
574,107.421875
575,107.421875
576,103.515625
577,105.468750
578,99.609375
579,95.703125
580,105.468750
581,95.703125
582,103.515625
583,105.468750
584,105.468750
585,101.562500
586,105.468750
587,101.562500
588,105.468750
589,101.562500
590,107.421875
591,99.609375
592,99.609375
593,103.515625
594,101.562500
595,105.468750
596,101.562500
597,101.562500
598,107.421875
599,107.421875
600,101.562500
601,101.562500
602,101.562500
603,107.421875
604,101.562500
605,99.609375
606,101.562500
607,99.609375
608,99.609375
609,99.609375
610,101.562500
611,101.562500
612,105.468750
613,99.609375
614,99.609375
615,97.656250
616,103.515625
617,105.468750
618,101.562500
619,103.515625
620,105.468750
621,107.421875
622,99.609375
623,115.234375
624,105.468750
625,105.468750
626,105.468750
627,103.515625
628,103.515625
629,109.375000
630,101.562500
631,109.375000
632,107.421875
633,101.562500
634,105.468750
635,103.515625
636,105.468750
637,105.468750
638,107.421875
639,101.562500
640,107.421875
641,105.468750
642,111.328125
643,105.468750
644,101.562500
645,99.609375
646,107.421875
647,101.562500
648,105.468750
649,101.562500
650,103.515625
651,109.375000
652,97.656250
653,97.656250
654,99.609375
655,99.609375
656,103.515625
657,95.703125
658,107.421875
659,103.515625
660,103.515625
661,103.515625
662,101.562500
663,97.656250
664,103.515625
665,103.515625
666,107.421875
667,103.515625
668,101.562500
669,103.515625
670,101.562500
671,99.609375
672,103.515625
673,97.656250
674,99.609375
675,105.468750
676,107.421875
677,107.421875
678,107.421875
679,107.421875
680,105.468750
681,105.468750
682,105.468750
683,107.421875
684,103.515625
685,105.468750
686,105.468750
687,105.468750
688,107.421875
689,107.421875
690,101.562500
691,103.515625
692,99.609375
693,111.328125
694,101.562500
695,101.562500
696,101.562500
697,103.515625
698,103.515625
699,105.468750
700,99.609375
701,111.328125
702,105.468750
703,101.562500
704,101.562500
705,97.656250
706,105.468750
707,95.703125
708,107.421875
709,105.468750
710,101.562500
711,99.609375
712,107.421875
713,101.562500
714,95.703125
715,107.421875
716,99.609375
717,95.703125
718,107.421875
719,93.750000
720,105.468750
721,105.468750
722,103.515625
723,103.515625
724,107.421875
725,103.515625
726,103.515625
727,105.468750
728,101.562500
729,105.468750
730,107.421875
731,103.515625
732,109.375000
733,107.421875
734,105.468750
735,105.468750
736,107.421875
737,105.468750
738,109.375000
739,105.468750
740,105.468750
741,107.421875
742,105.468750
743,103.515625
744,103.515625
745,107.421875
746,101.562500
747,99.609375
748,103.515625
749,107.421875
750,103.515625
751,105.468750
752,95.703125
753,107.421875
754,107.421875
755,91.796875
756,101.562500
757,105.468750
758,107.421875
759,99.609375
760,101.562500
761,101.562500
762,99.609375
763,99.609375
764,101.562500
765,101.562500
766,101.562500
767,101.562500
768,101.562500
769,101.562500
770,107.421875
771,103.515625
772,99.609375
773,103.515625
774,99.609375
775,101.562500
776,107.421875
777,101.562500
778,101.562500
779,109.375000
780,101.562500
781,101.562500
782,101.562500
783,99.609375
784,105.468750
785,103.515625
786,105.468750
787,105.468750
788,105.468750
789,105.468750
790,101.562500
791,101.562500
792,109.375000
793,105.468750
794,97.656250
795,99.609375
796,103.515625
797,105.468750
798,95.703125
799,99.609375
800,103.515625
801,107.421875
802,105.468750
803,99.609375
804,99.609375
805,95.703125
806,103.515625
807,105.468750
808,103.515625
809,103.515625
810,103.515625
811,101.562500
812,99.609375
813,103.515625
814,107.421875
815,101.562500
816,97.656250
817,99.609375
818,99.609375
819,101.562500
820,101.562500
821,99.609375
822,105.468750
823,105.468750
824,105.468750
825,103.515625
826,95.703125
827,99.609375
828,105.468750
829,101.562500
830,105.468750
831,105.468750
832,101.562500
833,101.562500
834,105.468750
835,103.515625
836,105.468750
837,101.562500
838,105.468750
839,105.468750
840,105.468750
841,107.421875
842,101.562500
843,105.468750
844,103.515625
845,105.468750
846,101.562500
847,103.515625
848,109.375000
849,109.375000
850,99.609375
851,101.562500
852,99.609375
853,109.375000
854,107.421875
855,103.515625
856,99.609375
857,101.562500
858,99.609375
859,99.609375
860,101.562500
861,99.609375
862,101.562500
863,103.515625
864,99.609375
865,103.515625
866,103.515625
867,99.609375
868,103.515625
869,105.468750
870,107.421875
871,101.562500
872,103.515625
873,101.562500
874,105.468750
875,103.515625
876,101.562500
877,105.468750
878,105.468750
879,109.375000
880,103.515625
881,101.562500
882,103.515625
883,101.562500
884,101.562500
885,103.515625
886,107.421875
887,105.468750
888,111.328125
889,99.609375
890,105.468750
891,105.468750
892,103.515625
893,101.562500
894,103.515625
895,111.328125
896,107.421875
897,99.609375
898,101.562500
899,105.468750
900,103.515625
901,105.468750
902,97.656250
903,101.562500
904,105.468750
905,103.515625
906,105.468750
907,97.656250
908,103.515625
909,99.609375
910,101.562500
911,103.515625
912,103.515625
913,105.468750
914,105.468750
915,101.562500
916,103.515625
917,105.468750
918,99.609375
919,95.703125
920,109.375000
921,99.609375
922,99.609375
923,107.421875
924,107.421875
925,107.421875
926,109.375000
927,109.375000
928,107.421875
929,107.421875
930,101.562500
931,99.609375
932,105.468750
933,105.468750
934,107.421875
935,107.421875
936,105.468750
937,101.562500
938,101.562500
939,103.515625
940,105.468750
941,107.421875
942,107.421875
943,107.421875
944,105.468750
945,101.562500
946,103.515625
947,103.515625
948,111.328125
949,111.328125
950,101.562500
951,105.468750
952,107.421875
953,107.421875
954,99.609375
955,99.609375
956,111.328125
957,101.562500
958,93.750000
959,101.562500
960,107.421875
961,107.421875
962,107.421875
963,107.421875
964,105.468750
965,103.515625
966,105.468750
967,101.562500
968,103.515625
969,105.468750
970,107.421875
971,99.609375
972,103.515625
973,103.515625
974,101.562500
975,107.421875
976,101.562500
977,103.515625
978,105.468750
979,107.421875
980,107.421875
981,107.421875
982,107.421875
983,113.281250
984,107.421875
985,117.187500
986,107.421875
987,107.421875
988,103.515625
989,107.421875
990,109.375000
991,105.468750
992,105.468750
993,107.421875
994,109.375000
995,107.421875
996,103.515625
997,103.515625
998,111.328125
999,105.468750
1000,105.468750
1001,107.421875
1002,103.515625
1003,111.328125
1004,107.421875
1005,105.468750
1006,105.468750
1007,107.421875
1008,107.421875
1009,107.421875
1010,111.328125
1011,109.375000
1012,105.468750
1013,109.375000
1014,109.375000
1015,109.375000
1016,107.421875
1017,107.421875
1018,111.328125
1019,105.468750
1020,105.468750
1021,99.609375
1022,111.328125
1023,105.468750
1024,115.234375
1025,111.328125
1026,109.375000
1027,111.328125
1028,115.234375
1029,111.328125
1030,109.375000
1031,107.421875
1032,109.375000
1033,115.234375
1034,109.375000
1035,111.328125
1036,109.375000
1037,111.328125
1038,107.421875
1039,115.234375
1040,111.328125
1041,111.328125
1042,111.328125
1043,107.421875
1044,107.421875
1045,115.234375
1046,123.046875
1047,109.375000
1048,107.421875
1049,107.421875
1050,109.375000
1051,109.375000
1052,105.468750
1053,103.515625
1054,105.468750
1055,111.328125
1056,107.421875
1057,105.468750
1058,103.515625
1059,105.468750
1060,107.421875
1061,103.515625
1062,107.421875
1063,107.421875
1064,111.328125
1065,105.468750
1066,107.421875
1067,107.421875
1068,109.375000
1069,103.515625
1070,109.375000
1071,105.468750
1072,105.468750
1073,107.421875
1074,107.421875
1075,105.468750
1076,109.375000
1077,105.468750
1078,105.468750
1079,111.328125
1080,107.421875
1081,109.375000
1082,111.328125
1083,107.421875
1084,105.468750
1085,107.421875
1086,105.468750
1087,107.421875
1088,109.375000
1089,107.421875
1090,107.421875
1091,105.468750
1092,107.421875
1093,109.375000
1094,105.468750
1095,103.515625
1096,105.468750
1097,107.421875
1098,105.468750
1099,105.468750
1100,101.562500
1101,105.468750
1102,107.421875
1103,103.515625
1104,97.656250
1105,103.515625
1106,107.421875
1107,109.375000
1108,105.468750
1109,103.515625
1110,107.421875
1111,107.421875
1112,103.515625
1113,99.609375
1114,105.468750
1115,103.515625
1116,107.421875
1117,103.515625
1118,99.609375
1119,105.468750
1120,97.656250
1121,103.515625
1122,103.515625
1123,101.562500
1124,99.609375
1125,99.609375
1126,103.515625
1127,103.515625
1128,99.609375
1129,97.656250
1130,101.562500
1131,105.468750
1132,103.515625
1133,99.609375
1134,107.421875
1135,103.515625
1136,103.515625
1137,105.468750
1138,107.421875
1139,109.375000
1140,111.328125
1141,101.562500
1142,103.515625
1143,95.703125
1144,105.468750
1145,105.468750
1146,101.562500
1147,99.609375
1148,99.609375
1149,101.562500
1150,99.609375
1151,99.609375
1152,95.703125
1153,99.609375
1154,99.609375
1155,99.609375
1156,97.656250
1157,101.562500
1158,101.562500
1159,101.562500
1160,99.609375
1161,95.703125
1162,99.609375
1163,99.609375
1164,99.609375
1165,101.562500
1166,101.562500
1167,95.703125
1168,111.328125
1169,101.562500
1170,103.515625
1171,107.421875
1172,105.468750
1173,105.468750
1174,103.515625
1175,101.562500
1176,103.515625
1177,105.468750
1178,101.562500
1179,105.468750
1180,103.515625
1181,109.375000
1182,103.515625
1183,105.468750
1184,105.468750
1185,101.562500
1186,105.468750
1187,107.421875
1188,103.515625
1189,105.468750
1190,105.468750
1191,103.515625
1192,107.421875
1193,101.562500
1194,95.703125
1195,101.562500
1196,107.421875
1197,99.609375
1198,101.562500
1199,101.562500
1200,99.609375
1201,101.562500
1202,97.656250
1203,95.703125
1204,101.562500
1205,99.609375
1206,101.562500
1207,95.703125
1208,93.750000
1209,101.562500
1210,99.609375
1211,99.609375
1212,101.562500
1213,93.750000
1214,95.703125
1215,97.656250
1216,95.703125
1217,103.515625
1218,101.562500
1219,101.562500
1220,95.703125
1221,99.609375
1222,91.796875
1223,99.609375
1224,99.609375
1225,99.609375
1226,101.562500
1227,103.515625
1228,103.515625
1229,103.515625
1230,99.609375
1231,101.562500
1232,101.562500
1233,99.609375
1234,101.562500
1235,101.562500
1236,107.421875
1237,101.562500
1238,101.562500
1239,109.375000
1240,99.609375
1241,95.703125
1242,95.703125
1243,107.421875
1244,105.468750
1245,101.562500
1246,99.609375
1247,103.515625
1248,105.468750
1249,99.609375
1250,95.703125
1251,97.656250
1252,95.703125
1253,103.515625
1254,99.609375
1255,99.609375
1256,99.609375
1257,97.656250
1258,105.468750
1259,99.609375
1260,99.609375
1261,97.656250
1262,99.609375
1263,99.609375
1264,99.609375
1265,95.703125
1266,101.562500
1267,99.609375
1268,95.703125
1269,99.609375
1270,99.609375
1271,99.609375
1272,101.562500
1273,101.562500
1274,101.562500
1275,103.515625
1276,101.562500
1277,95.703125
1278,101.562500
1279,95.703125
1280,101.562500
1281,105.468750
1282,101.562500
1283,103.515625
1284,103.515625
1285,103.515625
1286,103.515625
1287,101.562500
1288,97.656250
1289,105.468750
1290,105.468750
1291,99.609375
1292,99.609375
1293,101.562500
1294,99.609375
1295,103.515625
1296,99.609375
1297,95.703125
1298,103.515625
1299,101.562500
1300,103.515625
1301,89.843750
1302,99.609375
1303,99.609375
1304,105.468750
1305,99.609375
1306,95.703125
1307,95.703125
1308,101.562500
1309,101.562500
1310,95.703125
1311,101.562500
1312,99.609375
1313,103.515625
1314,91.796875
1315,99.609375
1316,99.609375
1317,93.750000
1318,103.515625
1319,105.468750
1320,99.609375
1321,101.562500
1322,103.515625
1323,97.656250
1324,105.468750
1325,99.609375
1326,105.468750
1327,105.468750
1328,99.609375
