時系列データ/data/段ボール2.csv

Channel              :,CH1
Frequency            :,  ?
Period               :,  ?
PK-PK                :,72.27mV
Probe attenuation    :,10X
Voltage per ADC value:,0.122070mV
Time interval        :,400.00000us

index,CH1_Voltage(mV)
1,113.281250
2,113.281250
3,109.375000
4,115.234375
5,119.140625
6,115.234375
7,111.328125
8,111.328125
9,111.328125
10,113.281250
11,115.234375
12,119.140625
13,121.093750
14,121.093750
15,119.140625
16,119.140625
17,119.140625
18,117.187500
19,117.187500
20,121.093750
21,119.140625
22,117.187500
23,115.234375
24,119.140625
25,123.046875
26,121.093750
27,115.234375
28,117.187500
29,121.093750
30,123.046875
31,117.187500
32,117.187500
33,130.859375
34,123.046875
35,117.187500
36,113.281250
37,121.093750
38,119.140625
39,121.093750
40,121.093750
41,117.187500
42,119.140625
43,119.140625
44,113.281250
45,115.234375
46,117.187500
47,119.140625
48,123.046875
49,115.234375
50,123.046875
51,121.093750
52,123.046875
53,117.187500
54,121.093750
55,119.140625
56,119.140625
57,121.093750
58,117.187500
59,119.140625
60,115.234375
61,111.328125
62,111.328125
63,111.328125
64,107.421875
65,111.328125
66,105.468750
67,103.515625
68,103.515625
69,103.515625
70,101.562500
71,105.468750
72,103.515625
73,103.515625
74,97.656250
75,103.515625
76,101.562500
77,99.609375
78,95.703125
79,99.609375
80,101.562500
81,101.562500
82,103.515625
83,99.609375
84,95.703125
85,103.515625
86,101.562500
87,95.703125
88,97.656250
89,95.703125
90,101.562500
91,95.703125
92,101.562500
93,101.562500
94,103.515625
95,101.562500
96,99.609375
97,99.609375
98,99.609375
99,95.703125
100,101.562500
101,99.609375
102,101.562500
103,99.609375
104,101.562500
105,105.468750
106,103.515625
107,101.562500
108,103.515625
109,103.515625
110,95.703125
111,107.421875
112,101.562500
113,105.468750
114,103.515625
115,99.609375
116,103.515625
117,103.515625
118,103.515625
119,107.421875
120,101.562500
121,99.609375
122,105.468750
123,99.609375
124,105.468750
125,107.421875
126,99.609375
127,103.515625
128,107.421875
129,105.468750
130,99.609375
131,99.609375
132,107.421875
133,107.421875
134,101.562500
135,101.562500
136,107.421875
137,111.328125
138,111.328125
139,107.421875
140,107.421875
141,109.375000
142,107.421875
143,111.328125
144,105.468750
145,115.234375
146,111.328125
147,111.328125
148,117.187500
149,123.046875
150,121.093750
151,123.046875
152,126.953125
153,123.046875
154,123.046875
155,123.046875
156,119.140625
157,125.000000
158,123.046875
159,125.000000
160,126.953125
161,123.046875
162,126.953125
163,130.859375
164,126.953125
165,130.859375
166,125.000000
167,130.859375
168,126.953125
169,126.953125
170,123.046875
171,126.953125
172,123.046875
173,115.234375
174,121.093750
175,119.140625
176,115.234375
177,111.328125
178,113.281250
179,117.187500
180,119.140625
181,111.328125
182,111.328125
183,115.234375
184,121.093750
185,119.140625
186,111.328125
187,111.328125
188,123.046875
189,111.328125
190,111.328125
191,115.234375
192,111.328125
193,105.468750
194,107.421875
195,99.609375
196,101.562500
197,103.515625
198,105.468750
199,99.609375
200,105.468750
201,103.515625
202,99.609375
203,101.562500
204,107.421875
205,105.468750
206,107.421875
207,99.609375
208,99.609375
209,101.562500
210,99.609375
211,99.609375
212,101.562500
213,101.562500
214,101.562500
215,105.468750
216,103.515625
217,105.468750
218,103.515625
219,105.468750
220,101.562500
221,105.468750
222,105.468750
223,109.375000
224,101.562500
225,103.515625
226,105.468750
227,109.375000
228,101.562500
229,101.562500
230,101.562500
231,99.609375
232,105.468750
233,101.562500
234,95.703125
235,101.562500
236,107.421875
237,91.796875
238,95.703125
239,93.750000
240,101.562500
241,103.515625
242,99.609375
243,99.609375
244,97.656250
245,101.562500
246,97.656250
247,101.562500
248,99.609375
249,105.468750
250,109.375000
251,99.609375
252,109.375000
253,111.328125
254,107.421875
255,107.421875
256,109.375000
257,109.375000
258,111.328125
259,115.234375
260,113.281250
261,115.234375
262,117.187500
263,111.328125
264,115.234375
265,113.281250
266,121.093750
267,119.140625
268,121.093750
269,121.093750
270,121.093750
271,121.093750
272,119.140625
273,126.953125
274,125.000000
275,123.046875
276,121.093750
277,123.046875
278,123.046875
279,126.953125
280,123.046875
281,119.140625
282,125.000000
283,126.953125
284,121.093750
285,123.046875
286,123.046875
287,125.000000
288,126.953125
289,123.046875
290,123.046875
291,126.953125
292,125.000000
293,125.000000
294,123.046875
295,126.953125
296,123.046875
297,121.093750
298,130.859375
299,126.953125
300,125.000000
301,126.953125
302,130.859375
303,119.140625
304,132.812500
305,138.671875
306,138.671875
307,134.765625
308,138.671875
309,134.765625
310,130.859375
311,136.718750
312,132.812500
313,142.578125
314,136.718750
315,136.718750
316,142.578125
317,146.484375
318,138.671875
319,142.578125
320,140.625000
321,142.578125
322,140.625000
323,136.718750
324,144.531250
325,142.578125
326,142.578125
327,142.578125
328,138.671875
329,142.578125
330,146.484375
331,144.531250
332,138.671875
333,138.671875
334,138.671875
335,146.484375
336,138.671875
337,140.625000
338,140.625000
339,142.578125
340,146.484375
341,140.625000
342,142.578125
343,142.578125
344,142.578125
345,146.484375
346,142.578125
347,142.578125
348,142.578125
349,138.671875
350,144.531250
351,142.578125
352,140.625000
353,142.578125
354,146.484375
355,138.671875
356,138.671875
357,142.578125
358,138.671875
359,146.484375
360,142.578125
361,142.578125
362,146.484375
363,146.484375
364,142.578125
365,142.578125
366,146.484375
367,142.578125
368,142.578125
369,142.578125
370,142.578125
371,142.578125
372,142.578125
373,146.484375
374,142.578125
375,138.671875
376,140.625000
377,144.531250
378,140.625000
379,138.671875
380,142.578125
381,140.625000
382,146.484375
383,138.671875
384,136.718750
385,140.625000
386,142.578125
387,140.625000
388,138.671875
389,138.671875
390,140.625000
391,140.625000
392,140.625000
393,138.671875
394,138.671875
395,132.812500
396,140.625000
397,140.625000
398,140.625000
399,138.671875
400,142.578125
401,138.671875
402,138.671875
403,138.671875
404,132.812500
405,138.671875
406,138.671875
407,138.671875
408,146.484375
409,140.625000
410,138.671875
411,140.625000
412,134.765625
413,134.765625
414,138.671875
415,136.718750
416,138.671875
417,138.671875
418,136.718750
419,138.671875
420,138.671875
421,134.765625
422,130.859375
423,128.906250
424,134.765625
425,130.859375
426,123.046875
427,126.953125
428,126.953125
429,126.953125
430,126.953125
431,123.046875
432,123.046875
433,125.000000
434,121.093750
435,119.140625
436,115.234375
437,111.328125
438,121.093750
439,115.234375
440,113.281250
441,115.234375
442,115.234375
443,111.328125
444,117.187500
445,115.234375
446,115.234375
447,107.421875
448,107.421875
449,109.375000
450,93.750000
451,107.421875
452,111.328125
453,105.468750
454,111.328125
455,109.375000
456,105.468750
457,111.328125
458,101.562500
459,105.468750
460,107.421875
461,107.421875
462,111.328125
463,111.328125
464,115.234375
465,107.421875
466,109.375000
467,111.328125
468,109.375000
469,111.328125
470,109.375000
471,111.328125
472,111.328125
473,105.468750
474,107.421875
475,111.328125
476,111.328125
477,109.375000
478,103.515625
479,103.515625
480,107.421875
481,103.515625
482,101.562500
483,101.562500
484,103.515625
485,111.328125
486,107.421875
487,99.609375
488,101.562500
489,101.562500
490,101.562500
491,99.609375
492,95.703125
493,103.515625
494,99.609375
495,105.468750
496,99.609375
497,103.515625
498,103.515625
499,91.796875
500,107.421875
501,105.468750
502,101.562500
503,103.515625
504,101.562500
505,103.515625
506,101.562500
507,105.468750
508,105.468750
509,107.421875
510,101.562500
511,103.515625
512,105.468750
513,103.515625
514,107.421875
515,105.468750
516,107.421875
517,107.421875
518,107.421875
519,99.609375
520,99.609375
521,105.468750
522,111.328125
523,111.328125
524,109.375000
525,105.468750
526,107.421875
527,111.328125
528,109.375000
529,109.375000
530,111.328125
531,107.421875
532,107.421875
533,111.328125
534,111.328125
535,111.328125
536,105.468750
537,113.281250
538,111.328125
539,105.468750
540,105.468750
541,107.421875
542,107.421875
543,109.375000
544,111.328125
545,103.515625
546,111.328125
547,107.421875
548,93.750000
549,107.421875
550,109.375000
551,107.421875
552,109.375000
553,111.328125
554,115.234375
555,115.234375
556,117.187500
557,115.234375
558,115.234375
559,117.187500
560,113.281250
561,121.093750
562,123.046875
563,121.093750
564,123.046875
565,115.234375
566,123.046875
567,119.140625
568,121.093750
569,121.093750
570,121.093750
571,121.093750
572,115.234375
573,121.093750
574,123.046875
575,125.000000
576,117.187500
577,121.093750
578,115.234375
579,111.328125
580,115.234375
581,107.421875
582,107.421875
583,119.140625
584,115.234375
585,115.234375
586,109.375000
587,109.375000
588,115.234375
589,111.328125
590,111.328125
591,109.375000
592,111.328125
593,109.375000
594,111.328125
595,109.375000
596,111.328125
597,105.468750
598,115.234375
599,113.281250
600,111.328125
601,109.375000
602,111.328125
603,107.421875
604,111.328125
605,111.328125
606,105.468750
607,115.234375
608,115.234375
609,113.281250
610,115.234375
611,119.140625
612,107.421875
613,115.234375
614,107.421875
615,111.328125
616,111.328125
617,109.375000
618,111.328125
619,117.187500
620,107.421875
621,115.234375
622,115.234375
623,107.421875
624,111.328125
625,111.328125
626,117.187500
627,111.328125
628,111.328125
629,115.234375
630,121.093750
631,115.234375
632,117.187500
633,115.234375
634,115.234375
635,123.046875
636,115.234375
637,119.140625
638,117.187500
639,115.234375
640,121.093750
641,119.140625
642,117.187500
643,121.093750
644,121.093750
645,123.046875
646,119.140625
647,121.093750
648,121.093750
649,117.187500
650,121.093750
651,121.093750
652,121.093750
653,123.046875
654,125.000000
655,123.046875
656,126.953125
657,126.953125
658,123.046875
659,125.000000
660,123.046875
661,123.046875
662,130.859375
663,123.046875
664,128.906250
665,125.000000
666,126.953125
667,125.000000
668,126.953125
669,126.953125
670,126.953125
671,125.000000
672,125.000000
673,126.953125
674,126.953125
675,123.046875
676,125.000000
677,132.812500
678,126.953125
679,125.000000
680,121.093750
681,123.046875
682,126.953125
683,123.046875
684,126.953125
685,121.093750
686,121.093750
687,119.140625
688,126.953125
689,119.140625
690,119.140625
691,115.234375
692,117.187500
693,119.140625
694,117.187500
695,111.328125
696,117.187500
697,115.234375
698,111.328125
699,119.140625
700,117.187500
701,115.234375
702,123.046875
703,119.140625
704,115.234375
705,117.187500
706,115.234375
707,115.234375
708,115.234375
709,115.234375
710,117.187500
711,119.140625
712,111.328125
713,115.234375
714,117.187500
715,115.234375
716,119.140625
717,115.234375
718,115.234375
719,115.234375
720,119.140625
721,119.140625
722,121.093750
723,117.187500
724,121.093750
725,121.093750
726,119.140625
727,115.234375
728,117.187500
729,123.046875
730,121.093750
731,115.234375
732,115.234375
733,123.046875
734,117.187500
735,119.140625
736,115.234375
737,119.140625
738,121.093750
739,117.187500
740,119.140625
741,119.140625
742,117.187500
743,119.140625
744,115.234375
745,117.187500
746,117.187500
747,115.234375
748,111.328125
749,109.375000
750,109.375000
751,107.421875
752,107.421875
753,107.421875
754,111.328125
755,109.375000
756,111.328125
757,111.328125
758,111.328125
759,111.328125
760,109.375000
761,109.375000
762,111.328125
763,115.234375
764,113.281250
765,115.234375
766,115.234375
767,115.234375
768,113.281250
769,115.234375
770,117.187500
771,115.234375
772,115.234375
773,115.234375
774,111.328125
775,115.234375
776,115.234375
777,119.140625
778,117.187500
779,115.234375
780,119.140625
781,111.328125
782,115.234375
783,111.328125
784,115.234375
785,115.234375
786,117.187500
787,113.281250
788,117.187500
789,123.046875
790,115.234375
791,115.234375
792,117.187500
793,115.234375
794,117.187500
795,115.234375
796,121.093750
797,115.234375
798,119.140625
799,117.187500
800,121.093750
801,117.187500
802,123.046875
803,123.046875
804,121.093750
805,117.187500
806,121.093750
807,119.140625
808,121.093750
809,125.000000
810,117.187500
811,123.046875
812,126.953125
813,121.093750
814,121.093750
815,125.000000
816,123.046875
817,123.046875
818,123.046875
819,123.046875
820,119.140625
821,123.046875
822,119.140625
823,121.093750
824,126.953125
825,123.046875
826,121.093750
827,125.000000
828,123.046875
829,123.046875
830,121.093750
831,121.093750
832,123.046875
833,126.953125
834,123.046875
835,123.046875
836,119.140625
837,121.093750
838,117.187500
839,119.140625
840,117.187500
841,121.093750
842,121.093750
843,121.093750
844,123.046875
845,117.187500
846,125.000000
847,121.093750
848,125.000000
849,123.046875
850,123.046875
851,117.187500
852,123.046875
853,121.093750
854,119.140625
855,125.000000
856,123.046875
857,125.000000
858,125.000000
859,125.000000
860,121.093750
861,125.000000
862,115.234375
863,123.046875
864,125.000000
865,123.046875
866,125.000000
867,125.000000
868,123.046875
869,119.140625
870,126.953125
871,123.046875
872,123.046875
873,121.093750
874,125.000000
875,126.953125
876,125.000000
877,121.093750
878,121.093750
879,123.046875
880,126.953125
881,121.093750
882,123.046875
883,121.093750
884,125.000000
885,125.000000
886,121.093750
887,121.093750
888,123.046875
889,123.046875
890,121.093750
891,123.046875
892,121.093750
893,123.046875
894,121.093750
895,126.953125
896,123.046875
897,123.046875
898,125.000000
899,121.093750
900,121.093750
901,123.046875
902,125.000000
903,121.093750
904,123.046875
905,123.046875
906,121.093750
907,123.046875
908,119.140625
909,123.046875
910,123.046875
911,117.187500
912,123.046875
913,126.953125
914,123.046875
915,123.046875
916,123.046875
917,125.000000
918,119.140625
919,123.046875
920,117.187500
921,121.093750
922,123.046875
923,123.046875
924,123.046875
925,123.046875
926,121.093750
927,123.046875
928,121.093750
929,117.187500
930,123.046875
931,117.187500
932,121.093750
933,119.140625
934,115.234375
935,123.046875
936,119.140625
937,119.140625
938,117.187500
939,121.093750
940,119.140625
941,121.093750
942,117.187500
943,121.093750
944,121.093750
945,117.187500
946,119.140625
947,123.046875
948,123.046875
949,119.140625
950,123.046875
951,121.093750
952,121.093750
953,117.187500
954,117.187500
955,115.234375
956,123.046875
957,121.093750
958,121.093750
959,121.093750
960,115.234375
961,115.234375
962,123.046875
963,119.140625
964,117.187500
965,117.187500
966,119.140625
967,125.000000
968,115.234375
969,117.187500
970,115.234375
971,115.234375
972,115.234375
973,115.234375
974,117.187500
975,119.140625
976,115.234375
977,119.140625
978,121.093750
979,117.187500
980,115.234375
981,115.234375
982,117.187500
983,117.187500
984,115.234375
985,111.328125
986,115.234375
987,119.140625
988,126.953125
989,111.328125
990,115.234375
991,115.234375
992,115.234375
993,115.234375
994,115.234375
995,111.328125
996,115.234375
997,115.234375
998,111.328125
999,115.234375
1000,115.234375
1001,115.234375
1002,119.140625
1003,115.234375
1004,111.328125
1005,119.140625
1006,115.234375
1007,115.234375
1008,115.234375
1009,111.328125
1010,115.234375
1011,119.140625
1012,117.187500
1013,117.187500
1014,117.187500
1015,111.328125
1016,107.421875
1017,117.187500
1018,115.234375
1019,115.234375
1020,117.187500
1021,115.234375
1022,117.187500
1023,103.515625
1024,119.140625
1025,115.234375
1026,115.234375
1027,115.234375
1028,109.375000
1029,113.281250
1030,119.140625
1031,111.328125
1032,111.328125
1033,115.234375
1034,115.234375
1035,119.140625
1036,111.328125
1037,109.375000
1038,115.234375
1039,115.234375
1040,111.328125
1041,115.234375
1042,115.234375
1043,115.234375
1044,103.515625
1045,111.328125
1046,115.234375
1047,115.234375
1048,119.140625
1049,115.234375
1050,111.328125
1051,115.234375
1052,115.234375
1053,111.328125
1054,119.140625
1055,109.375000
1056,111.328125
1057,117.187500
1058,115.234375
1059,115.234375
1060,119.140625
1061,115.234375
1062,115.234375
1063,115.234375
1064,115.234375
1065,117.187500
1066,115.234375
1067,115.234375
1068,109.375000
1069,115.234375
1070,115.234375
1071,115.234375
1072,121.093750
1073,117.187500
1074,115.234375
1075,109.375000
1076,111.328125
1077,117.187500
1078,115.234375
1079,115.234375
1080,115.234375
1081,113.281250
1082,115.234375
1083,111.328125
1084,111.328125
1085,115.234375
1086,115.234375
1087,115.234375
1088,111.328125
1089,109.375000
1090,117.187500
1091,115.234375
1092,115.234375
1093,109.375000
1094,111.328125
1095,109.375000
1096,111.328125
1097,113.281250
1098,111.328125
1099,109.375000
1100,115.234375
1101,115.234375
1102,115.234375
1103,115.234375
1104,113.281250
1105,111.328125
1106,115.234375
1107,115.234375
1108,111.328125
1109,115.234375
1110,109.375000
1111,115.234375
1112,115.234375
1113,115.234375
1114,113.281250
1115,115.234375
1116,115.234375
1117,115.234375
1118,119.140625
1119,115.234375
1120,117.187500
1121,121.093750
1122,117.187500
1123,115.234375
1124,121.093750
1125,117.187500
1126,117.187500
1127,119.140625
1128,119.140625
1129,121.093750
1130,121.093750
1131,115.234375
1132,117.187500
1133,121.093750
1134,123.046875
1135,123.046875
1136,115.234375
1137,121.093750
1138,123.046875
1139,123.046875
1140,123.046875
1141,123.046875
1142,123.046875
1143,123.046875
1144,123.046875
1145,117.187500
1146,123.046875
1147,123.046875
1148,126.953125
1149,125.000000
1150,126.953125
1151,119.140625
1152,125.000000
1153,121.093750
1154,119.140625
1155,123.046875
1156,117.187500
1157,123.046875
1158,123.046875
1159,123.046875
1160,119.140625
1161,121.093750
1162,117.187500
1163,117.187500
1164,121.093750
1165,115.234375
1166,121.093750
1167,121.093750
1168,111.328125
1169,109.375000
1170,107.421875
1171,109.375000
1172,107.421875
1173,103.515625
1174,101.562500
1175,103.515625
1176,105.468750
1177,103.515625
1178,101.562500
1179,95.703125
1180,105.468750
1181,101.562500
1182,99.609375
1183,99.609375
1184,99.609375
1185,107.421875
1186,101.562500
1187,95.703125
1188,101.562500
1189,99.609375
1190,99.609375
1191,99.609375
1192,101.562500
1193,101.562500
1194,99.609375
1195,99.609375
1196,101.562500
1197,95.703125
1198,103.515625
1199,101.562500
1200,99.609375
1201,97.656250
1202,95.703125
1203,99.609375
1204,105.468750
1205,105.468750
1206,101.562500
1207,107.421875
1208,95.703125
1209,101.562500
1210,101.562500
1211,101.562500
1212,107.421875
1213,103.515625
1214,105.468750
1215,101.562500
1216,107.421875
1217,101.562500
1218,103.515625
1219,101.562500
1220,105.468750
1221,101.562500
1222,103.515625
1223,101.562500
1224,103.515625
1225,99.609375
1226,101.562500
1227,107.421875
1228,103.515625
1229,101.562500
1230,105.468750
1231,107.421875
1232,111.328125
1233,109.375000
1234,109.375000
1235,111.328125
1236,119.140625
1237,119.140625
1238,117.187500
1239,111.328125
1240,119.140625
1241,126.953125
1242,123.046875
1243,126.953125
1244,125.000000
1245,132.812500
1246,126.953125
1247,126.953125
1248,125.000000
1249,126.953125
1250,132.812500
1251,126.953125
1252,130.859375
1253,126.953125
1254,130.859375
1255,130.859375
1256,128.906250
1257,132.812500
1258,130.859375
1259,136.718750
1260,132.812500
1261,136.718750
1262,138.671875
1263,132.812500
1264,134.765625
1265,138.671875
1266,136.718750
1267,138.671875
1268,138.671875
1269,138.671875
1270,134.765625
1271,138.671875
1272,136.718750
1273,130.859375
1274,134.765625
1275,138.671875
1276,134.765625
1277,136.718750
1278,138.671875
1279,138.671875
1280,142.578125
1281,130.859375
1282,136.718750
1283,138.671875
1284,134.765625
1285,132.812500
1286,128.906250
1287,138.671875
1288,138.671875
1289,134.765625
1290,138.671875
1291,132.812500
1292,132.812500
1293,132.812500
1294,130.859375
1295,132.812500
1296,132.812500
1297,132.812500
1298,130.859375
1299,130.859375
1300,130.859375
1301,126.953125
1302,132.812500
1303,132.812500
1304,128.906250
1305,136.718750
1306,136.718750
1307,130.859375
1308,132.812500
1309,130.859375
