時系列データ/data/段ボール.csv

Channel              :,CH1
Frequency            :,  ?
Period               :,  ?
PK-PK                :,64.45mV
Probe attenuation    :,10X
Voltage per ADC value:,0.122070mV
Time interval        :,400.00000us

index,CH1_Voltage(mV)
1,123.046875
2,123.046875
3,119.140625
4,125.000000
5,126.953125
6,121.093750
7,123.046875
8,125.000000
9,123.046875
10,123.046875
11,130.859375
12,126.953125
13,130.859375
14,126.953125
15,126.953125
16,126.953125
17,130.859375
18,126.953125
19,130.859375
20,134.765625
21,126.953125
22,134.765625
23,130.859375
24,130.859375
25,134.765625
26,130.859375
27,130.859375
28,134.765625
29,128.906250
30,126.953125
31,130.859375
32,126.953125
33,125.000000
34,123.046875
35,119.140625
36,123.046875
37,123.046875
38,117.187500
39,119.140625
40,121.093750
41,123.046875
42,123.046875
43,115.234375
44,111.328125
45,117.187500
46,119.140625
47,121.093750
48,111.328125
49,115.234375
50,115.234375
51,115.234375
52,117.187500
53,115.234375
54,111.328125
55,107.421875
56,107.421875
57,113.281250
58,111.328125
59,115.234375
60,115.234375
61,115.234375
62,109.375000
63,111.328125
64,109.375000
65,111.328125
66,115.234375
67,107.421875
68,111.328125
69,111.328125
70,111.328125
71,115.234375
72,115.234375
73,111.328125
74,111.328125
75,109.375000
76,111.328125
77,111.328125
78,111.328125
79,111.328125
80,113.281250
81,111.328125
82,107.421875
83,115.234375
84,117.187500
85,111.328125
86,111.328125
87,111.328125
88,109.375000
89,111.328125
90,107.421875
91,107.421875
92,115.234375
93,105.468750
94,111.328125
95,105.468750
96,111.328125
97,111.328125
98,109.375000
99,109.375000
100,107.421875
101,109.375000
102,111.328125
103,115.234375
104,109.375000
105,111.328125
106,111.328125
107,107.421875
108,107.421875
109,113.281250
110,107.421875
111,113.281250
112,111.328125
113,107.421875
114,109.375000
115,111.328125
116,111.328125
117,107.421875
118,111.328125
119,107.421875
120,111.328125
121,107.421875
122,113.281250
123,115.234375
124,111.328125
125,111.328125
126,109.375000
127,113.281250
128,105.468750
129,111.328125
130,111.328125
131,117.187500
132,99.609375
133,107.421875
134,107.421875
135,111.328125
136,107.421875
137,109.375000
138,107.421875
139,111.328125
140,109.375000
141,107.421875
142,111.328125
143,107.421875
144,111.328125
145,109.375000
146,115.234375
147,107.421875
148,105.468750
149,107.421875
150,111.328125
151,111.328125
152,113.281250
153,111.328125
154,109.375000
155,107.421875
156,105.468750
157,107.421875
158,113.281250
159,111.328125
160,109.375000
161,113.281250
162,107.421875
163,109.375000
164,107.421875
165,107.421875
166,105.468750
167,117.187500
168,109.375000
169,113.281250
170,107.421875
171,107.421875
172,115.234375
173,111.328125
174,111.328125
175,107.421875
176,109.375000
177,107.421875
178,109.375000
179,115.234375
180,107.421875
181,111.328125
182,109.375000
183,111.328125
184,111.328125
185,107.421875
186,109.375000
187,115.234375
188,105.468750
189,111.328125
190,154.296875
191,158.203125
192,154.296875
193,158.203125
194,158.203125
195,158.203125
196,158.203125
197,162.109375
198,158.203125
199,152.343750
200,158.203125
201,158.203125
202,156.250000
203,160.156250
204,158.203125
205,158.203125
206,162.109375
207,162.109375
208,156.250000
209,162.109375
210,162.109375
211,158.203125
212,162.109375
213,156.250000
214,162.109375
215,158.203125
216,158.203125
217,158.203125
218,162.109375
219,160.156250
220,162.109375
221,160.156250
222,164.062500
223,162.109375
224,158.203125
225,158.203125
226,162.109375
227,164.062500
228,162.109375
229,158.203125
230,162.109375
231,169.921875
232,162.109375
233,162.109375
234,152.343750
235,160.156250
236,162.109375
237,154.296875
238,154.296875
239,156.250000
240,158.203125
241,158.203125
242,158.203125
243,158.203125
244,156.250000
245,156.250000
246,156.250000
247,158.203125
248,162.109375
249,156.250000
250,158.203125
251,152.343750
252,156.250000
253,154.296875
254,152.343750
255,154.296875
256,154.296875
257,152.343750
258,154.296875
259,162.109375
260,154.296875
261,154.296875
262,146.484375
263,152.343750
264,150.390625
265,150.390625
266,152.343750
267,152.343750
268,152.343750
269,154.296875
270,152.343750
271,152.343750
272,146.484375
273,146.484375
274,154.296875
275,148.437500
276,154.296875
277,154.296875
278,154.296875
279,152.343750
280,154.296875
281,146.484375
282,148.437500
283,152.343750
284,150.390625
285,146.484375
286,148.437500
287,150.390625
288,150.390625
289,150.390625
290,146.484375
291,152.343750
292,150.390625
293,144.531250
294,152.343750
295,152.343750
296,152.343750
297,152.343750
298,154.296875
299,154.296875
300,152.343750
301,148.437500
302,152.343750
303,148.437500
304,156.250000
305,154.296875
306,154.296875
307,156.250000
308,156.250000
309,154.296875
310,154.296875
311,156.250000
312,158.203125
313,156.250000
314,156.250000
315,154.296875
316,162.109375
317,154.296875
318,156.250000
319,156.250000
320,156.250000
321,158.203125
322,154.296875
323,156.250000
324,154.296875
325,162.109375
326,154.296875
327,154.296875
328,154.296875
329,156.250000
330,160.156250
331,156.250000
332,152.343750
333,160.156250
334,154.296875
335,156.250000
336,156.250000
337,152.343750
338,154.296875
339,158.203125
340,162.109375
341,154.296875
342,154.296875
343,154.296875
344,154.296875
345,154.296875
346,152.343750
347,154.296875
348,156.250000
349,154.296875
350,156.250000
351,154.296875
352,154.296875
353,156.250000
354,146.484375
355,152.343750
356,154.296875
357,154.296875
358,154.296875
359,162.109375
360,160.156250
361,154.296875
362,158.203125
363,156.250000
364,152.343750
365,154.296875
366,152.343750
367,154.296875
368,158.203125
369,158.203125
370,156.250000
371,156.250000
372,158.203125
373,154.296875
374,158.203125
375,154.296875
376,154.296875
377,162.109375
378,156.250000
379,152.343750
380,154.296875
381,154.296875
382,154.296875
383,154.296875
384,154.296875
385,154.296875
386,162.109375
387,156.250000
388,152.343750
389,148.437500
390,156.250000
391,158.203125
392,154.296875
393,150.390625
394,152.343750
395,154.296875
396,148.437500
397,154.296875
398,148.437500
399,148.437500
400,150.390625
401,148.437500
402,148.437500
403,148.437500
404,150.390625
405,154.296875
406,150.390625
407,150.390625
408,150.390625
409,150.390625
410,150.390625
411,154.296875
412,148.437500
413,146.484375
414,150.390625
415,146.484375
416,146.484375
417,148.437500
418,146.484375
419,146.484375
420,142.578125
421,146.484375
422,142.578125
423,146.484375
424,146.484375
425,138.671875
426,130.859375
427,136.718750
428,138.671875
429,134.765625
430,132.812500
431,132.812500
432,136.718750
433,140.625000
434,138.671875
435,138.671875
436,138.671875
437,130.859375
438,138.671875
439,138.671875
440,134.765625
441,134.765625
442,136.718750
443,132.812500
444,134.765625
445,132.812500
446,132.812500
447,134.765625
448,132.812500
449,134.765625
450,138.671875
451,138.671875
452,140.625000
453,138.671875
454,138.671875
455,138.671875
456,132.812500
457,138.671875
458,136.718750
459,132.812500
460,138.671875
461,138.671875
462,138.671875
463,142.578125
464,138.671875
465,138.671875
466,138.671875
467,138.671875
468,138.671875
469,138.671875
470,138.671875
471,138.671875
472,142.578125
473,134.765625
474,138.671875
475,138.671875
476,136.718750
477,138.671875
478,132.812500
479,130.859375
480,132.812500
481,132.812500
482,130.859375
483,130.859375
484,126.953125
485,132.812500
486,132.812500
487,130.859375
488,130.859375
489,134.765625
490,126.953125
491,125.000000
492,126.953125
493,130.859375
494,130.859375
495,130.859375
496,130.859375
497,130.859375
498,136.718750
499,130.859375
500,130.859375
501,126.953125
502,126.953125
503,132.812500
504,130.859375
505,134.765625
506,132.812500
507,138.671875
508,130.859375
509,134.765625
510,119.140625
511,117.187500
512,115.234375
513,115.234375
514,117.187500
515,121.093750
516,123.046875
517,119.140625
518,121.093750
519,123.046875
520,123.046875
521,119.140625
522,123.046875
523,117.187500
524,117.187500
525,115.234375
526,117.187500
527,117.187500
528,119.140625
529,111.328125
530,115.234375
531,119.140625
532,115.234375
533,123.046875
534,115.234375
535,113.281250
536,115.234375
537,115.234375
538,117.187500
539,115.234375
540,117.187500
541,119.140625
542,119.140625
543,111.328125
544,115.234375
545,115.234375
546,115.234375
547,111.328125
548,115.234375
549,111.328125
550,115.234375
551,111.328125
552,121.093750
553,117.187500
554,117.187500
555,123.046875
556,117.187500
557,115.234375
558,113.281250
559,115.234375
560,115.234375
561,119.140625
562,115.234375
563,117.187500
564,119.140625
565,115.234375
566,115.234375
567,119.140625
568,121.093750
569,117.187500
570,115.234375
571,119.140625
572,117.187500
573,111.328125
574,117.187500
575,121.093750
576,121.093750
577,117.187500
578,123.046875
579,125.000000
580,126.953125
581,123.046875
582,130.859375
583,132.812500
584,130.859375
585,132.812500
586,132.812500
587,132.812500
588,132.812500
589,138.671875
590,134.765625
591,136.718750
592,134.765625
593,142.578125
594,142.578125
595,140.625000
596,142.578125
597,138.671875
598,140.625000
599,140.625000
600,142.578125
601,144.531250
602,142.578125
603,146.484375
604,146.484375
605,146.484375
606,142.578125
607,148.437500
608,148.437500
609,146.484375
610,150.390625
611,146.484375
612,146.484375
613,146.484375
614,146.484375
615,148.437500
616,154.296875
617,152.343750
618,148.437500
619,148.437500
620,148.437500
621,150.390625
622,152.343750
623,150.390625
624,146.484375
625,152.343750
626,150.390625
627,154.296875
628,146.484375
629,144.531250
630,148.437500
631,152.343750
632,150.390625
633,152.343750
634,148.437500
635,154.296875
636,152.343750
637,148.437500
638,152.343750
639,148.437500
640,152.343750
641,152.343750
642,152.343750
643,152.343750
644,154.296875
645,152.343750
646,150.390625
647,152.343750
648,156.250000
649,150.390625
650,154.296875
651,150.390625
652,152.343750
653,154.296875
654,156.250000
655,154.296875
656,154.296875
657,154.296875
658,150.390625
659,154.296875
660,148.437500
661,152.343750
662,156.250000
663,150.390625
664,158.203125
665,154.296875
666,154.296875
667,154.296875
668,154.296875
669,154.296875
670,154.296875
671,154.296875
672,158.203125
673,154.296875
674,154.296875
675,154.296875
676,150.390625
677,158.203125
678,154.296875
679,152.343750
680,150.390625
681,154.296875
682,154.296875
683,160.156250
684,150.390625
685,154.296875
686,154.296875
687,150.390625
688,148.437500
689,148.437500
690,144.531250
691,146.484375
692,150.390625
693,146.484375
694,148.437500
695,148.437500
696,146.484375
697,142.578125
698,146.484375
699,146.484375
700,150.390625
701,142.578125
702,146.484375
703,146.484375
704,142.578125
705,148.437500
706,146.484375
707,146.484375
708,148.437500
709,152.343750
710,146.484375
711,152.343750
712,146.484375
713,146.484375
714,148.437500
715,146.484375
716,148.437500
717,152.343750
718,150.390625
719,146.484375
720,150.390625
721,152.343750
722,154.296875
723,150.390625
724,146.484375
725,152.343750
726,154.296875
727,146.484375
728,150.390625
729,154.296875
730,154.296875
731,152.343750
732,146.484375
733,160.156250
734,154.296875
735,154.296875
736,152.343750
737,150.390625
738,154.296875
739,154.296875
740,154.296875
741,156.250000
742,152.343750
743,154.296875
744,152.343750
745,152.343750
746,156.250000
747,154.296875
748,156.250000
749,154.296875
750,154.296875
751,154.296875
752,156.250000
753,154.296875
754,162.109375
755,162.109375
756,162.109375
757,162.109375
758,166.015625
759,162.109375
760,158.203125
761,154.296875
762,158.203125
763,162.109375
764,162.109375
765,158.203125
766,162.109375
767,162.109375
768,156.250000
769,162.109375
770,158.203125
771,162.109375
772,162.109375
773,162.109375
774,160.156250
775,158.203125
776,162.109375
777,164.062500
778,162.109375
779,156.250000
780,162.109375
781,158.203125
782,158.203125
783,158.203125
784,154.296875
785,156.250000
786,164.062500
787,156.250000
788,154.296875
789,156.250000
790,156.250000
791,162.109375
792,158.203125
793,154.296875
794,156.250000
795,154.296875
796,154.296875
797,150.390625
798,154.296875
799,152.343750
800,156.250000
801,156.250000
802,150.390625
803,152.343750
804,146.484375
805,146.484375
806,148.437500
807,152.343750
808,142.578125
809,152.343750
810,148.437500
811,146.484375
812,146.484375
813,148.437500
814,146.484375
815,148.437500
816,146.484375
817,142.578125
818,146.484375
819,146.484375
820,148.437500
821,148.437500
822,142.578125
823,142.578125
824,148.437500
825,146.484375
826,144.531250
827,142.578125
828,146.484375
829,148.437500
830,146.484375
831,146.484375
832,150.390625
833,156.250000
834,148.437500
835,154.296875
836,152.343750
837,154.296875
838,150.390625
839,152.343750
840,152.343750
841,154.296875
842,154.296875
843,156.250000
844,154.296875
845,154.296875
846,154.296875
847,156.250000
848,154.296875
849,158.203125
850,162.109375
851,152.343750
852,156.250000
853,154.296875
854,154.296875
855,158.203125
856,162.109375
857,156.250000
858,158.203125
859,156.250000
860,152.343750
861,158.203125
862,154.296875
863,156.250000
864,162.109375
865,156.250000
866,158.203125
867,162.109375
868,158.203125
869,162.109375
870,156.250000
871,158.203125
872,162.109375
873,156.250000
874,154.296875
875,162.109375
876,158.203125
877,156.250000
878,158.203125
879,158.203125
880,162.109375
881,164.062500
882,156.250000
883,158.203125
884,162.109375
885,158.203125
886,158.203125
887,154.296875
888,169.921875
889,162.109375
890,162.109375
891,154.296875
892,156.250000
893,158.203125
894,158.203125
895,154.296875
896,162.109375
897,156.250000
898,158.203125
899,160.156250
900,162.109375
901,162.109375
902,162.109375
903,160.156250
904,158.203125
905,158.203125
906,154.296875
907,154.296875
908,156.250000
909,164.062500
910,162.109375
911,162.109375
912,160.156250
913,162.109375
914,156.250000
915,156.250000
916,164.062500
917,158.203125
918,160.156250
919,158.203125
920,160.156250
921,156.250000
922,162.109375
923,158.203125
924,160.156250
925,160.156250
926,156.250000
927,162.109375
928,164.062500
929,154.296875
930,154.296875
931,158.203125
932,156.250000
933,162.109375
934,154.296875
935,158.203125
936,162.109375
937,158.203125
938,156.250000
939,154.296875
940,154.296875
941,160.156250
942,158.203125
943,154.296875
944,158.203125
945,156.250000
946,154.296875
947,154.296875
948,158.203125
949,154.296875
950,158.203125
951,156.250000
952,158.203125
953,156.250000
954,158.203125
955,154.296875
956,160.156250
957,162.109375
958,158.203125
959,158.203125
960,156.250000
961,156.250000
962,154.296875
963,156.250000
964,158.203125
965,156.250000
966,162.109375
967,162.109375
968,158.203125
969,158.203125
970,162.109375
971,162.109375
972,158.203125
973,160.156250
974,162.109375
975,162.109375
976,162.109375
977,160.156250
978,162.109375
979,164.062500
980,162.109375
981,158.203125
982,162.109375
983,162.109375
984,162.109375
985,162.109375
986,162.109375
987,162.109375
988,162.109375
989,164.062500
990,171.875000
991,162.109375
992,162.109375
993,164.062500
994,162.109375
995,160.156250
996,162.109375
997,164.062500
998,162.109375
999,158.203125
1000,164.062500
1001,156.250000
1002,164.062500
1003,162.109375
1004,154.296875
1005,162.109375
1006,162.109375
1007,158.203125
1008,156.250000
1009,158.203125
1010,162.109375
1011,162.109375
1012,162.109375
1013,162.109375
1014,162.109375
1015,160.156250
1016,162.109375
1017,162.109375
1018,162.109375
1019,162.109375
1020,162.109375
1021,162.109375
1022,162.109375
1023,162.109375
1024,164.062500
1025,164.062500
1026,162.109375
1027,162.109375
1028,158.203125
1029,154.296875
1030,162.109375
1031,164.062500
1032,158.203125
1033,162.109375
1034,162.109375
1035,162.109375
1036,164.062500
1037,156.250000
1038,156.250000
1039,158.203125
1040,158.203125
1041,154.296875
1042,158.203125
1043,154.296875
1044,160.156250
1045,154.296875
1046,156.250000
1047,158.203125
1048,156.250000
1049,158.203125
1050,158.203125
1051,156.250000
1052,156.250000
1053,154.296875
1054,158.203125
1055,158.203125
1056,154.296875
1057,158.203125
1058,160.156250
1059,158.203125
1060,160.156250
1061,158.203125
1062,158.203125
1063,160.156250
1064,156.250000
1065,156.250000
1066,160.156250
1067,158.203125
1068,156.250000
1069,156.250000
1070,154.296875
1071,154.296875
1072,154.296875
1073,156.250000
1074,154.296875
1075,154.296875
1076,148.437500
1077,158.203125
1078,160.156250
1079,154.296875
1080,154.296875
1081,158.203125
1082,154.296875
1083,158.203125
1084,154.296875
1085,154.296875
1086,158.203125
1087,158.203125
1088,158.203125
1089,148.437500
1090,154.296875
1091,156.250000
1092,156.250000
1093,152.343750
1094,152.343750
1095,148.437500
1096,154.296875
1097,152.343750
1098,154.296875
1099,146.484375
1100,158.203125
1101,158.203125
1102,154.296875
1103,158.203125
1104,154.296875
1105,154.296875
1106,142.578125
1107,158.203125
1108,146.484375
1109,154.296875
1110,152.343750
1111,152.343750
1112,154.296875
1113,162.109375
1114,152.343750
1115,158.203125
1116,154.296875
1117,154.296875
1118,154.296875
1119,154.296875
1120,162.109375
1121,150.390625
1122,152.343750
1123,156.250000
1124,156.250000
1125,162.109375
1126,156.250000
1127,154.296875
1128,154.296875
1129,154.296875
1130,158.203125
1131,154.296875
1132,148.437500
1133,152.343750
1134,154.296875
1135,154.296875
1136,152.343750
1137,150.390625
1138,152.343750
1139,154.296875
1140,152.343750
1141,164.062500
1142,150.390625
1143,150.390625
1144,152.343750
1145,154.296875
1146,152.343750
1147,148.437500
1148,146.484375
1149,150.390625
1150,156.250000
1151,150.390625
1152,152.343750
1153,154.296875
1154,150.390625
1155,154.296875
1156,154.296875
1157,150.390625
1158,152.343750
1159,154.296875
1160,150.390625
1161,156.250000
1162,158.203125
1163,154.296875
1164,154.296875
1165,152.343750
1166,154.296875
1167,154.296875
1168,154.296875
1169,156.250000
1170,154.296875
1171,154.296875
1172,154.296875
1173,154.296875
1174,152.343750
1175,154.296875
1176,154.296875
1177,154.296875
1178,154.296875
1179,146.484375
1180,154.296875
1181,158.203125
1182,154.296875
1183,152.343750
1184,150.390625
1185,150.390625
1186,152.343750
1187,146.484375
1188,150.390625
1189,152.343750
1190,154.296875
1191,154.296875
1192,150.390625
1193,152.343750
1194,158.203125
1195,152.343750
1196,152.343750
1197,148.437500
1198,148.437500
1199,152.343750
1200,148.437500
1201,152.343750
1202,154.296875
1203,152.343750
1204,150.390625
1205,158.203125
1206,152.343750
1207,154.296875
1208,162.109375
1209,148.437500
1210,154.296875
1211,154.296875
1212,154.296875
1213,156.250000
1214,156.250000
1215,150.390625
1216,158.203125
1217,154.296875
1218,154.296875
1219,154.296875
1220,152.343750
1221,154.296875
1222,158.203125
1223,154.296875
1224,154.296875
1225,154.296875
1226,152.343750
1227,154.296875
1228,154.296875
1229,152.343750
1230,150.390625
1231,152.343750
1232,148.437500
1233,154.296875
1234,154.296875
1235,148.437500
1236,156.250000
1237,154.296875
1238,158.203125
1239,152.343750
1240,152.343750
1241,152.343750
1242,154.296875
1243,146.484375
1244,148.437500
1245,150.390625
1246,154.296875
1247,150.390625
1248,154.296875
1249,152.343750
1250,154.296875
1251,158.203125
1252,152.343750
1253,152.343750
1254,146.484375
1255,148.437500
1256,146.484375
1257,152.343750
1258,144.531250
1259,148.437500
1260,146.484375
1261,146.484375
1262,148.437500
1263,138.671875
1264,136.718750
1265,138.671875
1266,132.812500
1267,136.718750
1268,134.765625
1269,136.718750
1270,134.765625
1271,130.859375
1272,132.812500
1273,130.859375
1274,130.859375
1275,132.812500
1276,132.812500
1277,132.812500
1278,130.859375
1279,130.859375
1280,136.718750
1281,134.765625
1282,128.906250
1283,130.859375
1284,130.859375
1285,138.671875
1286,132.812500
1287,130.859375
1288,138.671875
1289,146.484375
1290,140.625000
1291,140.625000
1292,146.484375
1293,146.484375
1294,146.484375
1295,146.484375
1296,148.437500
1297,146.484375
1298,148.437500
1299,146.484375
1300,152.343750
1301,146.484375
1302,146.484375
1303,148.437500
1304,146.484375
