時系列データ/data_kai/chair.csv

Channel              :,CH1
Frequency            :,  ?
Period               :,  ?
PK-PK                :,66.41mV
Probe attenuation    :,10X
Voltage per ADC value:,0.122070mV
Time interval        :,400.00000us

index,CH1_Voltage(mV)
1,-29.296875
2,-29.296875
3,-31.250000
4,-29.296875
5,-29.296875
6,-29.296875
7,-29.296875
8,-29.296875
9,-29.296875
10,-29.296875
11,-25.390625
12,-29.296875
13,-29.296875
14,-29.296875
15,-29.296875
16,-29.296875
17,-31.250000
18,-33.203125
19,-31.250000
20,-29.296875
21,-31.250000
22,-31.250000
23,-33.203125
24,-29.296875
25,-31.250000
26,-29.296875
27,-29.296875
28,-33.203125
29,-31.250000
30,-33.203125
31,-29.296875
32,-29.296875
33,-31.250000
34,-31.250000
35,-31.250000
36,-31.250000
37,-31.250000
38,-31.250000
39,-33.203125
40,-29.296875
41,-31.250000
42,-31.250000
43,-31.250000
44,-33.203125
45,-29.296875
46,-31.250000
47,-31.250000
48,-35.156250
49,-31.250000
50,-29.296875
51,-31.250000
52,-29.296875
53,-29.296875
54,-31.250000
55,-29.296875
56,-33.203125
57,-33.203125
58,-31.250000
59,-31.250000
60,-29.296875
61,-31.250000
62,-29.296875
63,-31.250000
64,-31.250000
65,-31.250000
66,-46.875000
67,-29.296875
68,-31.250000
69,-31.250000
70,-29.296875
71,-33.203125
72,-31.250000
73,-33.203125
74,-29.296875
75,-29.296875
76,-33.203125
77,-33.203125
78,-33.203125
79,-31.250000
80,-31.250000
81,-33.203125
82,-33.203125
83,-33.203125
84,-33.203125
85,-29.296875
86,-37.109375
87,-31.250000
88,-29.296875
89,-29.296875
90,-29.296875
91,-33.203125
92,-31.250000
93,-29.296875
94,-33.203125
95,-31.250000
96,-31.250000
97,-33.203125
98,-31.250000
99,-31.250000
100,-29.296875
101,-33.203125
102,-31.250000
103,-29.296875
104,-33.203125
105,-31.250000
106,-31.250000
107,-33.203125
108,-31.250000
109,-31.250000
110,-33.203125
111,-33.203125
112,-29.296875
113,-33.203125
114,-33.203125
115,-31.250000
116,-33.203125
117,-33.203125
118,-31.250000
119,-33.203125
120,-31.250000
121,-33.203125
122,-33.203125
123,-33.203125
124,-33.203125
125,-33.203125
126,-35.156250
127,-33.203125
128,-33.203125
129,-33.203125
130,-33.203125
131,-35.156250
132,-33.203125
133,-35.156250
134,-33.203125
135,-44.921875
136,-35.156250
137,-33.203125
138,-33.203125
139,-33.203125
140,-35.156250
141,-35.156250
142,-37.109375
143,-35.156250
144,-35.156250
145,-35.156250
146,-37.109375
147,-33.203125
148,-35.156250
149,-39.062500
150,-35.156250
151,-37.109375
152,-35.156250
153,-35.156250
154,-35.156250
155,-33.203125
156,-39.062500
157,-33.203125
158,-35.156250
159,-33.203125
160,-33.203125
161,-39.062500
162,-35.156250
163,-35.156250
164,-35.156250
165,-33.203125
166,-33.203125
167,-35.156250
168,-35.156250
169,-37.109375
170,-33.203125
171,-37.109375
172,-23.437500
173,-35.156250
174,-39.062500
175,-33.203125
176,-37.109375
177,-39.062500
178,-37.109375
179,-39.062500
180,-39.062500
181,-52.734375
182,-37.109375
183,-41.015625
184,-39.062500
185,-39.062500
186,-44.921875
187,-37.109375
188,-41.015625
189,-39.062500
190,-41.015625
191,-41.015625
192,-41.015625
193,-41.015625
194,-41.015625
195,-41.015625
196,-42.968750
197,-39.062500
198,-42.968750
199,-44.921875
200,-41.015625
201,-41.015625
202,-41.015625
203,-44.921875
204,-54.687500
205,-41.015625
206,-41.015625
207,-44.921875
208,-42.968750
209,-44.921875
210,-44.921875
211,-44.921875
212,-44.921875
213,-44.921875
214,-44.921875
215,-44.921875
216,-42.968750
217,-44.921875
218,-44.921875
219,-46.875000
220,-44.921875
221,-44.921875
222,-48.828125
223,-44.921875
224,-48.828125
225,-44.921875
226,-44.921875
227,-48.828125
228,-44.921875
229,-46.875000
230,-44.921875
231,-48.828125
232,-44.921875
233,-46.875000
234,-48.828125
235,-46.875000
236,-48.828125
237,-48.828125
238,-46.875000
239,-46.875000
240,-48.828125
241,-44.921875
242,-46.875000
243,-46.875000
244,-46.875000
245,-48.828125
246,-46.875000
247,-50.781250
248,-44.921875
249,-46.875000
250,-48.828125
251,-48.828125
252,-48.828125
253,-48.828125
254,-48.828125
255,-46.875000
256,-46.875000
257,-46.875000
258,-50.781250
259,-46.875000
260,-48.828125
261,-50.781250
262,-44.921875
263,-48.828125
264,-44.921875
265,-46.875000
266,-48.828125
267,-48.828125
268,-50.781250
269,-48.828125
270,-50.781250
271,-48.828125
272,-48.828125
273,-41.015625
274,-48.828125
275,-48.828125
276,-48.828125
277,-48.828125
278,-52.734375
279,-48.828125
280,-46.875000
281,-48.828125
282,-44.921875
283,-48.828125
284,-44.921875
285,-48.828125
286,-48.828125
287,-46.875000
288,-46.875000
289,-46.875000
290,-48.828125
291,-48.828125
292,-44.921875
293,-44.921875
294,-44.921875
295,-44.921875
296,-31.250000
297,-44.921875
298,-44.921875
299,-44.921875
300,-41.015625
301,-41.015625
302,-41.015625
303,-41.015625
304,-41.015625
305,-37.109375
306,-41.015625
307,-37.109375
308,-37.109375
309,-37.109375
310,-31.250000
311,-39.062500
312,-35.156250
313,-33.203125
314,-35.156250
315,-31.250000
316,-33.203125
317,-33.203125
318,-33.203125
319,-33.203125
320,-29.296875
321,-33.203125
322,-19.531250
323,-29.296875
324,-31.250000
325,-31.250000
326,-29.296875
327,-29.296875
328,-29.296875
329,-29.296875
330,-29.296875
331,-29.296875
332,-29.296875
333,-29.296875
334,-29.296875
335,-29.296875
336,-27.343750
337,-29.296875
338,-25.390625
339,-29.296875
340,-29.296875
341,-29.296875
342,-25.390625
343,-25.390625
344,-29.296875
345,-29.296875
346,-29.296875
347,-25.390625
348,-29.296875
349,-29.296875
350,-31.250000
351,-29.296875
352,-29.296875
353,-29.296875
354,-25.390625
355,-31.250000
356,-25.390625
357,-29.296875
358,-25.390625
359,-25.390625
360,-29.296875
361,-29.296875
362,-29.296875
363,-29.296875
364,-27.343750
365,-27.343750
366,-27.343750
367,-25.390625
368,-29.296875
369,-25.390625
370,-27.343750
371,-29.296875
372,-25.390625
373,-29.296875
374,-25.390625
375,-29.296875
376,-25.390625
377,-29.296875
378,-29.296875
379,-25.390625
380,-31.250000
381,-25.390625
382,-23.437500
383,-25.390625
384,-25.390625
385,-27.343750
386,-25.390625
387,-29.296875
388,-29.296875
389,-25.390625
390,-25.390625
391,-25.390625
392,-23.437500
393,-29.296875
394,-27.343750
395,-25.390625
396,-25.390625
397,-25.390625
398,-29.296875
399,-29.296875
400,-27.343750
401,-25.390625
402,-25.390625
403,-29.296875
404,-25.390625
405,-25.390625
406,-25.390625
407,-25.390625
408,-29.296875
409,-23.437500
410,-25.390625
411,-23.437500
412,-23.437500
413,-25.390625
414,-21.484375
415,-23.437500
416,-25.390625
417,-19.531250
418,-19.531250
419,-19.531250
420,-19.531250
421,-19.531250
422,-17.578125
423,-17.578125
424,-17.578125
425,-17.578125
426,-15.625000
427,-13.671875
428,-17.578125
429,-15.625000
430,-15.625000
431,-13.671875
432,-15.625000
433,-13.671875
434,-13.671875
435,-13.671875
436,-9.765625
437,-13.671875
438,-11.718750
439,-13.671875
440,-13.671875
441,-9.765625
442,-13.671875
443,-25.390625
444,-13.671875
445,-11.718750
446,-9.765625
447,-9.765625
448,-9.765625
449,-9.765625
450,-13.671875
451,-9.765625
452,-9.765625
453,-13.671875
454,-15.625000
455,-9.765625
456,-13.671875
457,-9.765625
458,-9.765625
459,-13.671875
460,-9.765625
461,-11.718750
462,-7.812500
463,-9.765625
464,-13.671875
465,-9.765625
466,-9.765625
467,-5.859375
468,-9.765625
469,-13.671875
470,-9.765625
471,-13.671875
472,-9.765625
473,-9.765625
474,-11.718750
475,-9.765625
476,-9.765625
477,-9.765625
478,-9.765625
479,-9.765625
480,-7.812500
481,-9.765625
482,-9.765625
483,-9.765625
484,-9.765625
485,-7.812500
486,-9.765625
487,-5.859375
488,-9.765625
489,-9.765625
490,-7.812500
491,-7.812500
492,-7.812500
493,-9.765625
494,-3.906250
495,-7.812500
496,-5.859375
497,-5.859375
498,-5.859375
499,-9.765625
500,-7.812500
501,-3.906250
502,-9.765625
503,-3.906250
504,-7.812500
505,-7.812500
506,-3.906250
507,-7.812500
508,-1.953125
509,-5.859375
510,-7.812500
511,-5.859375
512,-7.812500
513,-5.859375
514,-7.812500
515,-7.812500
516,-5.859375
517,-9.765625
518,-3.906250
519,-5.859375
520,-9.765625
521,-1.953125
522,-7.812500
523,-5.859375
524,-9.765625
525,-7.812500
526,-7.812500
527,-7.812500
528,-5.859375
529,-5.859375
530,-5.859375
531,-5.859375
532,-5.859375
533,-5.859375
534,-3.906250
535,-5.859375
536,-7.812500
537,-5.859375
538,-5.859375
539,-5.859375
540,-9.765625
541,-5.859375
542,-3.906250
543,-5.859375
544,-3.906250
545,-5.859375
546,-5.859375
547,-5.859375
548,-3.906250
549,-1.953125
550,-5.859375
551,-5.859375
552,-5.859375
553,-3.906250
554,-1.953125
555,-5.859375
556,-7.812500
557,-1.953125
558,-7.812500
559,-3.906250
560,-5.859375
561,-7.812500
562,-3.906250
563,-7.812500
564,-5.859375
565,-5.859375
566,-5.859375
567,-5.859375
568,-11.718750
569,-3.906250
570,-5.859375
571,-3.906250
572,-5.859375
573,-7.812500
574,-5.859375
575,-5.859375
576,-7.812500
577,-7.812500
578,-7.812500
579,-7.812500
580,-5.859375
581,-7.812500
582,-5.859375
583,-7.812500
584,-7.812500
585,-5.859375
586,-5.859375
587,-5.859375
588,-5.859375
589,-3.906250
590,-5.859375
591,-5.859375
592,-5.859375
593,-5.859375
594,-7.812500
595,-3.906250
596,-9.765625
597,-5.859375
598,-3.906250
599,-5.859375
600,-13.671875
601,-7.812500
602,-5.859375
603,-3.906250
604,-3.906250
605,-3.906250
606,-7.812500
607,-5.859375
608,-5.859375
609,-3.906250
610,-3.906250
611,-5.859375
612,-3.906250
613,-3.906250
614,-7.812500
615,-5.859375
616,-5.859375
617,-7.812500
618,-3.906250
619,-7.812500
620,-3.906250
621,-5.859375
622,-7.812500
623,5.859375
624,-7.812500
625,-3.906250
626,-3.906250
627,-5.859375
628,-3.906250
629,-7.812500
630,-3.906250
631,-3.906250
632,-5.859375
633,-3.906250
634,-3.906250
635,-3.906250
636,-3.906250
637,-9.765625
638,-3.906250
639,-3.906250
640,-7.812500
641,-1.953125
642,-7.812500
643,-1.953125
644,-3.906250
645,-5.859375
646,-1.953125
647,-3.906250
648,-3.906250
649,-1.953125
650,-1.953125
651,-3.906250
652,-1.953125
653,-1.953125
654,-1.953125
655,-3.906250
656,-1.953125
657,-1.953125
658,-3.906250
659,-7.812500
660,-1.953125
661,-1.953125
662,-3.906250
663,-3.906250
664,-1.953125
665,-3.906250
666,-1.953125
667,-3.906250
668,-1.953125
669,-1.953125
670,-3.906250
671,-1.953125
672,-1.953125
673,-1.953125
674,-1.953125
675,-1.953125
676,-1.953125
677,-1.953125
678,-1.953125
679,-1.953125
680,0.000000
681,-1.953125
682,-1.953125
683,1.953125
684,-1.953125
685,1.953125
686,0.000000
687,-1.953125
688,1.953125
689,0.000000
690,1.953125
691,1.953125
692,0.000000
693,5.859375
694,1.953125
695,1.953125
696,1.953125
697,1.953125
698,5.859375
699,1.953125
700,5.859375
701,5.859375
702,1.953125
703,5.859375
704,1.953125
705,3.906250
706,5.859375
707,5.859375
708,5.859375
709,5.859375
710,1.953125
711,5.859375
712,5.859375
713,5.859375
714,5.859375
715,5.859375
716,5.859375
717,3.906250
718,3.906250
719,5.859375
720,3.906250
721,5.859375
722,5.859375
723,5.859375
724,7.812500
725,3.906250
726,3.906250
727,5.859375
728,5.859375
729,3.906250
730,5.859375
731,5.859375
732,5.859375
733,1.953125
734,5.859375
735,0.000000
736,1.953125
737,3.906250
738,1.953125
739,3.906250
740,5.859375
741,3.906250
742,9.765625
743,1.953125
744,1.953125
745,5.859375
746,1.953125
747,5.859375
748,5.859375
749,1.953125
750,5.859375
751,3.906250
752,3.906250
753,1.953125
754,1.953125
755,3.906250
756,5.859375
757,5.859375
758,1.953125
759,7.812500
760,1.953125
761,5.859375
762,5.859375
763,1.953125
764,5.859375
765,3.906250
766,5.859375
767,1.953125
768,1.953125
769,3.906250
770,5.859375
771,1.953125
772,3.906250
773,5.859375
774,5.859375
775,1.953125
776,3.906250
777,3.906250
778,1.953125
779,5.859375
780,3.906250
781,1.953125
782,5.859375
783,1.953125
784,5.859375
785,1.953125
786,1.953125
787,3.906250
788,1.953125
789,5.859375
790,1.953125
791,5.859375
792,1.953125
793,1.953125
794,0.000000
795,5.859375
796,1.953125
797,1.953125
798,3.906250
799,5.859375
800,5.859375
801,1.953125
802,5.859375
803,5.859375
804,3.906250
805,5.859375
806,1.953125
807,13.671875
808,3.906250
809,5.859375
810,1.953125
811,1.953125
812,5.859375
813,1.953125
814,1.953125
815,5.859375
816,17.578125
817,3.906250
818,1.953125
819,5.859375
820,1.953125
821,1.953125
822,5.859375
823,1.953125
824,3.906250
825,5.859375
826,1.953125
827,5.859375
828,1.953125
829,1.953125
830,1.953125
831,1.953125
832,0.000000
833,1.953125
834,3.906250
835,0.000000
836,1.953125
837,5.859375
838,0.000000
839,1.953125
840,1.953125
841,3.906250
842,5.859375
843,1.953125
844,5.859375
845,1.953125
846,1.953125
847,5.859375
848,5.859375
849,1.953125
850,1.953125
851,1.953125
852,5.859375
853,5.859375
854,1.953125
855,5.859375
856,1.953125
857,5.859375
858,7.812500
859,5.859375
860,5.859375
861,1.953125
862,5.859375
863,1.953125
864,1.953125
865,1.953125
866,-1.953125
867,5.859375
868,5.859375
869,1.953125
870,1.953125
871,1.953125
872,3.906250
873,1.953125
874,1.953125
875,1.953125
876,1.953125
877,1.953125
878,13.671875
879,1.953125
880,5.859375
881,0.000000
882,3.906250
883,1.953125
884,1.953125
885,1.953125
886,1.953125
887,1.953125
888,1.953125
889,1.953125
890,1.953125
891,-1.953125
892,0.000000
893,0.000000
894,0.000000
895,-1.953125
896,-1.953125
897,-1.953125
898,-1.953125
899,-3.906250
900,0.000000
901,-1.953125
902,-3.906250
903,-1.953125
904,-9.765625
905,-3.906250
906,-5.859375
907,-9.765625
908,-5.859375
909,-9.765625
910,-7.812500
911,-13.671875
912,-9.765625
913,-7.812500
914,-11.718750
915,-9.765625
916,-13.671875
917,-13.671875
918,-13.671875
919,-13.671875
920,-13.671875
921,-15.625000
922,-13.671875
923,-13.671875
924,-15.625000
925,-13.671875
926,-15.625000
927,-13.671875
928,-13.671875
929,-17.578125
930,-15.625000
931,-17.578125
932,-15.625000
933,-19.531250
934,-17.578125
935,-15.625000
936,-19.531250
937,-15.625000
938,-17.578125
939,-17.578125
940,-17.578125
941,-17.578125
942,-15.625000
943,-19.531250
944,-17.578125
945,-17.578125
946,-19.531250
947,-17.578125
948,-19.531250
949,-17.578125
950,-17.578125
951,-19.531250
952,-15.625000
953,-19.531250
954,-19.531250
955,-17.578125
956,-19.531250
957,-21.484375
958,-17.578125
959,-21.484375
960,-17.578125
961,-19.531250
962,-19.531250
963,-17.578125
964,-21.484375
965,-19.531250
966,-21.484375
967,-19.531250
968,-17.578125
969,-19.531250
970,-17.578125
971,-23.437500
972,-17.578125
973,-19.531250
974,-17.578125
975,-19.531250
976,-23.437500
977,-19.531250
978,-19.531250
979,-21.484375
980,-19.531250
981,-19.531250
982,-25.390625
983,-19.531250
984,-21.484375
985,-21.484375
986,-21.484375
987,-19.531250
988,-19.531250
989,-23.437500
990,-19.531250
991,-19.531250
992,-21.484375
993,-17.578125
994,-21.484375
995,-21.484375
996,-25.390625
997,-21.484375
998,-19.531250
999,-23.437500
1000,-21.484375
1001,-17.578125
1002,-23.437500
1003,-19.531250
1004,-19.531250
1005,-19.531250
1006,-19.531250
1007,-23.437500
1008,-21.484375
1009,-21.484375
1010,-23.437500
1011,-23.437500
1012,-23.437500
1013,-21.484375
1014,-23.437500
1015,-21.484375
1016,-23.437500
1017,-23.437500
1018,-25.390625
1019,-29.296875
1020,-23.437500
1021,-23.437500
1022,-23.437500
1023,-19.531250
1024,-23.437500
1025,-23.437500
1026,-23.437500
1027,-25.390625
1028,-21.484375
1029,-23.437500
1030,-23.437500
1031,-23.437500
1032,-25.390625
1033,-23.437500
1034,-23.437500
1035,-25.390625
1036,-23.437500
1037,-25.390625
1038,-23.437500
1039,-25.390625
1040,-23.437500
1041,-21.484375
1042,-21.484375
1043,-23.437500
1044,-23.437500
1045,-25.390625
1046,-23.437500
1047,-25.390625
1048,-25.390625
1049,-23.437500
1050,-25.390625
1051,-15.625000
1052,-25.390625
1053,-25.390625
1054,-25.390625
1055,-29.296875
1056,-29.296875
1057,-9.765625
1058,-27.343750
1059,-25.390625
1060,-29.296875
1061,-29.296875
1062,-29.296875
1063,-29.296875
1064,-25.390625
1065,-31.250000
1066,-31.250000
1067,-29.296875
1068,-29.296875
1069,-31.250000
1070,-31.250000
1071,-33.203125
1072,-31.250000
1073,-33.203125
1074,-25.390625
1075,-31.250000
1076,-33.203125
1077,-33.203125
1078,-33.203125
1079,-31.250000
1080,-31.250000
1081,-33.203125
1082,-35.156250
1083,-33.203125
1084,-33.203125
1085,-33.203125
1086,-35.156250
1087,-33.203125
1088,-35.156250
1089,-33.203125
1090,-35.156250
1091,-33.203125
1092,-33.203125
1093,-33.203125
1094,-33.203125
1095,-33.203125
1096,-35.156250
1097,-39.062500
1098,-33.203125
1099,-33.203125
1100,-33.203125
1101,-33.203125
1102,-33.203125
1103,-33.203125
1104,-33.203125
1105,-33.203125
1106,-33.203125
1107,-33.203125
1108,-33.203125
1109,-35.156250
1110,-33.203125
1111,-33.203125
1112,-33.203125
1113,-33.203125
1114,-33.203125
1115,-33.203125
1116,-33.203125
1117,-33.203125
1118,-31.250000
1119,-35.156250
1120,-25.390625
1121,-29.296875
1122,-33.203125
1123,-31.250000
1124,-33.203125
1125,-31.250000
1126,-31.250000
1127,-33.203125
1128,-33.203125
1129,-33.203125
1130,-29.296875
1131,-31.250000
1132,-31.250000
1133,-31.250000
1134,-29.296875
1135,-29.296875
1136,-29.296875
1137,-31.250000
1138,-29.296875
1139,-27.343750
1140,-31.250000
1141,-29.296875
1142,-31.250000
1143,-25.390625
1144,-29.296875
1145,-29.296875
1146,-29.296875
1147,-31.250000
1148,-29.296875
1149,-29.296875
1150,-29.296875
1151,-25.390625
1152,-29.296875
1153,-29.296875
1154,-35.156250
1155,-29.296875
1156,-29.296875
1157,-29.296875
1158,-31.250000
1159,-29.296875
1160,-29.296875
1161,-29.296875
1162,-25.390625
1163,-29.296875
1164,-29.296875
1165,-31.250000
1166,-37.109375
1167,-31.250000
1168,-29.296875
1169,-31.250000
1170,-31.250000
1171,-29.296875
1172,-31.250000
1173,-29.296875
1174,-29.296875
1175,-29.296875
1176,-29.296875
1177,-35.156250
1178,-29.296875
1179,-33.203125
1180,-29.296875
1181,-31.250000
1182,-31.250000
1183,-29.296875
1184,-29.296875
1185,-29.296875
1186,-29.296875
1187,-29.296875
1188,-29.296875
1189,-31.250000
1190,-29.296875
1191,-25.390625
1192,-31.250000
1193,-29.296875
1194,-29.296875
1195,-31.250000
1196,-29.296875
1197,-33.203125
1198,-29.296875
1199,-29.296875
1200,-29.296875
1201,-29.296875
1202,-33.203125
1203,-23.437500
1204,-29.296875
1205,-31.250000
1206,-31.250000
1207,-25.390625
1208,-29.296875
1209,-31.250000
1210,-31.250000
1211,-29.296875
1212,-27.343750
1213,-31.250000
1214,-27.343750
1215,-31.250000
1216,-29.296875
1217,-25.390625
1218,-31.250000
1219,-29.296875
1220,-29.296875
1221,-31.250000
1222,-25.390625
1223,-31.250000
1224,-29.296875
1225,-29.296875
1226,-29.296875
1227,-27.343750
1228,-29.296875
1229,-31.250000
1230,-29.296875
1231,-29.296875
1232,-29.296875
1233,-29.296875
1234,-25.390625
1235,-25.390625
1236,-25.390625
1237,-25.390625
1238,-29.296875
1239,-25.390625
1240,-25.390625
1241,-29.296875
1242,-29.296875
1243,-25.390625
1244,-29.296875
1245,-41.015625
1246,-25.390625
1247,-25.390625
1248,-25.390625
1249,-29.296875
1250,-25.390625
1251,-25.390625
1252,-25.390625
1253,-23.437500
1254,-25.390625
1255,-23.437500
1256,-25.390625
1257,-29.296875
1258,-21.484375
1259,-25.390625
1260,-29.296875
1261,-23.437500
1262,-25.390625
1263,-21.484375
1264,-25.390625
1265,-25.390625
1266,-25.390625
1267,-25.390625
1268,-21.484375
1269,-29.296875
1270,-23.437500
1271,-25.390625
1272,-27.343750
1273,-25.390625
1274,-25.390625
1275,-23.437500
1276,-25.390625
1277,-25.390625
1278,-25.390625
1279,-25.390625
1280,-29.296875
1281,-25.390625
1282,-29.296875
1283,-29.296875
1284,-25.390625
1285,-25.390625
1286,-25.390625
1287,-27.343750
1288,-23.437500
1289,-25.390625
1290,-25.390625
1291,-25.390625
1292,-25.390625
1293,-25.390625
1294,-25.390625
1295,-21.484375
1296,-27.343750
1297,-25.390625
1298,-25.390625
1299,-23.437500
1300,-25.390625
1301,-25.390625
1302,-21.484375
1303,-25.390625
1304,-23.437500
1305,-29.296875
1306,-23.437500
1307,-23.437500
1308,-25.390625
1309,-19.531250
1310,-25.390625
1311,-25.390625
1312,-25.390625
1313,-25.390625
1314,-25.390625
1315,-25.390625
1316,-23.437500
1317,-23.437500
1318,-25.390625
1319,-23.437500
1320,-25.390625
1321,-25.390625
1322,-23.437500
1323,-27.343750
1324,-23.437500
1325,-27.343750
1326,-25.390625
1327,-25.390625
1328,-25.390625
1329,-25.390625
1330,-25.390625
1331,-25.390625
1332,-21.484375
1333,-25.390625
1334,-25.390625
1335,-23.437500
1336,-25.390625
1337,-25.390625
1338,-23.437500
1339,-25.390625
1340,-25.390625
1341,-17.578125
1342,-23.437500
1343,-25.390625
1344,-25.390625
1345,-21.484375
1346,-31.250000
