時系列データ/data_kai/chairtest.csv

Channel              :,CH1
Frequency            :,  ?
Period               :,  ?
PK-PK                :,58.59mV
Probe attenuation    :,10X
Voltage per ADC value:,0.122070mV
Time interval        :,400.00000us

index,CH1_Voltage(mV)
1,-60.546875
2,-60.546875
3,-60.546875
4,-60.546875
5,-64.453125
6,-60.546875
7,-62.500000
8,-60.546875
9,-62.500000
10,-60.546875
11,-60.546875
12,-60.546875
13,-60.546875
14,-56.640625
15,-62.500000
16,-60.546875
17,-60.546875
18,-60.546875
19,-56.640625
20,-60.546875
21,-60.546875
22,-60.546875
23,-62.500000
24,-62.500000
25,-62.500000
26,-60.546875
27,-60.546875
28,-62.500000
29,-60.546875
30,-60.546875
31,-60.546875
32,-60.546875
33,-60.546875
34,-58.593750
35,-60.546875
36,-60.546875
37,-62.500000
38,-60.546875
39,-60.546875
40,-60.546875
41,-60.546875
42,-60.546875
43,-62.500000
44,-60.546875
45,-60.546875
46,-60.546875
47,-60.546875
48,-41.015625
49,-60.546875
50,-56.640625
51,-64.453125
52,-56.640625
53,-60.546875
54,-60.546875
55,-56.640625
56,-60.546875
57,-62.500000
58,-60.546875
59,-60.546875
60,-60.546875
61,-60.546875
62,-58.593750
63,-60.546875
64,-60.546875
65,-60.546875
66,-60.546875
67,-60.546875
68,-58.593750
69,-60.546875
70,-60.546875
71,-60.546875
72,-60.546875
73,-60.546875
74,-62.500000
75,-60.546875
76,-60.546875
77,-60.546875
78,-68.359375
79,-60.546875
80,-60.546875
81,-58.593750
82,-58.593750
83,-60.546875
84,-58.593750
85,-60.546875
86,-60.546875
87,-60.546875
88,-60.546875
89,-60.546875
90,-58.593750
91,-60.546875
92,-56.640625
93,-56.640625
94,-60.546875
95,-58.593750
96,-56.640625
97,-60.546875
98,-58.593750
99,-60.546875
100,-58.593750
101,-56.640625
102,-56.640625
103,-54.687500
104,-60.546875
105,-56.640625
106,-56.640625
107,-56.640625
108,-52.734375
109,-56.640625
110,-58.593750
111,-54.687500
112,-56.640625
113,-56.640625
114,-56.640625
115,-58.593750
116,-56.640625
117,-60.546875
118,-56.640625
119,-41.015625
120,-58.593750
121,-56.640625
122,-56.640625
123,-56.640625
124,-56.640625
125,-56.640625
126,-56.640625
127,-56.640625
128,-56.640625
129,-54.687500
130,-56.640625
131,-56.640625
132,-54.687500
133,-56.640625
134,-56.640625
135,-56.640625
136,-56.640625
137,-52.734375
138,-56.640625
139,-56.640625
140,-54.687500
141,-56.640625
142,-66.406250
143,-56.640625
144,-56.640625
145,-56.640625
146,-56.640625
147,-56.640625
148,-56.640625
149,-54.687500
150,-56.640625
151,-54.687500
152,-56.640625
153,-56.640625
154,-56.640625
155,-56.640625
156,-56.640625
157,-56.640625
158,-56.640625
159,-54.687500
160,-56.640625
161,-56.640625
162,-56.640625
163,-56.640625
164,-52.734375
165,-56.640625
166,-54.687500
167,-56.640625
168,-56.640625
169,-54.687500
170,-52.734375
171,-56.640625
172,-54.687500
173,-52.734375
174,-54.687500
175,-54.687500
176,-52.734375
177,-54.687500
178,-52.734375
179,-56.640625
180,-52.734375
181,-52.734375
182,-50.781250
183,-48.828125
184,-50.781250
185,-48.828125
186,-46.875000
187,-48.828125
188,-44.921875
189,-48.828125
190,-48.828125
191,-46.875000
192,-50.781250
193,-44.921875
194,-44.921875
195,-46.875000
196,-46.875000
197,-44.921875
198,-44.921875
199,-46.875000
200,-44.921875
201,-44.921875
202,-48.828125
203,-46.875000
204,-41.015625
205,-44.921875
206,-44.921875
207,-44.921875
208,-46.875000
209,-44.921875
210,-46.875000
211,-41.015625
212,-44.921875
213,-41.015625
214,-44.921875
215,-44.921875
216,-44.921875
217,-44.921875
218,-44.921875
219,-44.921875
220,-48.828125
221,-44.921875
222,-44.921875
223,-42.968750
224,-41.015625
225,-44.921875
226,-44.921875
227,-41.015625
228,-46.875000
229,-41.015625
230,-44.921875
231,-44.921875
232,-41.015625
233,-44.921875
234,-41.015625
235,-44.921875
236,-41.015625
237,-41.015625
238,-46.875000
239,-44.921875
240,-41.015625
241,-44.921875
242,-44.921875
243,-44.921875
244,-44.921875
245,-41.015625
246,-46.875000
247,-44.921875
248,-41.015625
249,-44.921875
250,-42.968750
251,-42.968750
252,-46.875000
253,-41.015625
254,-44.921875
255,-44.921875
256,-44.921875
257,-46.875000
258,-41.015625
259,-44.921875
260,-41.015625
261,-48.828125
262,-44.921875
263,-44.921875
264,-44.921875
265,-41.015625
266,-42.968750
267,-44.921875
268,-41.015625
269,-41.015625
270,-41.015625
271,-42.968750
272,-44.921875
273,-44.921875
274,-41.015625
275,-44.921875
276,-41.015625
277,-44.921875
278,-42.968750
279,-42.968750
280,-44.921875
281,-42.968750
282,-44.921875
283,-41.015625
284,-41.015625
285,-44.921875
286,-42.968750
287,-41.015625
288,-42.968750
289,-42.968750
290,-42.968750
291,-44.921875
292,-41.015625
293,-44.921875
294,-42.968750
295,-41.015625
296,-41.015625
297,-41.015625
298,-41.015625
299,-41.015625
300,-41.015625
301,-44.921875
302,-39.062500
303,-44.921875
304,-44.921875
305,-41.015625
306,-42.968750
307,-42.968750
308,-44.921875
309,-41.015625
310,-41.015625
311,-46.875000
312,-41.015625
313,-46.875000
314,-41.015625
315,-41.015625
316,-44.921875
317,-41.015625
318,-44.921875
319,-41.015625
320,-41.015625
321,-44.921875
322,-42.968750
323,-41.015625
324,-44.921875
325,-41.015625
326,-42.968750
327,-41.015625
328,-41.015625
329,-41.015625
330,-41.015625
331,-42.968750
332,-42.968750
333,-41.015625
334,-48.828125
335,-44.921875
336,-42.968750
337,-39.062500
338,-44.921875
339,-44.921875
340,-44.921875
341,-42.968750
342,-44.921875
343,-41.015625
344,-44.921875
345,-42.968750
346,-42.968750
347,-44.921875
348,-42.968750
349,-44.921875
350,-44.921875
351,-41.015625
352,-44.921875
353,-41.015625
354,-44.921875
355,-44.921875
356,-41.015625
357,-44.921875
358,-44.921875
359,-41.015625
360,-41.015625
361,-42.968750
362,-44.921875
363,-44.921875
364,-41.015625
365,-44.921875
366,-44.921875
367,-44.921875
368,-41.015625
369,-44.921875
370,-44.921875
371,-41.015625
372,-44.921875
373,-44.921875
374,-41.015625
375,-44.921875
376,-42.968750
377,-44.921875
378,-46.875000
379,-44.921875
380,-44.921875
381,-44.921875
382,-44.921875
383,-44.921875
384,-42.968750
385,-39.062500
386,-44.921875
387,-41.015625
388,-44.921875
389,-41.015625
390,-44.921875
391,-44.921875
392,-41.015625
393,-46.875000
394,-44.921875
395,-44.921875
396,-44.921875
397,-42.968750
398,-44.921875
399,-44.921875
400,-44.921875
401,-41.015625
402,-44.921875
403,-42.968750
404,-41.015625
405,-44.921875
406,-39.062500
407,-44.921875
408,-44.921875
409,-44.921875
410,-46.875000
411,-42.968750
412,-44.921875
413,-44.921875
414,-41.015625
415,-44.921875
416,-35.156250
417,-44.921875
418,-44.921875
419,-41.015625
420,-46.875000
421,-41.015625
422,-44.921875
423,-41.015625
424,-44.921875
425,-44.921875
426,-44.921875
427,-44.921875
428,-41.015625
429,-46.875000
430,-41.015625
431,-44.921875
432,-41.015625
433,-42.968750
434,-44.921875
435,-48.828125
436,-41.015625
437,-41.015625
438,-42.968750
439,-37.109375
440,-29.296875
441,-41.015625
442,-42.968750
443,-41.015625
444,-41.015625
445,-41.015625
446,-41.015625
447,-44.921875
448,-42.968750
449,-44.921875
450,-41.015625
451,-41.015625
452,-42.968750
453,-41.015625
454,-44.921875
455,-41.015625
456,-41.015625
457,-44.921875
458,-44.921875
459,-44.921875
460,-41.015625
461,-44.921875
462,-42.968750
463,-41.015625
464,-44.921875
465,-44.921875
466,-41.015625
467,-44.921875
468,-41.015625
469,-44.921875
470,-44.921875
471,-52.734375
472,-44.921875
473,-41.015625
474,-42.968750
475,-41.015625
476,-41.015625
477,-44.921875
478,-41.015625
479,-41.015625
480,-44.921875
481,-41.015625
482,-44.921875
483,-42.968750
484,-41.015625
485,-41.015625
486,-41.015625
487,-41.015625
488,-44.921875
489,-41.015625
490,-44.921875
491,-41.015625
492,-42.968750
493,-41.015625
494,-41.015625
495,-44.921875
496,-41.015625
497,-60.546875
498,-41.015625
499,-42.968750
500,-44.921875
501,-41.015625
502,-41.015625
503,-37.109375
504,-31.250000
505,-41.015625
506,-41.015625
507,-41.015625
508,-42.968750
509,-42.968750
510,-44.921875
511,-42.968750
512,-44.921875
513,-46.875000
514,-48.828125
515,-44.921875
516,-41.015625
517,-41.015625
518,-41.015625
519,-41.015625
520,-44.921875
521,-41.015625
522,-44.921875
523,-41.015625
524,-44.921875
525,-41.015625
526,-41.015625
527,-41.015625
528,-41.015625
529,-44.921875
530,-41.015625
531,-44.921875
532,-41.015625
533,-41.015625
534,-41.015625
535,-35.156250
536,-44.921875
537,-41.015625
538,-41.015625
539,-41.015625
540,-41.015625
541,-44.921875
542,-41.015625
543,-41.015625
544,-42.968750
545,-42.968750
546,-41.015625
547,-42.968750
548,-41.015625
549,-41.015625
550,-41.015625
551,-42.968750
552,-41.015625
553,-41.015625
554,-41.015625
555,-41.015625
556,-41.015625
557,-42.968750
558,-42.968750
559,-44.921875
560,-41.015625
561,-41.015625
562,-44.921875
563,-41.015625
564,-44.921875
565,-41.015625
566,-39.062500
567,-41.015625
568,-41.015625
569,-41.015625
570,-41.015625
571,-41.015625
572,-48.828125
573,-41.015625
574,-44.921875
575,-41.015625
576,-41.015625
577,-44.921875
578,-41.015625
579,-41.015625
580,-41.015625
581,-39.062500
582,-41.015625
583,-41.015625
584,-41.015625
585,-41.015625
586,-41.015625
587,-41.015625
588,-41.015625
589,-41.015625
590,-44.921875
591,-41.015625
592,-41.015625
593,-41.015625
594,-41.015625
595,-41.015625
596,-41.015625
597,-41.015625
598,-41.015625
599,-41.015625
600,-41.015625
601,-41.015625
602,-41.015625
603,-41.015625
604,-37.109375
605,-37.109375
606,-42.968750
607,-41.015625
608,-41.015625
609,-41.015625
610,-44.921875
611,-44.921875
612,-41.015625
613,-42.968750
614,-44.921875
615,-44.921875
616,-44.921875
617,-44.921875
618,-44.921875
619,-44.921875
620,-44.921875
621,-46.875000
622,-44.921875
623,-46.875000
624,-48.828125
625,-44.921875
626,-46.875000
627,-46.875000
628,-46.875000
629,-48.828125
630,-48.828125
631,-46.875000
632,-48.828125
633,-48.828125
634,-48.828125
635,-48.828125
636,-50.781250
637,-52.734375
638,-48.828125
639,-52.734375
640,-50.781250
641,-54.687500
642,-54.687500
643,-52.734375
644,-56.640625
645,-54.687500
646,-54.687500
647,-52.734375
648,-54.687500
649,-56.640625
650,-54.687500
651,-56.640625
652,-50.781250
653,-54.687500
654,-56.640625
655,-54.687500
656,-56.640625
657,-56.640625
658,-52.734375
659,-56.640625
660,-54.687500
661,-56.640625
662,-56.640625
663,-54.687500
664,-56.640625
665,-54.687500
666,-56.640625
667,-56.640625
668,-52.734375
669,-56.640625
670,-54.687500
671,-60.546875
672,-56.640625
673,-56.640625
674,-54.687500
675,-56.640625
676,-56.640625
677,-54.687500
678,-58.593750
679,-54.687500
680,-56.640625
681,-56.640625
682,-54.687500
683,-54.687500
684,-52.734375
685,-56.640625
686,-56.640625
687,-56.640625
688,-54.687500
689,-56.640625
690,-54.687500
691,-56.640625
692,-54.687500
693,-54.687500
694,-56.640625
695,-54.687500
696,-58.593750
697,-50.781250
698,-54.687500
699,-52.734375
700,-52.734375
701,-54.687500
702,-52.734375
703,-56.640625
704,-50.781250
705,-50.781250
706,-52.734375
707,-54.687500
708,-54.687500
709,-56.640625
710,-52.734375
711,-54.687500
712,-54.687500
713,-54.687500
714,-56.640625
715,-54.687500
716,-54.687500
717,-52.734375
718,-54.687500
719,-52.734375
720,-50.781250
721,-54.687500
722,-52.734375
723,-50.781250
724,-56.640625
725,-52.734375
726,-54.687500
727,-56.640625
728,-52.734375
729,-60.546875
730,-54.687500
731,-52.734375
732,-56.640625
733,-48.828125
734,-54.687500
735,-56.640625
736,-50.781250
737,-54.687500
738,-52.734375
739,-52.734375
740,-54.687500
741,-52.734375
742,-52.734375
743,-54.687500
744,-52.734375
745,-52.734375
746,-48.828125
747,-56.640625
748,-54.687500
749,-50.781250
750,-56.640625
751,-54.687500
752,-54.687500
753,-54.687500
754,-52.734375
755,-52.734375
756,-54.687500
757,-52.734375
758,-54.687500
759,-46.875000
760,-52.734375
761,-56.640625
762,-50.781250
763,-54.687500
764,-56.640625
765,-52.734375
766,-52.734375
767,-54.687500
768,-52.734375
769,-54.687500
770,-50.781250
771,-54.687500
772,-52.734375
773,-48.828125
774,-54.687500
775,-52.734375
776,-54.687500
777,-54.687500
778,-50.781250
779,-54.687500
780,-50.781250
781,-54.687500
782,-54.687500
783,-52.734375
784,-54.687500
785,-54.687500
786,-48.828125
787,-54.687500
788,-54.687500
789,-54.687500
790,-54.687500
791,-54.687500
792,-56.640625
793,-50.781250
794,-68.359375
795,-54.687500
796,-48.828125
797,-50.781250
798,-54.687500
799,-48.828125
800,-37.109375
801,-50.781250
802,-50.781250
803,-54.687500
804,-50.781250
805,-52.734375
806,-54.687500
807,-50.781250
808,-54.687500
809,-50.781250
810,-52.734375
811,-50.781250
812,-54.687500
813,-52.734375
814,-50.781250
815,-50.781250
816,-52.734375
817,-52.734375
818,-52.734375
819,-52.734375
820,-50.781250
821,-52.734375
822,-50.781250
823,-56.640625
824,-50.781250
825,-50.781250
826,-54.687500
827,-48.828125
828,-50.781250
829,-54.687500
830,-50.781250
831,-54.687500
832,-48.828125
833,-48.828125
834,-52.734375
835,-48.828125
836,-48.828125
837,-48.828125
838,-52.734375
839,-52.734375
840,-48.828125
841,-50.781250
842,-52.734375
843,-52.734375
844,-52.734375
845,-48.828125
846,-52.734375
847,-50.781250
848,-52.734375
849,-52.734375
850,-52.734375
851,-54.687500
852,-52.734375
853,-50.781250
854,-46.875000
855,-52.734375
856,-48.828125
857,-54.687500
858,-48.828125
859,-54.687500
860,-50.781250
861,-52.734375
862,-52.734375
863,-52.734375
864,-52.734375
865,-48.828125
866,-50.781250
867,-52.734375
868,-52.734375
869,-48.828125
870,-52.734375
871,-54.687500
872,-54.687500
873,-52.734375
874,-48.828125
875,-56.640625
876,-48.828125
877,-50.781250
878,-50.781250
879,-48.828125
880,-52.734375
881,-52.734375
882,-48.828125
883,-50.781250
884,-48.828125
885,-50.781250
886,-48.828125
887,-60.546875
888,-50.781250
889,-46.875000
890,-46.875000
891,-44.921875
892,-46.875000
893,-48.828125
894,-44.921875
895,-44.921875
896,-46.875000
897,-44.921875
898,-44.921875
899,-44.921875
900,-46.875000
901,-39.062500
902,-44.921875
903,-44.921875
904,-44.921875
905,-44.921875
906,-41.015625
907,-44.921875
908,-41.015625
909,-44.921875
910,-44.921875
911,-41.015625
912,-44.921875
913,-41.015625
914,-41.015625
915,-44.921875
916,-41.015625
917,-44.921875
918,-41.015625
919,-41.015625
920,-44.921875
921,-42.968750
922,-41.015625
923,-50.781250
924,-41.015625
925,-41.015625
926,-44.921875
927,-41.015625
928,-41.015625
929,-41.015625
930,-41.015625
931,-41.015625
932,-41.015625
933,-46.875000
934,-44.921875
935,-41.015625
936,-42.968750
937,-41.015625
938,-41.015625
939,-44.921875
940,-41.015625
941,-42.968750
942,-41.015625
943,-41.015625
944,-41.015625
945,-42.968750
946,-44.921875
947,-41.015625
948,-44.921875
949,-44.921875
950,-44.921875
951,-44.921875
952,-44.921875
953,-41.015625
954,-41.015625
955,-41.015625
956,-41.015625
957,-44.921875
958,-41.015625
959,-46.875000
960,-41.015625
961,-41.015625
962,-44.921875
963,-41.015625
964,-42.968750
965,-44.921875
966,-41.015625
967,-41.015625
968,-41.015625
969,-41.015625
970,-41.015625
971,-41.015625
972,-41.015625
973,-42.968750
974,-41.015625
975,-44.921875
976,-41.015625
977,-44.921875
978,-41.015625
979,-42.968750
980,-44.921875
981,-41.015625
982,-39.062500
983,-44.921875
984,-41.015625
985,-44.921875
986,-41.015625
987,-41.015625
988,-42.968750
989,-41.015625
990,-41.015625
991,-44.921875
992,-41.015625
993,-42.968750
994,-41.015625
995,-37.109375
996,-41.015625
997,-37.109375
998,-44.921875
999,-41.015625
1000,-42.968750
1001,-41.015625
1002,-41.015625
1003,-44.921875
1004,-41.015625
1005,-41.015625
1006,-41.015625
1007,-41.015625
1008,-41.015625
1009,-42.968750
1010,-41.015625
1011,-44.921875
1012,-41.015625
1013,-44.921875
1014,-41.015625
1015,-39.062500
1016,-41.015625
1017,-41.015625
1018,-41.015625
1019,-41.015625
1020,-41.015625
1021,-41.015625
1022,-41.015625
1023,-42.968750
1024,-39.062500
1025,-44.921875
1026,-41.015625
1027,-42.968750
1028,-39.062500
1029,-41.015625
1030,-41.015625
1031,-41.015625
1032,-41.015625
1033,-39.062500
1034,-44.921875
1035,-41.015625
1036,-44.921875
1037,-44.921875
1038,-44.921875
1039,-44.921875
1040,-41.015625
1041,-42.968750
1042,-42.968750
1043,-44.921875
1044,-42.968750
1045,-44.921875
1046,-41.015625
1047,-44.921875
1048,-41.015625
1049,-41.015625
1050,-41.015625
1051,-41.015625
1052,-41.015625
1053,-41.015625
1054,-44.921875
1055,-41.015625
1056,-42.968750
1057,-46.875000
1058,-41.015625
1059,-42.968750
1060,-39.062500
1061,-44.921875
1062,-44.921875
1063,-41.015625
1064,-44.921875
1065,-41.015625
1066,-41.015625
1067,-44.921875
1068,-41.015625
1069,-41.015625
1070,-44.921875
1071,-41.015625
1072,-44.921875
1073,-42.968750
1074,-41.015625
1075,-41.015625
1076,-41.015625
1077,-44.921875
1078,-41.015625
1079,-42.968750
1080,-44.921875
1081,-41.015625
1082,-41.015625
1083,-42.968750
1084,-42.968750
1085,-41.015625
1086,-41.015625
1087,-44.921875
1088,-42.968750
1089,-41.015625
1090,-42.968750
1091,-41.015625
1092,-41.015625
1093,-42.968750
1094,-41.015625
1095,-41.015625
1096,-41.015625
1097,-41.015625
1098,-42.968750
1099,-41.015625
1100,-44.921875
1101,-42.968750
1102,-41.015625
1103,-42.968750
1104,-41.015625
1105,-44.921875
1106,-42.968750
1107,-41.015625
1108,-41.015625
1109,-41.015625
1110,-41.015625
1111,-44.921875
1112,-42.968750
1113,-60.546875
1114,-42.968750
1115,-41.015625
1116,-41.015625
1117,-41.015625
1118,-44.921875
1119,-41.015625
1120,-41.015625
1121,-44.921875
1122,-41.015625
1123,-41.015625
1124,-44.921875
1125,-41.015625
1126,-42.968750
1127,-41.015625
1128,-41.015625
1129,-44.921875
1130,-41.015625
1131,-44.921875
1132,-44.921875
1133,-41.015625
1134,-41.015625
1135,-41.015625
1136,-41.015625
1137,-41.015625
1138,-41.015625
1139,-44.921875
1140,-41.015625
1141,-44.921875
1142,-42.968750
1143,-39.062500
1144,-41.015625
1145,-41.015625
1146,-44.921875
1147,-41.015625
1148,-42.968750
1149,-41.015625
1150,-41.015625
1151,-44.921875
1152,-39.062500
1153,-44.921875
1154,-41.015625
1155,-41.015625
1156,-42.968750
1157,-41.015625
1158,-44.921875
1159,-42.968750
1160,-41.015625
1161,-48.828125
1162,-41.015625
1163,-42.968750
1164,-44.921875
1165,-41.015625
1166,-44.921875
1167,-41.015625
1168,-44.921875
1169,-42.968750
1170,-41.015625
1171,-44.921875
1172,-42.968750
1173,-41.015625
1174,-42.968750
1175,-44.921875
1176,-41.015625
1177,-41.015625
1178,-41.015625
1179,-41.015625
1180,-44.921875
1181,-41.015625
1182,-44.921875
1183,-39.062500
1184,-35.156250
1185,-42.968750
1186,-41.015625
1187,-44.921875
1188,-41.015625
1189,-41.015625
1190,-41.015625
1191,-41.015625
1192,-41.015625
1193,-48.828125
1194,-39.062500
1195,-44.921875
1196,-41.015625
1197,-41.015625
1198,-44.921875
1199,-41.015625
1200,-42.968750
1201,-41.015625
1202,-44.921875
1203,-41.015625
1204,-41.015625
1205,-41.015625
1206,-42.968750
1207,-41.015625
1208,-44.921875
1209,-41.015625
1210,-44.921875
1211,-44.921875
1212,-41.015625
1213,-42.968750
1214,-41.015625
1215,-42.968750
1216,-42.968750
1217,-41.015625
1218,-44.921875
1219,-41.015625
1220,-41.015625
1221,-44.921875
1222,-41.015625
1223,-41.015625
1224,-41.015625
1225,-60.546875
1226,-41.015625
1227,-41.015625
1228,-42.968750
1229,-41.015625
1230,-44.921875
1231,-41.015625
1232,-41.015625
1233,-42.968750
1234,-56.640625
1235,-41.015625
1236,-41.015625
1237,-42.968750
1238,-41.015625
1239,-41.015625
1240,-41.015625
1241,-41.015625
1242,-41.015625
1243,-41.015625
1244,-41.015625
1245,-31.250000
1246,-41.015625
1247,-41.015625
1248,-41.015625
1249,-41.015625
1250,-41.015625
1251,-41.015625
1252,-41.015625
1253,-42.968750
1254,-41.015625
1255,-42.968750
1256,-42.968750
1257,-41.015625
1258,-44.921875
1259,-41.015625
1260,-41.015625
1261,-44.921875
1262,-42.968750
1263,-44.921875
1264,-44.921875
1265,-41.015625
1266,-44.921875
1267,-44.921875
1268,-44.921875
1269,-44.921875
1270,-39.062500
1271,-44.921875
1272,-41.015625
1273,-39.062500
1274,-44.921875
1275,-41.015625
1276,-42.968750
1277,-44.921875
1278,-44.921875
1279,-44.921875
1280,-41.015625
1281,-44.921875
1282,-41.015625
1283,-41.015625
1284,-46.875000
1285,-41.015625
1286,-41.015625
1287,-41.015625
1288,-41.015625
1289,-44.921875
1290,-41.015625
1291,-41.015625
1292,-44.921875
1293,-39.062500
1294,-44.921875
1295,-41.015625
1296,-41.015625
1297,-41.015625
1298,-41.015625
1299,-41.015625
1300,-42.968750
1301,-41.015625
1302,-44.921875
1303,-41.015625
1304,-41.015625
