時系列データ/data_kai/dan.csv

Channel              :,CH1
Frequency            :,  ?
Period               :,  ?
PK-PK                :,103.5mV
Probe attenuation    :,10X
Voltage per ADC value:,0.122070mV
Time interval        :,400.00000us

index,CH1_Voltage(mV)
1,-1.953125
2,-1.953125
3,-13.671875
4,-3.906250
5,-5.859375
6,-9.765625
7,-5.859375
8,-5.859375
9,-7.812500
10,-3.906250
11,-9.765625
12,-3.906250
13,-3.906250
14,-5.859375
15,-1.953125
16,-5.859375
17,-5.859375
18,-5.859375
19,-5.859375
20,-3.906250
21,-5.859375
22,-3.906250
23,-1.953125
24,-5.859375
25,-3.906250
26,-1.953125
27,-3.906250
28,-5.859375
29,-1.953125
30,-3.906250
31,-3.906250
32,-3.906250
33,-1.953125
34,-1.953125
35,-1.953125
36,-1.953125
37,-5.859375
38,-3.906250
39,-1.953125
40,-3.906250
41,-1.953125
42,-1.953125
43,-1.953125
44,-1.953125
45,-3.906250
46,-1.953125
47,-1.953125
48,-1.953125
49,-3.906250
50,-3.906250
51,-1.953125
52,-1.953125
53,-1.953125
54,-3.906250
55,-3.906250
56,-3.906250
57,-3.906250
58,-1.953125
59,-5.859375
60,-3.906250
61,-1.953125
62,-3.906250
63,-3.906250
64,-3.906250
65,-7.812500
66,-1.953125
67,-5.859375
68,-3.906250
69,-5.859375
70,-3.906250
71,-5.859375
72,-3.906250
73,-3.906250
74,-5.859375
75,-3.906250
76,-1.953125
77,-3.906250
78,-3.906250
79,-3.906250
80,-7.812500
81,-7.812500
82,-9.765625
83,-9.765625
84,-13.671875
85,-13.671875
86,-17.578125
87,-21.484375
88,-21.484375
89,-23.437500
90,-25.390625
91,-25.390625
92,-29.296875
93,-33.203125
94,-33.203125
95,-35.156250
96,-35.156250
97,-41.015625
98,-39.062500
99,-44.921875
100,-44.921875
101,-44.921875
102,-46.875000
103,-48.828125
104,-48.828125
105,-52.734375
106,-50.781250
107,-54.687500
108,-54.687500
109,-56.640625
110,-56.640625
111,-56.640625
112,-60.546875
113,-60.546875
114,-56.640625
115,-60.546875
116,-60.546875
117,-60.546875
118,-60.546875
119,-62.500000
120,-60.546875
121,-60.546875
122,-64.453125
123,-56.640625
124,-62.500000
125,-64.453125
126,-62.500000
127,-64.453125
128,-64.453125
129,-64.453125
130,-64.453125
131,-64.453125
132,-56.640625
133,-64.453125
134,-62.500000
135,-66.406250
136,-62.500000
137,-64.453125
138,-64.453125
139,-64.453125
140,-64.453125
141,-64.453125
142,-64.453125
143,-62.500000
144,-64.453125
145,-64.453125
146,-60.546875
147,-64.453125
148,-62.500000
149,-64.453125
150,-44.921875
151,-64.453125
152,-64.453125
153,-64.453125
154,-66.406250
155,-58.593750
156,-64.453125
157,-64.453125
158,-60.546875
159,-62.500000
160,-60.546875
161,-60.546875
162,-62.500000
163,-60.546875
164,-60.546875
165,-60.546875
166,-60.546875
167,-62.500000
168,-52.734375
169,-60.546875
170,-60.546875
171,-56.640625
172,-60.546875
173,-56.640625
174,-56.640625
175,-56.640625
176,-56.640625
177,-54.687500
178,-48.828125
179,-48.828125
180,-46.875000
181,-46.875000
182,-48.828125
183,-44.921875
184,-44.921875
185,-41.015625
186,-41.015625
187,-39.062500
188,-37.109375
189,-33.203125
190,-33.203125
191,-29.296875
192,-25.390625
193,-23.437500
194,-23.437500
195,-25.390625
196,-19.531250
197,-21.484375
198,-15.625000
199,-17.578125
200,-13.671875
201,-13.671875
202,-13.671875
203,-9.765625
204,-13.671875
205,-9.765625
206,-9.765625
207,-9.765625
208,-7.812500
209,-9.765625
210,-5.859375
211,-7.812500
212,-7.812500
213,-1.953125
214,-9.765625
215,-9.765625
216,-13.671875
217,-19.531250
218,-15.625000
219,-23.437500
220,-23.437500
221,-23.437500
222,-29.296875
223,-27.343750
224,-33.203125
225,-37.109375
226,-39.062500
227,-41.015625
228,-42.968750
229,-44.921875
230,-46.875000
231,-48.828125
232,-52.734375
233,-52.734375
234,-54.687500
235,-54.687500
236,-56.640625
237,-60.546875
238,-56.640625
239,-60.546875
240,-60.546875
241,-62.500000
242,-62.500000
243,-54.687500
244,-64.453125
245,-64.453125
246,-64.453125
247,-64.453125
248,-64.453125
249,-66.406250
250,-64.453125
251,-64.453125
252,-64.453125
253,-64.453125
254,-64.453125
255,-64.453125
256,-64.453125
257,-64.453125
258,-66.406250
259,-64.453125
260,-64.453125
261,-66.406250
262,-64.453125
263,-66.406250
264,-64.453125
265,-66.406250
266,-64.453125
267,-64.453125
268,-66.406250
269,-64.453125
270,-64.453125
271,-64.453125
272,-66.406250
273,-66.406250
274,-64.453125
275,-64.453125
276,-64.453125
277,-64.453125
278,-64.453125
279,-66.406250
280,-64.453125
281,-64.453125
282,-64.453125
283,-64.453125
284,-66.406250
285,-62.500000
286,-64.453125
287,-64.453125
288,-64.453125
289,-64.453125
290,-62.500000
291,-66.406250
292,-64.453125
293,-64.453125
294,-66.406250
295,-64.453125
296,-64.453125
297,-64.453125
298,-64.453125
299,-66.406250
300,-64.453125
301,-64.453125
302,-64.453125
303,-64.453125
304,-64.453125
305,-64.453125
306,-64.453125
307,-62.500000
308,-64.453125
309,-64.453125
310,-60.546875
311,-64.453125
312,-62.500000
313,-60.546875
314,-60.546875
315,-60.546875
316,-60.546875
317,-60.546875
318,-60.546875
319,-58.593750
320,-60.546875
321,-60.546875
322,-58.593750
323,-60.546875
324,-60.546875
325,-58.593750
326,-60.546875
327,-56.640625
328,-56.640625
329,-60.546875
330,-56.640625
331,-56.640625
332,-56.640625
333,-56.640625
334,-54.687500
335,-56.640625
336,-56.640625
337,-54.687500
338,-58.593750
339,-60.546875
340,-56.640625
341,-60.546875
342,-52.734375
343,-56.640625
344,-56.640625
345,-56.640625
346,-56.640625
347,-56.640625
348,-60.546875
349,-52.734375
350,-60.546875
351,-56.640625
352,-58.593750
353,-56.640625
354,-56.640625
355,-56.640625
356,-56.640625
357,-56.640625
358,-60.546875
359,-56.640625
360,-58.593750
361,-56.640625
362,-60.546875
363,-60.546875
364,-60.546875
365,-58.593750
366,-58.593750
367,-60.546875
368,-60.546875
369,-62.500000
370,-62.500000
371,-62.500000
372,-62.500000
373,-62.500000
374,-62.500000
375,-64.453125
376,-64.453125
377,-64.453125
378,-64.453125
379,-60.546875
380,-64.453125
381,-64.453125
382,-66.406250
383,-64.453125
384,-64.453125
385,-66.406250
386,-66.406250
387,-60.546875
388,-72.265625
389,-64.453125
390,-64.453125
391,-64.453125
392,-66.406250
393,-66.406250
394,-64.453125
395,-66.406250
396,-64.453125
397,-66.406250
398,-64.453125
399,-64.453125
400,-66.406250
401,-64.453125
402,-64.453125
403,-66.406250
404,-64.453125
405,-64.453125
406,-62.500000
407,-68.359375
408,-66.406250
409,-64.453125
410,-64.453125
411,-64.453125
412,-64.453125
413,-64.453125
414,-64.453125
415,-66.406250
416,-64.453125
417,-66.406250
418,-62.500000
419,-62.500000
420,-64.453125
421,-64.453125
422,-64.453125
423,-64.453125
424,-66.406250
425,-64.453125
426,-64.453125
427,-66.406250
428,-64.453125
429,-62.500000
430,-66.406250
431,-62.500000
432,-64.453125
433,-64.453125
434,-62.500000
435,-64.453125
436,-64.453125
437,-64.453125
438,-64.453125
439,-64.453125
440,-64.453125
441,-62.500000
442,-64.453125
443,-64.453125
444,-64.453125
445,-64.453125
446,-64.453125
447,-64.453125
448,-64.453125
449,-64.453125
450,-66.406250
451,-64.453125
452,-64.453125
453,-64.453125
454,-64.453125
455,-64.453125
456,-64.453125
457,-66.406250
458,-64.453125
459,-64.453125
460,-64.453125
461,-62.500000
462,-66.406250
463,-64.453125
464,-66.406250
465,-72.265625
466,-66.406250
467,-66.406250
468,-64.453125
469,-64.453125
470,-64.453125
471,-62.500000
472,-64.453125
473,-64.453125
474,-66.406250
475,-66.406250
476,-64.453125
477,-64.453125
478,-64.453125
479,-64.453125
480,-64.453125
481,-64.453125
482,-64.453125
483,-64.453125
484,-66.406250
485,-66.406250
486,-64.453125
487,-64.453125
488,-64.453125
489,-64.453125
490,-64.453125
491,-62.500000
492,-66.406250
493,-64.453125
494,-64.453125
495,-64.453125
496,-66.406250
497,-66.406250
498,-66.406250
499,-64.453125
500,-64.453125
501,-66.406250
502,-66.406250
503,-64.453125
504,-66.406250
505,-64.453125
506,-64.453125
507,-68.359375
508,-62.500000
509,-66.406250
510,-64.453125
511,-64.453125
512,-66.406250
513,-64.453125
514,-66.406250
515,-64.453125
516,-68.359375
517,-66.406250
518,-64.453125
519,-64.453125
520,-64.453125
521,-64.453125
522,-66.406250
523,-64.453125
524,-64.453125
525,-66.406250
526,-64.453125
527,-64.453125
528,-68.359375
529,-64.453125
530,-64.453125
531,-64.453125
532,-68.359375
533,-64.453125
534,-64.453125
535,-64.453125
536,-66.406250
537,-64.453125
538,-64.453125
539,-64.453125
540,-64.453125
541,-64.453125
542,-64.453125
543,-64.453125
544,-64.453125
545,-66.406250
546,-64.453125
547,-64.453125
548,-64.453125
549,-64.453125
550,-64.453125
551,-64.453125
552,-64.453125
553,-64.453125
554,-64.453125
555,-62.500000
556,-64.453125
557,-64.453125
558,-64.453125
559,-62.500000
560,-64.453125
561,-64.453125
562,-64.453125
563,-64.453125
564,-64.453125
565,-64.453125
566,-64.453125
567,-64.453125
568,-66.406250
569,-66.406250
570,-64.453125
571,-64.453125
572,-62.500000
573,-64.453125
574,-64.453125
575,-64.453125
576,-64.453125
577,-62.500000
578,-64.453125
579,-64.453125
580,-62.500000
581,-64.453125
582,-64.453125
583,-64.453125
584,-64.453125
585,-62.500000
586,-64.453125
587,-62.500000
588,-64.453125
589,-64.453125
590,-64.453125
591,-64.453125
592,-60.546875
593,-64.453125
594,-64.453125
595,-62.500000
596,-62.500000
597,-64.453125
598,-64.453125
599,-64.453125
600,-62.500000
601,-64.453125
602,-60.546875
603,-64.453125
604,-64.453125
605,-64.453125
606,-64.453125
607,-62.500000
608,-52.734375
609,-64.453125
610,-64.453125
611,-66.406250
612,-62.500000
613,-64.453125
614,-64.453125
615,-62.500000
616,-64.453125
617,-62.500000
618,-64.453125
619,-64.453125
620,-60.546875
621,-66.406250
622,-62.500000
623,-70.312500
624,-66.406250
625,-60.546875
626,-64.453125
627,-62.500000
628,-64.453125
629,-64.453125
630,-60.546875
631,-64.453125
632,-62.500000
633,-64.453125
634,-62.500000
635,-62.500000
636,-64.453125
637,-62.500000
638,-62.500000
639,-64.453125
640,-46.875000
641,-66.406250
642,-64.453125
643,-64.453125
644,-62.500000
645,-64.453125
646,-64.453125
647,-64.453125
648,-64.453125
649,-66.406250
650,-64.453125
651,-64.453125
652,-64.453125
653,-62.500000
654,-64.453125
655,-62.500000
656,-64.453125
657,-62.500000
658,-68.359375
659,-66.406250
660,-64.453125
661,-66.406250
662,-64.453125
663,-66.406250
664,-64.453125
665,-64.453125
666,-64.453125
667,-64.453125
668,-64.453125
669,-64.453125
670,-62.500000
671,-60.546875
672,-60.546875
673,-64.453125
674,-60.546875
675,-56.640625
676,-56.640625
677,-52.734375
678,-52.734375
679,-54.687500
680,-50.781250
681,-52.734375
682,-50.781250
683,-54.687500
684,-52.734375
685,-48.828125
686,-54.687500
687,-50.781250
688,-52.734375
689,-52.734375
690,-50.781250
691,-52.734375
692,-52.734375
693,-50.781250
694,-56.640625
695,-50.781250
696,-56.640625
697,-54.687500
698,-56.640625
699,-54.687500
700,-56.640625
701,-60.546875
702,-60.546875
703,-56.640625
704,-60.546875
705,-56.640625
706,-60.546875
707,-60.546875
708,-62.500000
709,-60.546875
710,-60.546875
711,-62.500000
712,-62.500000
713,-64.453125
714,-64.453125
715,-62.500000
716,-72.265625
717,-62.500000
718,-64.453125
719,-64.453125
720,-64.453125
721,-64.453125
722,-64.453125
723,-64.453125
724,-64.453125
725,-64.453125
726,-66.406250
727,-64.453125
728,-64.453125
729,-66.406250
730,-66.406250
731,-66.406250
732,-66.406250
733,-64.453125
734,-60.546875
735,-64.453125
736,-64.453125
737,-64.453125
738,-64.453125
739,-66.406250
740,-64.453125
741,-64.453125
742,-66.406250
743,-64.453125
744,-66.406250
745,-64.453125
746,-66.406250
747,-66.406250
748,-64.453125
749,-64.453125
750,-64.453125
751,-66.406250
752,-66.406250
753,-64.453125
754,-62.500000
755,-64.453125
756,-64.453125
757,-64.453125
758,-64.453125
759,-60.546875
760,-60.546875
761,-64.453125
762,-56.640625
763,-56.640625
764,-50.781250
765,-54.687500
766,-48.828125
767,-46.875000
768,-44.921875
769,-41.015625
770,-39.062500
771,-41.015625
772,-39.062500
773,-41.015625
774,-37.109375
775,-41.015625
776,-35.156250
777,-33.203125
778,-33.203125
779,-35.156250
780,-31.250000
781,-29.296875
782,-29.296875
783,-25.390625
784,-29.296875
785,-25.390625
786,-23.437500
787,-25.390625
788,-19.531250
789,-23.437500
790,-19.531250
791,-19.531250
792,-21.484375
793,-19.531250
794,-19.531250
795,-17.578125
796,-17.578125
797,-17.578125
798,-15.625000
799,-19.531250
800,-15.625000
801,-17.578125
802,-17.578125
803,-13.671875
804,-17.578125
805,-17.578125
806,-17.578125
807,-21.484375
808,-17.578125
809,-23.437500
810,-23.437500
811,-25.390625
812,-25.390625
813,-27.343750
814,-31.250000
815,-31.250000
816,-33.203125
817,-33.203125
818,-33.203125
819,-39.062500
820,-37.109375
821,-39.062500
822,-41.015625
823,-41.015625
824,-44.921875
825,-39.062500
826,-42.968750
827,-44.921875
828,-44.921875
829,-44.921875
830,-46.875000
831,-48.828125
832,-48.828125
833,-50.781250
834,-50.781250
835,-52.734375
836,-48.828125
837,-52.734375
838,-52.734375
839,-54.687500
840,-52.734375
841,-56.640625
842,-58.593750
843,-56.640625
844,-54.687500
845,-56.640625
846,-56.640625
847,-56.640625
848,-56.640625
849,-60.546875
850,-60.546875
851,-64.453125
852,-60.546875
853,-60.546875
854,-62.500000
855,-58.593750
856,-60.546875
857,-60.546875
858,-60.546875
859,-60.546875
860,-60.546875
861,-60.546875
862,-60.546875
863,-60.546875
864,-62.500000
865,-60.546875
866,-60.546875
867,-60.546875
868,-60.546875
869,-60.546875
870,-60.546875
871,-60.546875
872,-58.593750
873,-60.546875
874,-60.546875
875,-56.640625
876,-58.593750
877,-56.640625
878,-56.640625
879,-58.593750
880,-56.640625
881,-52.734375
882,-48.828125
883,-50.781250
884,-48.828125
885,-48.828125
886,-46.875000
887,-48.828125
888,-44.921875
889,-44.921875
890,-41.015625
891,-44.921875
892,-39.062500
893,-35.156250
894,-33.203125
895,-29.296875
896,-29.296875
897,-25.390625
898,-25.390625
899,-23.437500
900,-15.625000
901,-17.578125
902,-19.531250
903,-15.625000
904,-13.671875
905,-13.671875
906,-9.765625
907,-11.718750
908,-9.765625
909,-9.765625
910,-9.765625
911,-5.859375
912,-7.812500
913,-3.906250
914,-7.812500
915,-5.859375
916,-1.953125
917,-5.859375
918,5.859375
919,-3.906250
920,-3.906250
921,-3.906250
922,-3.906250
923,-3.906250
924,-1.953125
925,-3.906250
926,-1.953125
927,-1.953125
928,-1.953125
929,-1.953125
930,-5.859375
931,-1.953125
932,-5.859375
933,-1.953125
934,0.000000
935,-3.906250
936,-1.953125
937,-3.906250
938,-1.953125
939,-1.953125
940,-3.906250
941,-3.906250
942,-3.906250
943,-1.953125
944,-3.906250
945,-3.906250
946,-3.906250
947,-3.906250
948,-5.859375
949,-3.906250
950,-3.906250
951,-5.859375
952,-5.859375
953,-7.812500
954,-3.906250
955,-5.859375
956,-3.906250
957,-7.812500
958,-7.812500
959,-7.812500
960,-9.765625
961,-7.812500
962,-9.765625
963,-5.859375
964,-9.765625
965,-7.812500
966,-9.765625
967,-9.765625
968,-9.765625
969,-11.718750
970,-9.765625
971,-13.671875
972,-9.765625
973,-7.812500
974,-9.765625
975,-9.765625
976,-9.765625
977,-11.718750
978,-9.765625
979,-11.718750
980,-9.765625
981,-9.765625
982,-9.765625
983,-7.812500
984,-9.765625
985,-9.765625
986,-9.765625
987,-9.765625
988,-7.812500
989,-9.765625
990,-9.765625
991,-7.812500
992,-9.765625
993,-7.812500
994,-9.765625
995,-9.765625
996,-7.812500
997,-7.812500
998,-7.812500
999,-9.765625
1000,-7.812500
1001,-9.765625
1002,-5.859375
1003,-9.765625
1004,-3.906250
1005,-7.812500
1006,-5.859375
1007,-3.906250
1008,-5.859375
1009,-5.859375
1010,-7.812500
1011,-3.906250
1012,-3.906250
1013,-9.765625
1014,-3.906250
1015,-7.812500
1016,-5.859375
1017,-9.765625
1018,-5.859375
1019,-3.906250
1020,-5.859375
1021,-3.906250
1022,-1.953125
1023,-5.859375
1024,-3.906250
1025,-3.906250
1026,-1.953125
1027,-3.906250
1028,-1.953125
1029,-3.906250
1030,-1.953125
1031,-3.906250
1032,-3.906250
1033,-3.906250
1034,-1.953125
1035,-1.953125
1036,-3.906250
1037,-1.953125
1038,-1.953125
1039,-1.953125
1040,-3.906250
1041,-3.906250
1042,-1.953125
1043,-3.906250
1044,-1.953125
1045,-1.953125
1046,-3.906250
1047,-1.953125
1048,-1.953125
1049,-3.906250
1050,-1.953125
1051,-3.906250
1052,-1.953125
1053,-3.906250
1054,-3.906250
1055,-1.953125
1056,-3.906250
1057,-1.953125
1058,-3.906250
1059,-1.953125
1060,-3.906250
1061,-3.906250
1062,-1.953125
1063,-7.812500
1064,-5.859375
1065,-9.765625
1066,-5.859375
1067,-7.812500
1068,-13.671875
1069,-13.671875
1070,-17.578125
1071,-21.484375
1072,-19.531250
1073,-23.437500
1074,-23.437500
1075,-23.437500
1076,-27.343750
1077,-29.296875
1078,-31.250000
1079,-31.250000
1080,-35.156250
1081,-37.109375
1082,-35.156250
1083,-39.062500
1084,-39.062500
1085,-39.062500
1086,-44.921875
1087,-42.968750
1088,-46.875000
1089,-46.875000
1090,-46.875000
1091,-48.828125
1092,-48.828125
1093,-48.828125
1094,-50.781250
1095,-54.687500
1096,-54.687500
1097,-56.640625
1098,-56.640625
1099,-56.640625
1100,-60.546875
1101,-60.546875
1102,-56.640625
1103,-56.640625
1104,-60.546875
1105,-62.500000
1106,-60.546875
1107,-64.453125
1108,-64.453125
1109,-62.500000
1110,-62.500000
1111,-68.359375
1112,-64.453125
1113,-64.453125
1114,-64.453125
1115,-64.453125
1116,-64.453125
1117,-60.546875
1118,-66.406250
1119,-62.500000
1120,-64.453125
1121,-62.500000
1122,-60.546875
1123,-66.406250
1124,-62.500000
1125,-66.406250
1126,-64.453125
1127,-64.453125
1128,-64.453125
1129,-64.453125
1130,-66.406250
1131,-64.453125
1132,-64.453125
1133,-64.453125
1134,-64.453125
1135,-64.453125
1136,-66.406250
1137,-62.500000
1138,-60.546875
1139,-64.453125
1140,-64.453125
1141,-66.406250
1142,-62.500000
1143,-66.406250
1144,-62.500000
1145,-62.500000
1146,-62.500000
1147,-62.500000
1148,-66.406250
1149,-62.500000
1150,-64.453125
1151,-60.546875
1152,-66.406250
1153,-62.500000
1154,-60.546875
1155,-62.500000
1156,-60.546875
1157,-62.500000
1158,-60.546875
1159,-60.546875
1160,-60.546875
1161,-60.546875
1162,-60.546875
1163,-60.546875
1164,-60.546875
1165,-60.546875
1166,-60.546875
1167,-58.593750
1168,-60.546875
1169,-56.640625
1170,-62.500000
1171,-56.640625
1172,-56.640625
1173,-56.640625
1174,-48.828125
1175,-50.781250
1176,-50.781250
1177,-48.828125
1178,-48.828125
1179,-46.875000
1180,-48.828125
1181,-44.921875
1182,-44.921875
1183,-37.109375
1184,-41.015625
1185,-41.015625
1186,-37.109375
1187,-41.015625
1188,-39.062500
1189,-35.156250
1190,-37.109375
1191,-37.109375
1192,-35.156250
1193,-35.156250
1194,-33.203125
1195,-33.203125
1196,-31.250000
1197,-29.296875
1198,-29.296875
1199,-25.390625
1200,-25.390625
1201,-19.531250
1202,-21.484375
1203,-21.484375
1204,-19.531250
1205,-19.531250
1206,-15.625000
1207,-17.578125
1208,-13.671875
1209,-13.671875
1210,-13.671875
1211,-15.625000
1212,-17.578125
1213,-17.578125
1214,-33.203125
1215,-21.484375
1216,-23.437500
1217,-25.390625
1218,-29.296875
1219,-29.296875
1220,-31.250000
1221,-33.203125
1222,-37.109375
1223,-44.921875
1224,-41.015625
1225,-44.921875
1226,-44.921875
1227,-46.875000
1228,-48.828125
1229,-48.828125
1230,-56.640625
1231,-56.640625
1232,-56.640625
1233,-56.640625
1234,-56.640625
1235,-58.593750
1236,-60.546875
1237,-60.546875
1238,-62.500000
1239,-62.500000
1240,-64.453125
1241,-64.453125
1242,-62.500000
1243,-64.453125
1244,-64.453125
1245,-64.453125
1246,-64.453125
1247,-64.453125
1248,-66.406250
1249,-64.453125
1250,-66.406250
1251,-64.453125
1252,-66.406250
1253,-64.453125
1254,-64.453125
1255,-64.453125
1256,-66.406250
1257,-66.406250
1258,-60.546875
1259,-64.453125
1260,-64.453125
1261,-62.500000
1262,-64.453125
1263,-64.453125
1264,-72.265625
1265,-64.453125
1266,-64.453125
1267,-66.406250
1268,-68.359375
1269,-64.453125
1270,-64.453125
1271,-64.453125
1272,-64.453125
1273,-64.453125
1274,-64.453125
1275,-64.453125
1276,-64.453125
1277,-64.453125
1278,-64.453125
1279,-58.593750
1280,-64.453125
1281,-64.453125
1282,-62.500000
1283,-64.453125
1284,-64.453125
1285,-64.453125
1286,-68.359375
1287,-64.453125
1288,-64.453125
1289,-64.453125
1290,-64.453125
1291,-64.453125
1292,-62.500000
1293,-64.453125
1294,-60.546875
1295,-83.984375
1296,-64.453125
1297,-64.453125
1298,-66.406250
1299,-64.453125
1300,-62.500000
1301,-64.453125
1302,-64.453125
1303,-64.453125
1304,-62.500000
1305,-64.453125
1306,-66.406250
1307,-64.453125
1308,-64.453125
1309,-64.453125
1310,-64.453125
1311,-66.406250
1312,-64.453125
1313,-60.546875
1314,-64.453125
1315,-66.406250
1316,-64.453125
1317,-64.453125
1318,-66.406250
1319,-64.453125
1320,-64.453125
