時系列データ/data_kai/dantest.csv

Channel              :,CH1
Frequency            :,  ?
Period               :,  ?
PK-PK                :,89.84mV
Probe attenuation    :,10X
Voltage per ADC value:,0.122070mV
Time interval        :,400.00000us

index,CH1_Voltage(mV)
1,-9.765625
2,-9.765625
3,-9.765625
4,-9.765625
5,-9.765625
6,-9.765625
7,-9.765625
8,-7.812500
9,-9.765625
10,-9.765625
11,-9.765625
12,-9.765625
13,-9.765625
14,-11.718750
15,-9.765625
16,-13.671875
17,-7.812500
18,-9.765625
19,-3.906250
20,-9.765625
21,-13.671875
22,-9.765625
23,-9.765625
24,-9.765625
25,-9.765625
26,-9.765625
27,-9.765625
28,-15.625000
29,-11.718750
30,-9.765625
31,-9.765625
32,-9.765625
33,-9.765625
34,-9.765625
35,-9.765625
36,-11.718750
37,-9.765625
38,-9.765625
39,-9.765625
40,-9.765625
41,-9.765625
42,-7.812500
43,-13.671875
44,-7.812500
45,-9.765625
46,-9.765625
47,-9.765625
48,-13.671875
49,-9.765625
50,-9.765625
51,-9.765625
52,-9.765625
53,-13.671875
54,-7.812500
55,-13.671875
56,-9.765625
57,-11.718750
58,-13.671875
59,-9.765625
60,-9.765625
61,-13.671875
62,-13.671875
63,-9.765625
64,-13.671875
65,-9.765625
66,-13.671875
67,-11.718750
68,-9.765625
69,-9.765625
70,-9.765625
71,-13.671875
72,-9.765625
73,-9.765625
74,-13.671875
75,-9.765625
76,-13.671875
77,-9.765625
78,-11.718750
79,-9.765625
80,-13.671875
81,-9.765625
82,-11.718750
83,-9.765625
84,-9.765625
85,-9.765625
86,-9.765625
87,-7.812500
88,-9.765625
89,-11.718750
90,-9.765625
91,-9.765625
92,-13.671875
93,-9.765625
94,-11.718750
95,-9.765625
96,-17.578125
97,-9.765625
98,-9.765625
99,-15.625000
100,-9.765625
101,-13.671875
102,-9.765625
103,-9.765625
104,-11.718750
105,-9.765625
106,-9.765625
107,-13.671875
108,-9.765625
109,-13.671875
110,-9.765625
111,-9.765625
112,-11.718750
113,-9.765625
114,-13.671875
115,-13.671875
116,-9.765625
117,-13.671875
118,-9.765625
119,-13.671875
120,-11.718750
121,-11.718750
122,-13.671875
123,-9.765625
124,-13.671875
125,-13.671875
126,-11.718750
127,-13.671875
128,-17.578125
129,-13.671875
130,-13.671875
131,-15.625000
132,-17.578125
133,-17.578125
134,-17.578125
135,-23.437500
136,-19.531250
137,-29.296875
138,-23.437500
139,-23.437500
140,-25.390625
141,-25.390625
142,-25.390625
143,-29.296875
144,-31.250000
145,-29.296875
146,-29.296875
147,-31.250000
148,-31.250000
149,-33.203125
150,-31.250000
151,-33.203125
152,-33.203125
153,-33.203125
154,-35.156250
155,-29.296875
156,-33.203125
157,-35.156250
158,-33.203125
159,-33.203125
160,-35.156250
161,-33.203125
162,-33.203125
163,-33.203125
164,-42.968750
165,-33.203125
166,-31.250000
167,-33.203125
168,-29.296875
169,-31.250000
170,-31.250000
171,-25.390625
172,-29.296875
173,-25.390625
174,-23.437500
175,-23.437500
176,-21.484375
177,-25.390625
178,-25.390625
179,-21.484375
180,-19.531250
181,-21.484375
182,-17.578125
183,-17.578125
184,-17.578125
185,-17.578125
186,-15.625000
187,-15.625000
188,-17.578125
189,-15.625000
190,-17.578125
191,-17.578125
192,-17.578125
193,-15.625000
194,-15.625000
195,-17.578125
196,-13.671875
197,-17.578125
198,-15.625000
199,-17.578125
200,-17.578125
201,-17.578125
202,-21.484375
203,-19.531250
204,-21.484375
205,-21.484375
206,-19.531250
207,-25.390625
208,-23.437500
209,-27.343750
210,-29.296875
211,-29.296875
212,-33.203125
213,-31.250000
214,-33.203125
215,-35.156250
216,-35.156250
217,-37.109375
218,-37.109375
219,-39.062500
220,-41.015625
221,-39.062500
222,-44.921875
223,-44.921875
224,-41.015625
225,-44.921875
226,-42.968750
227,-44.921875
228,-46.875000
229,-44.921875
230,-46.875000
231,-46.875000
232,-60.546875
233,-48.828125
234,-48.828125
235,-48.828125
236,-48.828125
237,-48.828125
238,-50.781250
239,-48.828125
240,-46.875000
241,-46.875000
242,-48.828125
243,-48.828125
244,-46.875000
245,-44.921875
246,-41.015625
247,-44.921875
248,-41.015625
249,-39.062500
250,-41.015625
251,-37.109375
252,-37.109375
253,-35.156250
254,-33.203125
255,-33.203125
256,-29.296875
257,-31.250000
258,-33.203125
259,-29.296875
260,-31.250000
261,-25.390625
262,-25.390625
263,-25.390625
264,-25.390625
265,-25.390625
266,-25.390625
267,-25.390625
268,-25.390625
269,-21.484375
270,-25.390625
271,-25.390625
272,-25.390625
273,-29.296875
274,-25.390625
275,-31.250000
276,-31.250000
277,-33.203125
278,-33.203125
279,-33.203125
280,-37.109375
281,-37.109375
282,-31.250000
283,-39.062500
284,-41.015625
285,-41.015625
286,-41.015625
287,-44.921875
288,-41.015625
289,-44.921875
290,-46.875000
291,-33.203125
292,-46.875000
293,-44.921875
294,-46.875000
295,-50.781250
296,-46.875000
297,-50.781250
298,-48.828125
299,-50.781250
300,-56.640625
301,-48.828125
302,-54.687500
303,-50.781250
304,-50.781250
305,-56.640625
306,-48.828125
307,-56.640625
308,-52.734375
309,-54.687500
310,-54.687500
311,-54.687500
312,-50.781250
313,-52.734375
314,-48.828125
315,-54.687500
316,-54.687500
317,-48.828125
318,-54.687500
319,-48.828125
320,-44.921875
321,-46.875000
322,-41.015625
323,-44.921875
324,-41.015625
325,-41.015625
326,-41.015625
327,-35.156250
328,-37.109375
329,-33.203125
330,-41.015625
331,-33.203125
332,-33.203125
333,-31.250000
334,-31.250000
335,-31.250000
336,-31.250000
337,-25.390625
338,-29.296875
339,-29.296875
340,-27.343750
341,-29.296875
342,-29.296875
343,-25.390625
344,-25.390625
345,-29.296875
346,-31.250000
347,-29.296875
348,-31.250000
349,-31.250000
350,-31.250000
351,-33.203125
352,-33.203125
353,-35.156250
354,-33.203125
355,-35.156250
356,-37.109375
357,-37.109375
358,-41.015625
359,-41.015625
360,-41.015625
361,-41.015625
362,-41.015625
363,-41.015625
364,-41.015625
365,-41.015625
366,-46.875000
367,-44.921875
368,-44.921875
369,-48.828125
370,-46.875000
371,-48.828125
372,-44.921875
373,-48.828125
374,-50.781250
375,-48.828125
376,-50.781250
377,-56.640625
378,-54.687500
379,-48.828125
380,-50.781250
381,-52.734375
382,-50.781250
383,-52.734375
384,-52.734375
385,-50.781250
386,-54.687500
387,-54.687500
388,-50.781250
389,-52.734375
390,-50.781250
391,-56.640625
392,-54.687500
393,-52.734375
394,-56.640625
395,-52.734375
396,-54.687500
397,-50.781250
398,-54.687500
399,-54.687500
400,-50.781250
401,-56.640625
402,-50.781250
403,-54.687500
404,-56.640625
405,-54.687500
406,-60.546875
407,-54.687500
408,-54.687500
409,-50.781250
410,-52.734375
411,-52.734375
412,-52.734375
413,-54.687500
414,-52.734375
415,-52.734375
416,-52.734375
417,-52.734375
418,-48.828125
419,-52.734375
420,-50.781250
421,-48.828125
422,-56.640625
423,-46.875000
424,-52.734375
425,-48.828125
426,-48.828125
427,-44.921875
428,-48.828125
429,-46.875000
430,-44.921875
431,-46.875000
432,-42.968750
433,-44.921875
434,-42.968750
435,-41.015625
436,-44.921875
437,-41.015625
438,-41.015625
439,-41.015625
440,-39.062500
441,-39.062500
442,-39.062500
443,-37.109375
444,-39.062500
445,-37.109375
446,-35.156250
447,-35.156250
448,-33.203125
449,-39.062500
450,-31.250000
451,-35.156250
452,-33.203125
453,-33.203125
454,-33.203125
455,-31.250000
456,-33.203125
457,-31.250000
458,-33.203125
459,-33.203125
460,-31.250000
461,-33.203125
462,-33.203125
463,-31.250000
464,-33.203125
465,-33.203125
466,-33.203125
467,-37.109375
468,-31.250000
469,-31.250000
470,-33.203125
471,-33.203125
472,-35.156250
473,-33.203125
474,-33.203125
475,-33.203125
476,-33.203125
477,-35.156250
478,-33.203125
479,-33.203125
480,-37.109375
481,-35.156250
482,-37.109375
483,-35.156250
484,-33.203125
485,-39.062500
486,-33.203125
487,-39.062500
488,-37.109375
489,-37.109375
490,-41.015625
491,-35.156250
492,-41.015625
493,-39.062500
494,-37.109375
495,-41.015625
496,-39.062500
497,-41.015625
498,-41.015625
499,-41.015625
500,-41.015625
501,-41.015625
502,-41.015625
503,-42.968750
504,-41.015625
505,-44.921875
506,-41.015625
507,-41.015625
508,-41.015625
509,-41.015625
510,-44.921875
511,-41.015625
512,-44.921875
513,-44.921875
514,-41.015625
515,-44.921875
516,-41.015625
517,-41.015625
518,-44.921875
519,-41.015625
520,-44.921875
521,-44.921875
522,-44.921875
523,-46.875000
524,-44.921875
525,-41.015625
526,-42.968750
527,-41.015625
528,-44.921875
529,-41.015625
530,-42.968750
531,-44.921875
532,-44.921875
533,-44.921875
534,-44.921875
535,-44.921875
536,-41.015625
537,-44.921875
538,-44.921875
539,-44.921875
540,-46.875000
541,-42.968750
542,-44.921875
543,-44.921875
544,-44.921875
545,-46.875000
546,-44.921875
547,-46.875000
548,-44.921875
549,-44.921875
550,-48.828125
551,-44.921875
552,-48.828125
553,-46.875000
554,-44.921875
555,-48.828125
556,-48.828125
557,-48.828125
558,-50.781250
559,-44.921875
560,-44.921875
561,-48.828125
562,-46.875000
563,-48.828125
564,-48.828125
565,-48.828125
566,-48.828125
567,-48.828125
568,-48.828125
569,-50.781250
570,-48.828125
571,-50.781250
572,-50.781250
573,-48.828125
574,-48.828125
575,-46.875000
576,-50.781250
577,-48.828125
578,-48.828125
579,-48.828125
580,-44.921875
581,-50.781250
582,-48.828125
583,-48.828125
584,-48.828125
585,-48.828125
586,-48.828125
587,-46.875000
588,-48.828125
589,-48.828125
590,-48.828125
591,-50.781250
592,-50.781250
593,-46.875000
594,-50.781250
595,-50.781250
596,-50.781250
597,-48.828125
598,-48.828125
599,-48.828125
600,-46.875000
601,-48.828125
602,-46.875000
603,-50.781250
604,-44.921875
605,-44.921875
606,-50.781250
607,-48.828125
608,-48.828125
609,-46.875000
610,-48.828125
611,-44.921875
612,-46.875000
613,-44.921875
614,-48.828125
615,-44.921875
616,-41.015625
617,-42.968750
618,-41.015625
619,-41.015625
620,-37.109375
621,-35.156250
622,-39.062500
623,-33.203125
624,-35.156250
625,-31.250000
626,-31.250000
627,-33.203125
628,-29.296875
629,-29.296875
630,-29.296875
631,-25.390625
632,-27.343750
633,-23.437500
634,-23.437500
635,-25.390625
636,-21.484375
637,-21.484375
638,-19.531250
639,-21.484375
640,-19.531250
641,-17.578125
642,-17.578125
643,-15.625000
644,-17.578125
645,-19.531250
646,-15.625000
647,-15.625000
648,-13.671875
649,-11.718750
650,-13.671875
651,-13.671875
652,-13.671875
653,-11.718750
654,-13.671875
655,-13.671875
656,-13.671875
657,-11.718750
658,-17.578125
659,-13.671875
660,-13.671875
661,-9.765625
662,-9.765625
663,-13.671875
664,-15.625000
665,-15.625000
666,-13.671875
667,-15.625000
668,-17.578125
669,-19.531250
670,-19.531250
671,-17.578125
672,-17.578125
673,-19.531250
674,-19.531250
675,-21.484375
676,-23.437500
677,-25.390625
678,-25.390625
679,-23.437500
680,-25.390625
681,-25.390625
682,-25.390625
683,-25.390625
684,-25.390625
685,-29.296875
686,-29.296875
687,-29.296875
688,-33.203125
689,-31.250000
690,-37.109375
691,-33.203125
692,-33.203125
693,-33.203125
694,-33.203125
695,-35.156250
696,-35.156250
697,-35.156250
698,-39.062500
699,-37.109375
700,-37.109375
701,-41.015625
702,-37.109375
703,-41.015625
704,-39.062500
705,-41.015625
706,-39.062500
707,-41.015625
708,-42.968750
709,-39.062500
710,-41.015625
711,-41.015625
712,-41.015625
713,-41.015625
714,-41.015625
715,-41.015625
716,-41.015625
717,-46.875000
718,-42.968750
719,-39.062500
720,-41.015625
721,-41.015625
722,-37.109375
723,-39.062500
724,-35.156250
725,-33.203125
726,-29.296875
727,-33.203125
728,-33.203125
729,-33.203125
730,-31.250000
731,-33.203125
732,-31.250000
733,-31.250000
734,-29.296875
735,-27.343750
736,-29.296875
737,-25.390625
738,-25.390625
739,-23.437500
740,-23.437500
741,-23.437500
742,-21.484375
743,-19.531250
744,-19.531250
745,-19.531250
746,-19.531250
747,-17.578125
748,-15.625000
749,-17.578125
750,-13.671875
751,-15.625000
752,-13.671875
753,-11.718750
754,-13.671875
755,-7.812500
756,-13.671875
757,-9.765625
758,-13.671875
759,-9.765625
760,-7.812500
761,-7.812500
762,-9.765625
763,-7.812500
764,-9.765625
765,-7.812500
766,-7.812500
767,-5.859375
768,-7.812500
769,-7.812500
770,-5.859375
771,-7.812500
772,-7.812500
773,-5.859375
774,-7.812500
775,-5.859375
776,-9.765625
777,-7.812500
778,-9.765625
779,-9.765625
780,-7.812500
781,-17.578125
782,-9.765625
783,-9.765625
784,-11.718750
785,-19.531250
786,-13.671875
787,-9.765625
788,-15.625000
789,-11.718750
790,-13.671875
791,-15.625000
792,-13.671875
793,-17.578125
794,-13.671875
795,-13.671875
796,-17.578125
797,-15.625000
798,-19.531250
799,-17.578125
800,-17.578125
801,-19.531250
802,-17.578125
803,-19.531250
804,-19.531250
805,-17.578125
806,-23.437500
807,-17.578125
808,-23.437500
809,-19.531250
810,-19.531250
811,-19.531250
812,-21.484375
813,-19.531250
814,-17.578125
815,-19.531250
816,-17.578125
817,-21.484375
818,-17.578125
819,-17.578125
820,-17.578125
821,-17.578125
822,-17.578125
823,-15.625000
824,-17.578125
825,-15.625000
826,-15.625000
827,-15.625000
828,-17.578125
829,-13.671875
830,-13.671875
831,-15.625000
832,-13.671875
833,-15.625000
834,-9.765625
835,-9.765625
836,-9.765625
837,-9.765625
838,-9.765625
839,-5.859375
840,-7.812500
841,-3.906250
842,-1.953125
843,-3.906250
844,-3.906250
845,-3.906250
846,0.000000
847,-1.953125
848,0.000000
849,1.953125
850,1.953125
851,1.953125
852,1.953125
853,5.859375
854,5.859375
855,1.953125
856,3.906250
857,5.859375
858,1.953125
859,5.859375
860,1.953125
861,1.953125
862,5.859375
863,0.000000
864,1.953125
865,0.000000
866,0.000000
867,0.000000
868,-3.906250
869,-1.953125
870,-3.906250
871,-9.765625
872,-3.906250
873,-5.859375
874,-7.812500
875,-17.578125
876,-9.765625
877,-5.859375
878,-9.765625
879,-13.671875
880,-9.765625
881,-9.765625
882,-9.765625
883,-13.671875
884,-13.671875
885,-13.671875
886,-13.671875
887,-13.671875
888,-13.671875
889,-15.625000
890,-13.671875
891,-13.671875
892,-15.625000
893,-11.718750
894,-17.578125
895,-15.625000
896,-15.625000
897,-17.578125
898,-17.578125
899,-17.578125
900,-15.625000
901,-15.625000
902,-15.625000
903,-15.625000
904,-17.578125
905,-13.671875
906,-17.578125
907,-17.578125
908,-15.625000
909,-17.578125
910,-15.625000
911,-13.671875
912,-3.906250
913,-13.671875
914,-15.625000
915,-13.671875
916,-13.671875
917,-15.625000
918,-13.671875
919,-13.671875
920,-13.671875
921,-19.531250
922,-15.625000
923,-7.812500
924,-9.765625
925,-7.812500
926,-7.812500
927,-7.812500
928,-7.812500
929,-3.906250
930,-3.906250
931,-1.953125
932,-1.953125
933,-1.953125
934,-1.953125
935,-1.953125
936,1.953125
937,-1.953125
938,0.000000
939,1.953125
940,0.000000
941,5.859375
942,0.000000
943,1.953125
944,-1.953125
945,1.953125
946,1.953125
947,3.906250
948,3.906250
949,5.859375
950,1.953125
951,3.906250
952,1.953125
953,5.859375
954,5.859375
955,-1.953125
956,1.953125
957,3.906250
958,5.859375
959,3.906250
960,5.859375
961,5.859375
962,5.859375
963,5.859375
964,5.859375
965,5.859375
966,5.859375
967,3.906250
968,5.859375
969,-15.625000
970,5.859375
971,5.859375
972,5.859375
973,1.953125
974,5.859375
975,5.859375
976,5.859375
977,3.906250
978,3.906250
979,5.859375
980,5.859375
981,1.953125
982,5.859375
983,1.953125
984,1.953125
985,0.000000
986,0.000000
987,0.000000
988,-1.953125
989,0.000000
990,-1.953125
991,-1.953125
992,-1.953125
993,-3.906250
994,-3.906250
995,-7.812500
996,-5.859375
997,-5.859375
998,-9.765625
999,-5.859375
1000,-5.859375
1001,-9.765625
1002,-3.906250
1003,-9.765625
1004,-5.859375
1005,-9.765625
1006,-5.859375
1007,-9.765625
1008,-9.765625
1009,-9.765625
1010,-9.765625
1011,-9.765625
1012,-9.765625
1013,-11.718750
1014,-9.765625
1015,-9.765625
1016,-9.765625
1017,-9.765625
1018,-9.765625
1019,-9.765625
1020,-7.812500
1021,-9.765625
1022,-11.718750
1023,-9.765625
1024,-13.671875
1025,-9.765625
1026,-9.765625
1027,-9.765625
1028,-9.765625
1029,-13.671875
1030,-7.812500
1031,-13.671875
1032,-11.718750
1033,-9.765625
1034,-13.671875
1035,-9.765625
1036,-13.671875
1037,-9.765625
1038,-13.671875
1039,-9.765625
1040,-13.671875
1041,-13.671875
1042,-9.765625
1043,-13.671875
1044,-13.671875
1045,-9.765625
1046,-13.671875
1047,-9.765625
1048,-13.671875
1049,-9.765625
1050,-13.671875
1051,-13.671875
1052,-9.765625
1053,-13.671875
1054,-13.671875
1055,-13.671875
1056,-15.625000
1057,-23.437500
1058,-15.625000
1059,-11.718750
1060,-13.671875
1061,-13.671875
1062,-13.671875
1063,-9.765625
1064,-13.671875
1065,-13.671875
1066,-13.671875
1067,-13.671875
1068,-9.765625
1069,-13.671875
1070,-13.671875
1071,-7.812500
1072,-13.671875
1073,-13.671875
1074,-13.671875
1075,-13.671875
1076,-9.765625
1077,-13.671875
1078,-11.718750
1079,-13.671875
1080,-13.671875
1081,-9.765625
1082,-13.671875
1083,-9.765625
1084,-9.765625
1085,-11.718750
1086,-9.765625
1087,-13.671875
1088,-13.671875
1089,-9.765625
1090,-9.765625
1091,-9.765625
1092,-13.671875
1093,-13.671875
1094,-13.671875
1095,-11.718750
1096,-9.765625
1097,-11.718750
1098,-13.671875
1099,-9.765625
1100,-13.671875
1101,-9.765625
1102,-13.671875
1103,-13.671875
1104,-9.765625
1105,-13.671875
1106,-9.765625
1107,-13.671875
1108,-13.671875
1109,-9.765625
1110,-13.671875
1111,-9.765625
1112,-13.671875
1113,-15.625000
1114,-13.671875
1115,-13.671875
1116,-23.437500
1117,-15.625000
1118,-13.671875
1119,-13.671875
1120,-9.765625
1121,-17.578125
1122,-13.671875
1123,-17.578125
1124,-13.671875
1125,-13.671875
1126,-15.625000
1127,-13.671875
1128,-17.578125
1129,-15.625000
1130,-15.625000
1131,-15.625000
1132,-15.625000
1133,-17.578125
1134,-17.578125
1135,-13.671875
1136,-17.578125
1137,-17.578125
1138,-15.625000
1139,-13.671875
1140,-13.671875
1141,-19.531250
1142,-15.625000
1143,-17.578125
1144,-17.578125
1145,-11.718750
1146,-19.531250
1147,-17.578125
1148,-19.531250
1149,-17.578125
1150,-15.625000
1151,-19.531250
1152,-17.578125
1153,-17.578125
1154,-19.531250
1155,-17.578125
1156,-21.484375
1157,-5.859375
1158,-19.531250
1159,-19.531250
1160,-19.531250
1161,-19.531250
1162,-17.578125
1163,-17.578125
1164,-19.531250
1165,-17.578125
1166,-9.765625
1167,-21.484375
1168,-19.531250
1169,-21.484375
1170,-19.531250
1171,-9.765625
1172,-19.531250
1173,-17.578125
1174,-19.531250
1175,-19.531250
1176,-17.578125
1177,-17.578125
1178,-15.625000
1179,-19.531250
1180,-17.578125
1181,-15.625000
1182,-17.578125
1183,-13.671875
1184,-17.578125
1185,-17.578125
1186,-13.671875
1187,-17.578125
1188,-17.578125
1189,-15.625000
1190,-13.671875
1191,-13.671875
1192,-17.578125
1193,-13.671875
1194,-13.671875
1195,-13.671875
1196,-15.625000
1197,-17.578125
1198,-13.671875
1199,-15.625000
1200,-17.578125
1201,-13.671875
1202,-17.578125
1203,-9.765625
1204,-15.625000
1205,-15.625000
1206,-13.671875
1207,-13.671875
1208,-13.671875
1209,-15.625000
1210,-15.625000
1211,-13.671875
1212,-13.671875
1213,-13.671875
1214,-15.625000
1215,-17.578125
1216,-13.671875
1217,-15.625000
1218,-15.625000
1219,-13.671875
1220,-17.578125
1221,-17.578125
1222,-15.625000
1223,-17.578125
1224,-13.671875
1225,-31.250000
1226,-15.625000
1227,-17.578125
1228,-19.531250
1229,-17.578125
1230,-21.484375
1231,-19.531250
1232,-19.531250
1233,-23.437500
1234,-17.578125
1235,-25.390625
1236,-29.296875
1237,-25.390625
1238,-31.250000
1239,-29.296875
1240,-33.203125
1241,-33.203125
1242,-33.203125
1243,-37.109375
1244,-33.203125
1245,-37.109375
1246,-39.062500
1247,-37.109375
1248,-41.015625
1249,-41.015625
1250,-41.015625
1251,-41.015625
1252,-41.015625
1253,-44.921875
1254,-44.921875
1255,-44.921875
1256,-44.921875
1257,-41.015625
1258,-46.875000
1259,-41.015625
1260,-44.921875
1261,-44.921875
1262,-42.968750
1263,-44.921875
1264,-41.015625
1265,-42.968750
1266,-46.875000
1267,-41.015625
1268,-41.015625
1269,-41.015625
1270,-41.015625
1271,-39.062500
1272,-37.109375
1273,-35.156250
1274,-37.109375
1275,-35.156250
1276,-33.203125
1277,-33.203125
1278,-31.250000
1279,-33.203125
1280,-31.250000
1281,-31.250000
1282,-31.250000
1283,-27.343750
1284,-29.296875
1285,-29.296875
1286,-29.296875
1287,-25.390625
1288,-33.203125
1289,-29.296875
1290,-25.390625
1291,-29.296875
1292,-21.484375
1293,-25.390625
1294,-25.390625
1295,-27.343750
1296,-29.296875
1297,-25.390625
1298,-29.296875
1299,-29.296875
1300,-33.203125
1301,-31.250000
1302,-33.203125
1303,-35.156250
1304,-33.203125
1305,-35.156250
1306,-37.109375
1307,-31.250000
1308,-37.109375
1309,-37.109375
1310,-39.062500
1311,-41.015625
1312,-41.015625
1313,-41.015625
1314,-42.968750
1315,-44.921875
1316,-39.062500
1317,-44.921875
1318,-44.921875
1319,-44.921875
1320,-44.921875
1321,-44.921875
1322,-46.875000
1323,-46.875000
1324,-44.921875
1325,-48.828125
1326,-50.781250
1327,-48.828125
