時系列データ/data_kai/gam.csv

Channel              :,CH1
Frequency            :,  ?
Period               :,  ?
PK-PK                :,78.13mV
Probe attenuation    :,10X
Voltage per ADC value:,0.122070mV
Time interval        :,400.00000us

index,CH1_Voltage(mV)
1,-19.531250
2,-19.531250
3,-21.484375
4,-19.531250
5,-21.484375
6,-19.531250
7,-19.531250
8,-21.484375
9,-19.531250
10,-21.484375
11,-5.859375
12,-21.484375
13,-19.531250
14,-19.531250
15,-23.437500
16,-21.484375
17,-19.531250
18,-19.531250
19,-19.531250
20,-19.531250
21,-21.484375
22,-23.437500
23,-13.671875
24,-17.578125
25,-25.390625
26,-17.578125
27,-21.484375
28,-23.437500
29,-19.531250
30,-23.437500
31,-21.484375
32,-23.437500
33,-21.484375
34,-23.437500
35,-21.484375
36,-23.437500
37,-21.484375
38,-23.437500
39,-23.437500
40,-21.484375
41,-23.437500
42,-21.484375
43,-23.437500
44,-21.484375
45,-23.437500
46,-23.437500
47,-19.531250
48,-23.437500
49,-23.437500
50,-25.390625
51,-19.531250
52,-29.296875
53,-25.390625
54,-25.390625
55,-25.390625
56,-19.531250
57,-25.390625
58,-25.390625
59,-25.390625
60,-25.390625
61,-23.437500
62,-25.390625
63,-25.390625
64,-25.390625
65,-25.390625
66,-25.390625
67,-29.296875
68,-29.296875
69,-31.250000
70,-29.296875
71,-31.250000
72,-29.296875
73,-29.296875
74,-29.296875
75,-29.296875
76,-29.296875
77,-29.296875
78,-33.203125
79,-29.296875
80,-29.296875
81,-29.296875
82,-37.109375
83,-31.250000
84,-31.250000
85,-31.250000
86,-29.296875
87,-31.250000
88,-33.203125
89,-31.250000
90,-31.250000
91,-35.156250
92,-31.250000
93,-31.250000
94,-31.250000
95,-31.250000
96,-33.203125
97,-33.203125
98,-31.250000
99,-33.203125
100,-33.203125
101,-33.203125
102,-33.203125
103,-35.156250
104,-33.203125
105,-33.203125
106,-35.156250
107,-33.203125
108,-33.203125
109,-35.156250
110,-33.203125
111,-33.203125
112,-33.203125
113,-23.437500
114,-33.203125
115,-33.203125
116,-35.156250
117,-33.203125
118,-35.156250
119,-35.156250
120,-33.203125
121,-35.156250
122,-37.109375
123,-33.203125
124,-35.156250
125,-33.203125
126,-33.203125
127,-33.203125
128,-31.250000
129,-33.203125
130,-29.296875
131,-33.203125
132,-31.250000
133,-29.296875
134,-33.203125
135,-25.390625
136,-29.296875
137,-29.296875
138,-29.296875
139,-31.250000
140,-25.390625
141,-25.390625
142,-31.250000
143,-29.296875
144,-33.203125
145,-29.296875
146,-27.343750
147,-29.296875
148,-25.390625
149,-29.296875
150,-23.437500
151,-27.343750
152,-29.296875
153,-39.062500
154,-29.296875
155,-29.296875
156,-25.390625
157,-29.296875
158,-21.484375
159,-29.296875
160,-29.296875
161,-29.296875
162,-29.296875
163,-25.390625
164,-27.343750
165,-29.296875
166,-29.296875
167,-29.296875
168,-27.343750
169,-29.296875
170,-29.296875
171,-29.296875
172,-31.250000
173,-25.390625
174,-29.296875
175,-25.390625
176,-25.390625
177,-29.296875
178,-25.390625
179,-29.296875
180,-29.296875
181,-25.390625
182,-29.296875
183,-27.343750
184,-29.296875
185,-29.296875
186,-25.390625
187,-29.296875
188,-29.296875
189,-29.296875
190,-27.343750
191,-25.390625
192,-25.390625
193,-29.296875
194,-25.390625
195,-29.296875
196,-29.296875
197,-25.390625
198,-29.296875
199,-25.390625
200,-29.296875
201,-27.343750
202,-25.390625
203,-29.296875
204,-25.390625
205,-29.296875
206,-31.250000
207,-25.390625
208,-29.296875
209,-27.343750
210,-29.296875
211,-29.296875
212,-25.390625
213,-25.390625
214,-25.390625
215,-25.390625
216,-29.296875
217,-25.390625
218,-29.296875
219,-25.390625
220,-27.343750
221,-29.296875
222,-25.390625
223,-29.296875
224,-29.296875
225,-29.296875
226,-25.390625
227,-29.296875
228,-29.296875
229,-25.390625
230,-29.296875
231,-29.296875
232,-27.343750
233,-29.296875
234,-29.296875
235,-29.296875
236,-29.296875
237,-29.296875
238,-29.296875
239,-31.250000
240,-25.390625
241,-29.296875
242,-27.343750
243,-25.390625
244,-29.296875
245,-25.390625
246,-25.390625
247,-29.296875
248,-29.296875
249,-29.296875
250,-25.390625
251,-29.296875
252,-25.390625
253,-25.390625
254,-27.343750
255,-29.296875
256,-29.296875
257,-29.296875
258,-25.390625
259,-29.296875
260,-25.390625
261,-27.343750
262,-29.296875
263,-25.390625
264,-29.296875
265,-29.296875
266,-25.390625
267,-31.250000
268,-25.390625
269,-29.296875
270,-29.296875
271,-29.296875
272,-29.296875
273,-29.296875
274,-29.296875
275,-29.296875
276,-25.390625
277,-29.296875
278,-27.343750
279,-25.390625
280,-29.296875
281,-25.390625
282,-29.296875
283,-25.390625
284,-25.390625
285,-29.296875
286,-29.296875
287,-29.296875
288,-29.296875
289,-27.343750
290,-29.296875
291,-29.296875
292,-23.437500
293,-29.296875
294,-25.390625
295,-29.296875
296,-25.390625
297,-25.390625
298,-31.250000
299,-27.343750
300,-29.296875
301,-25.390625
302,-27.343750
303,-29.296875
304,-29.296875
305,-27.343750
306,-23.437500
307,-29.296875
308,-33.203125
309,-25.390625
310,-29.296875
311,-23.437500
312,-29.296875
313,-25.390625
314,-29.296875
315,-29.296875
316,-21.484375
317,-21.484375
318,-23.437500
319,-25.390625
320,-29.296875
321,-23.437500
322,-29.296875
323,-25.390625
324,-29.296875
325,-27.343750
326,-27.343750
327,-25.390625
328,-29.296875
329,-23.437500
330,-29.296875
331,-27.343750
332,-25.390625
333,-27.343750
334,-27.343750
335,-33.203125
336,-29.296875
337,-25.390625
338,-25.390625
339,-27.343750
340,-27.343750
341,-29.296875
342,-25.390625
343,-25.390625
344,-27.343750
345,-25.390625
346,-25.390625
347,-25.390625
348,-27.343750
349,-27.343750
350,-25.390625
351,-29.296875
352,-29.296875
353,-29.296875
354,-29.296875
355,-29.296875
356,-29.296875
357,-29.296875
358,-29.296875
359,-31.250000
360,-31.250000
361,-31.250000
362,-31.250000
363,-29.296875
364,-33.203125
365,-29.296875
366,-31.250000
367,-33.203125
368,-29.296875
369,-33.203125
370,-31.250000
371,-33.203125
372,-35.156250
373,-33.203125
374,-33.203125
375,-31.250000
376,-35.156250
377,-33.203125
378,-33.203125
379,-29.296875
380,-31.250000
381,-33.203125
382,-33.203125
383,-33.203125
384,-33.203125
385,-35.156250
386,-33.203125
387,-35.156250
388,-31.250000
389,-33.203125
390,-35.156250
391,-31.250000
392,-37.109375
393,-33.203125
394,-33.203125
395,-35.156250
396,-33.203125
397,-35.156250
398,-35.156250
399,-35.156250
400,-35.156250
401,-35.156250
402,-37.109375
403,-31.250000
404,-35.156250
405,-35.156250
406,-35.156250
407,-35.156250
408,-33.203125
409,-35.156250
410,-35.156250
411,-33.203125
412,-35.156250
413,-35.156250
414,-33.203125
415,-37.109375
416,-33.203125
417,-35.156250
418,-37.109375
419,-37.109375
420,-35.156250
421,-39.062500
422,-37.109375
423,-35.156250
424,-33.203125
425,-37.109375
426,-33.203125
427,-37.109375
428,-37.109375
429,-35.156250
430,-37.109375
431,-35.156250
432,-37.109375
433,-37.109375
434,-35.156250
435,-37.109375
436,-35.156250
437,-33.203125
438,-37.109375
439,-37.109375
440,-37.109375
441,-35.156250
442,-33.203125
443,-37.109375
444,-35.156250
445,-35.156250
446,-37.109375
447,-33.203125
448,-37.109375
449,-35.156250
450,-35.156250
451,-39.062500
452,-35.156250
453,-37.109375
454,-35.156250
455,-35.156250
456,-37.109375
457,-33.203125
458,-37.109375
459,-33.203125
460,-35.156250
461,-37.109375
462,-37.109375
463,-35.156250
464,-35.156250
465,-33.203125
466,-39.062500
467,-35.156250
468,-37.109375
469,-35.156250
470,-37.109375
471,-37.109375
472,-25.390625
473,-39.062500
474,-37.109375
475,-37.109375
476,-37.109375
477,-33.203125
478,-37.109375
479,-35.156250
480,-33.203125
481,-39.062500
482,-35.156250
483,-37.109375
484,-37.109375
485,-35.156250
486,-39.062500
487,-35.156250
488,-35.156250
489,-37.109375
490,-37.109375
491,-37.109375
492,-37.109375
493,-39.062500
494,-37.109375
495,-35.156250
496,-37.109375
497,-37.109375
498,-37.109375
499,-35.156250
500,-35.156250
501,-37.109375
502,-35.156250
503,-46.875000
504,-39.062500
505,-35.156250
506,-35.156250
507,-39.062500
508,-35.156250
509,-37.109375
510,-35.156250
511,-39.062500
512,-33.203125
513,-33.203125
514,-39.062500
515,-33.203125
516,-39.062500
517,-35.156250
518,-37.109375
519,-39.062500
520,-35.156250
521,-41.015625
522,-35.156250
523,-37.109375
524,-39.062500
525,-35.156250
526,-39.062500
527,-37.109375
528,-39.062500
529,-39.062500
530,-37.109375
531,-39.062500
532,-39.062500
533,-35.156250
534,-39.062500
535,-37.109375
536,-35.156250
537,-39.062500
538,-33.203125
539,-35.156250
540,-35.156250
541,-37.109375
542,-37.109375
543,-35.156250
544,-39.062500
545,-39.062500
546,-37.109375
547,-37.109375
548,-44.921875
549,-37.109375
550,-33.203125
551,-39.062500
552,-33.203125
553,-35.156250
554,-33.203125
555,-37.109375
556,-41.015625
557,-37.109375
558,-37.109375
559,-37.109375
560,-37.109375
561,-41.015625
562,-35.156250
563,-37.109375
564,-39.062500
565,-35.156250
566,-35.156250
567,-35.156250
568,-39.062500
569,-37.109375
570,-39.062500
571,-39.062500
572,-37.109375
573,-35.156250
574,-33.203125
575,-35.156250
576,-35.156250
577,-39.062500
578,-37.109375
579,-39.062500
580,-37.109375
581,-35.156250
582,-37.109375
583,-35.156250
584,-37.109375
585,-37.109375
586,-35.156250
587,-37.109375
588,-39.062500
589,-37.109375
590,-37.109375
591,-33.203125
592,-35.156250
593,-35.156250
594,-37.109375
595,-37.109375
596,-35.156250
597,-39.062500
598,-35.156250
599,-35.156250
600,-35.156250
601,-41.015625
602,-37.109375
603,-35.156250
604,-37.109375
605,-35.156250
606,-37.109375
607,-37.109375
608,-35.156250
609,-35.156250
610,-35.156250
611,-35.156250
612,-37.109375
613,-37.109375
614,-37.109375
615,-37.109375
616,-33.203125
617,-37.109375
618,-35.156250
619,-33.203125
620,-39.062500
621,-37.109375
622,-41.015625
623,-37.109375
624,-35.156250
625,-39.062500
626,-37.109375
627,-37.109375
628,-39.062500
629,-37.109375
630,-37.109375
631,-35.156250
632,-37.109375
633,-39.062500
634,-35.156250
635,-35.156250
636,-37.109375
637,-37.109375
638,-37.109375
639,-37.109375
640,-35.156250
641,-35.156250
642,-37.109375
643,-39.062500
644,-39.062500
645,-37.109375
646,-37.109375
647,-37.109375
648,-37.109375
649,-37.109375
650,-41.015625
651,-35.156250
652,-37.109375
653,-37.109375
654,-33.203125
655,-37.109375
656,-35.156250
657,-39.062500
658,-37.109375
659,-35.156250
660,-39.062500
661,-35.156250
662,-39.062500
663,-41.015625
664,-35.156250
665,-39.062500
666,-35.156250
667,-39.062500
668,-37.109375
669,-37.109375
670,-39.062500
671,-35.156250
672,-39.062500
673,-37.109375
674,-39.062500
675,-35.156250
676,-31.250000
677,-37.109375
678,-39.062500
679,-37.109375
680,-35.156250
681,-35.156250
682,-39.062500
683,-39.062500
684,-37.109375
685,-39.062500
686,-19.531250
687,-39.062500
688,-39.062500
689,-37.109375
690,-41.015625
691,-35.156250
692,-37.109375
693,-39.062500
694,-39.062500
695,-39.062500
696,-41.015625
697,-39.062500
698,-39.062500
699,-39.062500
700,-39.062500
701,-35.156250
702,-41.015625
703,-37.109375
704,-39.062500
705,-39.062500
706,-37.109375
707,-39.062500
708,-39.062500
709,-39.062500
710,-41.015625
711,-37.109375
712,-37.109375
713,-39.062500
714,-37.109375
715,-37.109375
716,-33.203125
717,-39.062500
718,-39.062500
719,-39.062500
720,-39.062500
721,-35.156250
722,-39.062500
723,-39.062500
724,-37.109375
725,-41.015625
726,-37.109375
727,-41.015625
728,-39.062500
729,-39.062500
730,-39.062500
731,-39.062500
732,-39.062500
733,-39.062500
734,-35.156250
735,-37.109375
736,-39.062500
737,-39.062500
738,-39.062500
739,-35.156250
740,-37.109375
741,-39.062500
742,-35.156250
743,-23.437500
744,-39.062500
745,-39.062500
746,-39.062500
747,-25.390625
748,-39.062500
749,-39.062500
750,-39.062500
751,-39.062500
752,-39.062500
753,-41.015625
754,-37.109375
755,-39.062500
756,-41.015625
757,-41.015625
758,-41.015625
759,-39.062500
760,-33.203125
761,-39.062500
762,-41.015625
763,-39.062500
764,-37.109375
765,-37.109375
766,-39.062500
767,-39.062500
768,-41.015625
769,-39.062500
770,-39.062500
771,-41.015625
772,-35.156250
773,-39.062500
774,-44.921875
775,-39.062500
776,-39.062500
777,-39.062500
778,-41.015625
779,-37.109375
780,-39.062500
781,-39.062500
782,-37.109375
783,-41.015625
784,-37.109375
785,-44.921875
786,-41.015625
787,-46.875000
788,-41.015625
789,-37.109375
790,-37.109375
791,-39.062500
792,-39.062500
793,-37.109375
794,-39.062500
795,-35.156250
796,-41.015625
797,-35.156250
798,-39.062500
799,-37.109375
800,-39.062500
801,-41.015625
802,-35.156250
803,-41.015625
804,-37.109375
805,-41.015625
806,-39.062500
807,-37.109375
808,-41.015625
809,-35.156250
810,-41.015625
811,-39.062500
812,-37.109375
813,-41.015625
814,-35.156250
815,-41.015625
816,-41.015625
817,-37.109375
818,-41.015625
819,-37.109375
820,-39.062500
821,-41.015625
822,-37.109375
823,-39.062500
824,-41.015625
825,-39.062500
826,-41.015625
827,-46.875000
828,-41.015625
829,-41.015625
830,-37.109375
831,-41.015625
832,-41.015625
833,-41.015625
834,-41.015625
835,-41.015625
836,-39.062500
837,-41.015625
838,-39.062500
839,-39.062500
840,-41.015625
841,-33.203125
842,-41.015625
843,-35.156250
844,-37.109375
845,-39.062500
846,-37.109375
847,-39.062500
848,-35.156250
849,-39.062500
850,-37.109375
851,-35.156250
852,-37.109375
853,-35.156250
854,-39.062500
855,-39.062500
856,-39.062500
857,-37.109375
858,-41.015625
859,-33.203125
860,-35.156250
861,-37.109375
862,-37.109375
863,-37.109375
864,-39.062500
865,-35.156250
866,-37.109375
867,-33.203125
868,-35.156250
869,-39.062500
870,-35.156250
871,-35.156250
872,-41.015625
873,-35.156250
874,-35.156250
875,-39.062500
876,-37.109375
877,-39.062500
878,-35.156250
879,-37.109375
880,-41.015625
881,-37.109375
882,-39.062500
883,-35.156250
884,-39.062500
885,-37.109375
886,-39.062500
887,-39.062500
888,-33.203125
889,-17.578125
890,-35.156250
891,-35.156250
892,-39.062500
893,-35.156250
894,-37.109375
895,-33.203125
896,-37.109375
897,-37.109375
898,-33.203125
899,-39.062500
900,-35.156250
901,-35.156250
902,-37.109375
903,-37.109375
904,-37.109375
905,-35.156250
906,-39.062500
907,-37.109375
908,-37.109375
909,-37.109375
910,-37.109375
911,-37.109375
912,-35.156250
913,-37.109375
914,-37.109375
915,-35.156250
916,-39.062500
917,-39.062500
918,-37.109375
919,-37.109375
920,-37.109375
921,-35.156250
922,-39.062500
923,-39.062500
924,-41.015625
925,-35.156250
926,-39.062500
927,-39.062500
928,-33.203125
929,-44.921875
930,-37.109375
931,-37.109375
932,-39.062500
933,-33.203125
934,-39.062500
935,-37.109375
936,-33.203125
937,-37.109375
938,-35.156250
939,-37.109375
940,-39.062500
941,-35.156250
942,-39.062500
943,-37.109375
944,-37.109375
945,-37.109375
946,-35.156250
947,-39.062500
948,-35.156250
949,-37.109375
950,-39.062500
951,-35.156250
952,-39.062500
953,-35.156250
954,-37.109375
955,-39.062500
956,-35.156250
957,-41.015625
958,-37.109375
959,-35.156250
960,-35.156250
961,-37.109375
962,-39.062500
963,-37.109375
964,-39.062500
965,-35.156250
966,-37.109375
967,-37.109375
968,-37.109375
969,-44.921875
970,-37.109375
971,-35.156250
972,-37.109375
973,-37.109375
974,-39.062500
975,-39.062500
976,-35.156250
977,-39.062500
978,-39.062500
979,-35.156250
980,-37.109375
981,-35.156250
982,-39.062500
983,-35.156250
984,-41.015625
985,-39.062500
986,-35.156250
987,-37.109375
988,-37.109375
989,-35.156250
990,-37.109375
991,-41.015625
992,-35.156250
993,-35.156250
994,-37.109375
995,-39.062500
996,-35.156250
997,-37.109375
998,-37.109375
999,-37.109375
1000,-35.156250
1001,-37.109375
1002,-37.109375
1003,-35.156250
1004,-33.203125
1005,-39.062500
1006,-35.156250
1007,-37.109375
1008,-37.109375
1009,-35.156250
1010,-37.109375
1011,-33.203125
1012,-39.062500
1013,-37.109375
1014,-41.015625
1015,-37.109375
1016,-35.156250
1017,-39.062500
1018,-39.062500
1019,-35.156250
1020,-35.156250
1021,-35.156250
1022,-29.296875
1023,-37.109375
1024,-37.109375
1025,-39.062500
1026,-39.062500
1027,-33.203125
1028,-35.156250
1029,-33.203125
1030,-35.156250
1031,-33.203125
1032,-35.156250
1033,-39.062500
1034,-35.156250
1035,-37.109375
1036,-35.156250
1037,-33.203125
1038,-35.156250
1039,-33.203125
1040,-33.203125
1041,-35.156250
1042,-35.156250
1043,-37.109375
1044,-29.296875
1045,-35.156250
1046,-33.203125
1047,-35.156250
1048,-35.156250
1049,-35.156250
1050,-35.156250
1051,-35.156250
1052,-37.109375
1053,-33.203125
1054,-37.109375
1055,-33.203125
1056,-35.156250
1057,-39.062500
1058,-33.203125
1059,-39.062500
1060,-35.156250
1061,-35.156250
1062,-41.015625
1063,-33.203125
1064,-39.062500
1065,-33.203125
1066,-37.109375
1067,-37.109375
1068,-33.203125
1069,-37.109375
1070,-33.203125
1071,-35.156250
1072,-33.203125
1073,-33.203125
1074,-37.109375
1075,-37.109375
1076,-33.203125
1077,-35.156250
1078,-35.156250
1079,-33.203125
1080,-31.250000
1081,-33.203125
1082,-35.156250
1083,-35.156250
1084,-33.203125
1085,-35.156250
1086,-33.203125
1087,-35.156250
1088,-33.203125
1089,-31.250000
1090,-35.156250
1091,-33.203125
1092,-35.156250
1093,-35.156250
1094,-33.203125
1095,-33.203125
1096,-35.156250
1097,-33.203125
1098,-29.296875
1099,-33.203125
1100,-35.156250
1101,-35.156250
1102,-33.203125
1103,-33.203125
1104,-33.203125
1105,-35.156250
1106,-33.203125
1107,-31.250000
1108,-33.203125
1109,-33.203125
1110,-33.203125
1111,-39.062500
1112,-33.203125
1113,-35.156250
1114,-33.203125
1115,-35.156250
1116,-31.250000
1117,-35.156250
1118,-35.156250
1119,-33.203125
1120,-37.109375
1121,-33.203125
1122,-33.203125
1123,-33.203125
1124,-25.390625
1125,-35.156250
1126,-33.203125
1127,-33.203125
1128,-33.203125
1129,-33.203125
1130,-35.156250
1131,-33.203125
1132,-33.203125
1133,-35.156250
1134,-33.203125
1135,-35.156250
1136,-33.203125
1137,-33.203125
1138,-35.156250
1139,-33.203125
1140,-35.156250
1141,-33.203125
1142,-33.203125
1143,-35.156250
1144,-33.203125
1145,-37.109375
1146,-35.156250
1147,-33.203125
1148,-35.156250
1149,-33.203125
1150,-35.156250
1151,-35.156250
1152,-33.203125
1153,-35.156250
1154,-33.203125
1155,-33.203125
1156,-35.156250
1157,-33.203125
1158,-37.109375
1159,-35.156250
1160,-35.156250
1161,-35.156250
1162,-35.156250
1163,-35.156250
1164,-39.062500
1165,-35.156250
1166,-35.156250
1167,-33.203125
1168,-37.109375
1169,-33.203125
1170,-35.156250
1171,-37.109375
1172,-35.156250
1173,-33.203125
1174,-35.156250
1175,-35.156250
1176,-35.156250
1177,-35.156250
1178,-37.109375
1179,-35.156250
1180,-39.062500
1181,-37.109375
1182,-37.109375
1183,-39.062500
1184,-35.156250
1185,-35.156250
1186,-37.109375
1187,-35.156250
1188,-37.109375
1189,-37.109375
1190,-37.109375
1191,-37.109375
1192,-37.109375
1193,-37.109375
1194,-33.203125
1195,-35.156250
1196,-37.109375
1197,-37.109375
1198,-35.156250
1199,-37.109375
1200,-39.062500
1201,-39.062500
1202,-37.109375
1203,-37.109375
1204,-33.203125
1205,-39.062500
1206,-39.062500
1207,-35.156250
1208,-41.015625
1209,-37.109375
1210,-39.062500
1211,-39.062500
1212,-35.156250
1213,-37.109375
1214,-37.109375
1215,-39.062500
1216,-35.156250
1217,-37.109375
1218,-41.015625
1219,-39.062500
1220,-41.015625
1221,-39.062500
1222,-39.062500
1223,-41.015625
1224,-41.015625
1225,-39.062500
1226,-35.156250
1227,-41.015625
1228,-39.062500
1229,-41.015625
1230,-41.015625
1231,-39.062500
1232,-39.062500
1233,-41.015625
1234,-39.062500
1235,-35.156250
1236,-41.015625
1237,-37.109375
1238,-41.015625
1239,-39.062500
1240,-41.015625
1241,-39.062500
1242,-37.109375
1243,-39.062500
1244,-39.062500
1245,-33.203125
1246,-39.062500
1247,-39.062500
1248,-39.062500
1249,-37.109375
1250,-41.015625
1251,-41.015625
1252,-39.062500
1253,-39.062500
1254,-41.015625
1255,-41.015625
1256,-39.062500
1257,-35.156250
1258,-39.062500
1259,-41.015625
1260,-39.062500
1261,-39.062500
1262,-41.015625
1263,-41.015625
1264,-39.062500
1265,-41.015625
1266,-48.828125
1267,-37.109375
1268,-41.015625
1269,-35.156250
1270,-41.015625
1271,-41.015625
1272,-37.109375
1273,-41.015625
1274,-37.109375
1275,-44.921875
1276,-41.015625
1277,-41.015625
1278,-41.015625
1279,-35.156250
1280,-39.062500
1281,-41.015625
1282,-39.062500
1283,-41.015625
1284,-37.109375
1285,-39.062500
1286,-39.062500
1287,-39.062500
1288,-41.015625
1289,-41.015625
1290,-37.109375
1291,-39.062500
1292,-39.062500
1293,-39.062500
1294,-41.015625
1295,-37.109375
1296,-41.015625
1297,-56.640625
1298,-39.062500
1299,-41.015625
1300,-41.015625
1301,-41.015625
1302,-37.109375
1303,-39.062500
1304,-39.062500
