時系列データ/data_kai/gamtest.csv

Channel              :,CH1
Frequency            :,  ?
Period               :,  ?
PK-PK                :,78.13mV
Probe attenuation    :,10X
Voltage per ADC value:,0.122070mV
Time interval        :,400.00000us

index,CH1_Voltage(mV)
1,-54.687500
2,-54.687500
3,-50.781250
4,-54.687500
5,-54.687500
6,-50.781250
7,-56.640625
8,-54.687500
9,-54.687500
10,-52.734375
11,-52.734375
12,-54.687500
13,-52.734375
14,-50.781250
15,-56.640625
16,-52.734375
17,-50.781250
18,-52.734375
19,-52.734375
20,-56.640625
21,-54.687500
22,-52.734375
23,-52.734375
24,-52.734375
25,-56.640625
26,-52.734375
27,-52.734375
28,-54.687500
29,-54.687500
30,-54.687500
31,-54.687500
32,-54.687500
33,-56.640625
34,-52.734375
35,-56.640625
36,-56.640625
37,-54.687500
38,-54.687500
39,-54.687500
40,-54.687500
41,-52.734375
42,-52.734375
43,-54.687500
44,-54.687500
45,-48.828125
46,-54.687500
47,-50.781250
48,-52.734375
49,-52.734375
50,-54.687500
51,-54.687500
52,-54.687500
53,-54.687500
54,-56.640625
55,-52.734375
56,-50.781250
57,-54.687500
58,-50.781250
59,-56.640625
60,-52.734375
61,-54.687500
62,-52.734375
63,-54.687500
64,-54.687500
65,-52.734375
66,-56.640625
67,-52.734375
68,-56.640625
69,-56.640625
70,-52.734375
71,-54.687500
72,-52.734375
73,-56.640625
74,-52.734375
75,-54.687500
76,-46.875000
77,-54.687500
78,-56.640625
79,-52.734375
80,-54.687500
81,-56.640625
82,-54.687500
83,-54.687500
84,-56.640625
85,-52.734375
86,-56.640625
87,-52.734375
88,-56.640625
89,-54.687500
90,-54.687500
91,-54.687500
92,-54.687500
93,-52.734375
94,-50.781250
95,-50.781250
96,-52.734375
97,-52.734375
98,-50.781250
99,-54.687500
100,-52.734375
101,-52.734375
102,-50.781250
103,-52.734375
104,-50.781250
105,-50.781250
106,-54.687500
107,-56.640625
108,-50.781250
109,-54.687500
110,-52.734375
111,-50.781250
112,-52.734375
113,-48.828125
114,-52.734375
115,-50.781250
116,-48.828125
117,-52.734375
118,-54.687500
119,-54.687500
120,-52.734375
121,-52.734375
122,-52.734375
123,-48.828125
124,-56.640625
125,-48.828125
126,-54.687500
127,-52.734375
128,-50.781250
129,-54.687500
130,-52.734375
131,-52.734375
132,-54.687500
133,-48.828125
134,-52.734375
135,-52.734375
136,-52.734375
137,-54.687500
138,-50.781250
139,-52.734375
140,-54.687500
141,-50.781250
142,-54.687500
143,-48.828125
144,-50.781250
145,-52.734375
146,-50.781250
147,-52.734375
148,-50.781250
149,-52.734375
150,-50.781250
151,-52.734375
152,-50.781250
153,-48.828125
154,-52.734375
155,-52.734375
156,-56.640625
157,-46.875000
158,-48.828125
159,-54.687500
160,-48.828125
161,-48.828125
162,-48.828125
163,-50.781250
164,-52.734375
165,-48.828125
166,-52.734375
167,-48.828125
168,-52.734375
169,-50.781250
170,-46.875000
171,-54.687500
172,-50.781250
173,-54.687500
174,-54.687500
175,-48.828125
176,-54.687500
177,-52.734375
178,-50.781250
179,-50.781250
180,-46.875000
181,-52.734375
182,-52.734375
183,-48.828125
184,-50.781250
185,-56.640625
186,-48.828125
187,-52.734375
188,-52.734375
189,-48.828125
190,-52.734375
191,-48.828125
192,-48.828125
193,-52.734375
194,-48.828125
195,-50.781250
196,-48.828125
197,-50.781250
198,-48.828125
199,-48.828125
200,-52.734375
201,-48.828125
202,-54.687500
203,-50.781250
204,-48.828125
205,-56.640625
206,-48.828125
207,-48.828125
208,-50.781250
209,-48.828125
210,-50.781250
211,-48.828125
212,-52.734375
213,-50.781250
214,-48.828125
215,-50.781250
216,-50.781250
217,-48.828125
218,-52.734375
219,-48.828125
220,-48.828125
221,-48.828125
222,-46.875000
223,-52.734375
224,-48.828125
225,-48.828125
226,-48.828125
227,-50.781250
228,-50.781250
229,-48.828125
230,-50.781250
231,-48.828125
232,-48.828125
233,-52.734375
234,-48.828125
235,-48.828125
236,-50.781250
237,-48.828125
238,-48.828125
239,-50.781250
240,-50.781250
241,-50.781250
242,-48.828125
243,-48.828125
244,-48.828125
245,-46.875000
246,-52.734375
247,-48.828125
248,-52.734375
249,-52.734375
250,-48.828125
251,-50.781250
252,-48.828125
253,-48.828125
254,-54.687500
255,-48.828125
256,-50.781250
257,-48.828125
258,-48.828125
259,-48.828125
260,-48.828125
261,-48.828125
262,-48.828125
263,-48.828125
264,-52.734375
265,-48.828125
266,-50.781250
267,-48.828125
268,-48.828125
269,-48.828125
270,-48.828125
271,-50.781250
272,-48.828125
273,-46.875000
274,-66.406250
275,-48.828125
276,-48.828125
277,-48.828125
278,-48.828125
279,-48.828125
280,-48.828125
281,-52.734375
282,-48.828125
283,-50.781250
284,-48.828125
285,-64.453125
286,-48.828125
287,-46.875000
288,-48.828125
289,-50.781250
290,-50.781250
291,-48.828125
292,-52.734375
293,-48.828125
294,-56.640625
295,-48.828125
296,-48.828125
297,-52.734375
298,-48.828125
299,-52.734375
300,-48.828125
301,-48.828125
302,-48.828125
303,-48.828125
304,-48.828125
305,-46.875000
306,-48.828125
307,-46.875000
308,-46.875000
309,-48.828125
310,-48.828125
311,-50.781250
312,-50.781250
313,-48.828125
314,-48.828125
315,-48.828125
316,-48.828125
317,-50.781250
318,-48.828125
319,-48.828125
320,-46.875000
321,-46.875000
322,-48.828125
323,-48.828125
324,-48.828125
325,-50.781250
326,-48.828125
327,-50.781250
328,-46.875000
329,-46.875000
330,-48.828125
331,-48.828125
332,-48.828125
333,-50.781250
334,-48.828125
335,-50.781250
336,-48.828125
337,-48.828125
338,-48.828125
339,-44.921875
340,-48.828125
341,-48.828125
342,-48.828125
343,-52.734375
344,-48.828125
345,-50.781250
346,-50.781250
347,-46.875000
348,-48.828125
349,-46.875000
350,-48.828125
351,-48.828125
352,-48.828125
353,-48.828125
354,-48.828125
355,-48.828125
356,-48.828125
357,-46.875000
358,-48.828125
359,-44.921875
360,-48.828125
361,-52.734375
362,-46.875000
363,-46.875000
364,-46.875000
365,-48.828125
366,-48.828125
367,-44.921875
368,-48.828125
369,-44.921875
370,-46.875000
371,-48.828125
372,-44.921875
373,-48.828125
374,-48.828125
375,-48.828125
376,-48.828125
377,-48.828125
378,-48.828125
379,-48.828125
380,-46.875000
381,-48.828125
382,-46.875000
383,-48.828125
384,-46.875000
385,-46.875000
386,-48.828125
387,-46.875000
388,-46.875000
389,-48.828125
390,-44.921875
391,-50.781250
392,-44.921875
393,-48.828125
394,-46.875000
395,-44.921875
396,-48.828125
397,-46.875000
398,-48.828125
399,-48.828125
400,-44.921875
401,-44.921875
402,-46.875000
403,-48.828125
404,-46.875000
405,-46.875000
406,-48.828125
407,-46.875000
408,-48.828125
409,-44.921875
410,-48.828125
411,-46.875000
412,-48.828125
413,-50.781250
414,-31.250000
415,-48.828125
416,-48.828125
417,-46.875000
418,-50.781250
419,-48.828125
420,-48.828125
421,-48.828125
422,-46.875000
423,-48.828125
424,-46.875000
425,-48.828125
426,-46.875000
427,-46.875000
428,-48.828125
429,-44.921875
430,-48.828125
431,-46.875000
432,-48.828125
433,-48.828125
434,-48.828125
435,-44.921875
436,-48.828125
437,-46.875000
438,-48.828125
439,-48.828125
440,-48.828125
441,-46.875000
442,-48.828125
443,-46.875000
444,-50.781250
445,-46.875000
446,-46.875000
447,-48.828125
448,-46.875000
449,-48.828125
450,-44.921875
451,-48.828125
452,-48.828125
453,-44.921875
454,-41.015625
455,-48.828125
456,-48.828125
457,-48.828125
458,-46.875000
459,-48.828125
460,-48.828125
461,-50.781250
462,-48.828125
463,-46.875000
464,-48.828125
465,-48.828125
466,-48.828125
467,-50.781250
468,-44.921875
469,-46.875000
470,-48.828125
471,-48.828125
472,-52.734375
473,-48.828125
474,-50.781250
475,-48.828125
476,-48.828125
477,-52.734375
478,-46.875000
479,-50.781250
480,-48.828125
481,-52.734375
482,-48.828125
483,-52.734375
484,-50.781250
485,-50.781250
486,-48.828125
487,-54.687500
488,-50.781250
489,-48.828125
490,-50.781250
491,-48.828125
492,-48.828125
493,-48.828125
494,-48.828125
495,-50.781250
496,-48.828125
497,-50.781250
498,-48.828125
499,-48.828125
500,-50.781250
501,-48.828125
502,-52.734375
503,-56.640625
504,-48.828125
505,-52.734375
506,-48.828125
507,-52.734375
508,-48.828125
509,-50.781250
510,-50.781250
511,-54.687500
512,-50.781250
513,-52.734375
514,-52.734375
515,-56.640625
516,-50.781250
517,-50.781250
518,-52.734375
519,-54.687500
520,-54.687500
521,-50.781250
522,-54.687500
523,-54.687500
524,-52.734375
525,-54.687500
526,-50.781250
527,-54.687500
528,-54.687500
529,-52.734375
530,-54.687500
531,-52.734375
532,-56.640625
533,-50.781250
534,-54.687500
535,-54.687500
536,-52.734375
537,-50.781250
538,-52.734375
539,-56.640625
540,-52.734375
541,-52.734375
542,-48.828125
543,-54.687500
544,-56.640625
545,-54.687500
546,-52.734375
547,-52.734375
548,-52.734375
549,-54.687500
550,-54.687500
551,-54.687500
552,-60.546875
553,-56.640625
554,-48.828125
555,-54.687500
556,-50.781250
557,-52.734375
558,-56.640625
559,-50.781250
560,-54.687500
561,-52.734375
562,-54.687500
563,-52.734375
564,-50.781250
565,-56.640625
566,-48.828125
567,-56.640625
568,-52.734375
569,-52.734375
570,-52.734375
571,-48.828125
572,-56.640625
573,-54.687500
574,-54.687500
575,-54.687500
576,-52.734375
577,-54.687500
578,-50.781250
579,-52.734375
580,-56.640625
581,-52.734375
582,-52.734375
583,-52.734375
584,-50.781250
585,-52.734375
586,-52.734375
587,-52.734375
588,-56.640625
589,-48.828125
590,-54.687500
591,-52.734375
592,-66.406250
593,-48.828125
594,-50.781250
595,-50.781250
596,-48.828125
597,-48.828125
598,-50.781250
599,-50.781250
600,-52.734375
601,-58.593750
602,-48.828125
603,-52.734375
604,-50.781250
605,-48.828125
606,-48.828125
607,-48.828125
608,-54.687500
609,-48.828125
610,-46.875000
611,-48.828125
612,-46.875000
613,-52.734375
614,-46.875000
615,-48.828125
616,-48.828125
617,-48.828125
618,-48.828125
619,-52.734375
620,-50.781250
621,-48.828125
622,-46.875000
623,-48.828125
624,-46.875000
625,-50.781250
626,-48.828125
627,-50.781250
628,-46.875000
629,-46.875000
630,-46.875000
631,-50.781250
632,-50.781250
633,-48.828125
634,-48.828125
635,-48.828125
636,-48.828125
637,-44.921875
638,-46.875000
639,-46.875000
640,-41.015625
641,-42.968750
642,-37.109375
643,-39.062500
644,-39.062500
645,-33.203125
646,-35.156250
647,-33.203125
648,-33.203125
649,-33.203125
650,-39.062500
651,-29.296875
652,-25.390625
653,-25.390625
654,-23.437500
655,-21.484375
656,-21.484375
657,-19.531250
658,-21.484375
659,-17.578125
660,-19.531250
661,-19.531250
662,-13.671875
663,-17.578125
664,-15.625000
665,-13.671875
666,-15.625000
667,-13.671875
668,-13.671875
669,-13.671875
670,-13.671875
671,-15.625000
672,-11.718750
673,-15.625000
674,-11.718750
675,-13.671875
676,-13.671875
677,-9.765625
678,-13.671875
679,-11.718750
680,-15.625000
681,-13.671875
682,-13.671875
683,-9.765625
684,-9.765625
685,-9.765625
686,-9.765625
687,-9.765625
688,-9.765625
689,-9.765625
690,-7.812500
691,-9.765625
692,-9.765625
693,-5.859375
694,-9.765625
695,-7.812500
696,-7.812500
697,-9.765625
698,-5.859375
699,-9.765625
700,-5.859375
701,-9.765625
702,-7.812500
703,-5.859375
704,-5.859375
705,-7.812500
706,-3.906250
707,-5.859375
708,-5.859375
709,-7.812500
710,-5.859375
711,-3.906250
712,-5.859375
713,-7.812500
714,-7.812500
715,-9.765625
716,-5.859375
717,-7.812500
718,-7.812500
719,-9.765625
720,-5.859375
721,-7.812500
722,-5.859375
723,-5.859375
724,-7.812500
725,-5.859375
726,-9.765625
727,-9.765625
728,-3.906250
729,-9.765625
730,-7.812500
731,-5.859375
732,-5.859375
733,-7.812500
734,-9.765625
735,-7.812500
736,-7.812500
737,-5.859375
738,-7.812500
739,-7.812500
740,-5.859375
741,-7.812500
742,-7.812500
743,-5.859375
744,-9.765625
745,-7.812500
746,-7.812500
747,-5.859375
748,-5.859375
749,-7.812500
750,-5.859375
751,-7.812500
752,-7.812500
753,5.859375
754,-5.859375
755,-9.765625
756,-7.812500
757,-9.765625
758,-3.906250
759,-7.812500
760,-7.812500
761,-9.765625
762,-9.765625
763,-7.812500
764,-9.765625
765,-5.859375
766,-13.671875
767,-9.765625
768,-7.812500
769,-9.765625
770,-9.765625
771,-9.765625
772,-9.765625
773,-9.765625
774,-13.671875
775,-9.765625
776,-13.671875
777,-9.765625
778,-13.671875
779,-15.625000
780,-13.671875
781,-17.578125
782,-15.625000
783,-13.671875
784,-15.625000
785,-15.625000
786,-17.578125
787,-17.578125
788,-17.578125
789,-17.578125
790,-19.531250
791,-15.625000
792,-19.531250
793,-15.625000
794,-17.578125
795,-19.531250
796,-19.531250
797,-21.484375
798,-19.531250
799,-19.531250
800,-21.484375
801,-19.531250
802,-21.484375
803,-21.484375
804,-25.390625
805,-23.437500
806,-25.390625
807,-27.343750
808,-29.296875
809,-29.296875
810,-31.250000
811,-29.296875
812,-33.203125
813,-33.203125
814,-33.203125
815,-37.109375
816,-35.156250
817,-39.062500
818,-39.062500
819,-39.062500
820,-41.015625
821,-41.015625
822,-41.015625
823,-41.015625
824,-44.921875
825,-44.921875
826,-41.015625
827,-44.921875
828,-56.640625
829,-44.921875
830,-44.921875
831,-44.921875
832,-48.828125
833,-48.828125
834,-48.828125
835,-50.781250
836,-46.875000
837,-50.781250
838,-48.828125
839,-48.828125
840,-50.781250
841,-48.828125
842,-52.734375
843,-48.828125
844,-48.828125
845,-52.734375
846,-48.828125
847,-48.828125
848,-52.734375
849,-50.781250
850,-54.687500
851,-52.734375
852,-54.687500
853,-54.687500
854,-52.734375
855,-52.734375
856,-52.734375
857,-56.640625
858,-54.687500
859,-52.734375
860,-54.687500
861,-54.687500
862,-52.734375
863,-56.640625
864,-50.781250
865,-54.687500
866,-54.687500
867,-50.781250
868,-54.687500
869,-52.734375
870,-54.687500
871,-56.640625
872,-54.687500
873,-52.734375
874,-52.734375
875,-56.640625
876,-52.734375
877,-56.640625
878,-56.640625
879,-52.734375
880,-56.640625
881,-56.640625
882,-52.734375
883,-54.687500
884,-56.640625
885,-56.640625
886,-54.687500
887,-56.640625
888,-56.640625
889,-56.640625
890,-54.687500
891,-60.546875
892,-54.687500
893,-56.640625
894,-54.687500
895,-54.687500
896,-54.687500
897,-52.734375
898,-56.640625
899,-56.640625
900,-54.687500
901,-56.640625
902,-56.640625
903,-54.687500
904,-54.687500
905,-56.640625
906,-56.640625
907,-54.687500
908,-56.640625
909,-54.687500
910,-56.640625
911,-54.687500
912,-56.640625
913,-60.546875
914,-54.687500
915,-56.640625
916,-56.640625
917,-48.828125
918,-56.640625
919,-56.640625
920,-56.640625
921,-56.640625
922,-56.640625
923,-56.640625
924,-54.687500
925,-58.593750
926,-56.640625
927,-52.734375
928,-60.546875
929,-56.640625
930,-58.593750
931,-56.640625
932,-54.687500
933,-56.640625
934,-54.687500
935,-56.640625
936,-56.640625
937,-56.640625
938,-54.687500
939,-56.640625
940,-54.687500
941,-58.593750
942,-56.640625
943,-56.640625
944,-56.640625
945,-56.640625
946,-56.640625
947,-56.640625
948,-54.687500
949,-56.640625
950,-54.687500
951,-56.640625
952,-56.640625
953,-56.640625
954,-60.546875
955,-56.640625
956,-56.640625
957,-56.640625
958,-56.640625
959,-60.546875
960,-56.640625
961,-56.640625
962,-56.640625
963,-56.640625
964,-58.593750
965,-56.640625
966,-56.640625
967,-54.687500
968,-56.640625
969,-56.640625
970,-54.687500
971,-56.640625
972,-56.640625
973,-56.640625
974,-58.593750
975,-70.312500
976,-58.593750
977,-56.640625
978,-56.640625
979,-60.546875
980,-56.640625
981,-56.640625
982,-56.640625
983,-60.546875
984,-54.687500
985,-56.640625
986,-56.640625
987,-56.640625
988,-56.640625
989,-56.640625
990,-56.640625
991,-56.640625
992,-60.546875
993,-56.640625
994,-56.640625
995,-56.640625
996,-56.640625
997,-56.640625
998,-52.734375
999,-56.640625
1000,-56.640625
1001,-54.687500
1002,-56.640625
1003,-54.687500
1004,-56.640625
1005,-56.640625
1006,-52.734375
1007,-56.640625
1008,-56.640625
1009,-60.546875
1010,-56.640625
1011,-56.640625
1012,-60.546875
1013,-56.640625
1014,-58.593750
1015,-56.640625
1016,-56.640625
1017,-56.640625
1018,-56.640625
1019,-56.640625
1020,-56.640625
1021,-56.640625
1022,-56.640625
1023,-56.640625
1024,-56.640625
1025,-56.640625
1026,-56.640625
1027,-56.640625
1028,-56.640625
1029,-60.546875
1030,-60.546875
1031,-56.640625
1032,-56.640625
1033,-72.265625
1034,-56.640625
1035,-56.640625
1036,-54.687500
1037,-56.640625
1038,-56.640625
1039,-56.640625
1040,-60.546875
1041,-56.640625
1042,-54.687500
1043,-56.640625
1044,-56.640625
1045,-58.593750
1046,-56.640625
1047,-56.640625
1048,-56.640625
1049,-56.640625
1050,-56.640625
1051,-52.734375
1052,-56.640625
1053,-56.640625
1054,-56.640625
1055,-56.640625
1056,-56.640625
1057,-56.640625
1058,-56.640625
1059,-56.640625
1060,-56.640625
1061,-56.640625
1062,-56.640625
1063,-56.640625
1064,-56.640625
1065,-56.640625
1066,-56.640625
1067,-56.640625
1068,-56.640625
1069,-56.640625
1070,-56.640625
1071,-56.640625
1072,-56.640625
1073,-56.640625
1074,-56.640625
1075,-56.640625
1076,-56.640625
1077,-56.640625
1078,-58.593750
1079,-56.640625
1080,-56.640625
1081,-56.640625
1082,-48.828125
1083,-56.640625
1084,-54.687500
1085,-60.546875
1086,-56.640625
1087,-54.687500
1088,-56.640625
1089,-56.640625
1090,-56.640625
1091,-50.781250
1092,-56.640625
1093,-58.593750
1094,-54.687500
1095,-54.687500
1096,-58.593750
1097,-54.687500
1098,-56.640625
1099,-54.687500
1100,-52.734375
1101,-56.640625
1102,-54.687500
1103,-56.640625
1104,-56.640625
1105,-54.687500
1106,-56.640625
1107,-52.734375
1108,-56.640625
1109,-54.687500
1110,-56.640625
1111,-54.687500
1112,-52.734375
1113,-41.015625
1114,-52.734375
1115,-54.687500
1116,-56.640625
1117,-52.734375
1118,-56.640625
1119,-54.687500
1120,-54.687500
1121,-54.687500
1122,-54.687500
1123,-56.640625
1124,-56.640625
1125,-54.687500
1126,-56.640625
1127,-54.687500
1128,-54.687500
1129,-56.640625
1130,-56.640625
1131,-56.640625
1132,-54.687500
1133,-56.640625
1134,-54.687500
1135,-54.687500
1136,-56.640625
1137,-52.734375
1138,-56.640625
1139,-52.734375
1140,-56.640625
1141,-56.640625
1142,-54.687500
1143,-54.687500
1144,-54.687500
1145,-50.781250
1146,-54.687500
1147,-52.734375
1148,-54.687500
1149,-54.687500
1150,-52.734375
1151,-56.640625
1152,-54.687500
1153,-48.828125
1154,-54.687500
1155,-52.734375
1156,-52.734375
1157,-50.781250
1158,-54.687500
1159,-52.734375
1160,-52.734375
1161,-56.640625
1162,-54.687500
1163,-54.687500
1164,-52.734375
1165,-54.687500
1166,-54.687500
1167,-50.781250
1168,-54.687500
1169,-52.734375
1170,-56.640625
1171,-54.687500
1172,-48.828125
1173,-54.687500
1174,-48.828125
1175,-54.687500
1176,-56.640625
1177,-52.734375
1178,-56.640625
1179,-54.687500
1180,-52.734375
1181,-52.734375
1182,-54.687500
1183,-50.781250
1184,-56.640625
1185,-54.687500
1186,-50.781250
1187,-52.734375
1188,-48.828125
1189,-56.640625
1190,-50.781250
1191,-56.640625
1192,-52.734375
1193,-50.781250
1194,-48.828125
1195,-54.687500
1196,-50.781250
1197,-50.781250
1198,-52.734375
1199,-50.781250
1200,-52.734375
1201,-48.828125
1202,-54.687500
1203,-54.687500
1204,-52.734375
1205,-52.734375
1206,-50.781250
1207,-54.687500
1208,-48.828125
1209,-52.734375
1210,-50.781250
1211,-50.781250
1212,-52.734375
1213,-48.828125
1214,-52.734375
1215,-48.828125
1216,-48.828125
1217,-54.687500
1218,-48.828125
1219,-48.828125
1220,-48.828125
1221,-56.640625
1222,-50.781250
1223,-48.828125
1224,-54.687500
1225,-52.734375
1226,-50.781250
1227,-50.781250
1228,-48.828125
1229,-50.781250
1230,-48.828125
1231,-52.734375
1232,-52.734375
1233,-48.828125
1234,-44.921875
1235,-50.781250
1236,-50.781250
1237,-50.781250
1238,-56.640625
1239,-50.781250
1240,-52.734375
1241,-48.828125
1242,-52.734375
1243,-48.828125
1244,-48.828125
1245,-48.828125
1246,-52.734375
1247,-52.734375
1248,-50.781250
1249,-54.687500
1250,-52.734375
1251,-52.734375
1252,-52.734375
1253,-48.828125
1254,-48.828125
1255,-50.781250
1256,-48.828125
1257,-52.734375
1258,-54.687500
1259,-48.828125
1260,-54.687500
1261,-52.734375
1262,-50.781250
1263,-52.734375
1264,-48.828125
1265,-52.734375
1266,-50.781250
1267,-50.781250
1268,-52.734375
1269,-48.828125
1270,-52.734375
1271,-50.781250
1272,-54.687500
1273,-50.781250
1274,-54.687500
1275,-54.687500
1276,-52.734375
1277,-52.734375
1278,-52.734375
1279,-54.687500
1280,-52.734375
1281,-48.828125
1282,-48.828125
1283,-54.687500
1284,-52.734375
1285,-56.640625
1286,-52.734375
1287,-52.734375
1288,-56.640625
1289,-50.781250
1290,-54.687500
1291,-56.640625
1292,-52.734375
1293,-50.781250
1294,-50.781250
1295,-54.687500
1296,-54.687500
1297,-52.734375
1298,-54.687500
1299,-48.828125
1300,-54.687500
1301,-52.734375
1302,-50.781250
1303,-52.734375
1304,-52.734375
1305,-54.687500
1306,-54.687500
1307,-54.687500
1308,-54.687500
1309,-48.828125
1310,-54.687500
