時系列データ/data_kai/pet.csv

Channel              :,CH1
Frequency            :,  ?
Period               :,  ?
PK-PK                :,113.3mV
Probe attenuation    :,10X
Voltage per ADC value:,0.122070mV
Time interval        :,400.00000us

index,CH1_Voltage(mV)
1,-85.937500
2,-85.937500
3,-80.078125
4,-83.984375
5,-87.890625
6,-83.984375
7,-87.890625
8,-87.890625
9,-85.937500
10,-87.890625
11,-83.984375
12,-91.796875
13,-85.937500
14,-85.937500
15,-87.890625
16,-72.265625
17,-87.890625
18,-87.890625
19,-83.984375
20,-85.937500
21,-85.937500
22,-87.890625
23,-85.937500
24,-87.890625
25,-85.937500
26,-85.937500
27,-85.937500
28,-85.937500
29,-85.937500
30,-87.890625
31,-85.937500
32,-87.890625
33,-87.890625
34,-87.890625
35,-85.937500
36,-83.984375
37,-85.937500
38,-87.890625
39,-83.984375
40,-87.890625
41,-85.937500
42,-85.937500
43,-85.937500
44,-85.937500
45,-85.937500
46,-83.984375
47,-85.937500
48,-83.984375
49,-85.937500
50,-85.937500
51,-83.984375
52,-87.890625
53,-83.984375
54,-87.890625
55,-83.984375
56,-83.984375
57,-85.937500
58,-83.984375
59,-87.890625
60,-85.937500
61,-85.937500
62,-83.984375
63,-87.890625
64,-83.984375
65,-82.031250
66,-87.890625
67,-83.984375
68,-87.890625
69,-87.890625
70,-85.937500
71,-85.937500
72,-83.984375
73,-85.937500
74,-85.937500
75,-83.984375
76,-87.890625
77,-85.937500
78,-87.890625
79,-85.937500
80,-83.984375
81,-87.890625
82,-83.984375
83,-85.937500
84,-85.937500
85,-82.031250
86,-87.890625
87,-85.937500
88,-83.984375
89,-85.937500
90,-85.937500
91,-82.031250
92,-85.937500
93,-82.031250
94,-83.984375
95,-83.984375
96,-85.937500
97,-83.984375
98,-83.984375
99,-82.031250
100,-83.984375
101,-85.937500
102,-85.937500
103,-83.984375
104,-82.031250
105,-83.984375
106,-83.984375
107,-85.937500
108,-83.984375
109,-85.937500
110,-82.031250
111,-83.984375
112,-95.703125
113,-82.031250
114,-85.937500
115,-82.031250
116,-85.937500
117,-85.937500
118,-82.031250
119,-85.937500
120,-82.031250
121,-85.937500
122,-83.984375
123,-83.984375
124,-82.031250
125,-82.031250
126,-87.890625
127,-82.031250
128,-80.078125
129,-83.984375
130,-82.031250
131,-83.984375
132,-83.984375
133,-85.937500
134,-82.031250
135,-82.031250
136,-83.984375
137,-83.984375
138,-82.031250
139,-82.031250
140,-82.031250
141,-83.984375
142,-82.031250
143,-82.031250
144,-83.984375
145,-83.984375
146,-83.984375
147,-80.078125
148,-83.984375
149,-85.937500
150,-82.031250
151,-83.984375
152,-93.750000
153,-82.031250
154,-83.984375
155,-80.078125
156,-83.984375
157,-85.937500
158,-83.984375
159,-83.984375
160,-82.031250
161,-85.937500
162,-82.031250
163,-85.937500
164,-83.984375
165,-82.031250
166,-85.937500
167,-83.984375
168,-85.937500
169,-85.937500
170,-82.031250
171,-83.984375
172,-82.031250
173,-83.984375
174,-83.984375
175,-87.890625
176,-85.937500
177,-83.984375
178,-83.984375
179,-85.937500
180,-82.031250
181,-85.937500
182,-85.937500
183,-83.984375
184,-85.937500
185,-82.031250
186,-87.890625
187,-83.984375
188,-85.937500
189,-85.937500
190,-85.937500
191,-83.984375
192,-82.031250
193,-85.937500
194,-83.984375
195,-82.031250
196,-85.937500
197,-85.937500
198,-85.937500
199,-83.984375
200,-85.937500
201,-83.984375
202,-83.984375
203,-85.937500
204,-83.984375
205,-87.890625
206,-83.984375
207,-82.031250
208,-87.890625
209,-83.984375
210,-87.890625
211,-85.937500
212,-85.937500
213,-83.984375
214,-83.984375
215,-85.937500
216,-85.937500
217,-85.937500
218,-85.937500
219,-85.937500
220,-85.937500
221,-87.890625
222,-83.984375
223,-82.031250
224,-82.031250
225,-85.937500
226,-82.031250
227,-83.984375
228,-87.890625
229,-82.031250
230,-83.984375
231,-83.984375
232,-82.031250
233,-85.937500
234,-66.406250
235,-85.937500
236,-83.984375
237,-83.984375
238,-83.984375
239,-85.937500
240,-85.937500
241,-85.937500
242,-83.984375
243,-80.078125
244,-83.984375
245,-85.937500
246,-82.031250
247,-76.171875
248,-82.031250
249,-82.031250
250,-85.937500
251,-80.078125
252,-82.031250
253,-85.937500
254,-82.031250
255,-83.984375
256,-83.984375
257,-83.984375
258,-87.890625
259,-82.031250
260,-87.890625
261,-83.984375
262,-85.937500
263,-85.937500
264,-85.937500
265,-85.937500
266,-82.031250
267,-85.937500
268,-85.937500
269,-82.031250
270,-87.890625
271,-83.984375
272,-85.937500
273,-85.937500
274,-83.984375
275,-85.937500
276,-83.984375
277,-87.890625
278,-85.937500
279,-83.984375
280,-87.890625
281,-85.937500
282,-87.890625
283,-83.984375
284,-82.031250
285,-85.937500
286,-83.984375
287,-83.984375
288,-85.937500
289,-85.937500
290,-82.031250
291,-83.984375
292,-85.937500
293,-85.937500
294,-83.984375
295,-87.890625
296,-83.984375
297,-85.937500
298,-85.937500
299,-85.937500
300,-85.937500
301,-83.984375
302,-85.937500
303,-85.937500
304,-85.937500
305,-87.890625
306,-83.984375
307,-87.890625
308,-80.078125
309,-85.937500
310,-83.984375
311,-87.890625
312,-83.984375
313,-85.937500
314,-87.890625
315,-83.984375
316,-87.890625
317,-82.031250
318,-83.984375
319,-87.890625
320,-82.031250
321,-87.890625
322,-85.937500
323,-87.890625
324,-87.890625
325,-82.031250
326,-85.937500
327,-83.984375
328,-85.937500
329,-87.890625
330,-85.937500
331,-85.937500
332,-83.984375
333,-85.937500
334,-85.937500
335,-83.984375
336,-85.937500
337,-85.937500
338,-82.031250
339,-83.984375
340,-87.890625
341,-82.031250
342,-87.890625
343,-95.703125
344,-85.937500
345,-83.984375
346,-83.984375
347,-83.984375
348,-83.984375
349,-85.937500
350,-83.984375
351,-85.937500
352,-85.937500
353,-83.984375
354,-85.937500
355,-85.937500
356,-87.890625
357,-85.937500
358,-83.984375
359,-85.937500
360,-83.984375
361,-72.265625
362,-85.937500
363,-83.984375
364,-85.937500
365,-85.937500
366,-87.890625
367,-83.984375
368,-83.984375
369,-91.796875
370,-82.031250
371,-83.984375
372,-85.937500
373,-80.078125
374,-83.984375
375,-80.078125
376,-82.031250
377,-82.031250
378,-80.078125
379,-83.984375
380,-80.078125
381,-83.984375
382,-82.031250
383,-80.078125
384,-80.078125
385,-80.078125
386,-80.078125
387,-83.984375
388,-80.078125
389,-80.078125
390,-80.078125
391,-78.125000
392,-82.031250
393,-80.078125
394,-80.078125
395,-80.078125
396,-80.078125
397,-80.078125
398,-80.078125
399,-80.078125
400,-78.125000
401,-80.078125
402,-80.078125
403,-80.078125
404,-80.078125
405,-76.171875
406,-80.078125
407,-80.078125
408,-78.125000
409,-80.078125
410,-78.125000
411,-82.031250
412,-80.078125
413,-80.078125
414,-80.078125
415,-78.125000
416,-82.031250
417,-80.078125
418,-78.125000
419,-80.078125
420,-76.171875
421,-80.078125
422,-80.078125
423,-78.125000
424,-80.078125
425,-76.171875
426,-78.125000
427,-80.078125
428,-76.171875
429,-78.125000
430,-83.984375
431,-76.171875
432,-76.171875
433,-72.265625
434,-76.171875
435,-72.265625
436,-72.265625
437,-72.265625
438,-72.265625
439,-72.265625
440,-72.265625
441,-72.265625
442,-72.265625
443,-76.171875
444,-72.265625
445,-72.265625
446,-72.265625
447,-72.265625
448,-70.312500
449,-72.265625
450,-72.265625
451,-72.265625
452,-72.265625
453,-72.265625
454,-72.265625
455,-70.312500
456,-72.265625
457,-72.265625
458,-72.265625
459,-72.265625
460,-70.312500
461,-72.265625
462,-72.265625
463,-70.312500
464,-72.265625
465,-72.265625
466,-72.265625
467,-72.265625
468,-72.265625
469,-76.171875
470,-72.265625
471,-72.265625
472,-72.265625
473,-70.312500
474,-76.171875
475,-70.312500
476,-72.265625
477,-70.312500
478,-72.265625
479,-72.265625
480,-72.265625
481,-72.265625
482,-72.265625
483,-70.312500
484,-72.265625
485,-72.265625
486,-72.265625
487,-70.312500
488,-72.265625
489,-72.265625
490,-72.265625
491,-76.171875
492,-74.218750
493,-70.312500
494,-72.265625
495,-70.312500
496,-72.265625
497,-72.265625
498,-72.265625
499,-72.265625
500,-74.218750
501,-72.265625
502,-72.265625
503,-72.265625
504,-72.265625
505,-72.265625
506,-72.265625
507,-72.265625
508,-72.265625
509,-72.265625
510,-70.312500
511,-72.265625
512,-70.312500
513,-72.265625
514,-72.265625
515,-72.265625
516,-76.171875
517,-72.265625
518,-72.265625
519,-72.265625
520,-72.265625
521,-72.265625
522,-72.265625
523,-72.265625
524,-72.265625
525,-72.265625
526,-74.218750
527,-72.265625
528,-72.265625
529,-72.265625
530,-70.312500
531,-72.265625
532,-72.265625
533,-72.265625
534,-72.265625
535,-80.078125
536,-76.171875
537,-72.265625
538,-72.265625
539,-72.265625
540,-72.265625
541,-72.265625
542,-72.265625
543,-76.171875
544,-72.265625
545,-76.171875
546,-76.171875
547,-74.218750
548,-76.171875
549,-76.171875
550,-78.125000
551,-78.125000
552,-76.171875
553,-78.125000
554,-76.171875
555,-78.125000
556,-76.171875
557,-80.078125
558,-82.031250
559,-78.125000
560,-80.078125
561,-78.125000
562,-82.031250
563,-80.078125
564,-80.078125
565,-80.078125
566,-80.078125
567,-83.984375
568,-80.078125
569,-83.984375
570,-85.937500
571,-82.031250
572,-85.937500
573,-80.078125
574,-91.796875
575,-82.031250
576,-80.078125
577,-83.984375
578,-80.078125
579,-80.078125
580,-83.984375
581,-82.031250
582,-82.031250
583,-80.078125
584,-82.031250
585,-82.031250
586,-80.078125
587,-80.078125
588,-82.031250
589,-82.031250
590,-82.031250
591,-80.078125
592,-80.078125
593,-82.031250
594,-80.078125
595,-82.031250
596,-87.890625
597,-83.984375
598,-82.031250
599,-82.031250
600,-82.031250
601,-82.031250
602,-82.031250
603,-82.031250
604,-83.984375
605,-82.031250
606,-83.984375
607,-82.031250
608,-85.937500
609,-85.937500
610,-85.937500
611,-82.031250
612,-83.984375
613,-83.984375
614,-82.031250
615,-85.937500
616,-82.031250
617,-85.937500
618,-83.984375
619,-83.984375
620,-85.937500
621,-83.984375
622,-83.984375
623,-85.937500
624,-85.937500
625,-87.890625
626,-83.984375
627,-85.937500
628,-83.984375
629,-83.984375
630,-85.937500
631,-82.031250
632,-87.890625
633,-85.937500
634,-87.890625
635,-87.890625
636,-83.984375
637,-87.890625
638,-85.937500
639,-83.984375
640,-85.937500
641,-83.984375
642,-87.890625
643,-87.890625
644,-85.937500
645,-89.843750
646,-85.937500
647,-85.937500
648,-87.890625
649,-85.937500
650,-87.890625
651,-87.890625
652,-87.890625
653,-85.937500
654,-85.937500
655,-87.890625
656,-82.031250
657,-93.750000
658,-85.937500
659,-87.890625
660,-87.890625
661,-70.312500
662,-91.796875
663,-85.937500
664,-87.890625
665,-87.890625
666,-87.890625
667,-87.890625
668,-87.890625
669,-87.890625
670,-93.750000
671,-87.890625
672,-87.890625
673,-87.890625
674,-87.890625
675,-87.890625
676,-87.890625
677,-87.890625
678,-87.890625
679,-87.890625
680,-87.890625
681,-87.890625
682,-87.890625
683,-87.890625
684,-87.890625
685,-87.890625
686,-87.890625
687,-89.843750
688,-85.937500
689,-87.890625
690,-87.890625
691,-85.937500
692,-91.796875
693,-85.937500
694,-87.890625
695,-87.890625
696,-87.890625
697,-89.843750
698,-87.890625
699,-87.890625
700,-85.937500
701,-87.890625
702,-91.796875
703,-87.890625
704,-91.796875
705,-85.937500
706,-91.796875
707,-87.890625
708,-87.890625
709,-87.890625
710,-87.890625
711,-87.890625
712,-87.890625
713,-87.890625
714,-87.890625
715,-87.890625
716,-91.796875
717,-87.890625
718,-85.937500
719,-87.890625
720,-87.890625
721,-87.890625
722,-87.890625
723,-87.890625
724,-91.796875
725,-87.890625
726,-87.890625
727,-91.796875
728,-97.656250
729,-91.796875
730,-85.937500
731,-91.796875
732,-87.890625
733,-87.890625
734,-87.890625
735,-87.890625
736,-91.796875
737,-89.843750
738,-87.890625
739,-89.843750
740,-87.890625
741,-91.796875
742,-87.890625
743,-87.890625
744,-87.890625
745,-87.890625
746,-87.890625
747,-91.796875
748,-87.890625
749,-87.890625
750,-87.890625
751,-89.843750
752,-89.843750
753,-89.843750
754,-89.843750
755,-87.890625
756,-87.890625
757,-91.796875
758,-87.890625
759,-91.796875
760,-87.890625
761,-91.796875
762,-89.843750
763,-89.843750
764,-87.890625
765,-89.843750
766,-97.656250
767,-87.890625
768,-91.796875
769,-91.796875
770,-109.375000
771,-93.750000
772,-87.890625
773,-91.796875
774,-91.796875
775,-87.890625
776,-91.796875
777,-87.890625
778,-87.890625
779,-82.031250
780,-91.796875
781,-87.890625
782,-87.890625
783,-91.796875
784,-87.890625
785,-87.890625
786,-89.843750
787,-87.890625
788,-87.890625
789,-87.890625
790,-87.890625
791,-87.890625
792,-87.890625
793,-87.890625
794,-87.890625
795,-87.890625
796,-89.843750
797,-87.890625
798,-87.890625
799,-85.937500
800,-87.890625
801,-85.937500
802,-83.984375
803,-87.890625
804,-85.937500
805,-72.265625
806,-89.843750
807,-85.937500
808,-87.890625
809,-83.984375
810,-87.890625
811,-85.937500
812,-85.937500
813,-83.984375
814,-82.031250
815,-83.984375
816,-82.031250
817,-87.890625
818,-80.078125
819,-83.984375
820,-78.125000
821,-80.078125
822,-82.031250
823,-78.125000
824,-82.031250
825,-80.078125
826,-78.125000
827,-80.078125
828,-76.171875
829,-82.031250
830,-76.171875
831,-76.171875
832,-78.125000
833,-72.265625
834,-76.171875
835,-72.265625
836,-76.171875
837,-76.171875
838,-76.171875
839,-72.265625
840,-82.031250
841,-74.218750
842,-72.265625
843,-74.218750
844,-70.312500
845,-72.265625
846,-70.312500
847,-72.265625
848,-72.265625
849,-72.265625
850,-72.265625
851,-72.265625
852,-70.312500
853,-72.265625
854,-66.406250
855,-72.265625
856,-70.312500
857,-72.265625
858,-66.406250
859,-70.312500
860,-70.312500
861,-66.406250
862,-70.312500
863,-66.406250
864,-68.359375
865,-68.359375
866,-66.406250
867,-66.406250
868,-66.406250
869,-66.406250
870,-70.312500
871,-66.406250
872,-64.453125
873,-64.453125
874,-66.406250
875,-66.406250
876,-66.406250
877,-68.359375
878,-66.406250
879,-66.406250
880,-66.406250
881,-64.453125
882,-54.687500
883,-64.453125
884,-64.453125
885,-68.359375
886,-64.453125
887,-66.406250
888,-74.218750
889,-64.453125
890,-66.406250
891,-64.453125
892,-68.359375
893,-64.453125
894,-68.359375
895,-70.312500
896,-64.453125
897,-68.359375
898,-64.453125
899,-66.406250
900,-66.406250
901,-66.406250
902,-68.359375
903,-64.453125
904,-70.312500
905,-66.406250
906,-68.359375
907,-66.406250
908,-66.406250
909,-68.359375
910,-72.265625
911,-70.312500
912,-68.359375
913,-70.312500
914,-72.265625
915,-70.312500
916,-72.265625
917,-72.265625
918,-72.265625
919,-72.265625
920,-72.265625
921,-72.265625
922,-76.171875
923,-72.265625
924,-76.171875
925,-74.218750
926,-72.265625
927,-78.125000
928,-76.171875
929,-78.125000
930,-78.125000
931,-76.171875
932,-80.078125
933,-76.171875
934,-80.078125
935,-78.125000
936,-80.078125
937,-80.078125
938,-80.078125
939,-82.031250
940,-80.078125
941,-80.078125
942,-82.031250
943,-82.031250
944,-82.031250
945,-82.031250
946,-87.890625
947,-83.984375
948,-85.937500
949,-83.984375
950,-85.937500
951,-87.890625
952,-82.031250
953,-85.937500
954,-85.937500
955,-85.937500
956,-87.890625
957,-85.937500
958,-87.890625
959,-87.890625
960,-83.984375
961,-87.890625
962,-83.984375
963,-87.890625
964,-87.890625
965,-87.890625
966,-87.890625
967,-87.890625
968,-95.703125
969,-87.890625
970,-87.890625
971,-87.890625
972,-87.890625
973,-87.890625
974,-87.890625
975,-82.031250
976,-91.796875
977,-85.937500
978,-91.796875
979,-87.890625
980,-87.890625
981,-91.796875
982,-89.843750
983,-91.796875
984,-87.890625
985,-85.937500
986,-87.890625
987,-91.796875
988,-91.796875
989,-87.890625
990,-91.796875
991,-91.796875
992,-87.890625
993,-89.843750
994,-87.890625
995,-87.890625
996,-91.796875
997,-87.890625
998,-91.796875
999,-87.890625
1000,-87.890625
1001,-91.796875
1002,-87.890625
1003,-91.796875
1004,-87.890625
1005,-85.937500
1006,-87.890625
1007,-87.890625
1008,-89.843750
1009,-87.890625
1010,-83.984375
1011,-87.890625
1012,-85.937500
1013,-89.843750
1014,-87.890625
1015,-85.937500
1016,-87.890625
1017,-85.937500
1018,-87.890625
1019,-83.984375
1020,-91.796875
1021,-87.890625
1022,-87.890625
1023,-83.984375
1024,-85.937500
1025,-87.890625
1026,-85.937500
1027,-87.890625
1028,-87.890625
1029,-87.890625
1030,-87.890625
1031,-87.890625
1032,-82.031250
1033,-87.890625
1034,-85.937500
1035,-85.937500
1036,-87.890625
1037,-87.890625
1038,-87.890625
1039,-82.031250
1040,-87.890625
1041,-87.890625
1042,-83.984375
1043,-87.890625
1044,-85.937500
1045,-87.890625
1046,-85.937500
1047,-85.937500
1048,-87.890625
1049,-83.984375
1050,-87.890625
1051,-87.890625
1052,-85.937500
1053,-87.890625
1054,-85.937500
1055,-87.890625
1056,-83.984375
1057,-85.937500
1058,-83.984375
1059,-85.937500
1060,-87.890625
1061,-83.984375
1062,-87.890625
1063,-83.984375
1064,-87.890625
1065,-83.984375
1066,-85.937500
1067,-87.890625
1068,-82.031250
1069,-87.890625
1070,-85.937500
1071,-87.890625
1072,-85.937500
1073,-87.890625
1074,-87.890625
1075,-85.937500
1076,-87.890625
1077,-85.937500
1078,-85.937500
1079,-87.890625
1080,-82.031250
1081,-87.890625
1082,-85.937500
1083,-85.937500
1084,-87.890625
1085,-87.890625
1086,-85.937500
1087,-87.890625
1088,-83.984375
1089,-85.937500
1090,-85.937500
1091,-83.984375
1092,-87.890625
1093,-85.937500
1094,-85.937500
1095,-87.890625
1096,-83.984375
1097,-87.890625
1098,-85.937500
1099,-87.890625
1100,-83.984375
1101,-83.984375
1102,-87.890625
1103,-82.031250
1104,-87.890625
1105,-82.031250
1106,-87.890625
1107,-85.937500
1108,-85.937500
1109,-87.890625
1110,-82.031250
1111,-85.937500
1112,-85.937500
1113,-85.937500
1114,-87.890625
1115,-83.984375
1116,-91.796875
1117,-83.984375
1118,-87.890625
1119,-85.937500
1120,-83.984375
1121,-87.890625
1122,-82.031250
1123,-87.890625
1124,-83.984375
1125,-83.984375
1126,-87.890625
1127,-83.984375
1128,-83.984375
1129,-82.031250
1130,-83.984375
1131,-85.937500
1132,-70.312500
1133,-83.984375
1134,-85.937500
1135,-76.171875
1136,-85.937500
1137,-83.984375
1138,-83.984375
1139,-83.984375
1140,-83.984375
1141,-93.750000
1142,-87.890625
1143,-83.984375
1144,-83.984375
1145,-83.984375
1146,-85.937500
1147,-82.031250
1148,-83.984375
1149,-83.984375
1150,-76.171875
1151,-85.937500
1152,-82.031250
1153,-85.937500
1154,-85.937500
1155,-83.984375
1156,-83.984375
1157,-83.984375
1158,-85.937500
1159,-82.031250
1160,-83.984375
1161,-83.984375
1162,-83.984375
1163,-83.984375
1164,-82.031250
1165,-87.890625
1166,-83.984375
1167,-83.984375
1168,-85.937500
1169,-82.031250
1170,-83.984375
1171,-82.031250
1172,-83.984375
1173,-83.984375
1174,-82.031250
1175,-87.890625
1176,-82.031250
1177,-82.031250
1178,-87.890625
1179,-82.031250
1180,-85.937500
1181,-82.031250
1182,-85.937500
1183,-85.937500
1184,-83.984375
1185,-83.984375
1186,-83.984375
1187,-83.984375
1188,-83.984375
1189,-85.937500
1190,-83.984375
1191,-85.937500
1192,-83.984375
1193,-80.078125
1194,-83.984375
1195,-83.984375
1196,-82.031250
1197,-85.937500
1198,-83.984375
1199,-82.031250
1200,-83.984375
1201,-82.031250
1202,-83.984375
1203,-82.031250
1204,-83.984375
1205,-85.937500
1206,-83.984375
1207,-87.890625
1208,-82.031250
1209,-87.890625
1210,-83.984375
1211,-80.078125
1212,-87.890625
1213,-82.031250
1214,-85.937500
1215,-83.984375
1216,-83.984375
1217,-85.937500
1218,-82.031250
1219,-85.937500
1220,-83.984375
1221,-83.984375
1222,-83.984375
1223,-83.984375
1224,-85.937500
1225,-83.984375
1226,-85.937500
1227,-83.984375
1228,-85.937500
1229,-85.937500
1230,-82.031250
1231,-82.031250
1232,-83.984375
1233,-83.984375
1234,-82.031250
1235,-80.078125
1236,-85.937500
1237,-87.890625
1238,-83.984375
1239,-82.031250
1240,-83.984375
1241,-83.984375
1242,-85.937500
1243,-83.984375
1244,-85.937500
1245,-83.984375
1246,-83.984375
1247,-85.937500
1248,-85.937500
1249,-85.937500
1250,-82.031250
1251,-85.937500
1252,-82.031250
1253,-83.984375
1254,-82.031250
1255,-83.984375
1256,-87.890625
1257,-83.984375
1258,-85.937500
1259,-85.937500
1260,-82.031250
1261,-85.937500
1262,-82.031250
1263,-85.937500
1264,-85.937500
1265,-83.984375
1266,-87.890625
1267,-83.984375
1268,-87.890625
1269,-83.984375
1270,-83.984375
1271,-85.937500
1272,-83.984375
1273,-85.937500
1274,-83.984375
1275,-82.031250
1276,-85.937500
1277,-85.937500
1278,-83.984375
1279,-87.890625
1280,-85.937500
1281,-85.937500
1282,-83.984375
1283,-83.984375
1284,-95.703125
1285,-82.031250
1286,-85.937500
1287,-83.984375
1288,-85.937500
1289,-83.984375
1290,-83.984375
1291,-85.937500
1292,-82.031250
1293,-85.937500
1294,-83.984375
1295,-83.984375
1296,-85.937500
1297,-83.984375
1298,-87.890625
1299,-83.984375
1300,-85.937500
1301,-87.890625
1302,-78.125000
1303,-85.937500
1304,-85.937500
