時系列データ/data_kai/pettest.csv

Channel              :,CH1
Frequency            :,  ?
Period               :,  ?
PK-PK                :,89.84mV
Probe attenuation    :,10X
Voltage per ADC value:,0.122070mV
Time interval        :,400.00000us

index,CH1_Voltage(mV)
1,-105.468750
2,-105.468750
3,-93.750000
4,-91.796875
5,-91.796875
6,-93.750000
7,-95.703125
8,-95.703125
9,-93.750000
10,-87.890625
11,-91.796875
12,-95.703125
13,-93.750000
14,-91.796875
15,-95.703125
16,-89.843750
17,-95.703125
18,-93.750000
19,-93.750000
20,-93.750000
21,-91.796875
22,-91.796875
23,-91.796875
24,-95.703125
25,-87.890625
26,-93.750000
27,-93.750000
28,-93.750000
29,-93.750000
30,-91.796875
31,-91.796875
32,-93.750000
33,-91.796875
34,-93.750000
35,-93.750000
36,-91.796875
37,-91.796875
38,-93.750000
39,-91.796875
40,-93.750000
41,-91.796875
42,-93.750000
43,-93.750000
44,-93.750000
45,-93.750000
46,-91.796875
47,-95.703125
48,-93.750000
49,-93.750000
50,-93.750000
51,-89.843750
52,-95.703125
53,-91.796875
54,-91.796875
55,-95.703125
56,-89.843750
57,-93.750000
58,-87.890625
59,-80.078125
60,-93.750000
61,-89.843750
62,-91.796875
63,-91.796875
64,-87.890625
65,-91.796875
66,-87.890625
67,-87.890625
68,-87.890625
69,-87.890625
70,-91.796875
71,-89.843750
72,-87.890625
73,-91.796875
74,-85.937500
75,-85.937500
76,-87.890625
77,-87.890625
78,-85.937500
79,-85.937500
80,-85.937500
81,-87.890625
82,-87.890625
83,-83.984375
84,-87.890625
85,-82.031250
86,-83.984375
87,-83.984375
88,-82.031250
89,-87.890625
90,-82.031250
91,-83.984375
92,-83.984375
93,-80.078125
94,-83.984375
95,-76.171875
96,-80.078125
97,-80.078125
98,-78.125000
99,-78.125000
100,-80.078125
101,-72.265625
102,-78.125000
103,-76.171875
104,-74.218750
105,-76.171875
106,-72.265625
107,-76.171875
108,-74.218750
109,-74.218750
110,-76.171875
111,-72.265625
112,-72.265625
113,-72.265625
114,-72.265625
115,-72.265625
116,-74.218750
117,-72.265625
118,-72.265625
119,-70.312500
120,-74.218750
121,-72.265625
122,-72.265625
123,-72.265625
124,-70.312500
125,-70.312500
126,-70.312500
127,-70.312500
128,-70.312500
129,-66.406250
130,-72.265625
131,-70.312500
132,-72.265625
133,-68.359375
134,-70.312500
135,-68.359375
136,-66.406250
137,-70.312500
138,-74.218750
139,-68.359375
140,-66.406250
141,-66.406250
142,-66.406250
143,-64.453125
144,-66.406250
145,-66.406250
146,-64.453125
147,-64.453125
148,-66.406250
149,-64.453125
150,-66.406250
151,-60.546875
152,-64.453125
153,-64.453125
154,-62.500000
155,-62.500000
156,-56.640625
157,-60.546875
158,-60.546875
159,-60.546875
160,-58.593750
161,-56.640625
162,-60.546875
163,-56.640625
164,-56.640625
165,-58.593750
166,-56.640625
167,-56.640625
168,-56.640625
169,-56.640625
170,-56.640625
171,-54.687500
172,-56.640625
173,-52.734375
174,-56.640625
175,-56.640625
176,-56.640625
177,-56.640625
178,-56.640625
179,-54.687500
180,-56.640625
181,-54.687500
182,-52.734375
183,-56.640625
184,-56.640625
185,-56.640625
186,-54.687500
187,-56.640625
188,-56.640625
189,-52.734375
190,-56.640625
191,-54.687500
192,-56.640625
193,-56.640625
194,-56.640625
195,-56.640625
196,-56.640625
197,-56.640625
198,-60.546875
199,-68.359375
200,-62.500000
201,-54.687500
202,-58.593750
203,-56.640625
204,-54.687500
205,-56.640625
206,-54.687500
207,-54.687500
208,-52.734375
209,-56.640625
210,-56.640625
211,-56.640625
212,-56.640625
213,-56.640625
214,-54.687500
215,-58.593750
216,-56.640625
217,-56.640625
218,-56.640625
219,-54.687500
220,-56.640625
221,-54.687500
222,-56.640625
223,-60.546875
224,-56.640625
225,-60.546875
226,-56.640625
227,-56.640625
228,-56.640625
229,-54.687500
230,-60.546875
231,-54.687500
232,-60.546875
233,-56.640625
234,-54.687500
235,-56.640625
236,-56.640625
237,-60.546875
238,-56.640625
239,-60.546875
240,-56.640625
241,-56.640625
242,-60.546875
243,-56.640625
244,-56.640625
245,-60.546875
246,-56.640625
247,-54.687500
248,-64.453125
249,-60.546875
250,-56.640625
251,-56.640625
252,-56.640625
253,-60.546875
254,-56.640625
255,-60.546875
256,-62.500000
257,-56.640625
258,-56.640625
259,-60.546875
260,-60.546875
261,-60.546875
262,-60.546875
263,-60.546875
264,-56.640625
265,-62.500000
266,-60.546875
267,-60.546875
268,-60.546875
269,-56.640625
270,-60.546875
271,-60.546875
272,-60.546875
273,-60.546875
274,-60.546875
275,-60.546875
276,-64.453125
277,-70.312500
278,-64.453125
279,-60.546875
280,-62.500000
281,-62.500000
282,-64.453125
283,-64.453125
284,-64.453125
285,-64.453125
286,-66.406250
287,-68.359375
288,-66.406250
289,-66.406250
290,-68.359375
291,-66.406250
292,-70.312500
293,-70.312500
294,-68.359375
295,-72.265625
296,-72.265625
297,-72.265625
298,-72.265625
299,-72.265625
300,-72.265625
301,-74.218750
302,-72.265625
303,-74.218750
304,-76.171875
305,-76.171875
306,-74.218750
307,-60.546875
308,-78.125000
309,-80.078125
310,-76.171875
311,-80.078125
312,-78.125000
313,-80.078125
314,-80.078125
315,-80.078125
316,-82.031250
317,-72.265625
318,-82.031250
319,-82.031250
320,-80.078125
321,-83.984375
322,-83.984375
323,-83.984375
324,-82.031250
325,-87.890625
326,-82.031250
327,-87.890625
328,-83.984375
329,-85.937500
330,-87.890625
331,-85.937500
332,-87.890625
333,-85.937500
334,-87.890625
335,-91.796875
336,-87.890625
337,-87.890625
338,-87.890625
339,-87.890625
340,-87.890625
341,-87.890625
342,-91.796875
343,-89.843750
344,-87.890625
345,-91.796875
346,-87.890625
347,-91.796875
348,-87.890625
349,-89.843750
350,-91.796875
351,-93.750000
352,-82.031250
353,-91.796875
354,-89.843750
355,-91.796875
356,-95.703125
357,-91.796875
358,-93.750000
359,-91.796875
360,-93.750000
361,-93.750000
362,-91.796875
363,-93.750000
364,-93.750000
365,-93.750000
366,-91.796875
367,-91.796875
368,-93.750000
369,-91.796875
370,-91.796875
371,-93.750000
372,-93.750000
373,-93.750000
374,-93.750000
375,-93.750000
376,-95.703125
377,-91.796875
378,-95.703125
379,-93.750000
380,-91.796875
381,-91.796875
382,-91.796875
383,-99.609375
384,-93.750000
385,-91.796875
386,-93.750000
387,-91.796875
388,-97.656250
389,-93.750000
390,-95.703125
391,-91.796875
392,-91.796875
393,-93.750000
394,-93.750000
395,-93.750000
396,-87.890625
397,-91.796875
398,-95.703125
399,-91.796875
400,-95.703125
401,-93.750000
402,-91.796875
403,-95.703125
404,-91.796875
405,-91.796875
406,-91.796875
407,-93.750000
408,-93.750000
409,-85.937500
410,-91.796875
411,-93.750000
412,-91.796875
413,-91.796875
414,-89.843750
415,-91.796875
416,-93.750000
417,-91.796875
418,-95.703125
419,-91.796875
420,-93.750000
421,-93.750000
422,-91.796875
423,-91.796875
424,-91.796875
425,-93.750000
426,-93.750000
427,-91.796875
428,-95.703125
429,-93.750000
430,-91.796875
431,-93.750000
432,-91.796875
433,-119.140625
434,-91.796875
435,-95.703125
436,-93.750000
437,-91.796875
438,-93.750000
439,-93.750000
440,-99.609375
441,-93.750000
442,-93.750000
443,-93.750000
444,-93.750000
445,-95.703125
446,-91.796875
447,-95.703125
448,-93.750000
449,-93.750000
450,-95.703125
451,-93.750000
452,-93.750000
453,-91.796875
454,-93.750000
455,-91.796875
456,-93.750000
457,-91.796875
458,-93.750000
459,-91.796875
460,-93.750000
461,-93.750000
462,-91.796875
463,-91.796875
464,-91.796875
465,-91.796875
466,-87.890625
467,-91.796875
468,-93.750000
469,-91.796875
470,-91.796875
471,-87.890625
472,-89.843750
473,-91.796875
474,-87.890625
475,-97.656250
476,-91.796875
477,-91.796875
478,-93.750000
479,-87.890625
480,-91.796875
481,-91.796875
482,-91.796875
483,-93.750000
484,-91.796875
485,-89.843750
486,-91.796875
487,-87.890625
488,-91.796875
489,-93.750000
490,-91.796875
491,-91.796875
492,-89.843750
493,-91.796875
494,-91.796875
495,-91.796875
496,-91.796875
497,-87.890625
498,-91.796875
499,-87.890625
500,-91.796875
501,-87.890625
502,-89.843750
503,-91.796875
504,-87.890625
505,-93.750000
506,-95.703125
507,-91.796875
508,-87.890625
509,-87.890625
510,-91.796875
511,-89.843750
512,-91.796875
513,-91.796875
514,-87.890625
515,-95.703125
516,-87.890625
517,-91.796875
518,-87.890625
519,-87.890625
520,-91.796875
521,-87.890625
522,-89.843750
523,-87.890625
524,-91.796875
525,-91.796875
526,-87.890625
527,-91.796875
528,-87.890625
529,-87.890625
530,-91.796875
531,-87.890625
532,-91.796875
533,-87.890625
534,-93.750000
535,-91.796875
536,-87.890625
537,-87.890625
538,-87.890625
539,-91.796875
540,-87.890625
541,-91.796875
542,-89.843750
543,-89.843750
544,-91.796875
545,-87.890625
546,-91.796875
547,-91.796875
548,-87.890625
549,-91.796875
550,-87.890625
551,-87.890625
552,-91.796875
553,-87.890625
554,-87.890625
555,-91.796875
556,-87.890625
557,-93.750000
558,-87.890625
559,-87.890625
560,-87.890625
561,-87.890625
562,-89.843750
563,-87.890625
564,-91.796875
565,-87.890625
566,-87.890625
567,-87.890625
568,-87.890625
569,-89.843750
570,-87.890625
571,-87.890625
572,-91.796875
573,-87.890625
574,-87.890625
575,-91.796875
576,-91.796875
577,-87.890625
578,-87.890625
579,-91.796875
580,-85.937500
581,-91.796875
582,-87.890625
583,-87.890625
584,-91.796875
585,-85.937500
586,-91.796875
587,-87.890625
588,-91.796875
589,-87.890625
590,-87.890625
591,-91.796875
592,-87.890625
593,-95.703125
594,-91.796875
595,-87.890625
596,-91.796875
597,-91.796875
598,-89.843750
599,-87.890625
600,-87.890625
601,-87.890625
602,-93.750000
603,-87.890625
604,-87.890625
605,-87.890625
606,-87.890625
607,-87.890625
608,-89.843750
609,-91.796875
610,-87.890625
611,-85.937500
612,-87.890625
613,-87.890625
614,-87.890625
615,-87.890625
616,-91.796875
617,-87.890625
618,-85.937500
619,-87.890625
620,-91.796875
621,-87.890625
622,-87.890625
623,-87.890625
624,-91.796875
625,-87.890625
626,-87.890625
627,-87.890625
628,-87.890625
629,-87.890625
630,-87.890625
631,-87.890625
632,-85.937500
633,-87.890625
634,-87.890625
635,-85.937500
636,-85.937500
637,-91.796875
638,-87.890625
639,-91.796875
640,-87.890625
641,-87.890625
642,-91.796875
643,-87.890625
644,-87.890625
645,-91.796875
646,-87.890625
647,-87.890625
648,-89.843750
649,-91.796875
650,-85.937500
651,-91.796875
652,-87.890625
653,-87.890625
654,-87.890625
655,-87.890625
656,-87.890625
657,-87.890625
658,-91.796875
659,-87.890625
660,-87.890625
661,-87.890625
662,-87.890625
663,-85.937500
664,-87.890625
665,-85.937500
666,-87.890625
667,-85.937500
668,-85.937500
669,-87.890625
670,-87.890625
671,-87.890625
672,-85.937500
673,-87.890625
674,-87.890625
675,-85.937500
676,-85.937500
677,-87.890625
678,-87.890625
679,-87.890625
680,-87.890625
681,-87.890625
682,-87.890625
683,-87.890625
684,-87.890625
685,-91.796875
686,-87.890625
687,-87.890625
688,-87.890625
689,-91.796875
690,-87.890625
691,-87.890625
692,-85.937500
693,-87.890625
694,-91.796875
695,-87.890625
696,-91.796875
697,-85.937500
698,-83.984375
699,-87.890625
700,-87.890625
701,-89.843750
702,-87.890625
703,-85.937500
704,-87.890625
705,-85.937500
706,-87.890625
707,-80.078125
708,-87.890625
709,-87.890625
710,-87.890625
711,-87.890625
712,-87.890625
713,-87.890625
714,-87.890625
715,-87.890625
716,-87.890625
717,-85.937500
718,-87.890625
719,-87.890625
720,-87.890625
721,-87.890625
722,-87.890625
723,-87.890625
724,-85.937500
725,-85.937500
726,-87.890625
727,-87.890625
728,-87.890625
729,-87.890625
730,-87.890625
731,-87.890625
732,-85.937500
733,-87.890625
734,-87.890625
735,-87.890625
736,-89.843750
737,-87.890625
738,-91.796875
739,-87.890625
740,-87.890625
741,-87.890625
742,-82.031250
743,-91.796875
744,-87.890625
745,-89.843750
746,-87.890625
747,-87.890625
748,-89.843750
749,-93.750000
750,-91.796875
751,-91.796875
752,-85.937500
753,-91.796875
754,-87.890625
755,-87.890625
756,-91.796875
757,-87.890625
758,-87.890625
759,-87.890625
760,-93.750000
761,-87.890625
762,-87.890625
763,-89.843750
764,-76.171875
765,-87.890625
766,-87.890625
767,-87.890625
768,-91.796875
769,-87.890625
770,-87.890625
771,-87.890625
772,-87.890625
773,-87.890625
774,-87.890625
775,-87.890625
776,-87.890625
777,-89.843750
778,-87.890625
779,-87.890625
780,-87.890625
781,-87.890625
782,-87.890625
783,-87.890625
784,-89.843750
785,-87.890625
786,-93.750000
787,-87.890625
788,-87.890625
789,-91.796875
790,-91.796875
791,-87.890625
792,-87.890625
793,-91.796875
794,-87.890625
795,-87.890625
796,-87.890625
797,-87.890625
798,-87.890625
799,-85.937500
800,-91.796875
801,-87.890625
802,-87.890625
803,-97.656250
804,-87.890625
805,-87.890625
806,-85.937500
807,-91.796875
808,-87.890625
809,-87.890625
810,-87.890625
811,-85.937500
812,-85.937500
813,-87.890625
814,-87.890625
815,-85.937500
816,-85.937500
817,-87.890625
818,-85.937500
819,-87.890625
820,-87.890625
821,-85.937500
822,-87.890625
823,-83.984375
824,-87.890625
825,-85.937500
826,-83.984375
827,-87.890625
828,-87.890625
829,-87.890625
830,-83.984375
831,-87.890625
832,-83.984375
833,-85.937500
834,-87.890625
835,-83.984375
836,-87.890625
837,-83.984375
838,-95.703125
839,-87.890625
840,-83.984375
841,-85.937500
842,-82.031250
843,-85.937500
844,-85.937500
845,-83.984375
846,-85.937500
847,-85.937500
848,-83.984375
849,-82.031250
850,-80.078125
851,-82.031250
852,-82.031250
853,-78.125000
854,-82.031250
855,-82.031250
856,-82.031250
857,-82.031250
858,-80.078125
859,-80.078125
860,-80.078125
861,-80.078125
862,-80.078125
863,-78.125000
864,-82.031250
865,-78.125000
866,-76.171875
867,-80.078125
868,-78.125000
869,-80.078125
870,-76.171875
871,-78.125000
872,-76.171875
873,-82.031250
874,-78.125000
875,-76.171875
876,-76.171875
877,-76.171875
878,-76.171875
879,-76.171875
880,-76.171875
881,-76.171875
882,-80.078125
883,-76.171875
884,-76.171875
885,-76.171875
886,-76.171875
887,-76.171875
888,-76.171875
889,-76.171875
890,-76.171875
891,-76.171875
892,-76.171875
893,-72.265625
894,-76.171875
895,-72.265625
896,-76.171875
897,-76.171875
898,-72.265625
899,-76.171875
900,-72.265625
901,-72.265625
902,-76.171875
903,-72.265625
904,-78.125000
905,-74.218750
906,-72.265625
907,-76.171875
908,-70.312500
909,-76.171875
910,-72.265625
911,-74.218750
912,-72.265625
913,-72.265625
914,-74.218750
915,-72.265625
916,-72.265625
917,-76.171875
918,-72.265625
919,-72.265625
920,-76.171875
921,-72.265625
922,-76.171875
923,-76.171875
924,-76.171875
925,-76.171875
926,-76.171875
927,-76.171875
928,-76.171875
929,-76.171875
930,-76.171875
931,-76.171875
932,-76.171875
933,-72.265625
934,-76.171875
935,-76.171875
936,-76.171875
937,-76.171875
938,-76.171875
939,-76.171875
940,-72.265625
941,-76.171875
942,-76.171875
943,-70.312500
944,-76.171875
945,-76.171875
946,-76.171875
947,-76.171875
948,-80.078125
949,-78.125000
950,-76.171875
951,-76.171875
952,-76.171875
953,-72.265625
954,-76.171875
955,-76.171875
956,-78.125000
957,-76.171875
958,-76.171875
959,-76.171875
960,-76.171875
961,-76.171875
962,-76.171875
963,-76.171875
964,-76.171875
965,-76.171875
966,-76.171875
967,-76.171875
968,-76.171875
969,-76.171875
970,-76.171875
971,-76.171875
972,-76.171875
973,-76.171875
974,-76.171875
975,-74.218750
976,-74.218750
977,-78.125000
978,-83.984375
979,-78.125000
980,-76.171875
981,-76.171875
982,-76.171875
983,-76.171875
984,-80.078125
985,-76.171875
986,-76.171875
987,-80.078125
988,-72.265625
989,-78.125000
990,-76.171875
991,-78.125000
992,-76.171875
993,-76.171875
994,-78.125000
995,-78.125000
996,-76.171875
997,-76.171875
998,-78.125000
999,-76.171875
1000,-74.218750
1001,-80.078125
1002,-76.171875
1003,-76.171875
1004,-78.125000
1005,-80.078125
1006,-76.171875
1007,-76.171875
1008,-80.078125
1009,-76.171875
1010,-78.125000
1011,-76.171875
1012,-76.171875
1013,-78.125000
1014,-76.171875
1015,-76.171875
1016,-78.125000
1017,-76.171875
1018,-76.171875
1019,-80.078125
1020,-76.171875
1021,-78.125000
1022,-76.171875
1023,-78.125000
1024,-82.031250
1025,-78.125000
1026,-80.078125
1027,-80.078125
1028,-78.125000
1029,-80.078125
1030,-80.078125
1031,-82.031250
1032,-82.031250
1033,-80.078125
1034,-82.031250
1035,-87.890625
1036,-82.031250
1037,-80.078125
1038,-76.171875
1039,-82.031250
1040,-80.078125
1041,-83.984375
1042,-82.031250
1043,-85.937500
1044,-82.031250
1045,-83.984375
1046,-85.937500
1047,-82.031250
1048,-83.984375
1049,-85.937500
1050,-83.984375
1051,-85.937500
1052,-82.031250
1053,-82.031250
1054,-85.937500
1055,-83.984375
1056,-85.937500
1057,-85.937500
1058,-87.890625
1059,-85.937500
1060,-85.937500
1061,-85.937500
1062,-83.984375
1063,-85.937500
1064,-87.890625
1065,-82.031250
1066,-85.937500
1067,-85.937500
1068,-83.984375
1069,-87.890625
1070,-83.984375
1071,-87.890625
1072,-85.937500
1073,-85.937500
1074,-87.890625
1075,-85.937500
1076,-87.890625
1077,-83.984375
1078,-87.890625
1079,-82.031250
1080,-91.796875
1081,-87.890625
1082,-87.890625
1083,-87.890625
1084,-87.890625
1085,-91.796875
1086,-85.937500
1087,-87.890625
1088,-95.703125
1089,-87.890625
1090,-91.796875
1091,-87.890625
1092,-87.890625
1093,-87.890625
1094,-85.937500
1095,-91.796875
1096,-87.890625
1097,-89.843750
1098,-91.796875
1099,-87.890625
1100,-91.796875
1101,-91.796875
1102,-91.796875
1103,-89.843750
1104,-91.796875
1105,-85.937500
1106,-87.890625
1107,-91.796875
1108,-87.890625
1109,-91.796875
1110,-87.890625
1111,-91.796875
1112,-91.796875
1113,-89.843750
1114,-93.750000
1115,-91.796875
1116,-91.796875
1117,-89.843750
1118,-91.796875
1119,-91.796875
1120,-91.796875
1121,-91.796875
1122,-91.796875
1123,-87.890625
1124,-91.796875
1125,-91.796875
1126,-91.796875
1127,-101.562500
1128,-91.796875
1129,-95.703125
1130,-91.796875
1131,-93.750000
1132,-95.703125
1133,-91.796875
1134,-95.703125
1135,-91.796875
1136,-87.890625
1137,-93.750000
1138,-91.796875
1139,-95.703125
1140,-91.796875
1141,-93.750000
1142,-91.796875
1143,-93.750000
1144,-95.703125
1145,-91.796875
1146,-95.703125
1147,-93.750000
1148,-95.703125
1149,-95.703125
1150,-91.796875
1151,-95.703125
1152,-95.703125
1153,-95.703125
1154,-95.703125
1155,-93.750000
1156,-93.750000
1157,-93.750000
1158,-97.656250
1159,-95.703125
1160,-93.750000
1161,-95.703125
1162,-93.750000
1163,-93.750000
1164,-95.703125
1165,-93.750000
1166,-93.750000
1167,-95.703125
1168,-91.796875
1169,-95.703125
1170,-93.750000
1171,-95.703125
1172,-95.703125
1173,-93.750000
1174,-97.656250
1175,-93.750000
1176,-95.703125
1177,-95.703125
1178,-95.703125
1179,-93.750000
1180,-95.703125
1181,-95.703125
1182,-95.703125
1183,-93.750000
1184,-95.703125
1185,-93.750000
1186,-95.703125
1187,-95.703125
1188,-93.750000
1189,-95.703125
1190,-95.703125
1191,-93.750000
1192,-95.703125
1193,-95.703125
1194,-93.750000
1195,-93.750000
1196,-95.703125
1197,-95.703125
1198,-93.750000
1199,-95.703125
1200,-93.750000
1201,-95.703125
1202,-103.515625
1203,-93.750000
1204,-97.656250
1205,-95.703125
1206,-93.750000
1207,-93.750000
1208,-93.750000
1209,-95.703125
1210,-93.750000
1211,-95.703125
1212,-93.750000
1213,-93.750000
1214,-95.703125
1215,-91.796875
1216,-95.703125
1217,-95.703125
1218,-95.703125
1219,-95.703125
1220,-95.703125
1221,-91.796875
1222,-95.703125
1223,-93.750000
1224,-95.703125
1225,-95.703125
1226,-93.750000
1227,-95.703125
1228,-95.703125
1229,-95.703125
1230,-95.703125
1231,-93.750000
1232,-82.031250
1233,-91.796875
1234,-95.703125
1235,-93.750000
1236,-87.890625
1237,-91.796875
1238,-93.750000
1239,-95.703125
1240,-93.750000
1241,-93.750000
1242,-93.750000
1243,-93.750000
1244,-95.703125
1245,-91.796875
1246,-95.703125
1247,-95.703125
1248,-97.656250
1249,-95.703125
1250,-95.703125
1251,-95.703125
1252,-93.750000
1253,-91.796875
1254,-95.703125
1255,-93.750000
1256,-95.703125
1257,-93.750000
1258,-87.890625
1259,-95.703125
1260,-91.796875
1261,-93.750000
1262,-95.703125
1263,-93.750000
1264,-91.796875
1265,-93.750000
1266,-93.750000
1267,-93.750000
1268,-93.750000
1269,-93.750000
1270,-95.703125
1271,-91.796875
1272,-95.703125
1273,-91.796875
1274,-93.750000
1275,-93.750000
1276,-91.796875
1277,-95.703125
1278,-91.796875
1279,-95.703125
1280,-93.750000
1281,-93.750000
1282,-95.703125
1283,-95.703125
1284,-95.703125
1285,-95.703125
1286,-93.750000
1287,-93.750000
1288,-93.750000
1289,-91.796875
1290,-93.750000
1291,-91.796875
1292,-93.750000
1293,-91.796875
1294,-95.703125
1295,-95.703125
1296,-91.796875
1297,-95.703125
1298,-91.796875
1299,-95.703125
1300,-93.750000
1301,-91.796875
1302,-91.796875
1303,-93.750000
1304,-91.796875
