時系列データ/data_kai/table.csv

Channel              :,CH1
Frequency            :,  ?
Period               :,  ?
PK-PK                :,52.73mV
Probe attenuation    :,10X
Voltage per ADC value:,0.122070mV
Time interval        :,400.00000us

index,CH1_Voltage(mV)
1,-50.781250
2,-50.781250
3,-50.781250
4,-52.734375
5,-52.734375
6,-50.781250
7,-50.781250
8,-52.734375
9,-48.828125
10,-54.687500
11,-50.781250
12,-54.687500
13,-52.734375
14,-54.687500
15,-54.687500
16,-52.734375
17,-56.640625
18,-54.687500
19,-56.640625
20,-56.640625
21,-54.687500
22,-56.640625
23,-52.734375
24,-54.687500
25,-56.640625
26,-54.687500
27,-56.640625
28,-56.640625
29,-56.640625
30,-56.640625
31,-54.687500
32,-54.687500
33,-56.640625
34,-54.687500
35,-56.640625
36,-54.687500
37,-56.640625
38,-54.687500
39,-52.734375
40,-56.640625
41,-54.687500
42,-56.640625
43,-52.734375
44,-56.640625
45,-56.640625
46,-54.687500
47,-56.640625
48,-54.687500
49,-54.687500
50,-56.640625
51,-54.687500
52,-52.734375
53,-54.687500
54,-56.640625
55,-56.640625
56,-56.640625
57,-56.640625
58,-54.687500
59,-56.640625
60,-56.640625
61,-54.687500
62,-62.500000
63,-56.640625
64,-56.640625
65,-56.640625
66,-56.640625
67,-56.640625
68,-54.687500
69,-56.640625
70,-56.640625
71,-52.734375
72,-56.640625
73,-54.687500
74,-54.687500
75,-56.640625
76,-54.687500
77,-56.640625
78,-56.640625
79,-54.687500
80,-56.640625
81,-56.640625
82,-54.687500
83,-54.687500
84,-56.640625
85,-54.687500
86,-60.546875
87,-50.781250
88,-54.687500
89,-56.640625
90,-56.640625
91,-54.687500
92,-56.640625
93,-54.687500
94,-56.640625
95,-54.687500
96,-56.640625
97,-56.640625
98,-52.734375
99,-54.687500
100,-54.687500
101,-54.687500
102,-54.687500
103,-50.781250
104,-54.687500
105,-56.640625
106,-54.687500
107,-33.203125
108,-54.687500
109,-56.640625
110,-52.734375
111,-56.640625
112,-54.687500
113,-54.687500
114,-56.640625
115,-54.687500
116,-56.640625
117,-56.640625
118,-52.734375
119,-54.687500
120,-70.312500
121,-52.734375
122,-56.640625
123,-48.828125
124,-54.687500
125,-56.640625
126,-52.734375
127,-54.687500
128,-50.781250
129,-56.640625
130,-54.687500
131,-48.828125
132,-52.734375
133,-54.687500
134,-48.828125
135,-52.734375
136,-48.828125
137,-48.828125
138,-48.828125
139,-50.781250
140,-48.828125
141,-46.875000
142,-48.828125
143,-44.921875
144,-50.781250
145,-48.828125
146,-29.296875
147,-29.296875
148,-29.296875
149,-29.296875
150,-31.250000
151,-29.296875
152,-29.296875
153,-29.296875
154,-29.296875
155,-31.250000
156,-29.296875
157,-29.296875
158,-29.296875
159,-29.296875
160,-29.296875
161,-29.296875
162,-29.296875
163,-21.484375
164,-29.296875
165,-29.296875
166,-29.296875
167,-31.250000
168,-29.296875
169,-29.296875
170,-31.250000
171,-29.296875
172,-31.250000
173,-27.343750
174,-29.296875
175,-31.250000
176,-29.296875
177,-29.296875
178,-29.296875
179,-29.296875
180,-29.296875
181,-29.296875
182,-29.296875
183,-29.296875
184,-25.390625
185,-29.296875
186,-29.296875
187,-29.296875
188,-29.296875
189,-29.296875
190,-31.250000
191,-27.343750
192,-29.296875
193,-29.296875
194,-29.296875
195,-31.250000
196,-29.296875
197,-31.250000
198,-29.296875
199,-25.390625
200,-39.062500
201,-29.296875
202,-31.250000
203,-29.296875
204,-31.250000
205,-29.296875
206,-29.296875
207,-33.203125
208,-29.296875
209,-29.296875
210,-29.296875
211,-25.390625
212,-31.250000
213,-25.390625
214,-29.296875
215,-29.296875
216,-29.296875
217,-29.296875
218,-29.296875
219,-31.250000
220,-29.296875
221,-29.296875
222,-29.296875
223,-29.296875
224,-29.296875
225,-29.296875
226,-29.296875
227,-31.250000
228,-29.296875
229,-29.296875
230,-29.296875
231,-29.296875
232,-31.250000
233,-31.250000
234,-25.390625
235,-31.250000
236,-29.296875
237,-29.296875
238,-29.296875
239,-29.296875
240,-31.250000
241,-29.296875
242,-31.250000
243,-29.296875
244,-29.296875
245,-29.296875
246,-29.296875
247,-29.296875
248,-29.296875
249,-29.296875
250,-29.296875
251,-29.296875
252,-31.250000
253,-29.296875
254,-31.250000
255,-29.296875
256,-29.296875
257,-29.296875
258,-25.390625
259,-29.296875
260,-31.250000
261,-25.390625
262,-31.250000
263,-31.250000
264,-29.296875
265,-29.296875
266,-29.296875
267,-31.250000
268,-31.250000
269,-29.296875
270,-29.296875
271,-29.296875
272,-29.296875
273,-31.250000
274,-29.296875
275,-29.296875
276,-29.296875
277,-29.296875
278,-31.250000
279,-25.390625
280,-23.437500
281,-29.296875
282,-29.296875
283,-31.250000
284,-31.250000
285,-31.250000
286,-29.296875
287,-33.203125
288,-29.296875
289,-33.203125
290,-33.203125
291,-31.250000
292,-31.250000
293,-29.296875
294,-35.156250
295,-33.203125
296,-33.203125
297,-31.250000
298,-31.250000
299,-33.203125
300,-31.250000
301,-33.203125
302,-35.156250
303,-31.250000
304,-33.203125
305,-33.203125
306,-33.203125
307,-33.203125
308,-33.203125
309,-33.203125
310,-31.250000
311,-33.203125
312,-33.203125
313,-33.203125
314,-35.156250
315,-33.203125
316,-33.203125
317,-35.156250
318,-33.203125
319,-35.156250
320,-33.203125
321,-33.203125
322,-35.156250
323,-35.156250
324,-33.203125
325,-35.156250
326,-33.203125
327,-25.390625
328,-35.156250
329,-33.203125
330,-35.156250
331,-35.156250
332,-39.062500
333,-35.156250
334,-37.109375
335,-35.156250
336,-37.109375
337,-37.109375
338,-37.109375
339,-39.062500
340,-37.109375
341,-39.062500
342,-37.109375
343,-35.156250
344,-39.062500
345,-41.015625
346,-39.062500
347,-41.015625
348,-37.109375
349,-41.015625
350,-37.109375
351,-39.062500
352,-37.109375
353,-35.156250
354,-37.109375
355,-39.062500
356,-39.062500
357,-41.015625
358,-37.109375
359,-39.062500
360,-41.015625
361,-39.062500
362,-41.015625
363,-39.062500
364,-39.062500
365,-41.015625
366,-41.015625
367,-41.015625
368,-39.062500
369,-41.015625
370,-41.015625
371,-41.015625
372,-42.968750
373,-41.015625
374,-41.015625
375,-41.015625
376,-41.015625
377,-41.015625
378,-41.015625
379,-41.015625
380,-41.015625
381,-44.921875
382,-44.921875
383,-41.015625
384,-41.015625
385,-41.015625
386,-42.968750
387,-35.156250
388,-41.015625
389,-44.921875
390,-41.015625
391,-44.921875
392,-42.968750
393,-41.015625
394,-46.875000
395,-44.921875
396,-41.015625
397,-44.921875
398,-44.921875
399,-46.875000
400,-41.015625
401,-44.921875
402,-46.875000
403,-44.921875
404,-46.875000
405,-48.828125
406,-44.921875
407,-44.921875
408,-44.921875
409,-41.015625
410,-44.921875
411,-46.875000
412,-44.921875
413,-44.921875
414,-48.828125
415,-44.921875
416,-44.921875
417,-60.546875
418,-44.921875
419,-44.921875
420,-44.921875
421,-46.875000
422,-44.921875
423,-44.921875
424,-46.875000
425,-41.015625
426,-44.921875
427,-44.921875
428,-44.921875
429,-46.875000
430,-44.921875
431,-44.921875
432,-48.828125
433,-44.921875
434,-44.921875
435,-44.921875
436,-46.875000
437,-44.921875
438,-44.921875
439,-46.875000
440,-46.875000
441,-44.921875
442,-44.921875
443,-44.921875
444,-44.921875
445,-44.921875
446,-44.921875
447,-56.640625
448,-44.921875
449,-46.875000
450,-44.921875
451,-48.828125
452,-41.015625
453,-46.875000
454,-44.921875
455,-46.875000
456,-46.875000
457,-44.921875
458,-46.875000
459,-44.921875
460,-48.828125
461,-41.015625
462,-44.921875
463,-48.828125
464,-44.921875
465,-44.921875
466,-46.875000
467,-44.921875
468,-46.875000
469,-44.921875
470,-44.921875
471,-48.828125
472,-44.921875
473,-44.921875
474,-46.875000
475,-42.968750
476,-44.921875
477,-39.062500
478,-42.968750
479,-44.921875
480,-44.921875
481,-44.921875
482,-46.875000
483,-41.015625
484,-44.921875
485,-44.921875
486,-44.921875
487,-44.921875
488,-44.921875
489,-48.828125
490,-44.921875
491,-42.968750
492,-44.921875
493,-42.968750
494,-44.921875
495,-44.921875
496,-42.968750
497,-44.921875
498,-42.968750
499,-42.968750
500,-44.921875
501,-44.921875
502,-44.921875
503,-44.921875
504,-44.921875
505,-44.921875
506,-41.015625
507,-44.921875
508,-44.921875
509,-41.015625
510,-44.921875
511,-39.062500
512,-42.968750
513,-41.015625
514,-44.921875
515,-44.921875
516,-37.109375
517,-41.015625
518,-41.015625
519,-41.015625
520,-42.968750
521,-41.015625
522,-44.921875
523,-42.968750
524,-54.687500
525,-44.921875
526,-41.015625
527,-41.015625
528,-41.015625
529,-39.062500
530,-44.921875
531,-41.015625
532,-41.015625
533,-44.921875
534,-41.015625
535,-44.921875
536,-41.015625
537,-41.015625
538,-41.015625
539,-41.015625
540,-41.015625
541,-41.015625
542,-41.015625
543,-41.015625
544,-44.921875
545,-41.015625
546,-41.015625
547,-44.921875
548,-42.968750
549,-39.062500
550,-44.921875
551,-41.015625
552,-44.921875
553,-41.015625
554,-46.875000
555,-42.968750
556,-41.015625
557,-42.968750
558,-44.921875
559,-41.015625
560,-48.828125
561,-41.015625
562,-44.921875
563,-42.968750
564,-42.968750
565,-44.921875
566,-41.015625
567,-44.921875
568,-41.015625
569,-44.921875
570,-41.015625
571,-41.015625
572,-44.921875
573,-41.015625
574,-41.015625
575,-42.968750
576,-44.921875
577,-41.015625
578,-41.015625
579,-41.015625
580,-41.015625
581,-41.015625
582,-41.015625
583,-41.015625
584,-50.781250
585,-41.015625
586,-41.015625
587,-41.015625
588,-41.015625
589,-41.015625
590,-44.921875
591,-41.015625
592,-41.015625
593,-41.015625
594,-44.921875
595,-44.921875
596,-41.015625
597,-44.921875
598,-44.921875
599,-41.015625
600,-41.015625
601,-41.015625
602,-44.921875
603,-42.968750
604,-44.921875
605,-42.968750
606,-41.015625
607,-44.921875
608,-39.062500
609,-44.921875
610,-44.921875
611,-41.015625
612,-44.921875
613,-41.015625
614,-44.921875
615,-44.921875
616,-41.015625
617,-44.921875
618,-41.015625
619,-44.921875
620,-41.015625
621,-41.015625
622,-42.968750
623,-41.015625
624,-35.156250
625,-41.015625
626,-44.921875
627,-46.875000
628,-44.921875
629,-41.015625
630,-44.921875
631,-41.015625
632,-41.015625
633,-44.921875
634,-41.015625
635,-44.921875
636,-39.062500
637,-44.921875
638,-44.921875
639,-41.015625
640,-41.015625
641,-41.015625
642,-41.015625
643,-41.015625
644,-44.921875
645,-44.921875
646,-44.921875
647,-44.921875
648,-42.968750
649,-44.921875
650,-44.921875
651,-41.015625
652,-44.921875
653,-42.968750
654,-41.015625
655,-44.921875
656,-41.015625
657,-44.921875
658,-41.015625
659,-44.921875
660,-44.921875
661,-41.015625
662,-44.921875
663,-41.015625
664,-41.015625
665,-42.968750
666,-39.062500
667,-44.921875
668,-41.015625
669,-41.015625
670,-41.015625
671,-41.015625
672,-41.015625
673,-41.015625
674,-39.062500
675,-41.015625
676,-41.015625
677,-42.968750
678,-41.015625
679,-41.015625
680,-41.015625
681,-41.015625
682,-41.015625
683,-37.109375
684,-41.015625
685,-41.015625
686,-41.015625
687,-41.015625
688,-41.015625
689,-41.015625
690,-41.015625
691,-37.109375
692,-41.015625
693,-41.015625
694,-41.015625
695,-39.062500
696,-41.015625
697,-41.015625
698,-39.062500
699,-41.015625
700,-35.156250
701,-41.015625
702,-39.062500
703,-41.015625
704,-41.015625
705,-39.062500
706,-41.015625
707,-39.062500
708,-41.015625
709,-41.015625
710,-41.015625
711,-41.015625
712,-41.015625
713,-41.015625
714,-39.062500
715,-41.015625
716,-41.015625
717,-41.015625
718,-39.062500
719,-41.015625
720,-37.109375
721,-41.015625
722,-41.015625
723,-39.062500
724,-39.062500
725,-37.109375
726,-39.062500
727,-41.015625
728,-41.015625
729,-41.015625
730,-41.015625
731,-41.015625
732,-41.015625
733,-39.062500
734,-50.781250
735,-41.015625
736,-39.062500
737,-41.015625
738,-41.015625
739,-41.015625
740,-41.015625
741,-39.062500
742,-42.968750
743,-39.062500
744,-41.015625
745,-39.062500
746,-41.015625
747,-42.968750
748,-41.015625
749,-42.968750
750,-41.015625
751,-44.921875
752,-46.875000
753,-41.015625
754,-41.015625
755,-41.015625
756,-41.015625
757,-41.015625
758,-41.015625
759,-41.015625
760,-41.015625
761,-41.015625
762,-41.015625
763,-41.015625
764,-41.015625
765,-42.968750
766,-41.015625
767,-42.968750
768,-41.015625
769,-41.015625
770,-44.921875
771,-41.015625
772,-41.015625
773,-41.015625
774,-41.015625
775,-41.015625
776,-42.968750
777,-41.015625
778,-41.015625
779,-41.015625
780,-41.015625
781,-41.015625
782,-41.015625
783,-41.015625
784,-41.015625
785,-44.921875
786,-41.015625
787,-44.921875
788,-41.015625
789,-42.968750
790,-42.968750
791,-41.015625
792,-44.921875
793,-42.968750
794,-44.921875
795,-41.015625
796,-41.015625
797,-44.921875
798,-41.015625
799,-44.921875
800,-44.921875
801,-44.921875
802,-44.921875
803,-44.921875
804,-44.921875
805,-44.921875
806,-44.921875
807,-46.875000
808,-44.921875
809,-44.921875
810,-44.921875
811,-44.921875
812,-44.921875
813,-44.921875
814,-42.968750
815,-44.921875
816,-46.875000
817,-46.875000
818,-44.921875
819,-44.921875
820,-44.921875
821,-44.921875
822,-46.875000
823,-44.921875
824,-48.828125
825,-44.921875
826,-44.921875
827,-44.921875
828,-37.109375
829,-44.921875
830,-44.921875
831,-44.921875
832,-44.921875
833,-41.015625
834,-44.921875
835,-46.875000
836,-44.921875
837,-44.921875
838,-42.968750
839,-44.921875
840,-42.968750
841,-41.015625
842,-41.015625
843,-44.921875
844,-44.921875
845,-44.921875
846,-39.062500
847,-46.875000
848,-41.015625
849,-44.921875
850,-44.921875
851,-44.921875
852,-44.921875
853,-42.968750
854,-48.828125
855,-44.921875
856,-44.921875
857,-44.921875
858,-44.921875
859,-46.875000
860,-41.015625
861,-44.921875
862,-41.015625
863,-44.921875
864,-44.921875
865,-44.921875
866,-44.921875
867,-42.968750
868,-44.921875
869,-44.921875
870,-44.921875
871,-41.015625
872,-44.921875
873,-44.921875
874,-46.875000
875,-44.921875
876,-44.921875
877,-44.921875
878,-44.921875
879,-44.921875
880,-44.921875
881,-44.921875
882,-44.921875
883,-44.921875
884,-46.875000
885,-44.921875
886,-46.875000
887,-44.921875
888,-48.828125
889,-46.875000
890,-44.921875
891,-44.921875
892,-44.921875
893,-44.921875
894,-44.921875
895,-44.921875
896,-44.921875
897,-41.015625
898,-46.875000
899,-41.015625
900,-44.921875
901,-44.921875
902,-44.921875
903,-44.921875
904,-41.015625
905,-44.921875
906,-41.015625
907,-41.015625
908,-44.921875
909,-41.015625
910,-42.968750
911,-41.015625
912,-41.015625
913,-44.921875
914,-41.015625
915,-44.921875
916,-42.968750
917,-41.015625
918,-56.640625
919,-41.015625
920,-41.015625
921,-41.015625
922,-41.015625
923,-42.968750
924,-42.968750
925,-44.921875
926,-41.015625
927,-44.921875
928,-42.968750
929,-42.968750
930,-42.968750
931,-44.921875
932,-44.921875
933,-44.921875
934,-41.015625
935,-44.921875
936,-41.015625
937,-44.921875
938,-44.921875
939,-41.015625
940,-44.921875
941,-41.015625
942,-44.921875
943,-42.968750
944,-44.921875
945,-44.921875
946,-42.968750
947,-44.921875
948,-48.828125
949,-44.921875
950,-44.921875
951,-44.921875
952,-44.921875
953,-44.921875
954,-46.875000
955,-42.968750
956,-46.875000
957,-44.921875
958,-44.921875
959,-44.921875
960,-41.015625
961,-44.921875
962,-42.968750
963,-44.921875
964,-44.921875
965,-41.015625
966,-44.921875
967,-44.921875
968,-41.015625
969,-44.921875
970,-41.015625
971,-42.968750
972,-44.921875
973,-42.968750
974,-48.828125
975,-41.015625
976,-44.921875
977,-44.921875
978,-35.156250
979,-41.015625
980,-41.015625
981,-41.015625
982,-42.968750
983,-41.015625
984,-41.015625
985,-41.015625
986,-41.015625
987,-41.015625
988,-41.015625
989,-41.015625
990,-41.015625
991,-41.015625
992,-44.921875
993,-41.015625
994,-44.921875
995,-41.015625
996,-39.062500
997,-41.015625
998,-41.015625
999,-44.921875
1000,-41.015625
1001,-41.015625
1002,-44.921875
1003,-41.015625
1004,-42.968750
1005,-41.015625
1006,-42.968750
1007,-41.015625
1008,-41.015625
1009,-44.921875
1010,-42.968750
1011,-44.921875
1012,-41.015625
1013,-44.921875
1014,-44.921875
1015,-41.015625
1016,-44.921875
1017,-44.921875
1018,-44.921875
1019,-44.921875
1020,-44.921875
1021,-44.921875
1022,-44.921875
1023,-44.921875
1024,-44.921875
1025,-41.015625
1026,-44.921875
1027,-44.921875
1028,-44.921875
1029,-44.921875
1030,-42.968750
1031,-44.921875
1032,-46.875000
1033,-44.921875
1034,-50.781250
1035,-41.015625
1036,-46.875000
1037,-44.921875
1038,-48.828125
1039,-44.921875
1040,-44.921875
1041,-44.921875
1042,-44.921875
1043,-46.875000
1044,-46.875000
1045,-44.921875
1046,-46.875000
1047,-44.921875
1048,-48.828125
1049,-44.921875
1050,-44.921875
1051,-46.875000
1052,-44.921875
1053,-48.828125
1054,-44.921875
1055,-41.015625
1056,-46.875000
1057,-46.875000
1058,-44.921875
1059,-48.828125
1060,-44.921875
1061,-44.921875
1062,-48.828125
1063,-44.921875
1064,-46.875000
1065,-44.921875
1066,-46.875000
1067,-44.921875
1068,-52.734375
1069,-44.921875
1070,-44.921875
1071,-48.828125
1072,-44.921875
1073,-44.921875
1074,-46.875000
1075,-44.921875
1076,-48.828125
1077,-44.921875
1078,-46.875000
1079,-44.921875
1080,-44.921875
1081,-46.875000
1082,-44.921875
1083,-44.921875
1084,-44.921875
1085,-52.734375
1086,-46.875000
1087,-44.921875
1088,-46.875000
1089,-44.921875
1090,-44.921875
1091,-44.921875
1092,-46.875000
1093,-41.015625
1094,-44.921875
1095,-44.921875
1096,-44.921875
1097,-44.921875
1098,-48.828125
1099,-44.921875
1100,-46.875000
1101,-46.875000
1102,-44.921875
1103,-48.828125
1104,-44.921875
1105,-46.875000
1106,-44.921875
1107,-44.921875
1108,-48.828125
1109,-44.921875
1110,-46.875000
1111,-46.875000
1112,-46.875000
1113,-41.015625
1114,-44.921875
1115,-54.687500
1116,-44.921875
1117,-44.921875
1118,-44.921875
1119,-44.921875
1120,-44.921875
1121,-46.875000
1122,-44.921875
1123,-48.828125
1124,-44.921875
1125,-46.875000
1126,-44.921875
1127,-44.921875
1128,-46.875000
1129,-44.921875
1130,-46.875000
1131,-46.875000
1132,-46.875000
1133,-44.921875
1134,-46.875000
1135,-46.875000
1136,-46.875000
1137,-48.828125
1138,-44.921875
1139,-44.921875
1140,-46.875000
1141,-44.921875
1142,-48.828125
1143,-44.921875
1144,-44.921875
1145,-50.781250
1146,-44.921875
1147,-44.921875
1148,-46.875000
1149,-46.875000
1150,-46.875000
1151,-44.921875
1152,-46.875000
1153,-46.875000
1154,-44.921875
1155,-46.875000
1156,-44.921875
1157,-44.921875
1158,-48.828125
1159,-44.921875
1160,-48.828125
1161,-44.921875
1162,-44.921875
1163,-44.921875
1164,-46.875000
1165,-44.921875
1166,-48.828125
1167,-44.921875
1168,-46.875000
1169,-44.921875
1170,-46.875000
1171,-41.015625
1172,-48.828125
1173,-44.921875
1174,-44.921875
1175,-31.250000
1176,-44.921875
1177,-46.875000
1178,-44.921875
1179,-44.921875
1180,-48.828125
1181,-44.921875
1182,-46.875000
1183,-44.921875
1184,-44.921875
1185,-46.875000
1186,-44.921875
1187,-48.828125
1188,-44.921875
1189,-41.015625
1190,-46.875000
1191,-42.968750
1192,-46.875000
1193,-44.921875
1194,-44.921875
1195,-48.828125
1196,-44.921875
1197,-44.921875
1198,-46.875000
1199,-48.828125
1200,-46.875000
1201,-58.593750
1202,-44.921875
1203,-44.921875
1204,-46.875000
1205,-44.921875
1206,-48.828125
1207,-44.921875
1208,-46.875000
1209,-44.921875
1210,-41.015625
1211,-46.875000
1212,-44.921875
1213,-46.875000
1214,-46.875000
1215,-48.828125
1216,-48.828125
1217,-44.921875
1218,-48.828125
1219,-46.875000
1220,-46.875000
1221,-48.828125
1222,-44.921875
1223,-46.875000
1224,-44.921875
1225,-44.921875
1226,-46.875000
1227,-48.828125
1228,-44.921875
1229,-48.828125
1230,-44.921875
1231,-46.875000
1232,-50.781250
1233,-46.875000
1234,-50.781250
1235,-52.734375
1236,-48.828125
1237,-44.921875
1238,-48.828125
1239,-48.828125
1240,-46.875000
1241,-48.828125
1242,-46.875000
1243,-46.875000
1244,-50.781250
1245,-46.875000
1246,-48.828125
1247,-44.921875
1248,-48.828125
1249,-50.781250
1250,-46.875000
1251,-48.828125
1252,-39.062500
1253,-48.828125
1254,-48.828125
1255,-48.828125
1256,-48.828125
1257,-48.828125
1258,-48.828125
1259,-48.828125
1260,-46.875000
1261,-48.828125
1262,-44.921875
1263,-48.828125
1264,-50.781250
1265,-46.875000
1266,-48.828125
1267,-46.875000
1268,-46.875000
1269,-48.828125
1270,-48.828125
1271,-48.828125
1272,-54.687500
1273,-50.781250
1274,-48.828125
1275,-48.828125
1276,-48.828125
1277,-46.875000
1278,-48.828125
1279,-46.875000
1280,-48.828125
1281,-48.828125
1282,-48.828125
1283,-46.875000
1284,-48.828125
1285,-50.781250
1286,-50.781250
1287,-46.875000
1288,-50.781250
1289,-48.828125
1290,-48.828125
1291,-48.828125
1292,-48.828125
1293,-50.781250
1294,-48.828125
1295,-48.828125
1296,-50.781250
1297,-44.921875
1298,-52.734375
1299,-46.875000
1300,-48.828125
1301,-46.875000
1302,-46.875000
1303,-52.734375
1304,-48.828125
