時系列データ/data_kai/yubitest.csv

Channel              :,CH1
Frequency            :,  ?
Period               :,  ?
PK-PK                :,105.5mV
Probe attenuation    :,10X
Voltage per ADC value:,0.122070mV
Time interval        :,400.00000us

index,CH1_Voltage(mV)
1,0.000000
2,0.000000
3,0.000000
4,1.953125
5,1.953125
6,1.953125
7,1.953125
8,1.953125
9,1.953125
10,1.953125
11,1.953125
12,1.953125
13,5.859375
14,1.953125
15,1.953125
16,1.953125
17,0.000000
18,5.859375
19,-1.953125
20,5.859375
21,1.953125
22,-1.953125
23,3.906250
24,-1.953125
25,1.953125
26,-1.953125
27,1.953125
28,0.000000
29,0.000000
30,1.953125
31,0.000000
32,1.953125
33,0.000000
34,1.953125
35,3.906250
36,0.000000
37,1.953125
38,0.000000
39,0.000000
40,1.953125
41,-1.953125
42,0.000000
43,1.953125
44,1.953125
45,1.953125
46,1.953125
47,0.000000
48,1.953125
49,1.953125
50,1.953125
51,1.953125
52,1.953125
53,1.953125
54,1.953125
55,5.859375
56,1.953125
57,1.953125
58,1.953125
59,1.953125
60,1.953125
61,0.000000
62,1.953125
63,1.953125
64,1.953125
65,1.953125
66,1.953125
67,3.906250
68,0.000000
69,1.953125
70,-1.953125
71,1.953125
72,-1.953125
73,0.000000
74,1.953125
75,0.000000
76,1.953125
77,0.000000
78,0.000000
79,1.953125
80,0.000000
81,1.953125
82,0.000000
83,1.953125
84,1.953125
85,1.953125
86,0.000000
87,0.000000
88,1.953125
89,-3.906250
90,0.000000
91,1.953125
92,-1.953125
93,1.953125
94,1.953125
95,0.000000
96,3.906250
97,0.000000
98,3.906250
99,1.953125
100,0.000000
101,3.906250
102,1.953125
103,5.859375
104,1.953125
105,1.953125
106,1.953125
107,1.953125
108,1.953125
109,-1.953125
110,1.953125
111,1.953125
112,-1.953125
113,0.000000
114,1.953125
115,1.953125
116,1.953125
117,0.000000
118,7.812500
119,1.953125
120,5.859375
121,0.000000
122,1.953125
123,1.953125
124,1.953125
125,5.859375
126,0.000000
127,5.859375
128,1.953125
129,1.953125
130,1.953125
131,1.953125
132,5.859375
133,1.953125
134,1.953125
135,1.953125
136,5.859375
137,5.859375
138,0.000000
139,1.953125
140,1.953125
141,1.953125
142,5.859375
143,1.953125
144,5.859375
145,1.953125
146,1.953125
147,0.000000
148,5.859375
149,1.953125
150,1.953125
151,1.953125
152,1.953125
153,5.859375
154,3.906250
155,1.953125
156,5.859375
157,1.953125
158,5.859375
159,1.953125
160,1.953125
161,5.859375
162,1.953125
163,7.812500
164,-1.953125
165,5.859375
166,1.953125
167,1.953125
168,5.859375
169,0.000000
170,7.812500
171,1.953125
172,1.953125
173,1.953125
174,1.953125
175,1.953125
176,5.859375
177,5.859375
178,5.859375
179,1.953125
180,1.953125
181,5.859375
182,1.953125
183,5.859375
184,1.953125
185,1.953125
186,1.953125
187,1.953125
188,5.859375
189,0.000000
190,1.953125
191,5.859375
192,1.953125
193,5.859375
194,0.000000
195,1.953125
196,1.953125
197,1.953125
198,5.859375
199,1.953125
200,5.859375
201,1.953125
202,5.859375
203,5.859375
204,1.953125
205,5.859375
206,1.953125
207,1.953125
208,1.953125
209,1.953125
210,-3.906250
211,0.000000
212,1.953125
213,1.953125
214,1.953125
215,1.953125
216,1.953125
217,1.953125
218,5.859375
219,5.859375
220,1.953125
221,1.953125
222,1.953125
223,1.953125
224,3.906250
225,5.859375
226,1.953125
227,1.953125
228,1.953125
229,1.953125
230,1.953125
231,1.953125
232,5.859375
233,1.953125
234,1.953125
235,1.953125
236,1.953125
237,1.953125
238,1.953125
239,1.953125
240,1.953125
241,1.953125
242,3.906250
243,0.000000
244,0.000000
245,1.953125
246,0.000000
247,3.906250
248,-1.953125
249,3.906250
250,1.953125
251,5.859375
252,3.906250
253,1.953125
254,3.906250
255,1.953125
256,5.859375
257,1.953125
258,1.953125
259,5.859375
260,1.953125
261,5.859375
262,1.953125
263,1.953125
264,1.953125
265,1.953125
266,5.859375
267,1.953125
268,1.953125
269,5.859375
270,1.953125
271,1.953125
272,1.953125
273,1.953125
274,1.953125
275,1.953125
276,5.859375
277,3.906250
278,1.953125
279,1.953125
280,0.000000
281,3.906250
282,1.953125
283,3.906250
284,1.953125
285,0.000000
286,5.859375
287,1.953125
288,3.906250
289,1.953125
290,5.859375
291,1.953125
292,0.000000
293,5.859375
294,-3.906250
295,1.953125
296,1.953125
297,0.000000
298,1.953125
299,1.953125
300,1.953125
301,3.906250
302,1.953125
303,1.953125
304,1.953125
305,1.953125
306,3.906250
307,0.000000
308,3.906250
309,1.953125
310,1.953125
311,3.906250
312,1.953125
313,5.859375
314,1.953125
315,1.953125
316,1.953125
317,0.000000
318,5.859375
319,-1.953125
320,5.859375
321,1.953125
322,1.953125
323,5.859375
324,0.000000
325,1.953125
326,-1.953125
327,1.953125
328,1.953125
329,0.000000
330,1.953125
331,-1.953125
332,0.000000
333,1.953125
334,1.953125
335,1.953125
336,-1.953125
337,0.000000
338,0.000000
339,1.953125
340,0.000000
341,0.000000
342,0.000000
343,0.000000
344,1.953125
345,0.000000
346,0.000000
347,1.953125
348,-1.953125
349,0.000000
350,0.000000
351,0.000000
352,1.953125
353,-1.953125
354,-1.953125
355,-1.953125
356,-3.906250
357,-1.953125
358,-5.859375
359,-1.953125
360,-3.906250
361,0.000000
362,-5.859375
363,-7.812500
364,-5.859375
365,-5.859375
366,-9.765625
367,-7.812500
368,-9.765625
369,-7.812500
370,-13.671875
371,-9.765625
372,-9.765625
373,-9.765625
374,-9.765625
375,-11.718750
376,-9.765625
377,-11.718750
378,-9.765625
379,-11.718750
380,-13.671875
381,-9.765625
382,-13.671875
383,-9.765625
384,-9.765625
385,-13.671875
386,-9.765625
387,-15.625000
388,-9.765625
389,-13.671875
390,-11.718750
391,-9.765625
392,-13.671875
393,-9.765625
394,-13.671875
395,-13.671875
396,-11.718750
397,-9.765625
398,-11.718750
399,-13.671875
400,-9.765625
401,-13.671875
402,-9.765625
403,-13.671875
404,-9.765625
405,-9.765625
406,-13.671875
407,-9.765625
408,-17.578125
409,-9.765625
410,-11.718750
411,-13.671875
412,-9.765625
413,-13.671875
414,-9.765625
415,-13.671875
416,-11.718750
417,-11.718750
418,-13.671875
419,-11.718750
420,-13.671875
421,-9.765625
422,-13.671875
423,-13.671875
424,-13.671875
425,-9.765625
426,-13.671875
427,-9.765625
428,-19.531250
429,-9.765625
430,-9.765625
431,-13.671875
432,-9.765625
433,-13.671875
434,-9.765625
435,-9.765625
436,-13.671875
437,-9.765625
438,-7.812500
439,-9.765625
440,-9.765625
441,-9.765625
442,-5.859375
443,-9.765625
444,-7.812500
445,-5.859375
446,-7.812500
447,-5.859375
448,-9.765625
449,-5.859375
450,-7.812500
451,-7.812500
452,-3.906250
453,-7.812500
454,-3.906250
455,-5.859375
456,-3.906250
457,-5.859375
458,-7.812500
459,-5.859375
460,-7.812500
461,-7.812500
462,-3.906250
463,-5.859375
464,-5.859375
465,-5.859375
466,-7.812500
467,-1.953125
468,-7.812500
469,-3.906250
470,5.859375
471,-3.906250
472,-3.906250
473,-7.812500
474,-3.906250
475,-5.859375
476,-9.765625
477,-5.859375
478,-7.812500
479,-5.859375
480,-9.765625
481,-3.906250
482,-5.859375
483,-3.906250
484,-3.906250
485,-5.859375
486,-3.906250
487,-7.812500
488,-3.906250
489,-7.812500
490,-5.859375
491,-9.765625
492,-7.812500
493,-3.906250
494,-7.812500
495,-7.812500
496,-3.906250
497,-5.859375
498,-3.906250
499,-9.765625
500,-5.859375
501,-3.906250
502,-5.859375
503,-3.906250
504,-9.765625
505,-5.859375
506,-5.859375
507,-7.812500
508,-9.765625
509,-5.859375
510,-7.812500
511,-7.812500
512,-9.765625
513,-7.812500
514,-7.812500
515,-5.859375
516,-9.765625
517,-5.859375
518,-5.859375
519,-5.859375
520,-3.906250
521,-7.812500
522,-5.859375
523,-7.812500
524,-7.812500
525,-5.859375
526,-9.765625
527,-5.859375
528,-9.765625
529,-9.765625
530,-7.812500
531,-9.765625
532,-5.859375
533,-9.765625
534,-7.812500
535,-5.859375
536,-13.671875
537,-3.906250
538,-9.765625
539,-7.812500
540,-7.812500
541,-9.765625
542,-7.812500
543,-9.765625
544,-5.859375
545,-11.718750
546,-7.812500
547,-5.859375
548,-9.765625
549,-5.859375
550,-7.812500
551,-7.812500
552,-7.812500
553,-9.765625
554,-9.765625
555,-13.671875
556,-9.765625
557,-9.765625
558,-9.765625
559,-9.765625
560,-9.765625
561,-13.671875
562,-7.812500
563,-9.765625
564,-9.765625
565,-9.765625
566,-13.671875
567,-9.765625
568,-13.671875
569,-9.765625
570,-13.671875
571,-9.765625
572,-9.765625
573,-13.671875
574,-9.765625
575,-13.671875
576,-9.765625
577,-9.765625
578,-9.765625
579,-9.765625
580,-9.765625
581,5.859375
582,-13.671875
583,-19.531250
584,-9.765625
585,-11.718750
586,-9.765625
587,-9.765625
588,-9.765625
589,-9.765625
590,-9.765625
591,-9.765625
592,-9.765625
593,-9.765625
594,-9.765625
595,-9.765625
596,-9.765625
597,-7.812500
598,-9.765625
599,-7.812500
600,-9.765625
601,-3.906250
602,-9.765625
603,-5.859375
604,-3.906250
605,-7.812500
606,-3.906250
607,-11.718750
608,-1.953125
609,-3.906250
610,-3.906250
611,-1.953125
612,-3.906250
613,-1.953125
614,-3.906250
615,-3.906250
616,-1.953125
617,-1.953125
618,0.000000
619,-1.953125
620,-1.953125
621,-1.953125
622,-1.953125
623,-1.953125
624,-1.953125
625,0.000000
626,-1.953125
627,0.000000
628,1.953125
629,-1.953125
630,0.000000
631,0.000000
632,0.000000
633,1.953125
634,1.953125
635,-1.953125
636,0.000000
637,1.953125
638,1.953125
639,0.000000
640,1.953125
641,1.953125
642,5.859375
643,0.000000
644,0.000000
645,1.953125
646,0.000000
647,1.953125
648,0.000000
649,5.859375
650,1.953125
651,1.953125
652,1.953125
653,1.953125
654,1.953125
655,0.000000
656,0.000000
657,1.953125
658,0.000000
659,5.859375
660,0.000000
661,1.953125
662,1.953125
663,0.000000
664,1.953125
665,-1.953125
666,1.953125
667,0.000000
668,0.000000
669,3.906250
670,-1.953125
671,5.859375
672,1.953125
673,0.000000
674,1.953125
675,-1.953125
676,1.953125
677,1.953125
678,0.000000
679,1.953125
680,1.953125
681,1.953125
682,0.000000
683,1.953125
684,0.000000
685,0.000000
686,0.000000
687,0.000000
688,0.000000
689,1.953125
690,-1.953125
691,0.000000
692,1.953125
693,0.000000
694,1.953125
695,0.000000
696,1.953125
697,1.953125
698,-1.953125
699,3.906250
700,-1.953125
701,1.953125
702,1.953125
703,0.000000
704,0.000000
705,-1.953125
706,1.953125
707,1.953125
708,0.000000
709,1.953125
710,17.578125
711,5.859375
712,-1.953125
713,0.000000
714,0.000000
715,0.000000
716,1.953125
717,0.000000
718,1.953125
719,0.000000
720,0.000000
721,1.953125
722,0.000000
723,1.953125
724,-1.953125
725,1.953125
726,3.906250
727,0.000000
728,1.953125
729,1.953125
730,0.000000
731,1.953125
732,0.000000
733,0.000000
734,1.953125
735,1.953125
736,1.953125
737,-1.953125
738,0.000000
739,0.000000
740,0.000000
741,1.953125
742,-1.953125
743,0.000000
744,-1.953125
745,0.000000
746,0.000000
747,0.000000
748,1.953125
749,-1.953125
750,0.000000
751,1.953125
752,0.000000
753,1.953125
754,-1.953125
755,1.953125
756,-1.953125
757,0.000000
758,0.000000
759,1.953125
760,1.953125
761,-1.953125
762,0.000000
763,1.953125
764,1.953125
765,1.953125
766,-1.953125
767,0.000000
768,0.000000
769,0.000000
770,1.953125
771,1.953125
772,0.000000
773,0.000000
774,1.953125
775,0.000000
776,0.000000
777,17.578125
778,1.953125
779,0.000000
780,0.000000
781,0.000000
782,0.000000
783,0.000000
784,1.953125
785,1.953125
786,-1.953125
787,0.000000
788,9.765625
789,1.953125
790,0.000000
791,0.000000
792,0.000000
793,0.000000
794,1.953125
795,-1.953125
796,0.000000
797,1.953125
798,0.000000
799,0.000000
800,-1.953125
801,1.953125
802,1.953125
803,0.000000
804,1.953125
805,1.953125
806,-1.953125
807,0.000000
808,0.000000
809,3.906250
810,0.000000
811,1.953125
812,0.000000
813,-1.953125
814,0.000000
815,-1.953125
816,1.953125
817,-9.765625
818,-1.953125
819,1.953125
820,0.000000
821,-1.953125
822,-1.953125
823,-1.953125
824,1.953125
825,0.000000
826,1.953125
827,0.000000
828,-1.953125
829,-5.859375
830,0.000000
831,0.000000
832,-1.953125
833,1.953125
834,-1.953125
835,-1.953125
836,0.000000
837,-1.953125
838,1.953125
839,-1.953125
840,-3.906250
841,0.000000
842,-1.953125
843,1.953125
844,-1.953125
845,0.000000
846,1.953125
847,-1.953125
848,1.953125
849,-1.953125
850,5.859375
851,-1.953125
852,0.000000
853,0.000000
854,-1.953125
855,5.859375
856,0.000000
857,0.000000
858,1.953125
859,0.000000
860,1.953125
861,1.953125
862,1.953125
863,1.953125
864,-1.953125
865,1.953125
866,0.000000
867,1.953125
868,0.000000
869,0.000000
870,1.953125
871,-1.953125
872,1.953125
873,0.000000
874,1.953125
875,0.000000
876,-1.953125
877,5.859375
878,-1.953125
879,-1.953125
880,0.000000
881,0.000000
882,0.000000
883,-3.906250
884,-1.953125
885,0.000000
886,-1.953125
887,0.000000
888,-1.953125
889,5.859375
890,-1.953125
891,-1.953125
892,0.000000
893,-1.953125
894,-1.953125
895,-1.953125
896,-1.953125
897,0.000000
898,-1.953125
899,-1.953125
900,-1.953125
901,-1.953125
902,-3.906250
903,-1.953125
904,-1.953125
905,-1.953125
906,-1.953125
907,-3.906250
908,-1.953125
909,-3.906250
910,-1.953125
911,-1.953125
912,-3.906250
913,-1.953125
914,-3.906250
915,-1.953125
916,-1.953125
917,-3.906250
918,-3.906250
919,-7.812500
920,-1.953125
921,-3.906250
922,-15.625000
923,-7.812500
924,-3.906250
925,-5.859375
926,-3.906250
927,-1.953125
928,-5.859375
929,-3.906250
930,-7.812500
931,-3.906250
932,-5.859375
933,-3.906250
934,-3.906250
935,-7.812500
936,-1.953125
937,-3.906250
938,-3.906250
939,-7.812500
940,-5.859375
941,-3.906250
942,-7.812500
943,-3.906250
944,-7.812500
945,-5.859375
946,-5.859375
947,-7.812500
948,-5.859375
949,-7.812500
950,-3.906250
951,-3.906250
952,-5.859375
953,-3.906250
954,-3.906250
955,-3.906250
956,-1.953125
957,-5.859375
958,-3.906250
959,-3.906250
960,-1.953125
961,-1.953125
962,-3.906250
963,-1.953125
964,-1.953125
965,1.953125
966,-1.953125
967,-3.906250
968,-1.953125
969,-3.906250
970,0.000000
971,-1.953125
972,-3.906250
973,0.000000
974,-1.953125
975,-1.953125
976,-3.906250
977,-1.953125
978,-1.953125
979,-3.906250
980,-1.953125
981,-1.953125
982,-3.906250
983,-1.953125
984,-1.953125
985,-1.953125
986,-5.859375
987,-3.906250
988,-1.953125
989,1.953125
990,-1.953125
991,-3.906250
992,-1.953125
993,-3.906250
994,-1.953125
995,-1.953125
996,-3.906250
997,-1.953125
998,-3.906250
999,-3.906250
1000,-1.953125
1001,-1.953125
1002,-1.953125
1003,-1.953125
1004,-1.953125
1005,-1.953125
1006,0.000000
1007,-1.953125
1008,0.000000
1009,-1.953125
1010,-9.765625
1011,-3.906250
1012,0.000000
1013,-1.953125
1014,0.000000
1015,0.000000
1016,-1.953125
1017,1.953125
1018,-1.953125
1019,1.953125
1020,1.953125
1021,0.000000
1022,0.000000
1023,0.000000
1024,1.953125
1025,0.000000
1026,0.000000
1027,1.953125
1028,-1.953125
1029,0.000000
1030,-1.953125
1031,1.953125
1032,1.953125
1033,-1.953125
1034,1.953125
1035,1.953125
1036,0.000000
1037,1.953125
1038,-1.953125
1039,0.000000
1040,0.000000
1041,0.000000
1042,1.953125
1043,0.000000
1044,1.953125
1045,0.000000
1046,0.000000
1047,0.000000
1048,0.000000
1049,0.000000
1050,-1.953125
1051,0.000000
1052,1.953125
1053,0.000000
1054,1.953125
1055,-1.953125
1056,17.578125
1057,0.000000
1058,-1.953125
1059,-1.953125
1060,0.000000
1061,0.000000
1062,-3.906250
1063,-1.953125
1064,-1.953125
1065,-3.906250
1066,-1.953125
1067,-3.906250
1068,-3.906250
1069,-3.906250
1070,-5.859375
1071,-3.906250
1072,-5.859375
1073,-7.812500
1074,-5.859375
1075,-7.812500
1076,-7.812500
1077,1.953125
1078,-7.812500
1079,-9.765625
1080,-9.765625
1081,-9.765625
1082,-9.765625
1083,-9.765625
1084,-9.765625
1085,-15.625000
1086,-9.765625
1087,-15.625000
1088,-13.671875
1089,-13.671875
1090,-13.671875
1091,-13.671875
1092,-17.578125
1093,-19.531250
1094,-17.578125
1095,-15.625000
1096,-17.578125
1097,-17.578125
1098,-9.765625
1099,-19.531250
1100,-17.578125
1101,-17.578125
1102,-17.578125
1103,-17.578125
1104,-21.484375
1105,-19.531250
1106,-21.484375
1107,-19.531250
1108,-17.578125
1109,-21.484375
1110,-17.578125
1111,-21.484375
1112,-19.531250
1113,-21.484375
1114,-23.437500
1115,-25.390625
1116,-21.484375
1117,-19.531250
1118,-19.531250
1119,-17.578125
1120,-21.484375
1121,-23.437500
1122,-25.390625
1123,-23.437500
1124,-23.437500
1125,-23.437500
1126,-25.390625
1127,-21.484375
1128,-25.390625
1129,-25.390625
1130,-23.437500
1131,-25.390625
1132,-25.390625
1133,-27.343750
1134,-25.390625
1135,-23.437500
1136,-25.390625
1137,-25.390625
1138,-29.296875
1139,-29.296875
1140,-25.390625
1141,-27.343750
1142,-25.390625
1143,-29.296875
1144,-25.390625
1145,-29.296875
1146,-29.296875
1147,-29.296875
1148,-27.343750
1149,-29.296875
1150,-33.203125
1151,-25.390625
1152,-31.250000
1153,-25.390625
1154,-29.296875
1155,-29.296875
1156,-25.390625
1157,-31.250000
1158,-29.296875
1159,-33.203125
1160,-29.296875
1161,-29.296875
1162,-33.203125
1163,-29.296875
1164,-33.203125
1165,-33.203125
1166,-33.203125
1167,-37.109375
1168,-33.203125
1169,-37.109375
1170,-33.203125
1171,-37.109375
1172,-39.062500
1173,-37.109375
1174,-39.062500
1175,-41.015625
1176,-41.015625
1177,-41.015625
1178,-41.015625
1179,-41.015625
1180,-41.015625
1181,-42.968750
1182,-44.921875
1183,-44.921875
1184,-44.921875
1185,-44.921875
1186,-44.921875
1187,-48.828125
1188,-44.921875
1189,-48.828125
1190,-46.875000
1191,-46.875000
1192,-48.828125
1193,-48.828125
1194,-48.828125
1195,-44.921875
1196,-48.828125
1197,-46.875000
1198,-44.921875
1199,-48.828125
1200,-46.875000
1201,-46.875000
1202,-50.781250
1203,-46.875000
1204,-48.828125
1205,-44.921875
1206,-46.875000
1207,-50.781250
1208,-46.875000
1209,-48.828125
1210,-46.875000
1211,-48.828125
1212,-44.921875
1213,-46.875000
1214,-48.828125
1215,-46.875000
1216,-48.828125
1217,-46.875000
1218,-50.781250
1219,-48.828125
1220,-48.828125
1221,-50.781250
1222,-44.921875
1223,-48.828125
1224,-48.828125
1225,-48.828125
1226,-50.781250
1227,-48.828125
1228,-50.781250
1229,-48.828125
1230,-50.781250
1231,-48.828125
1232,-48.828125
1233,-52.734375
1234,-48.828125
1235,-48.828125
1236,-48.828125
1237,-46.875000
1238,-48.828125
1239,-48.828125
1240,-48.828125
1241,-48.828125
1242,-48.828125
1243,-50.781250
1244,-48.828125
1245,-46.875000
1246,-52.734375
1247,-48.828125
1248,-52.734375
1249,-48.828125
1250,-52.734375
1251,-48.828125
1252,-48.828125
1253,-50.781250
1254,-48.828125
1255,-50.781250
1256,-48.828125
1257,-48.828125
1258,-52.734375
1259,-48.828125
1260,-52.734375
1261,-48.828125
1262,-50.781250
1263,-48.828125
1264,-46.875000
1265,-54.687500
1266,-44.921875
1267,-50.781250
1268,-48.828125
1269,-50.781250
1270,-54.687500
1271,-48.828125
1272,-52.734375
1273,-50.781250
1274,-50.781250
1275,-48.828125
1276,-48.828125
1277,-48.828125
1278,-48.828125
1279,-52.734375
1280,-48.828125
1281,-50.781250
1282,-48.828125
1283,-48.828125
1284,-54.687500
1285,-52.734375
1286,-52.734375
1287,-41.015625
1288,-48.828125
1289,-48.828125
1290,-48.828125
1291,-48.828125
1292,-48.828125
1293,-48.828125
1294,-48.828125
1295,-60.546875
1296,-44.921875
1297,-46.875000
1298,-42.968750
1299,-46.875000
1300,-41.015625
1301,-41.015625
1302,-44.921875
1303,-39.062500
1304,-44.921875
1305,-41.015625
1306,-41.015625
1307,-39.062500
1308,-37.109375
1309,-37.109375
1310,-35.156250
1311,-35.156250
1312,-29.296875
1313,-29.296875
1314,-29.296875
1315,-25.390625
1316,-23.437500
1317,-19.531250
1318,-21.484375
1319,-21.484375
1320,-17.578125
1321,-17.578125
1322,-13.671875
1323,-13.671875
1324,-9.765625
1325,-9.765625
1326,-9.765625
1327,-5.859375
1328,-7.812500
1329,-5.859375
1330,-3.906250
1331,-1.953125
1332,-1.953125
1333,-1.953125
1334,-1.953125
1335,-1.953125
1336,-1.953125
1337,0.000000
1338,-1.953125
1339,1.953125
1340,-1.953125
1341,0.000000
1342,0.000000
1343,0.000000
1344,1.953125
1345,1.953125
1346,7.812500
1347,0.000000
1348,1.953125
1349,1.953125
1350,5.859375
1351,0.000000
1352,1.953125
1353,0.000000
1354,1.953125
1355,1.953125
1356,5.859375
1357,1.953125
1358,-1.953125
1359,7.812500
1360,0.000000
1361,1.953125
1362,0.000000
1363,-1.953125
1364,1.953125
1365,0.000000
1366,1.953125
1367,-1.953125
1368,-1.953125
1369,-1.953125
1370,0.000000
1371,-1.953125
1372,-3.906250
1373,0.000000
1374,-1.953125
1375,-1.953125
1376,-1.953125
1377,-1.953125
1378,-1.953125
1379,0.000000
1380,-5.859375
1381,-1.953125
1382,-1.953125
1383,-1.953125
1384,-1.953125
1385,-3.906250
1386,-1.953125
1387,-3.906250
1388,-1.953125
1389,-3.906250
1390,-1.953125
1391,-1.953125
1392,-3.906250
1393,0.000000
1394,-1.953125
1395,-1.953125
1396,-1.953125
1397,-1.953125
1398,-1.953125
1399,-1.953125
1400,1.953125
1401,-3.906250
1402,0.000000
1403,0.000000
1404,-3.906250
1405,0.000000
1406,-1.953125
1407,0.000000
1408,-13.671875
1409,-1.953125
1410,0.000000
1411,-1.953125
1412,1.953125
1413,0.000000
1414,0.000000
