時系列データ/data_kai/yubi.csv

Channel              :,CH1
Frequency            :,  ?
Period               :,  ?
PK-PK                :,103.5mV
Probe attenuation    :,10X
Voltage per ADC value:,0.122070mV
Time interval        :,400.00000us

index,CH1_Voltage(mV)
1,0.000000
2,0.000000
3,1.953125
4,1.953125
5,1.953125
6,1.953125
7,1.953125
8,5.859375
9,0.000000
10,5.859375
11,1.953125
12,1.953125
13,5.859375
14,0.000000
15,1.953125
16,1.953125
17,3.906250
18,3.906250
19,1.953125
20,1.953125
21,0.000000
22,0.000000
23,0.000000
24,3.906250
25,1.953125
26,5.859375
27,5.859375
28,1.953125
29,5.859375
30,1.953125
31,1.953125
32,1.953125
33,1.953125
34,1.953125
35,1.953125
36,5.859375
37,5.859375
38,5.859375
39,1.953125
40,1.953125
41,3.906250
42,-1.953125
43,5.859375
44,3.906250
45,7.812500
46,5.859375
47,5.859375
48,5.859375
49,3.906250
50,7.812500
51,5.859375
52,9.765625
53,9.765625
54,7.812500
55,7.812500
56,7.812500
57,7.812500
58,7.812500
59,11.718750
60,7.812500
61,11.718750
62,9.765625
63,5.859375
64,15.625000
65,9.765625
66,13.671875
67,9.765625
68,15.625000
69,5.859375
70,15.625000
71,7.812500
72,15.625000
73,13.671875
74,11.718750
75,17.578125
76,17.578125
77,17.578125
78,17.578125
79,17.578125
80,17.578125
81,21.484375
82,21.484375
83,21.484375
84,21.484375
85,21.484375
86,23.437500
87,27.343750
88,21.484375
89,27.343750
90,25.390625
91,27.343750
92,29.296875
93,29.296875
94,33.203125
95,29.296875
96,33.203125
97,33.203125
98,33.203125
99,37.109375
100,35.156250
101,37.109375
102,37.109375
103,39.062500
104,37.109375
105,39.062500
106,42.968750
107,41.015625
108,44.921875
109,41.015625
110,46.875000
111,44.921875
112,46.875000
113,46.875000
114,44.921875
115,48.828125
116,46.875000
117,46.875000
118,48.828125
119,48.828125
120,50.781250
121,46.875000
122,52.734375
123,50.781250
124,48.828125
125,48.828125
126,48.828125
127,50.781250
128,48.828125
129,48.828125
130,48.828125
131,48.828125
132,48.828125
133,41.015625
134,48.828125
135,44.921875
136,48.828125
137,46.875000
138,46.875000
139,46.875000
140,44.921875
141,44.921875
142,44.921875
143,46.875000
144,42.968750
145,44.921875
146,46.875000
147,42.968750
148,46.875000
149,44.921875
150,48.828125
151,42.968750
152,46.875000
153,44.921875
154,42.968750
155,44.921875
156,44.921875
157,48.828125
158,44.921875
159,46.875000
160,44.921875
161,44.921875
162,46.875000
163,44.921875
164,48.828125
165,44.921875
166,52.734375
167,46.875000
168,48.828125
169,46.875000
170,48.828125
171,46.875000
172,48.828125
173,52.734375
174,46.875000
175,52.734375
176,48.828125
177,52.734375
178,52.734375
179,52.734375
180,52.734375
181,52.734375
182,54.687500
183,52.734375
184,52.734375
185,54.687500
186,52.734375
187,52.734375
188,54.687500
189,58.593750
190,58.593750
191,60.546875
192,54.687500
193,56.640625
194,56.640625
195,48.828125
196,58.593750
197,52.734375
198,54.687500
199,44.921875
200,54.687500
201,52.734375
202,52.734375
203,54.687500
204,52.734375
205,52.734375
206,48.828125
207,52.734375
208,46.875000
209,48.828125
210,52.734375
211,44.921875
212,48.828125
213,44.921875
214,44.921875
215,48.828125
216,42.968750
217,42.968750
218,42.968750
219,39.062500
220,44.921875
221,37.109375
222,39.062500
223,37.109375
224,39.062500
225,37.109375
226,37.109375
227,37.109375
228,33.203125
229,37.109375
230,33.203125
231,33.203125
232,37.109375
233,33.203125
234,37.109375
235,33.203125
236,33.203125
237,33.203125
238,33.203125
239,33.203125
240,33.203125
241,37.109375
242,33.203125
243,33.203125
244,37.109375
245,37.109375
246,37.109375
247,33.203125
248,37.109375
249,29.296875
250,33.203125
251,33.203125
252,33.203125
253,33.203125
254,33.203125
255,37.109375
256,31.250000
257,27.343750
258,33.203125
259,29.296875
260,33.203125
261,31.250000
262,33.203125
263,29.296875
264,33.203125
265,33.203125
266,33.203125
267,33.203125
268,29.296875
269,33.203125
270,31.250000
271,29.296875
272,31.250000
273,31.250000
274,31.250000
275,29.296875
276,33.203125
277,29.296875
278,29.296875
279,27.343750
280,27.343750
281,27.343750
282,27.343750
283,27.343750
284,27.343750
285,25.390625
286,29.296875
287,21.484375
288,25.390625
289,23.437500
290,25.390625
291,23.437500
292,25.390625
293,23.437500
294,21.484375
295,25.390625
296,23.437500
297,25.390625
298,23.437500
299,23.437500
300,23.437500
301,25.390625
302,27.343750
303,23.437500
304,23.437500
305,21.484375
306,23.437500
307,23.437500
308,23.437500
309,25.390625
310,23.437500
311,23.437500
312,23.437500
313,23.437500
314,23.437500
315,23.437500
316,21.484375
317,23.437500
318,17.578125
319,27.343750
320,23.437500
321,21.484375
322,23.437500
323,23.437500
324,23.437500
325,23.437500
326,21.484375
327,25.390625
328,21.484375
329,23.437500
330,23.437500
331,21.484375
332,25.390625
333,23.437500
334,25.390625
335,23.437500
336,23.437500
337,25.390625
338,25.390625
339,23.437500
340,21.484375
341,23.437500
342,23.437500
343,21.484375
344,23.437500
345,21.484375
346,23.437500
347,21.484375
348,21.484375
349,21.484375
350,23.437500
351,21.484375
352,21.484375
353,21.484375
354,17.578125
355,23.437500
356,19.531250
357,21.484375
358,17.578125
359,17.578125
360,21.484375
361,17.578125
362,17.578125
363,17.578125
364,19.531250
365,17.578125
366,15.625000
367,21.484375
368,21.484375
369,21.484375
370,17.578125
371,13.671875
372,17.578125
373,13.671875
374,17.578125
375,13.671875
376,17.578125
377,13.671875
378,13.671875
379,13.671875
380,11.718750
381,13.671875
382,13.671875
383,13.671875
384,13.671875
385,9.765625
386,9.765625
387,7.812500
388,13.671875
389,9.765625
390,7.812500
391,9.765625
392,9.765625
393,11.718750
394,11.718750
395,15.625000
396,13.671875
397,-1.953125
398,17.578125
399,17.578125
400,17.578125
401,13.671875
402,19.531250
403,21.484375
404,23.437500
405,19.531250
406,25.390625
407,27.343750
408,27.343750
409,27.343750
410,15.625000
411,29.296875
412,29.296875
413,31.250000
414,31.250000
415,31.250000
416,33.203125
417,33.203125
418,33.203125
419,33.203125
420,37.109375
421,35.156250
422,33.203125
423,33.203125
424,37.109375
425,41.015625
426,39.062500
427,42.968750
428,42.968750
429,42.968750
430,42.968750
431,42.968750
432,42.968750
433,44.921875
434,48.828125
435,52.734375
436,52.734375
437,54.687500
438,54.687500
439,54.687500
440,52.734375
441,56.640625
442,52.734375
443,46.875000
444,50.781250
445,52.734375
446,52.734375
447,48.828125
448,52.734375
449,46.875000
450,48.828125
451,44.921875
452,42.968750
453,42.968750
454,41.015625
455,41.015625
456,33.203125
457,37.109375
458,31.250000
459,37.109375
460,33.203125
461,33.203125
462,33.203125
463,33.203125
464,29.296875
465,37.109375
466,33.203125
467,35.156250
468,31.250000
469,35.156250
470,31.250000
471,31.250000
472,48.828125
473,29.296875
474,31.250000
475,27.343750
476,27.343750
477,23.437500
478,23.437500
479,21.484375
480,21.484375
481,21.484375
482,19.531250
483,21.484375
484,17.578125
485,15.625000
486,17.578125
487,13.671875
488,17.578125
489,13.671875
490,17.578125
491,13.671875
492,13.671875
493,13.671875
494,11.718750
495,17.578125
496,13.671875
497,21.484375
498,17.578125
499,17.578125
500,15.625000
501,17.578125
502,17.578125
503,17.578125
504,21.484375
505,33.203125
506,25.390625
507,27.343750
508,29.296875
509,31.250000
510,29.296875
511,33.203125
512,29.296875
513,33.203125
514,33.203125
515,33.203125
516,31.250000
517,33.203125
518,27.343750
519,27.343750
520,27.343750
521,25.390625
522,27.343750
523,23.437500
524,23.437500
525,21.484375
526,13.671875
527,17.578125
528,11.718750
529,13.671875
530,9.765625
531,7.812500
532,5.859375
533,1.953125
534,3.906250
535,-1.953125
536,-1.953125
537,-1.953125
538,-1.953125
539,-3.906250
540,-9.765625
541,-5.859375
542,-9.765625
543,-15.625000
544,-9.765625
545,-9.765625
546,-9.765625
547,-9.765625
548,-9.765625
549,-11.718750
550,-9.765625
551,-9.765625
552,-9.765625
553,-9.765625
554,-9.765625
555,-9.765625
556,-13.671875
557,-7.812500
558,-9.765625
559,-9.765625
560,-7.812500
561,-9.765625
562,-7.812500
563,-7.812500
564,-7.812500
565,-7.812500
566,-3.906250
567,-7.812500
568,-3.906250
569,-7.812500
570,-7.812500
571,-3.906250
572,-7.812500
573,-7.812500
574,-7.812500
575,-7.812500
576,-7.812500
577,-7.812500
578,-5.859375
579,-9.765625
580,-9.765625
581,-9.765625
582,-9.765625
583,-5.859375
584,-9.765625
585,-9.765625
586,-9.765625
587,-9.765625
588,-9.765625
589,-13.671875
590,-13.671875
591,-13.671875
592,-5.859375
593,-13.671875
594,-9.765625
595,-13.671875
596,-11.718750
597,-13.671875
598,-15.625000
599,-9.765625
600,-17.578125
601,-9.765625
602,-13.671875
603,-9.765625
604,-15.625000
605,-17.578125
606,-13.671875
607,-13.671875
608,-11.718750
609,-15.625000
610,-13.671875
611,-15.625000
612,-15.625000
613,-13.671875
614,-17.578125
615,-15.625000
616,-17.578125
617,-13.671875
618,-15.625000
619,-17.578125
620,-17.578125
621,-25.390625
622,-15.625000
623,-17.578125
624,-21.484375
625,-17.578125
626,-17.578125
627,-21.484375
628,-23.437500
629,-23.437500
630,-25.390625
631,-23.437500
632,-25.390625
633,-23.437500
634,-25.390625
635,-25.390625
636,-25.390625
637,-29.296875
638,-25.390625
639,-29.296875
640,-29.296875
641,-29.296875
642,-29.296875
643,-29.296875
644,-31.250000
645,-29.296875
646,-33.203125
647,-29.296875
648,-31.250000
649,-29.296875
650,-13.671875
651,-33.203125
652,-31.250000
653,-33.203125
654,-33.203125
655,-33.203125
656,-31.250000
657,-33.203125
658,-33.203125
659,-33.203125
660,-33.203125
661,-33.203125
662,-35.156250
663,-33.203125
664,-33.203125
665,-33.203125
666,-33.203125
667,-33.203125
668,-33.203125
669,-33.203125
670,-33.203125
671,-33.203125
672,-35.156250
673,-33.203125
674,-33.203125
675,-35.156250
676,-35.156250
677,-33.203125
678,-35.156250
679,-29.296875
680,-33.203125
681,-35.156250
682,-33.203125
683,-33.203125
684,-35.156250
685,-33.203125
686,-37.109375
687,-33.203125
688,-37.109375
689,-35.156250
690,-35.156250
691,-35.156250
692,-33.203125
693,-37.109375
694,-37.109375
695,-37.109375
696,-35.156250
697,-41.015625
698,-33.203125
699,-37.109375
700,-35.156250
701,-39.062500
702,-35.156250
703,-37.109375
704,-37.109375
705,-39.062500
706,-41.015625
707,-39.062500
708,-37.109375
709,-37.109375
710,-37.109375
711,-39.062500
712,-23.437500
713,-39.062500
714,-37.109375
715,-35.156250
716,-39.062500
717,-37.109375
718,-39.062500
719,-37.109375
720,-39.062500
721,-39.062500
722,-37.109375
723,-41.015625
724,-37.109375
725,-39.062500
726,-39.062500
727,-37.109375
728,-39.062500
729,-37.109375
730,-39.062500
731,-39.062500
732,-35.156250
733,-41.015625
734,-37.109375
735,-41.015625
736,-39.062500
737,-37.109375
738,-39.062500
739,-39.062500
740,-39.062500
741,-37.109375
742,-41.015625
743,-37.109375
744,-39.062500
745,-41.015625
746,-35.156250
747,-41.015625
748,-39.062500
749,-39.062500
750,-39.062500
751,-39.062500
752,-39.062500
753,-35.156250
754,-37.109375
755,-35.156250
756,-41.015625
757,-39.062500
758,-39.062500
759,-41.015625
760,-37.109375
761,-39.062500
762,-37.109375
763,-37.109375
764,-41.015625
765,-39.062500
766,-41.015625
767,-37.109375
768,-39.062500
769,-41.015625
770,-41.015625
771,-39.062500
772,-39.062500
773,-39.062500
774,-39.062500
775,-41.015625
776,-39.062500
777,-39.062500
778,-37.109375
779,-37.109375
780,-39.062500
781,-35.156250
782,-37.109375
783,-37.109375
784,-37.109375
785,-35.156250
786,-33.203125
787,-33.203125
788,-33.203125
789,-33.203125
790,-33.203125
791,-33.203125
792,-35.156250
793,-31.250000
794,-35.156250
795,-33.203125
796,-33.203125
797,-33.203125
798,-33.203125
799,-41.015625
800,-33.203125
801,-33.203125
802,-31.250000
803,-33.203125
804,-31.250000
805,-33.203125
806,-35.156250
807,-33.203125
808,-35.156250
809,-33.203125
810,-35.156250
811,-35.156250
812,-35.156250
813,-35.156250
814,-35.156250
815,-37.109375
816,-35.156250
817,-39.062500
818,-37.109375
819,-37.109375
820,-33.203125
821,-37.109375
822,-37.109375
823,-37.109375
824,-37.109375
825,-35.156250
826,-37.109375
827,-37.109375
828,-33.203125
829,-37.109375
830,-35.156250
831,-35.156250
832,-35.156250
833,-35.156250
834,-35.156250
835,-33.203125
836,-33.203125
837,-33.203125
838,-33.203125
839,-35.156250
840,-33.203125
841,-31.250000
842,-29.296875
843,-33.203125
844,-33.203125
845,-33.203125
846,-33.203125
847,-31.250000
848,-33.203125
849,-31.250000
850,-31.250000
851,-33.203125
852,-33.203125
853,-35.156250
854,-33.203125
855,-31.250000
856,-35.156250
857,-35.156250
858,-33.203125
859,-35.156250
860,-33.203125
861,-35.156250
862,-33.203125
863,-33.203125
864,-37.109375
865,-33.203125
866,-37.109375
867,-35.156250
868,-37.109375
869,-37.109375
870,-35.156250
871,-41.015625
872,-39.062500
873,-39.062500
874,-39.062500
875,-39.062500
876,-41.015625
877,-37.109375
878,-39.062500
879,-41.015625
880,-42.968750
881,-41.015625
882,-39.062500
883,-41.015625
884,-41.015625
885,-41.015625
886,-41.015625
887,-41.015625
888,-41.015625
889,-41.015625
890,-44.921875
891,-42.968750
892,-42.968750
893,-42.968750
894,-41.015625
895,-41.015625
896,-41.015625
897,-41.015625
898,-41.015625
899,-42.968750
900,-44.921875
901,-41.015625
902,-41.015625
903,-41.015625
904,-44.921875
905,-41.015625
906,-41.015625
907,-39.062500
908,-41.015625
909,-41.015625
910,-41.015625
911,-37.109375
912,-37.109375
913,-41.015625
914,-39.062500
915,-41.015625
916,-41.015625
917,-41.015625
918,-39.062500
919,-37.109375
920,-41.015625
921,-37.109375
922,-39.062500
923,-41.015625
924,-39.062500
925,-39.062500
926,-35.156250
927,-39.062500
928,-39.062500
929,-37.109375
930,-39.062500
931,-37.109375
932,-39.062500
933,-35.156250
934,-39.062500
935,-35.156250
936,-35.156250
937,-37.109375
938,-35.156250
939,-39.062500
940,-33.203125
941,-41.015625
942,-39.062500
943,-41.015625
944,-39.062500
945,-41.015625
946,-41.015625
947,-37.109375
948,-41.015625
949,-37.109375
950,-41.015625
951,-39.062500
952,-41.015625
953,-41.015625
954,-39.062500
955,-41.015625
956,-37.109375
957,-44.921875
958,-41.015625
959,-41.015625
960,-41.015625
961,-41.015625
962,-41.015625
963,-39.062500
964,-41.015625
965,-46.875000
966,-39.062500
967,-41.015625
968,-39.062500
969,-41.015625
970,-41.015625
971,-39.062500
972,-44.921875
973,-25.390625
974,-41.015625
975,-41.015625
976,-41.015625
977,-42.968750
978,-37.109375
979,-42.968750
980,-39.062500
981,-41.015625
982,-41.015625
983,-39.062500
984,-44.921875
985,-41.015625
986,-41.015625
987,-41.015625
988,-41.015625
989,-41.015625
990,-39.062500
991,-44.921875
992,-41.015625
993,-44.921875
994,-41.015625
995,-41.015625
996,-44.921875
997,-41.015625
998,-44.921875
999,-42.968750
1000,-44.921875
1001,-41.015625
1002,-44.921875
1003,-41.015625
1004,-41.015625
1005,-44.921875
1006,-41.015625
1007,-46.875000
1008,-41.015625
1009,-44.921875
1010,-41.015625
1011,-41.015625
1012,-44.921875
1013,-41.015625
1014,-41.015625
1015,-41.015625
1016,-44.921875
1017,-41.015625
1018,-41.015625
1019,-42.968750
1020,-41.015625
1021,-41.015625
1022,-41.015625
1023,-41.015625
1024,-41.015625
1025,-41.015625
1026,-41.015625
1027,-37.109375
1028,-41.015625
1029,-39.062500
1030,-37.109375
1031,-35.156250
1032,-33.203125
1033,-37.109375
1034,-33.203125
1035,-35.156250
1036,-33.203125
1037,-31.250000
1038,-33.203125
1039,-29.296875
1040,-31.250000
1041,-29.296875
1042,-31.250000
1043,-29.296875
1044,-25.390625
1045,-25.390625
1046,-23.437500
1047,-25.390625
1048,-23.437500
1049,-23.437500
1050,-21.484375
1051,-21.484375
1052,-19.531250
1053,-19.531250
1054,-19.531250
1055,-19.531250
1056,-21.484375
1057,-17.578125
1058,-19.531250
1059,-17.578125
1060,-19.531250
1061,-17.578125
1062,-19.531250
1063,-17.578125
1064,-5.859375
1065,-17.578125
1066,-17.578125
1067,-15.625000
1068,-13.671875
1069,-15.625000
1070,-15.625000
1071,-13.671875
1072,-15.625000
1073,-13.671875
1074,-13.671875
1075,-15.625000
1076,-13.671875
1077,-9.765625
1078,-11.718750
1079,-13.671875
1080,-13.671875
1081,-11.718750
1082,-13.671875
1083,-9.765625
1084,-13.671875
1085,-9.765625
1086,-13.671875
1087,-9.765625
1088,-9.765625
1089,-13.671875
1090,-9.765625
1091,-9.765625
1092,-9.765625
1093,-5.859375
1094,-9.765625
1095,-7.812500
1096,-9.765625
1097,-5.859375
1098,-5.859375
1099,-7.812500
1100,-7.812500
1101,-5.859375
1102,-3.906250
1103,-5.859375
1104,-3.906250
1105,-7.812500
1106,-1.953125
1107,-7.812500
1108,-3.906250
1109,-1.953125
1110,-3.906250
1111,-1.953125
1112,-3.906250
1113,0.000000
1114,-7.812500
1115,1.953125
1116,0.000000
1117,0.000000
1118,1.953125
1119,0.000000
1120,3.906250
1121,1.953125
1122,-5.859375
1123,3.906250
1124,1.953125
1125,5.859375
1126,-7.812500
1127,5.859375
1128,1.953125
1129,5.859375
1130,5.859375
1131,7.812500
1132,9.765625
1133,5.859375
1134,9.765625
1135,9.765625
1136,9.765625
1137,13.671875
1138,7.812500
1139,15.625000
1140,11.718750
1141,13.671875
1142,5.859375
1143,13.671875
1144,17.578125
1145,7.812500
1146,7.812500
1147,3.906250
1148,9.765625
1149,7.812500
1150,7.812500
1151,9.765625
1152,5.859375
1153,7.812500
1154,5.859375
1155,7.812500
1156,5.859375
1157,5.859375
1158,1.953125
1159,1.953125
1160,5.859375
1161,1.953125
1162,5.859375
1163,1.953125
1164,5.859375
1165,1.953125
1166,1.953125
1167,1.953125
1168,1.953125
1169,1.953125
1170,1.953125
1171,1.953125
1172,1.953125
1173,0.000000
1174,5.859375
1175,0.000000
1176,1.953125
1177,0.000000
1178,1.953125
1179,1.953125
1180,1.953125
1181,1.953125
1182,-1.953125
1183,1.953125
1184,0.000000
1185,1.953125
1186,1.953125
1187,0.000000
1188,1.953125
1189,-1.953125
1190,0.000000
1191,-1.953125
1192,-1.953125
1193,-1.953125
1194,-3.906250
1195,-1.953125
1196,-7.812500
1197,-3.906250
1198,-7.812500
1199,-3.906250
1200,-7.812500
1201,-7.812500
1202,-5.859375
1203,-9.765625
1204,-7.812500
1205,-9.765625
1206,-7.812500
1207,-3.906250
1208,-9.765625
1209,-9.765625
1210,-11.718750
1211,-9.765625
1212,-13.671875
1213,-9.765625
1214,-9.765625
1215,-13.671875
1216,-13.671875
1217,-9.765625
1218,-15.625000
1219,-13.671875
1220,-13.671875
1221,-13.671875
1222,-15.625000
1223,-13.671875
1224,-13.671875
1225,-15.625000
1226,-9.765625
1227,-15.625000
1228,-9.765625
1229,-13.671875
1230,-13.671875
1231,-13.671875
1232,-15.625000
1233,-13.671875
1234,-15.625000
1235,-11.718750
1236,-13.671875
1237,-15.625000
1238,-15.625000
1239,-13.671875
1240,-13.671875
1241,-15.625000
1242,-13.671875
1243,-15.625000
1244,-17.578125
1245,-13.671875
1246,-19.531250
1247,-13.671875
1248,-15.625000
1249,-15.625000
1250,-13.671875
1251,-15.625000
1252,-13.671875
1253,-17.578125
1254,-13.671875
1255,-15.625000
1256,-13.671875
1257,-13.671875
1258,-15.625000
1259,-13.671875
1260,-17.578125
1261,-13.671875
1262,-13.671875
1263,-9.765625
1264,-13.671875
1265,-13.671875
1266,-13.671875
1267,-15.625000
1268,-13.671875
1269,-15.625000
1270,-15.625000
1271,-15.625000
1272,-15.625000
1273,-13.671875
1274,-17.578125
1275,-13.671875
1276,-15.625000
1277,-17.578125
1278,-17.578125
1279,-17.578125
1280,-17.578125
1281,-17.578125
1282,-17.578125
1283,-15.625000
1284,-19.531250
1285,-17.578125
1286,-19.531250
1287,-17.578125
1288,-19.531250
1289,-17.578125
1290,-19.531250
1291,-17.578125
1292,-17.578125
1293,-19.531250
1294,-17.578125
1295,-21.484375
1296,-15.625000
1297,-21.484375
1298,-19.531250
1299,-17.578125
1300,-19.531250
1301,-17.578125
1302,-21.484375
1303,-19.531250
1304,-15.625000
1305,-19.531250
1306,-21.484375
1307,-21.484375
1308,-17.578125
1309,-21.484375
1310,-19.531250
1311,-19.531250
1312,-21.484375
1313,-17.578125
1314,-19.531250
1315,-19.531250
1316,-17.578125
1317,-19.531250
1318,-19.531250
1319,-17.578125
1320,-19.531250
1321,-17.578125
1322,-17.578125
1323,-17.578125
1324,-17.578125
1325,-21.484375
1326,-17.578125
1327,-15.625000
1328,-17.578125
1329,-13.671875
1330,-13.671875
1331,-17.578125
1332,-19.531250
1333,-9.765625
1334,-17.578125
1335,-19.531250
1336,-17.578125
1337,-17.578125
1338,-17.578125
1339,-17.578125
1340,-17.578125
1341,-17.578125
1342,-19.531250
1343,-19.531250
1344,-21.484375
1345,-21.484375
1346,-19.531250
1347,-21.484375
1348,-21.484375
1349,-23.437500
1350,-25.390625
1351,-23.437500
1352,-25.390625
1353,-23.437500
1354,-27.343750
1355,-25.390625
1356,-29.296875
1357,-25.390625
1358,-33.203125
